{
  "K": 3,
  "dim": 6,
  "Priors": [
    0.342276,
    0.201453,
    0.45627
  ],
  "Mu": [
    35.771317,
    -5.815644,
    -11.40351,
    -2.472245,
    4.368932,
    18.038822,
    0.637852,
    -34.804157,
    37.479394,
    -0.213652,
    12.902262,
    3.144564,
    -33.65808,
    10.973052,
    -2.788361,
    2.666155,
    -0.393888,
    17.861019
  ],
  "Sigma": [
    1.363347,
    -0.256748,
    3.001469,
    -0.859031,
    -0.211207,
    -0.665693,
    -0.256748,
    0.100106,
    -5.492024,
    1.258473,
    0.58107,
    2.066003,
    3.001469,
    -5.492024,
    721.196568,
    -160.790909,
    -79.500045,
    -282.275509,
    0,
    0,
    0,
    0,
    0,
    0,
    0,
    0,
    0,
    0,
    0,
    0,
    0,
    0,
    0,
    0,
    0,
    0,
    22.407449,
    5.410766,
    -4.340995,
    -5.19101,
    -1.751251,
    -0.741737,
    5.410766,
    6.733314,
    21.153642,
    -1.35517,
    4.807416,
    -10.676833,
    -4.340995,
    21.153642,
    136.655077,
    0.410089,
    33.353693,
    -58.857113,
    0,
    0,
    0,
    0,
    0,
    0,
    0,
    0,
    0,
    0,
    0,
    0,
    0,
    0,
    0,
    0,
    0,
    0,
    1.197129,
    -0.352499,
    -2.124744,
    -0.631357,
    0.228338,
    0.210198,
    -0.352499,
    0.253005,
    -10.3141,
    -2.451078,
    0.994779,
    4.088464,
    -2.124744,
    -10.3141,
    922.348486,
    222.441773,
    -89.913409,
    -348.493298,
    0,
    0,
    0,
    0,
    0,
    0,
    0,
    0,
    0,
    0,
    0,
    0,
    0,
    0,
    0,
    0,
    0,
    0
  ],
  "attractor": [
    -0.286,
    1.050,
    0.885,
    0,
    0,
    0
  ],
  "Scaling": 1,
  "InitBelief": 0.5,
  "MaxVelocity": 0.5
}
