0,-0.314447,1.06076,1.0911,0.7,-0.7,0,0
0.00371747,-0.313766,1.05985,1.09203,0.7,-0.7,0,0
0.00743494,-0.312911,1.05896,1.09309,0.7,-0.7,0,0
0.0111524,-0.312082,1.05791,1.09429,0.7,-0.7,0,0
0.0148699,-0.311279,1.0567,1.09565,0.7,-0.7,0,0
0.0185874,-0.310505,1.05532,1.09717,0.7,-0.7,0,0
0.0223048,-0.309757,1.05378,1.09884,0.7,-0.7,0,0
0.0260223,-0.309035,1.05208,1.10065,0.7,-0.7,0,0
0.0297398,-0.308336,1.05024,1.10261,0.7,-0.7,0,0
0.0334572,-0.307659,1.04826,1.10467,0.7,-0.7,0,0
0.0371747,-0.306999,1.04616,1.10684,0.7,-0.7,0,0
0.0408922,-0.306354,1.04396,1.1091,0.7,-0.7,0,0
0.0446097,-0.305721,1.04166,1.11142,0.7,-0.7,0,0
0.0483271,-0.305102,1.03926,1.11381,0.7,-0.7,0,0
0.0520446,-0.304494,1.03676,1.11627,0.7,-0.7,0,0
0.0557621,-0.303902,1.03413,1.11881,0.7,-0.7,0,0
0.0594796,-0.303327,1.03137,1.12145,0.7,-0.7,0,0
0.063197,-0.302772,1.02843,1.1242,0.7,-0.7,0,0
0.0669145,-0.30224,1.02532,1.12709,0.7,-0.7,0,0
0.070632,-0.301733,1.022,1.13013,0.7,-0.7,0,0
0.0743494,-0.301252,1.01847,1.13332,0.7,-0.7,0,0
0.0780669,-0.300793,1.01473,1.13666,0.7,-0.7,0,0
0.0817844,-0.300352,1.01082,1.14014,0.7,-0.7,0,0
0.0855019,-0.299924,1.00676,1.14371,0.7,-0.7,0,0
0.0892193,-0.299499,1.00259,1.14736,0.7,-0.7,0,0
0.0929368,-0.299069,0.99835,1.15105,0.7,-0.7,0,0
0.0966543,-0.298626,0.994086,1.15474,0.7,-0.7,0,0
0.100372,-0.29816,0.989826,1.15839,0.7,-0.7,0,0
0.104089,-0.297667,0.985588,1.16201,0.7,-0.7,0,0
0.107807,-0.297143,0.981372,1.16558,0.7,-0.7,0,0
0.111524,-0.296586,0.977162,1.16911,0.7,-0.7,0,0
0.115242,-0.295998,0.972934,1.17262,0.7,-0.7,0,0
0.118959,-0.295379,0.968655,1.17614,0.7,-0.7,0,0
0.122677,-0.294734,0.964291,1.17969,0.7,-0.7,0,0
0.126394,-0.294064,0.959817,1.18329,0.7,-0.7,0,0
0.130112,-0.293371,0.955218,1.18696,0.7,-0.7,0,0
0.133829,-0.292658,0.950494,1.1907,0.7,-0.7,0,0
0.137546,-0.291924,0.945662,1.1945,0.7,-0.7,0,0
0.141264,-0.291167,0.940756,1.19833,0.7,-0.7,0,0
0.144981,-0.290387,0.93582,1.20215,0.7,-0.7,0,0
0.148699,-0.289577,0.930897,1.20594,0.7,-0.7,0,0
0.152416,-0.288736,0.926033,1.20967,0.7,-0.7,0,0
0.156134,-0.28786,0.921261,1.21329,0.7,-0.7,0,0
0.159851,-0.286944,0.916599,1.21681,0.7,-0.7,0,0
0.163569,-0.285987,0.912049,1.22021,0.7,-0.7,0,0
0.167286,-0.284985,0.907596,1.22351,0.7,-0.7,0,0
0.171004,-0.283936,0.903213,1.22672,0.7,-0.7,0,0
0.174721,-0.28284,0.898865,1.22986,0.7,-0.7,0,0
0.178439,-0.281696,0.894519,1.23297,0.7,-0.7,0,0
0.182156,-0.280504,0.890144,1.23605,0.7,-0.7,0,0
0.185874,-0.279266,0.885722,1.23914,0.7,-0.7,0,0
0.189591,-0.277983,0.881252,1.24222,0.7,-0.7,0,0
0.193309,-0.276658,0.876744,1.24529,0.7,-0.7,0,0
0.197026,-0.275293,0.872226,1.24835,0.7,-0.7,0,0
0.200743,-0.27389,0.867735,1.25137,0.7,-0.7,0,0
0.204461,-0.272452,0.863307,1.25432,0.7,-0.7,0,0
0.208178,-0.27098,0.858979,1.25718,0.7,-0.7,0,0
0.211896,-0.269471,0.854779,1.25994,0.7,-0.7,0,0
0.215613,-0.267925,0.85072,1.26259,0.7,-0.7,0,0
0.219331,-0.266335,0.846803,1.26512,0.7,-0.7,0,0
0.223048,-0.264697,0.843013,1.26754,0.7,-0.7,0,0
0.226766,-0.263005,0.839326,1.26987,0.7,-0.7,0,0
0.230483,-0.261253,0.835711,1.27212,0.7,-0.7,0,0
0.234201,-0.259436,0.832139,1.27432,0.7,-0.7,0,0
0.237918,-0.257553,0.828584,1.27648,0.7,-0.7,0,0
0.241636,-0.255604,0.82503,1.2786,0.7,-0.7,0,0
0.245353,-0.253594,0.821472,1.28071,0.7,-0.7,0,0
0.249071,-0.251531,0.81792,1.28278,0.7,-0.7,0,0
0.252788,-0.249425,0.814392,1.28482,0.7,-0.7,0,0
0.256506,-0.247287,0.810916,1.28682,0.7,-0.7,0,0
0.260223,-0.245128,0.807519,1.28875,0.7,-0.7,0,0
0.263941,-0.242957,0.804226,1.29061,0.7,-0.7,0,0
0.267658,-0.240781,0.801058,1.29239,0.7,-0.7,0,0
0.271375,-0.238601,0.798023,1.29408,0.7,-0.7,0,0
0.275093,-0.236413,0.795119,1.29568,0.7,-0.7,0,0
0.27881,-0.234213,0.792336,1.29719,0.7,-0.7,0,0
0.282528,-0.231991,0.789655,1.29864,0.7,-0.7,0,0
0.286245,-0.229738,0.787053,1.30001,0.7,-0.7,0,0
0.289963,-0.227446,0.784507,1.30134,0.7,-0.7,0,0
0.29368,-0.225109,0.782002,1.30263,0.7,-0.7,0,0
0.297398,-0.222725,0.779524,1.30388,0.7,-0.7,0,0
0.301115,-0.220298,0.777074,1.30511,0.7,-0.7,0,0
0.304833,-0.217834,0.774657,1.30629,0.7,-0.7,0,0
0.30855,-0.215345,0.772289,1.30745,0.7,-0.7,0,0
0.312268,-0.212843,0.769993,1.30855,0.7,-0.7,0,0
0.315985,-0.210342,0.767788,1.30961,0.7,-0.7,0,0
0.319703,-0.20785,0.765694,1.3106,0.7,-0.7,0,0
0.32342,-0.205374,0.763728,1.31153,0.7,-0.7,0,0
0.327138,-0.202917,0.761899,1.31239,0.7,-0.7,0,0
0.330855,-0.200473,0.760209,1.31317,0.7,-0.7,0,0
0.334572,-0.198035,0.758654,1.31388,0.7,-0.7,0,0
0.33829,-0.195592,0.757225,1.31453,0.7,-0.7,0,0
0.342007,-0.193133,0.755908,1.31511,0.7,-0.7,0,0
0.345725,-0.190648,0.754692,1.31563,0.7,-0.7,0,0
0.349442,-0.18813,0.753564,1.3161,0.7,-0.7,0,0
0.35316,-0.185577,0.752516,1.31653,0.7,-0.7,0,0
0.356877,-0.182991,0.751543,1.3169,0.7,-0.7,0,0
0.360595,-0.180381,0.750645,1.31724,0.7,-0.7,0,0
0.364312,-0.177758,0.749825,1.31753,0.7,-0.7,0,0
0.36803,-0.175137,0.749092,1.31777,0.7,-0.7,0,0
0.371747,-0.17253,0.748452,1.31797,0.7,-0.7,0,0
0.375465,-0.169947,0.747916,1.31812,0.7,-0.7,0,0
0.379182,-0.167396,0.74749,1.31822,0.7,-0.7,0,0
0.3829,-0.164878,0.747184,1.31826,0.7,-0.7,0,0
0.386617,-0.162388,0.747001,1.31824,0.7,-0.7,0,0
0.390335,-0.159918,0.746946,1.31815,0.7,-0.7,0,0
0.394052,-0.157459,0.747018,1.318,0.7,-0.7,0,0
0.39777,-0.154997,0.747218,1.31779,0.7,-0.7,0,0
0.401487,-0.152524,0.747541,1.3175,0.7,-0.7,0,0
0.405204,-0.150033,0.747982,1.31716,0.7,-0.7,0,0
0.408922,-0.147522,0.748534,1.31674,0.7,-0.7,0,0
0.412639,-0.144994,0.749189,1.31627,0.7,-0.7,0,0
0.416357,-0.142459,0.749936,1.31575,0.7,-0.7,0,0
0.420074,-0.139927,0.750767,1.31518,0.7,-0.7,0,0
0.423792,-0.137414,0.751676,1.31457,0.7,-0.7,0,0
0.427509,-0.134931,0.752654,1.31393,0.7,-0.7,0,0
0.431227,-0.13249,0.7537,1.31325,0.7,-0.7,0,0
0.434944,-0.130097,0.754813,1.31254,0.7,-0.7,0,0
0.438662,-0.127755,0.756,1.31179,0.7,-0.7,0,0
0.442379,-0.125461,0.757268,1.311,0.7,-0.7,0,0
0.446097,-0.123209,0.758627,1.31016,0.7,-0.7,0,0
0.449814,-0.120988,0.76009,1.30926,0.7,-0.7,0,0
0.453532,-0.11879,0.761664,1.3083,0.7,-0.7,0,0
0.457249,-0.116604,0.763355,1.30726,0.7,-0.7,0,0
0.460967,-0.114426,0.765165,1.30616,0.7,-0.7,0,0
0.464684,-0.112251,0.767088,1.30498,0.7,-0.7,0,0
0.468401,-0.11008,0.769113,1.30374,0.7,-0.7,0,0
0.472119,-0.107919,0.771223,1.30245,0.7,-0.7,0,0
0.475836,-0.105774,0.7734,1.30112,0.7,-0.7,0,0
0.479554,-0.103653,0.775624,1.29976,0.7,-0.7,0,0
0.483271,-0.101564,0.777878,1.29837,0.7,-0.7,0,0
0.486989,-0.0995134,0.780151,1.29698,0.7,-0.7,0,0
0.490706,-0.0975051,0.782439,1.29557,0.7,-0.7,0,0
0.494424,-0.0955391,0.784747,1.29415,0.7,-0.7,0,0
0.498141,-0.0936124,0.787087,1.2927,0.7,-0.7,0,0
0.501859,-0.0917196,0.789474,1.29122,0.7,-0.7,0,0
0.505576,-0.089854,0.791928,1.28969,0.7,-0.7,0,0
0.509294,-0.0880084,0.794465,1.2881,0.7,-0.7,0,0
0.513011,-0.0861771,0.797098,1.28644,0.7,-0.7,0,0
0.516729,-0.0843558,0.799833,1.2847,0.7,-0.7,0,0
0.520446,-0.0825434,0.802666,1.28289,0.7,-0.7,0,0
0.524164,-0.0807414,0.805584,1.28102,0.7,-0.7,0,0
0.527881,-0.0789542,0.808569,1.2791,0.7,-0.7,0,0
0.531599,-0.0771885,0.811595,1.27715,0.7,-0.7,0,0
0.535316,-0.0754506,0.814639,1.27517,0.7,-0.7,0,0
0.539033,-0.0737475,0.81768,1.27319,0.7,-0.7,0,0
0.542751,-0.0720849,0.820702,1.27121,0.7,-0.7,0,0
0.546468,-0.0704667,0.823703,1.26924,0.7,-0.7,0,0
0.550186,-0.0688948,0.826688,1.26727,0.7,-0.7,0,0
0.553903,-0.0673685,0.829672,1.26528,0.7,-0.7,0,0
0.557621,-0.0658859,0.832676,1.26327,0.7,-0.7,0,0
0.561338,-0.0644434,0.835725,1.2612,0.7,-0.7,0,0
0.565056,-0.0630374,0.838839,1.25908,0.7,-0.7,0,0
0.568773,-0.061664,0.842037,1.25688,0.7,-0.7,0,0
0.572491,-0.0603204,0.845324,1.25461,0.7,-0.7,0,0
0.576208,-0.0590045,0.848699,1.25226,0.7,-0.7,0,0
0.579926,-0.0577155,0.852147,1.24984,0.7,-0.7,0,0
0.583643,-0.056454,0.855646,1.24737,0.7,-0.7,0,0
0.587361,-0.0552223,0.85917,1.24488,0.7,-0.7,0,0
0.591078,-0.0540218,0.862691,1.24238,0.7,-0.7,0,0
0.594796,-0.0528553,0.866186,1.23989,0.7,-0.7,0,0
0.598513,-0.0517256,0.869642,1.23741,0.7,-0.7,0,0
0.60223,-0.0506356,0.873056,1.23496,0.7,-0.7,0,0
0.605948,-0.0495875,0.876435,1.23251,0.7,-0.7,0,0
0.609665,-0.0485831,0.879798,1.23007,0.7,-0.7,0,0
0.613383,-0.0476237,0.883169,1.2276,0.7,-0.7,0,0
0.6171,-0.0467097,0.886577,1.22509,0.7,-0.7,0,0
0.620818,-0.0458408,0.890043,1.22253,0.7,-0.7,0,0
0.624535,-0.0450159,0.893587,1.21989,0.7,-0.7,0,0
0.628253,-0.0442328,0.897215,1.21717,0.7,-0.7,0,0
0.63197,-0.0434884,0.900922,1.21439,0.7,-0.7,0,0
0.635688,-0.042779,0.904691,1.21155,0.7,-0.7,0,0
0.639405,-0.0421006,0.908496,1.20868,0.7,-0.7,0,0
0.643123,-0.0414502,0.912308,1.20581,0.7,-0.7,0,0
0.64684,-0.0408238,0.916096,1.20296,0.7,-0.7,0,0
0.650558,-0.0402195,0.919836,1.20016,0.7,-0.7,0,0
0.654275,-0.0396369,0.923513,1.19741,0.7,-0.7,0,0
0.657993,-0.0390773,0.927124,1.19473,0.7,-0.7,0,0
0.66171,-0.0385435,0.930677,1.19211,0.7,-0.7,0,0
0.665428,-0.0380394,0.934194,1.18954,0.7,-0.7,0,0
0.669145,-0.0375695,0.937698,1.18699,0.7,-0.7,0,0
0.672862,-0.0371379,0.941219,1.18445,0.7,-0.7,0,0
0.67658,-0.0367479,0.944779,1.1819,0.7,-0.7,0,0
0.680297,-0.0364007,0.948397,1.17932,0.7,-0.7,0,0
0.684015,-0.0360953,0.952079,1.17672,0.7,-0.7,0,0
0.687732,-0.0358285,0.955817,1.17408,0.7,-0.7,0,0
0.69145,-0.0355945,0.959594,1.17144,0.7,-0.7,0,0
0.695167,-0.0353862,0.963384,1.1688,0.7,-0.7,0,0
0.698885,-0.0351969,0.967155,1.16619,0.7,-0.7,0,0
0.702602,-0.0350193,0.970877,1.16364,0.7,-0.7,0,0
0.70632,-0.0348486,0.974527,1.16116,0.7,-0.7,0,0
0.710037,-0.0346824,0.97809,1.15877,0.7,-0.7,0,0
0.713755,-0.0345217,0.981563,1.15647,0.7,-0.7,0,0
0.717472,-0.03437,0.984954,1.15426,0.7,-0.7,0,0
0.72119,-0.0342332,0.988283,1.15212,0.7,-0.7,0,0
0.724907,-0.034118,0.991575,1.15005,0.7,-0.7,0,0
0.728625,-0.0340312,0.994854,1.14801,0.7,-0.7,0,0
0.732342,-0.0339778,0.998143,1.146,0.7,-0.7,0,0
0.736059,-0.0339602,1.00146,1.14401,0.7,-0.7,0,0
0.739777,-0.0339772,1.00481,1.14202,0.7,-0.7,0,0
0.743494,-0.034024,1.00818,1.14004,0.7,-0.7,0,0
0.747212,-0.0340922,1.01156,1.13808,0.7,-0.7,0,0
0.750929,-0.0341711,1.01493,1.13615,0.7,-0.7,0,0
0.754647,-0.0342497,1.01825,1.13427,0.7,-0.7,0,0
0.758364,-0.0343172,1.02151,1.13245,0.7,-0.7,0,0
0.762082,-0.0343649,1.02468,1.1307,0.7,-0.7,0,0
0.765799,-0.0343879,1.02774,1.12905,0.7,-0.7,0,0
0.769517,-0.034385,1.03071,1.12747,0.7,-0.7,0,0
0.773234,-0.034359,1.03358,1.12598,0.7,-0.7,0,0
0.776952,-0.0343154,1.03637,1.12457,0.7,-0.7,0,0
0.780669,-0.0342618,1.0391,1.12321,0.7,-0.7,0,0
0.784387,-0.0342062,1.04179,1.12191,0.7,-0.7,0,0
0.788104,-0.0341556,1.04446,1.12065,0.7,-0.7,0,0
0.791822,-0.0341152,1.04713,1.11941,0.7,-0.7,0,0
0.795539,-0.034087,1.0498,1.1182,0.7,-0.7,0,0
0.799257,-0.0340701,1.05246,1.11701,0.7,-0.7,0,0
0.802974,-0.0340608,1.0551,1.11585,0.7,-0.7,0,0
0.806691,-0.0340536,1.05771,1.11473,0.7,-0.7,0,0
0.810409,-0.0340429,1.06026,1.11364,0.7,-0.7,0,0
0.814126,-0.0340232,1.06273,1.11261,0.7,-0.7,0,0
0.817844,-0.0339912,1.0651,1.11162,0.7,-0.7,0,0
0.821561,-0.0339464,1.06738,1.1107,0.7,-0.7,0,0
0.825279,-0.0338916,1.06955,1.10984,0.7,-0.7,0,0
0.828996,-0.0338322,1.07162,1.10904,0.7,-0.7,0,0
0.832714,-0.0337757,1.0736,1.10828,0.7,-0.7,0,0
0.836431,-0.0337304,1.07551,1.10757,0.7,-0.7,0,0
0.840149,-0.0337039,1.07736,1.1069,0.7,-0.7,0,0
0.843866,-0.0337021,1.07917,1.10625,0.7,-0.7,0,0
0.847584,-0.033728,1.08094,1.10563,0.7,-0.7,0,0
0.851301,-0.0337808,1.08268,1.10502,0.7,-0.7,0,0
0.855019,-0.0338562,1.08439,1.10444,0.7,-0.7,0,0
0.858736,-0.0339466,1.08607,1.10387,0.7,-0.7,0,0
0.862454,-0.0340429,1.08769,1.10333,0.7,-0.7,0,0
0.866171,-0.0341358,1.08925,1.10281,0.7,-0.7,0,0
0.869888,-0.034217,1.09074,1.10231,0.7,-0.7,0,0
0.873606,-0.0342808,1.09215,1.10185,0.7,-0.7,0,0
0.877323,-0.0343249,1.09347,1.10141,0.7,-0.7,0,0
0.881041,-0.034351,1.0947,1.10101,0.7,-0.7,0,0
0.884758,-0.034364,1.09585,1.10062,0.7,-0.7,0,0
0.888476,-0.0343712,1.09691,1.10027,0.7,-0.7,0,0
0.892193,-0.0343806,1.0979,1.09993,0.7,-0.7,0,0
0.895911,-0.0343999,1.09882,1.0996,0.7,-0.7,0,0
0.899628,-0.0344349,1.09969,1.09929,0.7,-0.7,0,0
0.903346,-0.0344881,1.1005,1.09898,0.7,-0.7,0,0
0.907063,-0.0345585,1.10127,1.09868,0.7,-0.7,0,0
0.910781,-0.0346412,1.10199,1.09839,0.7,-0.7,0,0
0.914498,-0.0347283,1.10267,1.0981,0.7,-0.7,0,0
0.918216,-0.0348103,1.1033,1.09783,0.7,-0.7,0,0
0.921933,-0.0348775,1.10388,1.09757,0.7,-0.7,0,0
0.925651,-0.0349213,1.1044,1.09733,0.7,-0.7,0,0
0.929368,-0.0349358,1.10487,1.0971,0.7,-0.7,0,0
0.933086,-0.0349186,1.10526,1.09689,0.7,-0.7,0,0
0.936803,-0.034871,1.1056,1.0967,0.7,-0.7,0,0
0.94052,-0.0347973,1.10586,1.09653,0.7,-0.7,0,0
0.944238,-0.0347043,1.10606,1.09637,0.7,-0.7,0,0
0.947955,-0.0345999,1.10619,1.09622,0.7,-0.7,0,0
0.951673,-0.0344915,1.10626,1.09609,0.7,-0.7,0,0
0.95539,-0.0343853,1.10627,1.09596,0.7,-0.7,0,0
0.959108,-0.0342847,1.10622,1.09584,0.7,-0.7,0,0
0.962825,-0.0341907,1.10612,1.09573,0.7,-0.7,0,0
0.966543,-0.0341009,1.10597,1.09564,0.7,-0.7,0,0
0.97026,-0.034011,1.10579,1.09555,0.7,-0.7,0,0
0.973978,-0.0339156,1.10556,1.09547,0.7,-0.7,0,0
0.977695,-0.0338093,1.10531,1.09541,0.7,-0.7,0,0
0.981413,-0.0336876,1.10502,1.09537,0.7,-0.7,0,0
0.98513,-0.0335486,1.1047,1.09535,0.7,-0.7,0,0
0.988848,-0.0333928,1.10435,1.09535,0.7,-0.7,0,0
0.992565,-0.0332237,1.10397,1.09538,0.7,-0.7,0,0
0.996283,-0.0330468,1.10355,1.09543,0.7,-0.7,0,0
1,-0.0328691,1.10308,1.0955,0.7,-0.7,0,0
