0,51.6604,1064.036,1089.6312,0.7,-0.7,0,0
0.01,52.5293,1063.249,1092.1714,0.7,-0.7,0,0
0.02,53.2343,1061.787,1094.7842,0.7,-0.7,0,0
0.03,54.0363,1060.274,1097.8592,0.7,-0.7,0,0
0.04,53.8763,1058.268,1099.9025,0.7,-0.7,0,0
0.05,54.2685,1056.4,1101.642,0.7,-0.7,0,0
0.06,54.4353,1054.064,1104.418,0.7,-0.7,0,0
0.07,54.2923,1052.223,1107.196,0.7,-0.7,0,0
0.08,54.365,1050.175,1109.02,0.7,-0.7,0,0
0.09,54.4285,1048.028,1112.543,0.7,-0.7,0,0
0.1,54.6757,1045.889,1114.101,0.7,-0.7,0,0
0.11,54.4366,1043.007,1118.522,0.7,-0.7,0,0
0.12,54.542,1040.901,1119.869,0.7,-0.7,0,0
0.13,54.9872,1038.652,1122.328,0.7,-0.7,0,0
0.14,55.1845,1035.765,1125.702,0.7,-0.7,0,0
0.15,54.0616,1032.279,1128.715,0.7,-0.7,0,0
0.16,53.0703,1029.779,1130.487,0.7,-0.7,0,0
0.17,52.2143,1026.228,1134.202,0.7,-0.7,0,0
0.18,52.0931,1023.52,1136.743,0.7,-0.7,0,0
0.19,51.7678,1019.974,1140.873,0.7,-0.7,0,0
0.2,51.9779,1015.806,1144.463,0.7,-0.7,0,0
0.21,51.2318,1011.673,1147.89,0.7,-0.7,0,0
0.22,50.9249,1008.191,1151.59,0.7,-0.7,0,0
0.23,49.6517,1003.382,1154.611,0.7,-0.7,0,0
0.24,48.9392,999.407,1158.205,0.7,-0.7,0,0
0.25,48.9776,995.021,1161.676,0.7,-0.7,0,0
0.26,47.7447,990.53,1165.483,0.7,-0.7,0,0
0.27,47.2803,985.521,1170.319,0.7,-0.7,0,0
0.28,47.7894,981.018,1173.395,0.7,-0.7,0,0
0.29,46.6715,976.056,1177.579,0.7,-0.7,0,0
0.3,45.8796,970.751,1181.486,0.7,-0.7,0,0
0.31,45.0895,965.618,1185.793,0.7,-0.7,0,0
0.32,44.8934,959.993,1189.772,0.7,-0.7,0,0
0.33,43.8473,955.143,1193.602,0.7,-0.7,0,0
0.34,44.2132,949.025,1198.385,0.7,-0.7,0,0
0.35,44.2915,943.842,1203.225,0.7,-0.7,0,0
0.36,44.3276,937.848,1207.378,0.7,-0.7,0,0
0.37,44.1237,931.605,1212.29,0.7,-0.7,0,0
0.38,43.4918,926.083,1214.862,0.7,-0.7,0,0
0.39,43.4765,920.086,1219.715,0.7,-0.7,0,0
0.4,43.9951,913.918,1225.867,0.7,-0.7,0,0
0.41,44.4301,907.456,1230.112,0.7,-0.7,0,0
0.42,44.4849,901.556,1235.338,0.7,-0.7,0,0
0.43,44.5557,895.21,1239.202,0.7,-0.7,0,0
0.44,44.8035,889.411,1243.992,0.7,-0.7,0,0
0.45,46.1232,883.624,1248.103,0.7,-0.7,0,0
0.46,46.5437,877.811,1252.534,0.7,-0.7,0,0
0.47,46.3419,871.266,1257.203,0.7,-0.7,0,0
0.48,45.9151,864.945,1261.615,0.7,-0.7,0,0
0.49,46.3436,859.247,1266.164,0.7,-0.7,0,0
0.5,47.2256,853.029,1270.231,0.7,-0.7,0,0
0.51,47.1758,847.469,1274.083,0.7,-0.7,0,0
0.52,47.3243,840.964,1278.316,0.7,-0.7,0,0
0.53,46.6353,835.183,1280.569,0.7,-0.7,0,0
0.54,45.591,828.49,1283.794,0.7,-0.7,0,0
0.55,45.6745,822.703,1287.774,0.7,-0.7,0,0
0.56,46.147,816.785,1290.221,0.7,-0.7,0,0
0.57,46.7117,811.57,1292.928,0.7,-0.7,0,0
0.58,46.6935,805.856,1296.512,0.7,-0.7,0,0
0.59,47.5064,800.452,1299.545,0.7,-0.7,0,0
0.6,47.4935,795.417,1301.768,0.7,-0.7,0,0
0.61,48.567,789.814,1305.59,0.7,-0.7,0,0
0.62,48.4461,784.476,1307.051,0.7,-0.7,0,0
0.63,49.3711,780.079,1309.58,0.7,-0.7,0,0
0.64,50.5417,775.06,1312.413,0.7,-0.7,0,0
0.65,51.7383,769.856,1314.662,0.7,-0.7,0,0
0.66,53.4438,765.085,1316.916,0.7,-0.7,0,0
0.67,54.7771,760.13,1318.206,0.7,-0.7,0,0
0.68,56.7554,755.348,1320.453,0.7,-0.7,0,0
0.69,58.4666,750.594,1322.956,0.7,-0.7,0,0
0.7,60.2812,745.912,1325.265,0.7,-0.7,0,0
0.71,62.1533,741.584,1327.63,0.7,-0.7,0,0
0.72,63.2209,738.098,1329.011,0.7,-0.7,0,0
0.73,66.2532,734.564,1331.669,0.7,-0.7,0,0
0.74,68.6286,731.288,1333.116,0.7,-0.7,0,0
0.75,70.9536,727.786,1335.148,0.7,-0.7,0,0
0.76,74.3086,724.85,1336.813,0.7,-0.7,0,0
0.77,76.4212,721.12,1338.633,0.7,-0.7,0,0
0.78,77.7801,718.414,1340.394,0.7,-0.7,0,0
0.79,80.2272,714.934,1341.734,0.7,-0.7,0,0
0.8,82.8539,711.682,1343.779,0.7,-0.7,0,0
0.81,85.5194,708.818,1344.897,0.7,-0.7,0,0
0.82,88.5006,705.799,1345.611,0.7,-0.7,0,0
0.83,91.5499,702.773,1347.799,0.7,-0.7,0,0
0.84,94.9446,699.941,1349.181,0.7,-0.7,0,0
0.85,95.7389,696.277,1349.381,0.7,-0.7,0,0
0.86,98.5121,693.553,1351.464,0.7,-0.7,0,0
0.87,100.56,691.275,1352.504,0.7,-0.7,0,0
0.88,102.988,688.919,1353.967,0.7,-0.7,0,0
0.89,105.917,687.253,1353.698,0.7,-0.7,0,0
0.9,107.682,686.194,1353.766,0.7,-0.7,0,0
0.91,110.561,684.574,1353.99,0.7,-0.7,0,0
0.92,113.172,684.243,1353.445,0.7,-0.7,0,0
0.93,112.633,682.585,1352.797,0.7,-0.7,0,0
0.94,114.16,681.362,1352.679,0.7,-0.7,0,0
0.95,119.041,681.657,1352.271,0.7,-0.7,0,0
0.96,120.419,680.727,1352.052,0.7,-0.7,0,0
0.97,124.113,681.006,1351.781,0.7,-0.7,0,0
0.98,127.92,681.326,1351.462,0.7,-0.7,0,0
0.99,132.465,681.64,1351.207,0.7,-0.7,0,0
1,136.139,681.827,1351.794,0.7,-0.7,0,0
1.01,138.414,681.476,1351.092,0.7,-0.7,0,0
1.02,142.461,681.826,1349.842,0.7,-0.7,0,0
1.03,144.906,682,1348.976,0.7,-0.7,0,0
1.04,147.872,682.907,1347.691,0.7,-0.7,0,0
1.05,150.389,683.525,1345.534,0.7,-0.7,0,0
1.06,153.842,683.626,1345.39,0.7,-0.7,0,0
1.07,157.068,684.919,1343.758,0.7,-0.7,0,0
1.08,159.611,685.718,1342.568,0.7,-0.7,0,0
1.09,162.521,686.994,1342.159,0.7,-0.7,0,0
1.1,165.643,687.595,1340.259,0.7,-0.7,0,0
1.11,169.418,688.728,1339.252,0.7,-0.7,0,0
1.12,171.267,690.11,1338.311,0.7,-0.7,0,0
1.13,174.601,691.438,1337.433,0.7,-0.7,0,0
1.14,178.197,692.803,1335.89,0.7,-0.7,0,0
1.15,181.989,694.958,1334.695,0.7,-0.7,0,0
1.16,183.02,696.088,1332.67,0.7,-0.7,0,0
1.17,186.44,698.245,1330.947,0.7,-0.7,0,0
1.18,189.573,700.106,1329.877,0.7,-0.7,0,0
1.19,192.57,701.961,1328.228,0.7,-0.7,0,0
1.2,195.339,703.963,1326.71,0.7,-0.7,0,0
1.21,196.235,705.66,1325.584,0.7,-0.7,0,0
1.22,199.974,707.541,1324.37,0.7,-0.7,0,0
1.23,203.955,710.053,1323.352,0.7,-0.7,0,0
1.24,205.857,712.055,1321.696,0.7,-0.7,0,0
1.25,209.021,714.515,1320.498,0.7,-0.7,0,0
1.26,213.119,716.623,1319.079,0.7,-0.7,0,0
1.27,216.763,718.798,1317.61,0.7,-0.7,0,0
1.28,218.972,721.62,1316.465,0.7,-0.7,0,0
1.29,219.642,724.049,1314.293,0.7,-0.7,0,0
1.3,222.941,726.764,1313.127,0.7,-0.7,0,0
1.31,226.253,729.503,1311.697,0.7,-0.7,0,0
1.32,228.327,731.974,1310.785,0.7,-0.7,0,0
1.33,230.978,734.572,1308.707,0.7,-0.7,0,0
1.34,233.484,738.077,1307.149,0.7,-0.7,0,0
1.35,236.003,741.189,1304.775,0.7,-0.7,0,0
1.36,237.747,743.888,1303.947,0.7,-0.7,0,0
1.37,240.509,746.728,1301.605,0.7,-0.7,0,0
1.38,242.066,749.686,1300.224,0.7,-0.7,0,0
1.39,244.693,752.883,1299.009,0.7,-0.7,0,0
1.4,246.55,755.963,1296.537,0.7,-0.7,0,0
1.41,247.909,758.952,1294.401,0.7,-0.7,0,0
1.42,249.634,761.871,1293.605,0.7,-0.7,0,0
1.43,251.193,765.408,1290.609,0.7,-0.7,0,0
1.44,251.811,768.186,1289.172,0.7,-0.7,0,0
1.45,253.893,771.29,1286.794,0.7,-0.7,0,0
1.46,255.946,774.451,1285.653,0.7,-0.7,0,0
1.47,258.16,777.446,1283.712,0.7,-0.7,0,0
1.48,259.99,780.621,1282.056,0.7,-0.7,0,0
1.49,260.422,783.602,1279.653,0.7,-0.7,0,0
1.5,262.938,787.2,1276.316,0.7,-0.7,0,0
1.51,264.217,790.787,1274.591,0.7,-0.7,0,0
1.52,266.202,793.875,1273.188,0.7,-0.7,0,0
1.53,268.243,797.56,1270.285,0.7,-0.7,0,0
1.54,269.73,800.605,1268.988,0.7,-0.7,0,0
1.55,271.672,803.988,1266.623,0.7,-0.7,0,0
1.56,274.076,807.775,1263.795,0.7,-0.7,0,0
1.57,275.329,811.67,1261.978,0.7,-0.7,0,0
1.58,276.844,815.012,1259.019,0.7,-0.7,0,0
1.59,277.788,818.843,1256.56,0.7,-0.7,0,0
1.6,279.653,822.09,1253.216,0.7,-0.7,0,0
1.61,280.652,826.218,1250.639,0.7,-0.7,0,0
1.62,282.809,830.518,1247.809,0.7,-0.7,0,0
1.63,283.806,834.025,1244.137,0.7,-0.7,0,0
1.64,284.064,838.136,1240.853,0.7,-0.7,0,0
1.65,284.694,841.884,1238.186,0.7,-0.7,0,0
1.66,285.669,845.801,1234.658,0.7,-0.7,0,0
1.67,285.776,849.741,1231.831,0.7,-0.7,0,0
1.68,285.643,853.188,1228.46,0.7,-0.7,0,0
1.69,287.04,857.229,1225.066,0.7,-0.7,0,0
1.7,287.532,861.015,1221.931,0.7,-0.7,0,0
1.71,288.256,865.044,1217.822,0.7,-0.7,0,0
1.72,289.925,868.67,1215.395,0.7,-0.7,0,0
1.73,290.444,872.754,1211.867,0.7,-0.7,0,0
1.74,288.352,876.337,1209.053,0.7,-0.7,0,0
1.75,289.408,880.748,1204.929,0.7,-0.7,0,0
1.76,290.611,884.147,1202.116,0.7,-0.7,0,0
1.77,290.552,888.128,1199.431,0.7,-0.7,0,0
1.78,290.418,891.882,1196.015,0.7,-0.7,0,0
1.79,291.781,896.588,1193.551,0.7,-0.7,0,0
1.8,291.479,900.093,1190.968,0.7,-0.7,0,0
1.81,293.422,904.435,1188.603,0.7,-0.7,0,0
1.82,293.619,908.206,1184.925,0.7,-0.7,0,0
1.83,293.587,912.384,1182.132,0.7,-0.7,0,0
1.84,294.639,916.484,1178.054,0.7,-0.7,0,0
1.85,296.302,920.76,1177.413,0.7,-0.7,0,0
1.86,296.62,924.387,1173.802,0.7,-0.7,0,0
1.87,297.727,929.028,1171.019,0.7,-0.7,0,0
1.88,298.409,933.529,1169.407,0.7,-0.7,0,0
1.89,298.677,937.571,1166.077,0.7,-0.7,0,0
1.9,298.581,941.976,1162.72,0.7,-0.7,0,0
1.91,298.206,946.504,1158.898,0.7,-0.7,0,0
1.92,297.144,950.852,1159.208,0.7,-0.7,0,0
1.93,297.319,954.383,1154.751,0.7,-0.7,0,0
1.94,295.357,958.719,1153.623,0.7,-0.7,0,0
1.95,294.089,962.981,1151.536,0.7,-0.7,0,0
1.96,294.091,966.789,1145.745,0.7,-0.7,0,0
1.97,293.103,970.929,1145.723,0.7,-0.7,0,0
1.98,291.766,974.763,1143.244,0.7,-0.7,0,0
1.99,290.44,978.828,1140.236,0.7,-0.7,0,0
2,288.806,982.544,1138.011,0.7,-0.7,0,0
2.01,288.176,986.329,1135.985,0.7,-0.7,0,0
2.02,287.985,990.25,1133.358,0.7,-0.7,0,0
2.03,286.236,993.823,1131.161,0.7,-0.7,0,0
2.04,286.293,997.536,1130.842,0.7,-0.7,0,0
2.05,286.504,1001.258,1128.496,0.7,-0.7,0,0
2.06,287.32,1004.701,1126.323,0.7,-0.7,0,0
2.07,286.028,1008.131,1124.146,0.7,-0.7,0,0
2.08,286.231,1011.665,1122.712,0.7,-0.7,0,0
2.09,285.665,1015.389,1121.179,0.7,-0.7,0,0
2.1,285.84,1019.16,1118.752,0.7,-0.7,0,0
2.11,285.809,1022.813,1116.985,0.7,-0.7,0,0
2.12,286.138,1026.455,1115.599,0.7,-0.7,0,0
2.13,286.849,1030.176,1113.309,0.7,-0.7,0,0
2.14,285.973,1033.754,1112.133,0.7,-0.7,0,0
2.15,286.022,1037.098,1113.328,0.7,-0.7,0,0
2.16,286.157,1040.626,1113.019,0.7,-0.7,0,0
2.17,286.25,1044.101,1111.739,0.7,-0.7,0,0
2.18,286.663,1047.311,1111.316,0.7,-0.7,0,0
2.19,286.692,1050.736,1111.377,0.7,-0.7,0,0
2.2,286.469,1054.199,1110.436,0.7,-0.7,0,0
2.21,287.8,1057.379,1109.934,0.7,-0.7,0,0
2.22,288.018,1060.538,1109.007,0.7,-0.7,0,0
2.23,288.749,1063.724,1108.227,0.7,-0.7,0,0
2.24,289.116,1066.593,1107.911,0.7,-0.7,0,0
2.25,288.676,1069.948,1107.793,0.7,-0.7,0,0
2.26,288.46,1072.878,1109.109,0.7,-0.7,0,0
2.27,288.318,1075.686,1106.354,0.7,-0.7,0,0
2.28,288.19,1077.983,1106.739,0.7,-0.7,0,0
2.29,288.378,1080.461,1104.811,0.7,-0.7,0,0
2.3,286.726,1082.618,1105.766,0.7,-0.7,0,0
2.31,286.155,1084.818,1106.352,0.7,-0.7,0,0
2.32,285.863,1087.073,1105.001,0.7,-0.7,0,0
2.33,284.753,1088.626,1104.927,0.7,-0.7,0,0
2.34,283.683,1090.675,1104.926,0.7,-0.7,0,0
2.35,282.642,1092.357,1103.916,0.7,-0.7,0,0
2.36,282.869,1093.849,1102.505,0.7,-0.7,0,0
2.37,281.34,1095.42,1102.883,0.7,-0.7,0,0
2.38,281.108,1096.584,1101.289,0.7,-0.7,0,0
2.39,279.888,1097.903,1100.748,0.7,-0.7,0,0
2.4,279.173,1098.704,1101.051,0.7,-0.7,0,0
2.41,278.004,1099.553,1101.027,0.7,-0.7,0,0
2.42,277.336,1100.566,1100.337,0.7,-0.7,0,0
2.43,277.474,1101.195,1100.492,0.7,-0.7,0,0
2.44,277.332,1101.856,1100.297,0.7,-0.7,0,0
2.45,276.702,1102.924,1100.705,0.7,-0.7,0,0
2.46,276.648,1102.992,1101.183,0.7,-0.7,0,0
2.47,276.676,1103.721,1101.124,0.7,-0.7,0,0
2.48,276.705,1104.185,1101.072,0.7,-0.7,0,0
2.49,276.986,1104.594,1101.295,0.7,-0.7,0,0
2.5,277.088,1105.072,1101.471,0.7,-0.7,0,0
2.51,277.602,1105.189,1101.302,0.7,-0.7,0,0
2.52,278.321,1105.479,1102.277,0.7,-0.7,0,0
2.53,277.789,1105.955,1102.343,0.7,-0.7,0,0
2.54,278.289,1106.139,1101.721,0.7,-0.7,0,0
2.55,278.122,1106.033,1101.753,0.7,-0.7,0,0
2.56,278.649,1105.997,1101.154,0.7,-0.7,0,0
2.57,278.242,1106.29,1100.246,0.7,-0.7,0,0
2.58,277.981,1105.863,1099.8207,0.7,-0.7,0,0
2.59,277.933,1105.318,1099.2538,0.7,-0.7,0,0
2.6,278.312,1105.09,1098.843,0.7,-0.7,0,0
2.61,278.601,1104.598,1099.003,0.7,-0.7,0,0
2.62,278.785,1104.127,1098.6192,0.7,-0.7,0,0
2.63,279.075,1102.847,1098.8406,0.7,-0.7,0,0
2.64,279.297,1101.885,1098.3394,0.7,-0.7,0,0
2.65,279.264,1100.574,1098.9825,0.7,-0.7,0,0
2.66,279.005,1099.398,1098.9102,0.7,-0.7,0,0
2.67,279.411,1098.452,1098.4545,0.7,-0.7,0,0
2.68,279.101,1096.989,1098.1002,0.7,-0.7,0,0
2.69,279.178,1095.432,1098.587,0.7,-0.7,0,0
2.7,278.839,1094.154,1099.4648,0.7,-0.7,0,0
