timestamp,x,y,z,qw,qx,qy,qz
0,656.42,951.475,1282.15,-0.439323,0.728365,0.476268,0.222822
0.0123419,656.42,951.475,1282.15,-0.439323,0.728365,0.476268,0.222822
0.0246838,656.42,951.475,1282.15,-0.439323,0.728365,0.476268,0.222822
0.0370256,655.891,951.696,1283.34,-0.439821,0.727916,0.4764,0.223022
0.0493675,655.891,951.696,1283.34,-0.439821,0.727916,0.4764,0.223022
0.0617094,655.891,951.696,1283.34,-0.439821,0.727916,0.4764,0.223022
0.0740513,654.12,952.403,1287.24,-0.441941,0.726565,0.476416,0.223206
0.0863931,653.474,952.648,1288.72,-0.442848,0.726074,0.476332,0.223181
0.098735,653.005,952.822,1289.89,-0.443553,0.72572,0.476221,0.223167
0.111077,652.445,953.025,1291.18,-0.444343,0.725305,0.476135,0.22313
0.123419,651.905,953.22,1292.47,-0.445136,0.72489,0.47604,0.223103
0.135761,650.734,953.566,1295.09,-0.44667,0.724069,0.475933,0.222931
0.148103,650.113,953.742,1296.37,-0.447408,0.723655,0.475919,0.222824
0.160444,649.552,953.866,1297.46,-0.447976,0.723303,0.475976,0.222705
0.172786,649.017,953.969,1298.66,-0.44859,0.722954,0.475995,0.222564
0.185128,648.01,954.118,1300.46,-0.449488,0.722419,0.476136,0.222187
0.19747,647.36,954.109,1301.41,-0.449862,0.722148,0.476374,0.221798
0.209812,646.594,954.12,1302.55,-0.450325,0.721826,0.47663,0.221357
0.222154,645.893,954.055,1303.52,-0.450617,0.721574,0.476968,0.220855
0.234496,645.206,953.964,1304.55,-0.450951,0.721354,0.477248,0.220287
0.246838,643.79,953.747,1306.65,-0.45168,0.720895,0.477825,0.21904
0.259179,643.149,953.621,1307.83,-0.452105,0.720667,0.478041,0.218444
0.271521,642.473,953.491,1308.79,-0.45246,0.720463,0.478321,0.217766
0.283863,641.799,953.38,1310.08,-0.452972,0.720199,0.478503,0.217174
0.296205,641.081,953.275,1311.33,-0.453487,0.719933,0.478709,0.216528
0.308547,640.402,953.116,1312.55,-0.453931,0.719697,0.47895,0.215847
0.320889,638.785,952.658,1315.02,-0.454662,0.719229,0.479731,0.214126
0.333231,638.234,952.336,1315.77,-0.45465,0.719196,0.480159,0.213304
0.345573,637.629,952.044,1316.84,-0.454827,0.719015,0.480583,0.21258
0.357914,636.986,951.808,1317.9,-0.455055,0.718849,0.480928,0.21187
0.370256,636.986,951.808,1317.9,-0.455055,0.718849,0.480928,0.21187
0.382598,636.986,951.808,1317.9,-0.455055,0.718849,0.480928,0.21187
0.39494,636.986,951.808,1317.9,-0.455055,0.718849,0.480928,0.21187
0.407282,636.986,951.808,1317.9,-0.455055,0.718849,0.480928,0.21187
0.419624,633.558,950.827,1325.49,-0.457414,0.717227,0.482336,0.20907
0.431966,633.038,950.685,1326.82,-0.457807,0.716935,0.482541,0.208738
0.444308,632.18,950.301,1329.51,-0.458459,0.716378,0.482983,0.208196
0.456649,631.852,950.118,1330.86,-0.458813,0.71611,0.483129,0.207999
0.468991,631.553,949.936,1332.35,-0.459263,0.71581,0.483202,0.20787
0.481333,631.367,949.754,1333.84,-0.459717,0.715497,0.483242,0.207852
0.493675,631.189,949.625,1335.54,-0.460285,0.715128,0.483196,0.20797
0.506017,631.261,949.361,1338.41,-0.461112,0.714553,0.483033,0.208492
0.518359,631.361,949.211,1340,-0.461575,0.714221,0.482925,0.208854
0.530701,631.496,949.104,1341.66,-0.462089,0.713859,0.482753,0.209352
0.543043,631.594,949,1343.39,-0.462647,0.713498,0.48255,0.209818
0.555384,631.677,948.904,1345.21,-0.463267,0.713075,0.482354,0.210338
0.567726,631.915,948.705,1348.65,-0.464338,0.712278,0.482026,0.211427
0.580068,632.028,948.608,1350.23,-0.464739,0.711895,0.481951,0.212008
0.59241,632.242,948.477,1351.4,-0.464875,0.71165,0.481946,0.21254
0.604752,632.39,948.381,1352.88,-0.465202,0.711318,0.481856,0.21314
0.617094,632.51,948.259,1354.38,-0.46554,0.710975,0.48179,0.213695
0.629436,632.515,948.09,1357.43,-0.466325,0.71021,0.481698,0.214733
0.641778,632.394,948.046,1358.91,-0.466693,0.709805,0.481718,0.215228
0.654119,632.394,948.046,1358.91,-0.466693,0.709805,0.481718,0.215228
0.666461,632.394,948.046,1358.91,-0.466693,0.709805,0.481718,0.215228
0.678803,632.394,948.046,1358.91,-0.466693,0.709805,0.481718,0.215228
0.691145,631.26,947.959,1365.53,-0.468361,0.70786,0.48207,0.217215
0.703487,630.959,947.928,1366.76,-0.468627,0.707513,0.48219,0.217505
0.715829,630.709,947.865,1367.74,-0.468646,0.707297,0.482364,0.217778
0.728171,630.334,947.826,1368.85,-0.468816,0.707065,0.482465,0.217941
0.740513,629.614,947.635,1371.07,-0.469099,0.706808,0.482532,0.218017
0.752854,628.84,947.353,1373.2,-0.469127,0.706879,0.482473,0.217859
0.765196,628.439,947.201,1374.08,-0.469039,0.707066,0.482389,0.217625
0.777538,628.138,947.003,1374.64,-0.468716,0.707439,0.482294,0.217319
0.78988,627.7,946.8,1375.53,-0.468587,0.707715,0.482175,0.216963
0.802222,626.965,946.266,1376.67,-0.46764,0.708827,0.481886,0.216016
0.814564,626.524,945.968,1377.23,-0.46715,0.709448,0.481728,0.215389
0.826906,626.032,945.591,1377.79,-0.466589,0.710118,0.481637,0.214597
0.839248,625.409,945.237,1378.38,-0.466132,0.710704,0.481602,0.213728
0.851589,624.691,944.877,1379,-0.465662,0.711248,0.481656,0.212822
0.863931,623.929,944.563,1379.46,-0.465138,0.711849,0.481692,0.211874
0.876273,622.461,943.904,1380.74,-0.464337,0.713192,0.481337,0.209913
0.888615,621.777,943.594,1381.48,-0.464009,0.71385,0.481075,0.209
0.900957,620.753,943.224,1382.52,-0.463639,0.714593,0.480822,0.207859
0.913299,619.981,942.912,1383.37,-0.463414,0.715069,0.480719,0.206963
0.925641,618.216,942.34,1385.36,-0.463376,0.715704,0.480584,0.205159
0.937983,617.257,942.173,1386.66,-0.463722,0.715764,0.480473,0.204426
0.950324,617.257,942.173,1386.66,-0.463722,0.715764,0.480473,0.204426
0.962666,617.257,942.173,1386.66,-0.463722,0.715764,0.480473,0.204426
0.975008,617.257,942.173,1386.66,-0.463722,0.715764,0.480473,0.204426
0.98735,613.192,942.063,1392.6,-0.466446,0.715235,0.479573,0.202179
0.999692,612.178,942.126,1394.05,-0.467259,0.714962,0.479365,0.201762
1.01203,610.052,942.202,1397.05,-0.469008,0.714294,0.479069,0.20077
1.02438,608.842,942.27,1398.57,-0.47002,0.713886,0.478938,0.200169
1.03672,607.639,942.309,1400.12,-0.471039,0.713469,0.478818,0.199541
1.04906,606.388,942.369,1401.45,-0.47192,0.713058,0.478836,0.198888
1.0614,604.021,942.489,1403.81,-0.473611,0.712202,0.478977,0.197591
1.07374,602.81,942.519,1405.08,-0.474534,0.711707,0.479079,0.196913
1.08609,601.564,942.57,1406.27,-0.475419,0.711276,0.479146,0.196169
1.09843,600.336,942.616,1407.33,-0.47622,0.710859,0.479272,0.19543
1.11077,597.847,942.675,1409.54,-0.477993,0.710057,0.479379,0.193745
1.12311,596.429,942.713,1410.57,-0.478839,0.709593,0.479599,0.192812
1.13545,595.245,942.749,1411.36,-0.479505,0.709307,0.479697,0.191962
1.14779,594.114,942.789,1411.75,-0.479984,0.709149,0.479842,0.190983
1.16014,592.954,942.818,1412.43,-0.480657,0.70888,0.479932,0.190063
1.17248,591.834,942.838,1412.97,-0.481215,0.708676,0.480043,0.189128
1.18482,589.617,942.928,1413.62,-0.482012,0.708394,0.480378,0.187292
1.19716,588.455,942.97,1413.92,-0.482502,0.70827,0.480489,0.186213
1.2095,587.293,943.001,1414.15,-0.482923,0.708154,0.480654,0.185134
1.22185,586.256,943.008,1414.36,-0.483281,0.708063,0.480811,0.184139
1.23419,585.145,943.039,1414.48,-0.483579,0.708044,0.480944,0.183081
1.24653,584.073,943.086,1414.33,-0.483789,0.708123,0.48106,0.181913
1.25887,584.073,943.086,1414.33,-0.483789,0.708123,0.48106,0.181913
1.27121,584.073,943.086,1414.33,-0.483789,0.708123,0.48106,0.181913
1.28356,578.004,943.208,1414.07,-0.484987,0.708397,0.481746,0.175734
1.2959,576.797,943.232,1413.65,-0.48503,0.708493,0.482026,0.174455
1.30824,576.797,943.232,1413.65,-0.48503,0.708493,0.482026,0.174455
1.32058,574.139,943.294,1413.37,-0.48552,0.708379,0.482601,0.171949
1.33292,571.296,943.305,1413.05,-0.485921,0.708318,0.483239,0.169253
1.34526,569.859,943.312,1412.98,-0.486172,0.708219,0.483582,0.167964
1.35761,568.324,943.273,1413.02,-0.486524,0.708009,0.484,0.16662
1.36995,566.745,943.198,1413.03,-0.486885,0.707747,0.484496,0.16523
1.38229,564.993,943.125,1413.07,-0.487279,0.707409,0.485087,0.163776
1.39463,561.56,942.964,1412.93,-0.487871,0.706786,0.486342,0.160955
1.40697,559.74,942.858,1412.9,-0.488181,0.706432,0.487026,0.159495
1.41932,557.915,942.743,1413,-0.488577,0.706029,0.487678,0.158072
1.43166,554.13,942.434,1413.34,-0.48945,0.705154,0.489022,0.155096
1.444,552.332,942.254,1413.46,-0.489846,0.704756,0.489659,0.153637
1.45634,550.519,942.093,1413.72,-0.490352,0.704316,0.490238,0.152188
1.46868,548.742,941.909,1414.07,-0.490874,0.703869,0.49079,0.150785
1.48103,547.075,941.717,1414.1,-0.491211,0.703558,0.491343,0.149334
1.49337,543.542,941.33,1414.94,-0.492262,0.702722,0.492296,0.146641
1.50571,541.522,941.111,1415.49,-0.492862,0.702305,0.492744,0.145116
1.51805,539.729,940.929,1415.9,-0.493327,0.702041,0.493062,0.143724
1.53039,537.974,940.772,1416.25,-0.49373,0.701803,0.493385,0.142389
1.54273,536.176,940.674,1416.76,-0.494252,0.701571,0.49357,0.141074
1.55508,536.176,940.674,1416.76,-0.494252,0.701571,0.49357,0.141074
1.56742,536.176,940.674,1416.76,-0.494252,0.701571,0.49357,0.141074
1.57976,529.807,940.633,1419.13,-0.496336,0.701777,0.492383,0.136819
1.5921,528.679,940.743,1419.88,-0.496832,0.702059,0.491616,0.136326
1.60444,527.591,940.921,1420.57,-0.497271,0.702502,0.490658,0.135891
1.61679,523.969,941.521,1422.58,-0.498589,0.703738,0.48794,0.134452
1.62913,522.722,941.803,1423.18,-0.498861,0.704239,0.487018,0.134162
1.64147,521.632,942.129,1423.83,-0.49917,0.704917,0.485779,0.133939
1.65381,520.571,942.513,1424.49,-0.499547,0.705598,0.484439,0.133801
1.66615,519.507,942.953,1425.14,-0.499933,0.706178,0.483185,0.133835
1.6785,517.508,943.882,1426.26,-0.500347,0.707841,0.480262,0.134026
1.69084,516.477,944.256,1427.05,-0.500673,0.708591,0.478795,0.134094
1.70318,515.302,944.612,1427.67,-0.500854,0.709258,0.477591,0.13418
1.71552,514.148,945.093,1428.39,-0.501195,0.709891,0.476212,0.134462
1.72786,512.873,945.524,1429.08,-0.501433,0.710541,0.474937,0.134656
1.7402,510.255,946.358,1429.93,-0.501487,0.712004,0.472604,0.134936
1.75255,508.946,946.807,1430.43,-0.501626,0.712657,0.471415,0.13513
1.76489,507.689,947.269,1430.94,-0.501744,0.713363,0.470121,0.135467
1.77723,506.336,947.717,1430.88,-0.501424,0.714202,0.46912,0.135707
1.78957,504.875,948.098,1431.14,-0.501268,0.714844,0.46823,0.135975
1.80191,501.658,948.757,1431.69,-0.501028,0.715969,0.466682,0.136264
1.81426,499.93,949.182,1431.91,-0.500929,0.716483,0.465922,0.136523
1.8266,498.127,949.568,1432.08,-0.500859,0.716919,0.465292,0.136643
1.83894,498.127,949.568,1432.08,-0.500859,0.716919,0.465292,0.136643
1.85128,498.127,949.568,1432.08,-0.500859,0.716919,0.465292,0.136643
1.86362,498.127,949.568,1432.08,-0.500859,0.716919,0.465292,0.136643
1.87597,487.617,951.373,1431.41,-0.499487,0.718366,0.464392,0.137125
1.88831,485.101,951.632,1431.25,-0.499266,0.718406,0.464571,0.137113
1.90065,482.925,951.88,1430.97,-0.498959,0.718461,0.464782,0.137225
1.91299,478.516,952.413,1430.14,-0.4982,0.718552,0.465328,0.137656
1.92533,476.307,952.626,1429.67,-0.497841,0.718594,0.46562,0.137752
1.93767,474.129,952.781,1428.77,-0.497255,0.71865,0.466157,0.137761
1.95002,472.048,952.912,1427.96,-0.496687,0.718688,0.466657,0.137917
1.96236,469.912,953.01,1427.24,-0.49615,0.718713,0.467172,0.137978
1.9747,465.703,953.289,1425.56,-0.494995,0.718768,0.468129,0.138593
1.98704,463.618,953.357,1424.81,-0.49443,0.718881,0.468495,0.138782
1.99938,461.554,953.446,1424.01,-0.493883,0.718911,0.468951,0.139041
2.01173,459.612,953.579,1423.09,-0.493339,0.718919,0.469376,0.139495
2.02407,457.537,953.672,1422.24,-0.492854,0.718852,0.469858,0.139929
2.03641,453.682,953.748,1419.83,-0.491224,0.719151,0.470858,0.14076
2.04875,452.088,953.87,1418.84,-0.490596,0.719374,0.470969,0.141439
2.06109,449.93,954.045,1417.7,-0.48992,0.719618,0.471021,0.142364
2.07344,448.39,954.168,1416.66,-0.489318,0.719809,0.471144,0.14306
2.08578,446.808,954.315,1415.43,-0.488657,0.720004,0.471318,0.143763
2.09812,445.321,954.479,1414.54,-0.488229,0.720149,0.471261,0.144678
2.11046,443.788,954.516,1413.49,-0.487567,0.720358,0.471418,0.145352
2.1228,441.056,954.781,1412.09,-0.486807,0.720882,0.470869,0.147073
2.13514,439.556,954.931,1411.21,-0.486415,0.721022,0.470725,0.14814
2.14749,439.556,954.931,1411.21,-0.486415,0.721022,0.470725,0.14814
2.15983,439.556,954.931,1411.21,-0.486415,0.721022,0.470725,0.14814
2.17217,439.556,954.931,1411.21,-0.486415,0.721022,0.470725,0.14814
2.18451,432.314,955.434,1407.75,-0.485441,0.721233,0.469813,0.153119
2.19685,430.794,955.62,1406.92,-0.485342,0.721215,0.46956,0.154291
2.2092,429.388,955.711,1406.38,-0.485378,0.721062,0.469491,0.155103
2.22154,427.852,955.656,1405.96,-0.485482,0.720807,0.469595,0.15564
2.23388,426.356,955.739,1405.61,-0.485747,0.720449,0.469602,0.15645
2.24622,422.977,955.782,1404.99,-0.4864,0.719615,0.469858,0.157489
2.25856,421.397,955.806,1404.74,-0.486825,0.719137,0.469915,0.158187
2.27091,419.808,955.809,1404.26,-0.487043,0.718717,0.470132,0.158778
2.28325,418.18,955.802,1403.89,-0.487368,0.718318,0.470274,0.159167
2.29559,415.841,955.71,1403.07,-0.487743,0.717801,0.470508,0.159658
2.30793,414.373,955.592,1402.58,-0.488013,0.717484,0.4706,0.159985
2.32027,412.807,955.451,1402.11,-0.488238,0.717191,0.470742,0.160197
2.33261,411.329,955.357,1401.65,-0.488477,0.716903,0.470844,0.160458
2.34496,411.329,955.357,1401.65,-0.488477,0.716903,0.470844,0.160458
2.3573,406.465,954.866,1399.95,-0.489281,0.715976,0.47134,0.160689
2.36964,404.986,954.758,1399.46,-0.489574,0.715671,0.471431,0.160889
2.38198,403.417,954.68,1398.97,-0.489941,0.715368,0.471486,0.160957
2.39432,401.8,954.531,1398.39,-0.490258,0.715053,0.471671,0.160852
2.40667,398.803,954.323,1397.05,-0.490953,0.714418,0.471918,0.16083
2.41901,397.358,954.314,1396.12,-0.491175,0.71421,0.471999,0.160837
2.43135,395.775,954.221,1395.25,-0.491393,0.714042,0.472097,0.16063
2.44369,395.775,954.221,1395.25,-0.491393,0.714042,0.472097,0.16063
2.45603,395.775,954.221,1395.25,-0.491393,0.714042,0.472097,0.16063
2.46838,395.775,954.221,1395.25,-0.491393,0.714042,0.472097,0.16063
2.48072,389.629,954.39,1392.4,-0.49338,0.713191,0.471222,0.160885
2.49306,388.396,954.459,1391.89,-0.49386,0.713066,0.47089,0.160941
2.5054,386.003,954.599,1390.59,-0.494569,0.712956,0.47032,0.160915
2.51774,385.026,954.727,1389.76,-0.494896,0.713011,0.469858,0.16102
2.53008,384.088,954.82,1389.12,-0.495259,0.71302,0.469419,0.161143
2.54243,383.045,954.857,1388.47,-0.495534,0.713084,0.46907,0.16103
2.55477,381.161,955.122,1387.39,-0.496534,0.713191,0.467769,0.161262
2.56711,380.286,955.198,1386.83,-0.496909,0.713299,0.467191,0.161303
2.57945,379.388,955.284,1386.42,-0.497377,0.713381,0.46656,0.161323
2.59179,378.523,955.425,1386.08,-0.497959,0.713414,0.46585,0.161434
2.60414,377.633,955.544,1385.32,-0.498241,0.713597,0.465275,0.161415
2.61648,375.633,955.684,1384.44,-0.499088,0.713813,0.464126,0.161148
2.62882,374.645,955.79,1383.94,-0.499551,0.713893,0.463493,0.161184
2.64116,373.655,955.867,1383.5,-0.500039,0.713987,0.462847,0.161109
2.6535,372.76,955.944,1383.02,-0.50046,0.714133,0.462185,0.161059
2.66585,371.81,956.065,1382.55,-0.500954,0.714224,0.461509,0.161056
2.67819,370.885,956.173,1382.07,-0.501398,0.714384,0.460789,0.161023
2.69053,369.05,956.259,1380.89,-0.50204,0.714773,0.45956,0.160812
2.70287,367.864,956.187,1380.29,-0.502403,0.714953,0.458986,0.160516
2.71521,366.823,956.186,1379.91,-0.502871,0.715089,0.458328,0.160322
2.72755,365.783,956.149,1379.41,-0.503223,0.715233,0.457784,0.160128
2.7399,364.841,956.124,1378.91,-0.503586,0.715393,0.45718,0.160002
2.75224,364.841,956.124,1378.91,-0.503586,0.715393,0.45718,0.160002
2.76458,364.841,956.124,1378.91,-0.503586,0.715393,0.45718,0.160002
2.77692,364.841,956.124,1378.91,-0.503586,0.715393,0.45718,0.160002
2.78926,358.875,955.331,1375.43,-0.50568,0.716232,0.454155,0.158253
2.80161,357.759,955.065,1374.71,-0.505967,0.716306,0.453916,0.157681
2.81395,356.712,954.859,1373.96,-0.506406,0.716373,0.45348,0.157224
2.82629,355.684,954.683,1373.28,-0.506881,0.716378,0.453049,0.15691
2.83863,353.388,954.279,1371.87,-0.507649,0.716343,0.452506,0.156157
2.85097,352.278,954.099,1371.1,-0.508069,0.716339,0.45217,0.155777
2.86332,351.142,953.889,1370.17,-0.508405,0.716348,0.451902,0.15542
2.87566,349.919,953.68,1369.3,-0.508751,0.716336,0.451671,0.155013
2.888,348.718,953.508,1368.4,-0.509065,0.716299,0.451478,0.154714
2.90034,346.281,953.135,1366.38,-0.509655,0.716262,0.451086,0.154087
2.91268,345.105,952.962,1365.56,-0.510079,0.71611,0.450925,0.153862
2.92502,344.026,952.794,1364.34,-0.510321,0.715983,0.450906,0.153704
2.93737,342.812,952.659,1363.54,-0.510911,0.715671,0.450784,0.153554
2.94971,340.323,952.355,1361.85,-0.512154,0.714844,0.450863,0.153035
2.96205,339.105,952.203,1360.98,-0.512759,0.714365,0.450963,0.152946
2.97439,337.891,951.975,1360,-0.513239,0.713866,0.451261,0.152793
2.98673,336.798,951.818,1358.87,-0.513653,0.713458,0.451457,0.152726
2.99908,335.607,951.65,1357.67,-0.514018,0.713122,0.451635,0.152541
3.01142,334.472,951.575,1356.66,-0.514594,0.712579,0.451816,0.152599
3.02376,332.168,951.459,1354.31,-0.515654,0.711267,0.452577,0.152889
3.0361,331.085,951.421,1352.95,-0.516051,0.710696,0.452986,0.152991
3.04844,331.085,951.421,1352.95,-0.516051,0.710696,0.452986,0.152991
3.06079,331.085,951.421,1352.95,-0.516051,0.710696,0.452986,0.152991
3.07313,331.085,951.421,1352.95,-0.516051,0.710696,0.452986,0.152991
3.08547,326.03,951.277,1347.04,-0.517821,0.707774,0.455162,0.154093
3.09781,324.202,951.279,1345.04,-0.518624,0.706452,0.456129,0.154597
3.11015,323.246,951.294,1343.61,-0.518829,0.705787,0.456786,0.155009
3.12249,322.048,951.215,1341.61,-0.518935,0.705021,0.457691,0.155469
3.13484,321.179,951.198,1340.13,-0.519066,0.704417,0.458294,0.155992
3.14718,320.403,951.158,1338.47,-0.519037,0.703862,0.459022,0.156454
3.15952,319.428,951.094,1336.82,-0.519151,0.703157,0.459844,0.156828
3.17186,317.68,950.823,1333.5,-0.51917,0.701831,0.461631,0.157454
3.1842,316.502,950.641,1331.04,-0.519017,0.700994,0.462853,0.158106
3.19655,315.728,950.363,1329.04,-0.518535,0.700546,0.463941,0.158477
3.20889,315.103,950.202,1326.73,-0.517993,0.700046,0.465055,0.159198
3.22123,314.417,950.022,1325.08,-0.517679,0.699534,0.466007,0.159679
3.23357,313.098,949.668,1321.54,-0.516972,0.698417,0.468121,0.160677
3.24591,312.306,949.425,1319.71,-0.516468,0.697899,0.46932,0.161046
3.25826,310.986,948.918,1316.01,-0.515232,0.697011,0.471748,0.161755
3.2706,310.385,948.738,1314.23,-0.514598,0.696611,0.472855,0.162264
3.28294,309.872,948.563,1312.53,-0.513991,0.696234,0.473871,0.162844
3.29528,309.872,948.563,1312.53,-0.513991,0.696234,0.473871,0.162844
3.30762,308.867,948.19,1308.67,-0.512547,0.69553,0.476011,0.164155
3.31996,307.714,947.811,1305.04,-0.511235,0.694774,0.478198,0.165092
3.33231,307.714,947.811,1305.04,-0.511235,0.694774,0.478198,0.165092
3.34465,307.714,947.811,1305.04,-0.511235,0.694774,0.478198,0.165092
3.35699,307.714,947.811,1305.04,-0.511235,0.694774,0.478198,0.165092
3.36933,307.714,947.811,1305.04,-0.511235,0.694774,0.478198,0.165092
3.38167,304.396,947.644,1296.16,-0.509512,0.691632,0.483515,0.168094
3.39402,304.396,947.644,1296.16,-0.509512,0.691632,0.483515,0.168094
3.40636,303.533,947.696,1293.42,-0.508977,0.690664,0.485045,0.169285
3.4187,303.111,947.8,1292.21,-0.508828,0.690129,0.485722,0.169971
3.43104,302.576,947.869,1290.99,-0.508691,0.689599,0.486432,0.170503
3.44338,300.998,948.173,1288.5,-0.50908,0.687806,0.488109,0.171785
3.45573,300.231,948.243,1287.4,-0.50922,0.687062,0.488896,0.172109
3.46807,299.399,948.31,1286.25,-0.509383,0.686303,0.489682,0.17242
3.48041,298.511,948.33,1285.15,-0.509521,0.685512,0.490576,0.172618
3.49275,297.845,948.452,1284.02,-0.509658,0.684791,0.49127,0.1731
3.50509,296.304,948.697,1281.98,-0.510081,0.683298,0.492654,0.173819
3.51743,295.481,948.783,1280.89,-0.510309,0.68252,0.493448,0.173956
3.52978,294.517,948.86,1279.59,-0.510559,0.68163,0.494397,0.174019
3.54212,293.506,948.88,1278.4,-0.510764,0.680839,0.495279,0.174002
3.55446,292.516,948.916,1277.14,-0.510906,0.680083,0.496159,0.174034
3.5668,291.46,948.89,1275.86,-0.510994,0.679323,0.49711,0.174033
3.57914,290.209,949.037,1274.18,-0.511174,0.678315,0.498192,0.174344
3.59149,289.282,949.137,1273.03,-0.511364,0.677565,0.498993,0.174409
3.60383,289.282,949.137,1273.03,-0.511364,0.677565,0.498993,0.174409
3.61617,286.529,949.441,1268.95,-0.511754,0.675254,0.501684,0.17451
3.62851,285.638,949.563,1267.59,-0.511844,0.674513,0.502506,0.174743
3.64085,285.638,949.563,1267.59,-0.511844,0.674513,0.502506,0.174743
3.6532,285.638,949.563,1267.59,-0.511844,0.674513,0.502506,0.174743
3.66554,285.638,949.563,1267.59,-0.511844,0.674513,0.502506,0.174743
3.67788,285.638,949.563,1267.59,-0.511844,0.674513,0.502506,0.174743
3.69022,281.229,950.121,1259.77,-0.512067,0.670861,0.506872,0.175538
3.70256,280.609,950.305,1258.51,-0.512128,0.670332,0.507419,0.175799
3.7149,279.971,950.494,1257.27,-0.512144,0.669883,0.507906,0.176061
3.72725,279.415,950.659,1256,-0.512091,0.669521,0.508356,0.17629
3.73959,278.287,950.862,1253.03,-0.51168,0.668954,0.509453,0.176472
3.75193,277.57,950.889,1251.55,-0.511571,0.668632,0.510011,0.176395
3.76427,276.742,950.873,1249.9,-0.511409,0.66832,0.510657,0.176179
3.77661,275.945,950.915,1248.41,-0.511319,0.667985,0.511196,0.176146
3.78896,275.217,950.973,1246.91,-0.511146,0.667769,0.511655,0.176136
3.8013,274.494,951.018,1245.46,-0.510957,0.667621,0.512062,0.17606
3.81364,273.424,951.106,1242.21,-0.510183,0.667672,0.512798,0.175973
3.82598,272.583,951.184,1239.89,-0.509575,0.667826,0.513247,0.175838
3.83832,271.86,951.292,1238.55,-0.509507,0.667782,0.513415,0.175713
3.85067,271.33,951.396,1237.06,-0.509373,0.667826,0.51351,0.175658
3.86301,270.726,951.521,1235.63,-0.509357,0.667793,0.5136,0.175565
3.87535,270.239,951.586,1234.17,-0.509238,0.667877,0.513647,0.175454
3.88769,269.677,951.634,1232.6,-0.509151,0.667951,0.513677,0.175336
3.90003,269.206,951.651,1231.08,-0.508968,0.668067,0.513758,0.175187
3.91237,268.395,951.949,1227.94,-0.508825,0.668309,0.513448,0.175587
3.92472,267.964,952.139,1226.57,-0.508885,0.668461,0.513169,0.175654
3.93706,267.624,952.275,1225.17,-0.508831,0.668619,0.513015,0.175657
3.9494,267.624,952.275,1225.17,-0.508831,0.668619,0.513015,0.175657
3.96174,267.624,952.275,1225.17,-0.508831,0.668619,0.513015,0.175657
3.97408,267.624,952.275,1225.17,-0.508831,0.668619,0.513015,0.175657
3.98643,264.854,953.419,1219.77,-0.510472,0.668393,0.511706,0.175574
3.99877,263.952,953.716,1218.4,-0.510919,0.668252,0.511418,0.175648
4.01111,263.296,953.898,1217.38,-0.511276,0.668152,0.511212,0.175595
4.02345,262.609,954.171,1216.44,-0.511829,0.667977,0.51088,0.175614
4.03579,261.548,954.533,1215.35,-0.5127,0.66767,0.510458,0.175466
4.04814,260.701,954.774,1214.53,-0.513357,0.667445,0.510162,0.175258
4.06048,259.449,955.337,1212.76,-0.514506,0.667139,0.509385,0.175318
4.07282,258.909,955.542,1211.76,-0.514819,0.667103,0.509126,0.17529
4.08516,258.34,955.777,1210.89,-0.515333,0.666948,0.50881,0.175286
4.0975,257.751,955.975,1210.07,-0.515928,0.66677,0.508489,0.175144
4.10984,256.752,956.273,1208.08,-0.516841,0.666477,0.507997,0.174994
4.12219,256.242,956.312,1206.95,-0.517099,0.666427,0.507852,0.174844
4.13453,255.802,956.323,1205.77,-0.517224,0.666468,0.507724,0.174688
4.14687,255.356,956.231,1204.28,-0.517161,0.666607,0.507707,0.174395
4.15921,254.114,956.146,1200.54,-0.517249,0.666798,0.507643,0.173585
4.17155,253.494,956.288,1198.14,-0.517184,0.666892,0.507648,0.173408
4.1839,253.136,956.367,1196.86,-0.516935,0.666983,0.507808,0.173332
4.19624,252.792,956.37,1195.55,-0.516538,0.667161,0.50802,0.173208
4.20858,252.064,956.384,1192.76,-0.515582,0.66752,0.508647,0.172832
4.22092,252.064,956.384,1192.76,-0.515582,0.66752,0.508647,0.172832
4.23326,252.064,956.384,1192.76,-0.515582,0.66752,0.508647,0.172832
4.24561,252.064,956.384,1192.76,-0.515582,0.66752,0.508647,0.172832
4.25795,252.064,956.384,1192.76,-0.515582,0.66752,0.508647,0.172832
4.27029,250.332,956.837,1186.68,-0.513779,0.66832,0.509679,0.172068
4.28263,250.272,956.965,1185.88,-0.513516,0.668504,0.509688,0.172109
4.29497,250.27,957.081,1185.08,-0.51318,0.668754,0.509676,0.172178
4.30731,250.382,957.175,1184.14,-0.512695,0.669013,0.509784,0.172293
4.31966,250.355,957.258,1183.38,-0.512255,0.669267,0.509887,0.172314
4.332,249.973,957.46,1182.26,-0.511677,0.669512,0.510173,0.17223
4.34434,249.973,957.46,1182.26,-0.511677,0.669512,0.510173,0.17223
4.35668,249.813,957.687,1181.08,-0.510985,0.669737,0.510585,0.172192
4.36902,249.607,957.769,1180.58,-0.51071,0.669761,0.510873,0.172058
4.38137,249.389,957.857,1180.22,-0.510598,0.669729,0.511106,0.171822
4.39371,248.861,958.097,1179.45,-0.510413,0.669511,0.511729,0.171366
4.40605,248.526,958.22,1179.21,-0.51039,0.669318,0.512088,0.17112
4.41839,247.784,958.488,1178.66,-0.510277,0.668894,0.512878,0.170748
4.43073,247.474,958.659,1178.48,-0.510246,0.668675,0.513227,0.170648
4.44308,247.199,958.868,1178.33,-0.510172,0.668446,0.513592,0.170669
4.45542,247.045,959.065,1178.12,-0.510003,0.668254,0.513978,0.170761
4.46776,246.942,959.241,1177.89,-0.509785,0.668097,0.514352,0.170903
4.4801,246.887,959.358,1177.52,-0.509458,0.667993,0.514767,0.171033
4.49244,246.741,959.557,1177.24,-0.509085,0.667748,0.515368,0.171292
4.50479,246.811,959.631,1176.77,-0.508638,0.667666,0.515843,0.171513
4.51713,246.947,959.672,1176.41,-0.508221,0.667621,0.516236,0.171741
4.52947,246.947,959.672,1176.41,-0.508221,0.667621,0.516236,0.171741
4.54181,246.947,959.672,1176.41,-0.508221,0.667621,0.516236,0.171741
4.55415,246.947,959.672,1176.41,-0.508221,0.667621,0.516236,0.171741
4.56649,247.841,959.669,1174.67,-0.50624,0.667459,0.518063,0.172714
4.57884,247.947,959.582,1174.36,-0.505885,0.667399,0.518443,0.172845
4.59118,248.054,959.456,1174.02,-0.505535,0.667383,0.51879,0.172893
4.60352,248.271,959.106,1173.18,-0.504735,0.667342,0.519602,0.172949
4.61586,248.37,958.851,1172.64,-0.504215,0.667367,0.520066,0.172976
4.6282,248.651,958.545,1171.87,-0.503491,0.667502,0.520562,0.17307
4.64055,248.735,958.252,1171.36,-0.502991,0.66754,0.521008,0.173034
4.65289,248.875,957.88,1170.81,-0.502409,0.667571,0.521529,0.173036
4.66523,249.07,957.53,1170.21,-0.501725,0.667664,0.522036,0.173137
