timestamp,x,y,z,qw,qx,qy,qz
0,-331.514,700.533,980.818,0.686761,-0.726336,0.0257613,-0.0114945
0.0151113,-326.791,698.656,994.768,0.694455,-0.718861,0.02624,-0.0168171
0.0302226,-326.328,698.479,996.146,0.695171,-0.718154,0.026305,-0.0173248
0.0453338,-325.381,698.175,998.656,0.696583,-0.716755,0.0264183,-0.0183473
0.0604451,-324.931,698.033,999.883,0.697253,-0.716089,0.0264754,-0.0188311
0.0755564,-323.962,697.639,1002.51,0.698679,-0.714664,0.0266017,-0.0198812
0.0906677,-323.507,697.412,1003.76,0.699341,-0.714,0.0266308,-0.0203959
0.105779,-323.053,697.199,1004.99,0.699986,-0.713351,0.0267101,-0.0209007
0.12089,-322.112,696.746,1007.55,0.701395,-0.71193,0.0268136,-0.0219625
0.136001,-321.702,696.553,1008.81,0.70209,-0.711228,0.0268344,-0.0224382
0.151113,-321.013,696.25,1011.1,0.70333,-0.709974,0.0269127,-0.0232479
0.166224,-320.701,696.063,1012.22,0.703942,-0.709353,0.0269513,-0.0236394
0.181335,-320.388,695.895,1013.24,0.70446,-0.708823,0.0270022,-0.0240018
0.196447,-320.388,695.894,1013.24,0.70446,-0.708824,0.0270022,-0.0240018
0.211558,-320.388,695.894,1013.24,0.70446,-0.708824,0.0270022,-0.0240018
0.226669,-320.388,695.894,1013.24,0.70446,-0.708824,0.0270022,-0.0240018
0.24178,-320.388,695.894,1013.24,0.70446,-0.708824,0.0270022,-0.0240018
0.256892,-320.388,695.894,1013.24,0.70446,-0.708824,0.0270022,-0.0240018
0.272003,-320.388,695.894,1013.24,0.70446,-0.708824,0.0270022,-0.0240018
0.287114,-320.388,695.895,1013.24,0.70446,-0.708824,0.0270022,-0.0240018
0.302226,-320.388,695.895,1013.24,0.70446,-0.708824,0.0270022,-0.0240018
0.317337,-315.279,692.578,1029.86,0.713449,-0.699505,0.0276161,-0.03036
0.332448,-314.438,691.891,1032.86,0.715015,-0.697854,0.0276621,-0.0314544
0.347559,-313.97,691.564,1034.38,0.715824,-0.696996,0.0276951,-0.0320329
0.362671,-313.012,690.957,1037.35,0.717381,-0.695335,0.0277746,-0.0332027
0.377782,-312.59,690.626,1038.96,0.718222,-0.694439,0.0277969,-0.0337481
0.392893,-311.683,689.853,1042.39,0.720071,-0.692459,0.0278365,-0.0349722
0.408004,-311.239,689.486,1044.17,0.720985,-0.691477,0.0278765,-0.0355596
0.423116,-310.786,689.14,1045.93,0.721909,-0.69048,0.0278816,-0.0361768
0.438227,-310.022,688.444,1049.41,0.723748,-0.688495,0.027812,-0.0372851
0.453338,-309.75,688.071,1051.08,0.72461,-0.687567,0.0277135,-0.0377522
0.46845,-309.381,687.374,1054.52,0.726449,-0.685588,0.0273678,-0.0386213
0.483561,-309.206,687.057,1056.48,0.727459,-0.684498,0.0271522,-0.0390962
0.498672,-309.206,687.057,1056.48,0.727459,-0.684498,0.0271522,-0.0390962
0.513783,-309.206,687.057,1056.48,0.727459,-0.684498,0.0271522,-0.0390962
0.528895,-309.206,687.057,1056.48,0.727459,-0.684498,0.0271523,-0.0390962
0.544006,-309.206,687.057,1056.48,0.727459,-0.684498,0.0271523,-0.0390962
0.559117,-309.206,687.057,1056.48,0.727459,-0.684498,0.0271522,-0.0390962
0.574229,-309.206,687.057,1056.48,0.727459,-0.684498,0.0271522,-0.0390962
0.58934,-309.206,687.057,1056.48,0.727459,-0.684498,0.0271523,-0.0390962
0.604451,-309.206,687.057,1056.48,0.727459,-0.684498,0.0271523,-0.0390962
0.619562,-310.938,683.182,1082.84,0.741353,-0.669324,0.0234955,-0.0430027
0.634674,-311.386,682.657,1086.19,0.743155,-0.66732,0.0228915,-0.0433773
0.649785,-311.7,682.366,1087.82,0.743995,-0.666385,0.0226045,-0.0434916
0.664896,-312.588,681.678,1091.17,0.745725,-0.664468,0.0218392,-0.0435937
0.680007,-313.095,681.277,1092.89,0.746672,-0.663413,0.0214021,-0.0436504
0.695119,-314.205,680.591,1096.31,0.748464,-0.66142,0.0204777,-0.0436578
0.71023,-314.879,680.206,1098.12,0.749451,-0.66032,0.0199762,-0.0436186
0.725341,-315.593,679.875,1099.69,0.750286,-0.659394,0.0194996,-0.0434731
0.740453,-317.158,679.125,1102.96,0.751989,-0.657504,0.0184894,-0.0431227
0.755564,-317.883,678.69,1104.61,0.752885,-0.656499,0.017988,-0.043008
0.770675,-319.312,677.822,1108.1,0.754713,-0.654436,0.0169295,-0.0428489
0.785786,-319.956,677.382,1109.69,0.75559,-0.653439,0.0164555,-0.0427833
0.800898,-319.956,677.382,1109.69,0.75559,-0.653439,0.0164555,-0.0427833
0.816009,-319.956,677.383,1109.69,0.75559,-0.653439,0.0164555,-0.0427833
0.83112,-319.956,677.383,1109.69,0.75559,-0.653439,0.0164555,-0.0427833
0.846232,-319.956,677.383,1109.69,0.75559,-0.653439,0.0164555,-0.0427833
0.861343,-319.956,677.383,1109.69,0.75559,-0.653439,0.0164555,-0.0427833
0.876454,-319.956,677.383,1109.69,0.75559,-0.653439,0.0164555,-0.0427833
0.891565,-319.956,677.383,1109.69,0.75559,-0.653439,0.0164555,-0.0427833
0.906677,-319.956,677.382,1109.69,0.75559,-0.653439,0.0164555,-0.0427833
0.921788,-329.012,669.115,1131.48,0.767368,-0.639802,0.0108107,-0.0410309
0.936899,-329.817,668.312,1133.35,0.768481,-0.63849,0.0103983,-0.0407291
0.952011,-331.483,666.92,1136.53,0.770301,-0.636356,0.0096719,-0.0399172
0.967122,-332.311,666.158,1138.13,0.771233,-0.63526,0.00936372,-0.039456
0.982233,-333.93,664.421,1141.47,0.773153,-0.632983,0.00871358,-0.0386203
0.997344,-334.66,663.488,1143.31,0.774164,-0.631771,0.00840873,-0.0382641
1.01246,-335.32,662.552,1144.97,0.775131,-0.630609,0.00814679,-0.0379341
1.02757,-336.752,660.577,1148.35,0.777035,-0.62831,0.0076231,-0.0372161
1.04268,-337.452,659.554,1149.89,0.777898,-0.627269,0.00742235,-0.0367841
1.05779,-338.779,657.471,1152.78,0.779574,-0.625235,0.00699369,-0.0360224
1.0729,-339.299,656.379,1154.4,0.780469,-0.624134,0.00681613,-0.0357658
1.08801,-339.811,655.336,1155.8,0.781303,-0.623104,0.00660972,-0.0355496
1.10312,-340.272,654.303,1157.18,0.782087,-0.622134,0.00647889,-0.0353137
1.11823,-340.272,654.303,1157.18,0.782087,-0.622134,0.00647889,-0.0353137
1.13335,-340.273,654.303,1157.18,0.782087,-0.622134,0.00647891,-0.0353137
1.14846,-340.273,654.303,1157.18,0.782087,-0.622134,0.00647891,-0.0353137
1.16357,-340.272,654.303,1157.18,0.782087,-0.622134,0.00647889,-0.0353137
1.17868,-340.272,654.303,1157.18,0.782087,-0.622134,0.00647889,-0.0353137
1.19379,-340.272,654.303,1157.18,0.782087,-0.622134,0.00647889,-0.0353137
1.2089,-340.272,654.303,1157.18,0.782087,-0.622134,0.00647889,-0.0353137
1.22401,-340.272,654.303,1157.18,0.782087,-0.622134,0.00647889,-0.0353137
1.23912,-350.684,637.84,1173.01,0.79099,-0.61106,0.001939,-0.0305999
1.25424,-351.641,636.606,1173.84,0.791415,-0.610533,0.00150631,-0.0301512
1.26935,-353.584,634.191,1175.17,0.792189,-0.609576,0.000593468,-0.0292032
1.28446,-354.463,632.941,1176.05,0.792692,-0.608939,0.00010186,-0.0288639
1.29957,-356.492,630.398,1177.71,0.793628,-0.607758,-0.000966414,-0.0279909
1.31468,-357.575,629.206,1178.39,0.79399,-0.607308,-0.0014698,-0.0274857
1.32979,-358.758,627.909,1179.21,0.794404,-0.606789,-0.00206236,-0.0269129
1.3449,-361.168,625.167,1180.96,0.795386,-0.605542,-0.00338098,-0.0258519
1.36001,-362.354,623.769,1181.89,0.795897,-0.604888,-0.00404146,-0.0253288
1.37513,-364.785,620.981,1183.58,0.796842,-0.603681,-0.00527423,-0.0241783
1.39024,-365.935,619.626,1184.4,0.797277,-0.603125,-0.00580877,-0.0235936
1.40535,-367.081,618.256,1185.36,0.797765,-0.602496,-0.00635089,-0.0229956
1.42046,-368.219,616.833,1186.28,0.798288,-0.60182,-0.00692751,-0.0223919
1.43557,-368.219,616.833,1186.28,0.798288,-0.60182,-0.00692752,-0.0223919
1.45068,-368.219,616.833,1186.28,0.798288,-0.60182,-0.00692752,-0.0223919
1.46579,-368.221,616.833,1186.28,0.798288,-0.60182,-0.00692751,-0.0223919
1.48091,-368.221,616.833,1186.28,0.798288,-0.60182,-0.00692751,-0.0223919
1.49602,-368.221,616.833,1186.28,0.798288,-0.60182,-0.00692751,-0.0223919
1.51113,-368.221,616.833,1186.28,0.798288,-0.60182,-0.00692751,-0.0223919
1.52624,-381.81,595.865,1199.68,0.805356,-0.592388,-0.0144023,-0.0164736
1.54135,-383.531,592.648,1201.64,0.806371,-0.591,-0.0154021,-0.0156987
1.55646,-384.294,591.095,1202.46,0.806852,-0.590342,-0.0158368,-0.0153487
1.57157,-385.684,588.031,1204.23,0.807745,-0.589117,-0.0165469,-0.0147024
1.58668,-386.389,586.338,1205.14,0.808234,-0.588441,-0.0169361,-0.0144298
1.6018,-387.534,583.456,1206.78,0.809051,-0.587303,-0.0176941,-0.0140746
1.61691,-388.103,581.962,1207.6,0.80947,-0.586717,-0.0180891,-0.0139131
1.63202,-388.753,580.455,1208.22,0.809817,-0.586231,-0.0185138,-0.0136678
1.64713,-390.12,577.245,1209.66,0.810497,-0.585275,-0.0193517,-0.0131308
1.66224,-390.828,575.669,1210.25,0.810816,-0.584824,-0.0198202,-0.0128442
1.67735,-391.583,573.882,1211.11,0.811254,-0.584205,-0.0203327,-0.0125684
1.69246,-393.019,570.877,1212.42,0.811893,-0.583298,-0.0212571,-0.0119386
1.70757,-393.019,570.877,1212.42,0.811893,-0.583298,-0.0212571,-0.0119386
1.72269,-393.02,570.877,1212.42,0.811893,-0.583298,-0.0212571,-0.0119386
1.7378,-393.02,570.877,1212.42,0.811893,-0.583298,-0.0212571,-0.0119386
1.75291,-393.02,570.877,1212.42,0.811893,-0.583298,-0.0212571,-0.0119386
1.76802,-393.02,570.877,1212.42,0.811893,-0.583298,-0.0212571,-0.0119386
1.78313,-393.02,570.877,1212.42,0.811893,-0.583298,-0.0212571,-0.0119386
1.79824,-393.02,570.877,1212.42,0.811893,-0.583298,-0.0212571,-0.0119386
1.81335,-393.02,570.877,1212.42,0.811893,-0.583298,-0.0212571,-0.0119386
1.82846,-402.164,549.179,1220.72,0.816025,-0.577341,-0.0269488,-0.00738622
1.84358,-403.277,545.727,1221.97,0.816626,-0.576459,-0.0277381,-0.00693142
1.85869,-403.713,544.127,1222.58,0.816885,-0.576075,-0.0281035,-0.00679293
1.8738,-404.731,541.047,1223.38,0.817275,-0.575486,-0.0289144,-0.00637893
1.88891,-405.277,539.409,1223.87,0.817494,-0.575158,-0.0292994,-0.00612845
1.90402,-406.532,536.076,1224.8,0.817867,-0.574589,-0.0301676,-0.00549708
1.91913,-407.209,534.413,1225.18,0.818074,-0.574272,-0.0306781,-0.00515802
1.93424,-408.002,532.621,1225.65,0.818248,-0.573997,-0.0312401,-0.00470284
1.94935,-409.383,529.527,1226.03,0.818398,-0.573739,-0.0321492,-0.00386109
1.96447,-409.999,527.934,1226.39,0.818541,-0.573513,-0.0325865,-0.00349862
1.97958,-411.128,524.821,1227.23,0.818869,-0.573001,-0.0333971,-0.00282723
1.99469,-411.633,523.377,1227.52,0.819003,-0.572789,-0.0337844,-0.00249939
2.0098,-411.633,523.377,1227.52,0.819003,-0.572789,-0.0337844,-0.00249939
2.02491,-411.633,523.377,1227.52,0.819003,-0.572789,-0.0337844,-0.00249939
2.04002,-411.633,523.377,1227.52,0.819003,-0.572789,-0.0337844,-0.00249939
2.05513,-411.633,523.377,1227.52,0.819003,-0.572789,-0.0337844,-0.00249939
2.07024,-411.633,523.377,1227.52,0.819003,-0.572789,-0.0337844,-0.00249941
2.08536,-411.633,523.377,1227.52,0.819003,-0.572789,-0.0337844,-0.00249941
2.10047,-411.633,523.377,1227.52,0.819003,-0.572789,-0.0337844,-0.0024994
2.11558,-419.478,504.78,1226.29,0.817207,-0.575002,-0.0391926,0.00308966
2.13069,-420.323,502.534,1225.29,0.816413,-0.576082,-0.0398325,0.00375078
2.1458,-420.764,501.448,1224.69,0.815957,-0.576701,-0.0401515,0.00412633
2.16091,-421.695,499.301,1223.14,0.814792,-0.578299,-0.0407349,0.00496197
2.17602,-422.136,498.261,1222.3,0.814188,-0.579122,-0.0410721,0.00533555
2.19114,-423.131,495.987,1220.63,0.81291,-0.580849,-0.0418649,0.00619995
2.20625,-423.628,494.886,1219.85,0.812315,-0.581649,-0.0422356,0.00662653
2.22136,-424.213,493.799,1218.89,0.811553,-0.582677,-0.0426233,0.00717624
2.23647,-425.412,491.502,1216.91,0.810101,-0.584623,-0.0433964,0.00829271
2.25158,-426.059,490.369,1215.83,0.809272,-0.585731,-0.0437996,0.00891599
2.26669,-427.299,488.11,1213.79,0.807655,-0.587876,-0.0446502,0.0100724
2.2818,-427.926,487.012,1212.63,0.806813,-0.588985,-0.0451129,0.010663
2.29691,-427.926,487.012,1212.63,0.806813,-0.588985,-0.0451129,0.010663
2.31203,-427.926,487.012,1212.63,0.806813,-0.588985,-0.0451129,0.010663
2.32714,-427.926,487.012,1212.63,0.806813,-0.588985,-0.0451129,0.010663
2.34225,-427.926,487.012,1212.63,0.806813,-0.588985,-0.0451129,0.010663
2.35736,-427.927,487.012,1212.63,0.806813,-0.588985,-0.0451129,0.010663
2.37247,-427.927,487.012,1212.63,0.806813,-0.588985,-0.0451129,0.010663
2.38758,-427.927,487.012,1212.63,0.806813,-0.588985,-0.0451129,0.010663
2.40269,-434.686,472.544,1196.97,0.794727,-0.604696,-0.049536,0.0172658
2.4178,-435.5,470.396,1194.48,0.792904,-0.607018,-0.0500649,0.0180457
2.43292,-435.892,469.368,1193.25,0.791951,-0.608224,-0.0503632,0.0184549
2.44803,-436.745,467.263,1190.87,0.790059,-0.6106,-0.0509985,0.0193564
2.46314,-437.174,466.112,1189.59,0.789116,-0.611774,-0.0513347,0.0198068
2.47825,-438.013,464.034,1187.21,0.787224,-0.614133,-0.0518187,0.0208312
2.49336,-438.412,462.967,1186.04,0.786348,-0.615222,-0.0519816,0.0213857
2.50847,-438.791,461.898,1184.99,0.785501,-0.616267,-0.052178,0.0219155
2.52358,-439.501,459.803,1182.92,0.783826,-0.618322,-0.052639,0.0228859
2.53869,-439.87,458.723,1181.87,0.782979,-0.619356,-0.0528948,0.0233397
2.55381,-440.68,456.426,1179.72,0.781239,-0.621473,-0.053274,0.0244537
2.56892,-441.096,455.389,1178.52,0.780392,-0.622498,-0.0534941,0.0249886
2.58403,-441.096,455.389,1178.52,0.780392,-0.622498,-0.0534941,0.0249886
2.59914,-441.096,455.389,1178.52,0.780392,-0.622497,-0.0534941,0.0249887
2.61425,-441.096,455.389,1178.52,0.780392,-0.622497,-0.0534941,0.0249887
2.62936,-441.096,455.389,1178.52,0.780392,-0.622497,-0.0534941,0.0249887
2.64447,-441.096,455.388,1178.52,0.780392,-0.622497,-0.0534941,0.0249887
2.65958,-441.096,455.388,1178.52,0.780392,-0.622497,-0.0534941,0.0249887
2.6747,-441.096,455.389,1178.52,0.780392,-0.622497,-0.0534941,0.0249887
2.68981,-444.441,441.999,1162.57,0.768493,-0.636768,-0.0551509,0.0300448
2.70492,-444.828,440.249,1159.84,0.766534,-0.639082,-0.0553608,0.0305729
2.72003,-445.009,439.38,1158.57,0.765584,-0.640197,-0.0555346,0.0307636
2.73514,-445.241,438.457,1157.1,0.764533,-0.641418,-0.0557657,0.0310225
2.75025,-445.651,436.907,1154.22,0.762516,-0.64377,-0.0559947,0.0315294
2.76536,-445.817,436.146,1152.66,0.761425,-0.645048,-0.0559975,0.0317709
2.78047,-446.194,434.63,1149.56,0.759303,-0.647501,-0.0562078,0.0322701
2.79559,-446.346,433.885,1148.09,0.758244,-0.648723,-0.0563355,0.0324322
2.8107,-446.504,433.085,1146.42,0.757089,-0.650052,-0.0564453,0.032601
2.82581,-446.724,431.631,1143.28,0.754892,-0.652568,-0.0566875,0.0328602
2.84092,-446.775,430.883,1141.79,0.753802,-0.653813,-0.0568042,0.0329267
2.85603,-446.762,430.135,1140.3,0.752759,-0.655013,-0.0568159,0.0329308
2.87114,-446.717,429.421,1138.75,0.751685,-0.656245,-0.0568257,0.0329246
2.88625,-446.717,429.421,1138.75,0.751685,-0.656245,-0.0568257,0.0329246
2.90137,-446.717,429.421,1138.75,0.751685,-0.656245,-0.0568257,0.0329246
2.91648,-446.717,429.421,1138.75,0.751685,-0.656245,-0.0568257,0.0329246
2.93159,-446.717,429.421,1138.75,0.751685,-0.656245,-0.0568257,0.0329246
2.9467,-446.717,429.421,1138.75,0.751685,-0.656245,-0.0568257,0.0329246
2.96181,-446.717,429.421,1138.75,0.751685,-0.656245,-0.0568257,0.0329246
2.97692,-446.717,429.421,1138.75,0.751685,-0.656245,-0.0568257,0.0329246
2.99203,-445.882,419.57,1119.36,0.737508,-0.672118,-0.0575907,0.0319696
3.00714,-445.735,418.837,1117.89,0.736467,-0.673263,-0.0576393,0.0317887
3.02226,-445.467,417.394,1115.28,0.734484,-0.675429,-0.0577989,0.0314425
3.03737,-445.35,416.643,1113.95,0.733503,-0.67649,-0.0579342,0.0312867
3.05248,-445.179,415.851,1112.48,0.732449,-0.677631,-0.0580323,0.0310903
3.06759,-444.708,414.17,1109.41,0.730087,-0.680182,-0.0582181,0.0305898
3.0827,-444.428,413.384,1107.85,0.728949,-0.681408,-0.0582956,0.0303012
3.09781,-444.073,412.624,1106.44,0.727892,-0.682544,-0.0584027,0.0299173
3.11292,-443.268,411.051,1103.61,0.725704,-0.684883,-0.0586987,0.0290416
3.12803,-442.804,410.242,1101.98,0.72451,-0.686158,-0.0587878,0.0285656
3.14315,-441.656,408.627,1098.78,0.722051,-0.688783,-0.0589102,0.0273843
3.15826,-441.114,407.823,1097.16,0.720867,-0.690029,-0.059075,0.0268409
3.17337,-440.544,407.05,1095.66,0.719716,-0.691237,-0.0592534,0.0262563
3.18848,-440.544,407.051,1095.66,0.719716,-0.691237,-0.0592535,0.0262563
3.20359,-440.544,407.051,1095.66,0.719716,-0.691237,-0.0592535,0.0262563
3.2187,-440.544,407.051,1095.66,0.719716,-0.691237,-0.0592535,0.0262563
3.23381,-440.544,407.051,1095.66,0.719716,-0.691237,-0.0592535,0.0262563
3.24892,-440.544,407.051,1095.66,0.719716,-0.691237,-0.0592535,0.0262563
3.26404,-440.544,407.051,1095.66,0.719716,-0.691237,-0.0592535,0.0262563
3.27915,-440.544,407.05,1095.66,0.719716,-0.691237,-0.0592534,0.0262563
3.29426,-440.544,407.05,1095.66,0.719716,-0.691237,-0.0592534,0.0262563
3.30937,-430.615,394.602,1073.27,0.70146,-0.709706,-0.0640318,0.0130676
3.32448,-429.935,393.792,1071.86,0.700256,-0.710876,-0.0644361,0.0120241
3.33959,-429.265,392.972,1070.31,0.698976,-0.712116,-0.0648291,0.0109819
3.3547,-427.887,391.355,1067.49,0.696484,-0.714493,-0.0658095,0.00882421
3.36981,-427.123,390.608,1066.11,0.695267,-0.715641,-0.0663609,0.00766563
3.38493,-426.316,389.871,1064.68,0.69407,-0.716759,-0.066957,0.00641271
3.40004,-424.761,388.351,1061.78,0.6915,-0.719143,-0.0681639,0.00390757
3.41515,-423.972,387.519,1060.01,0.689996,-0.720527,-0.0688482,0.00254887
3.43026,-422.735,386.04,1057.07,0.687334,-0.722933,-0.0702824,0.000151787
3.44537,-422.125,385.351,1055.75,0.686135,-0.723993,-0.0710765,-0.00110692
3.46048,-421.513,384.67,1054.38,0.684921,-0.725057,-0.0719055,-0.0024081
3.47559,-420.186,383.291,1051.56,0.682295,-0.727345,-0.0735909,-0.00520716
3.49071,-420.186,383.291,1051.56,0.682295,-0.727345,-0.0735909,-0.00520714
3.50582,-420.186,383.291,1051.56,0.682295,-0.727345,-0.0735909,-0.00520714
3.52093,-420.186,383.291,1051.56,0.682295,-0.727345,-0.0735909,-0.00520714
3.53604,-420.186,383.291,1051.56,0.682295,-0.727345,-0.0735909,-0.00520715
3.55115,-420.186,383.291,1051.56,0.682295,-0.727345,-0.0735909,-0.00520715
3.56626,-420.186,383.291,1051.56,0.682295,-0.727345,-0.0735909,-0.00520712
3.58137,-420.186,383.291,1051.56,0.682295,-0.727345,-0.0735909,-0.00520712
3.59648,-420.186,383.291,1051.56,0.682295,-0.727345,-0.0735909,-0.00520712
3.6116,-420.186,383.291,1051.56,0.682295,-0.727345,-0.0735909,-0.00520712
3.62671,-410.549,374.613,1027.13,0.660323,-0.745187,-0.0887848,-0.0280695
3.64182,-409.198,373.688,1022.99,0.656802,-0.747863,-0.0912113,-0.0315123
3.65693,-408.446,373.212,1021,0.655025,-0.749173,-0.0925467,-0.0334199
3.67204,-407.795,372.807,1019.22,0.653457,-0.750312,-0.0937637,-0.0351476
3.68715,-406.693,372.045,1015.68,0.650423,-0.752491,-0.0961187,-0.0383268
3.70226,-406.229,371.7,1013.8,0.648812,-0.753651,-0.0972997,-0.0398154
3.71737,-405.458,371.067,1009.8,0.645654,-0.75585,-0.0999649,-0.042767
3.73249,-405.08,370.803,1008.09,0.644253,-0.756794,-0.101236,-0.0441878
3.7476,-404.663,370.572,1006.44,0.642947,-0.757648,-0.102496,-0.0456573
3.76271,-403.641,370.121,1003.39,0.640517,-0.759165,-0.104974,-0.0488493
3.77782,-403.098,369.899,1001.66,0.639113,-0.760046,-0.106341,-0.0505637
3.79293,-402.59,369.703,999.934,0.637817,-0.760854,-0.107589,-0.0521194
3.80804,-402.59,369.703,999.934,0.637817,-0.760854,-0.107589,-0.0521194
3.82315,-402.59,369.704,999.934,0.637817,-0.760854,-0.107589,-0.0521194
3.83826,-402.59,369.704,999.934,0.637817,-0.760854,-0.107589,-0.0521194
3.85338,-402.59,369.704,999.934,0.637817,-0.760854,-0.107589,-0.0521194
3.86849,-402.59,369.703,999.934,0.637817,-0.760854,-0.107589,-0.0521194
3.8836,-402.59,369.703,999.934,0.637817,-0.760854,-0.107589,-0.0521194
3.89871,-402.59,369.703,999.934,0.637817,-0.760854,-0.107589,-0.0521194
3.91382,-402.59,369.703,999.934,0.637817,-0.760854,-0.107589,-0.0521194
3.92893,-397.719,368.083,979.045,0.622216,-0.769162,-0.126501,-0.0723582
3.94404,-397.366,367.996,977.696,0.62122,-0.76956,-0.128041,-0.0739489
3.95915,-396.654,367.782,974.5,0.618916,-0.770556,-0.131268,-0.0771703
3.97427,-396.354,367.646,972.948,0.617782,-0.771023,-0.132938,-0.0787184
3.98938,-396.096,367.48,971.274,0.616676,-0.771474,-0.134596,-0.0801437
4.00449,-395.481,367.14,968.45,0.614646,-0.772162,-0.138017,-0.0832285
4.0196,-395.211,367.031,967.146,0.613775,-0.77238,-0.139729,-0.0847696
4.03471,-394.814,366.853,964.44,0.611969,-0.772852,-0.14316,-0.087741
4.04982,-394.741,366.738,962.942,0.610898,-0.773205,-0.144974,-0.0891039
4.06493,-394.796,366.617,961.442,0.60995,-0.773438,-0.146914,-0.0903945
4.08004,-394.99,366.331,958.564,0.608134,-0.773753,-0.151052,-0.0930732
4.09516,-395.066,366.256,957.322,0.607357,-0.773815,-0.153006,-0.0944299
4.11027,-395.316,366.148,954.602,0.605701,-0.773992,-0.156996,-0.0970316
4.12538,-395.316,366.148,954.602,0.605701,-0.773992,-0.156996,-0.0970316
4.14049,-395.317,366.148,954.602,0.605701,-0.773992,-0.156996,-0.0970316
4.1556,-395.317,366.148,954.602,0.605701,-0.773992,-0.156996,-0.0970316
4.17071,-395.317,366.148,954.602,0.605701,-0.773992,-0.156996,-0.0970316
4.18582,-395.317,366.148,954.602,0.605701,-0.773992,-0.156996,-0.0970316
4.20094,-395.316,366.148,954.602,0.605701,-0.773992,-0.156996,-0.0970316
4.21605,-395.316,366.148,954.602,0.605701,-0.773992,-0.156996,-0.0970316
4.23116,-397.791,364.592,937.421,0.594721,-0.773857,-0.18563,-0.113989
4.24627,-397.898,364.261,934.153,0.592293,-0.774055,-0.190566,-0.117103
4.26138,-397.927,364.04,932.631,0.591057,-0.774115,-0.193132,-0.118734
4.27649,-397.939,363.52,929.538,0.588615,-0.77415,-0.198307,-0.122065
4.2916,-397.854,363.309,928.012,0.587382,-0.774109,-0.200965,-0.123901
4.30671,-397.774,363.107,926.368,0.585953,-0.774254,-0.203492,-0.125619
4.32183,-397.736,362.653,922.837,0.582975,-0.774547,-0.20875,-0.129
4.33694,-397.679,362.364,921.173,0.58149,-0.774645,-0.211389,-0.130802
4.35205,-397.63,362.067,919.654,0.580115,-0.774668,-0.213939,-0.132616
4.36716,-397.59,361.531,916.061,0.577057,-0.77482,-0.219217,-0.136393
4.38227,-397.612,361.34,914.539,0.575641,-0.774859,-0.221693,-0.138146
4.39738,-397.657,360.769,910.963,0.572423,-0.77519,-0.226636,-0.141592
4.41249,-397.657,360.769,910.963,0.572423,-0.77519,-0.226636,-0.141592
4.4276,-397.658,360.769,910.963,0.572423,-0.77519,-0.226636,-0.141592
4.44272,-397.658,360.769,910.963,0.572423,-0.77519,-0.226636,-0.141592
4.45783,-397.658,360.769,910.963,0.572423,-0.77519,-0.226636,-0.141592
4.47294,-397.657,360.769,910.963,0.572423,-0.77519,-0.226636,-0.141592
4.48805,-397.657,360.769,910.963,0.572423,-0.77519,-0.226636,-0.141592
4.50316,-397.657,360.768,910.963,0.572423,-0.77519,-0.226636,-0.141592
4.51827,-397.657,360.769,910.963,0.572423,-0.77519,-0.226636,-0.141591
4.53338,-396.404,355.807,885.73,0.548811,-0.777784,-0.257902,-0.165364
4.54849,-396.197,355.44,883.994,0.54731,-0.778097,-0.259406,-0.16651
4.56361,-395.986,355.068,882.409,0.545898,-0.778359,-0.260894,-0.167595
4.57872,-395.282,354.344,879.813,0.543344,-0.778758,-0.263576,-0.169827
4.59383,-394.854,354.009,878.561,0.542188,-0.778973,-0.264648,-0.170866
4.60894,-394.387,353.721,877.482,0.54112,-0.779197,-0.26555,-0.171825
4.62405,-393.605,353.131,875.181,0.53915,-0.779609,-0.267316,-0.173405
4.63916,-393.189,352.841,874.191,0.538273,-0.779771,-0.268107,-0.174179
4.65427,-392.253,352.27,872.601,0.536719,-0.780044,-0.269457,-0.175662
4.66938,-391.701,352.044,871.942,0.536092,-0.780083,-0.270021,-0.176533
4.6845,-391.31,351.854,871.371,0.535524,-0.78017,-0.270502,-0.177137
4.69961,-390.639,351.608,870.704,0.534803,-0.7801,-0.27139,-0.178259
4.71472,-390.31,351.519,870.495,0.534547,-0.78002,-0.271762,-0.178815
4.72983,-390.31,351.519,870.495,0.534547,-0.78002,-0.271762,-0.178815
4.74494,-390.31,351.519,870.495,0.534547,-0.78002,-0.271762,-0.178815
4.76005,-390.311,351.519,870.495,0.534547,-0.78002,-0.271762,-0.178815
4.77516,-390.311,351.519,870.495,0.534547,-0.78002,-0.271762,-0.178815
4.79027,-390.311,351.519,870.495,0.534547,-0.78002,-0.271762,-0.178815
4.80539,-390.311,351.519,870.495,0.534547,-0.78002,-0.271762,-0.178815
4.8205,-390.311,351.519,870.495,0.534547,-0.78002,-0.271762,-0.178815
4.83561,-384.913,349.761,866.77,0.528938,-0.780043,-0.277266,-0.186766
4.85072,-383.76,349.237,865.009,0.526611,-0.780307,-0.279494,-0.188906
4.86583,-383.292,348.934,864.102,0.525394,-0.780469,-0.280693,-0.189846
4.88094,-382.378,348.134,861.681,0.522386,-0.780643,-0.284149,-0.192274
4.89605,-381.969,347.767,860.65,0.52088,-0.780702,-0.285895,-0.193528
4.91116,-381.298,347.084,858.51,0.517829,-0.780496,-0.290041,-0.196354
4.92628,-381.04,346.782,857.577,0.516319,-0.780291,-0.292273,-0.197832
4.94139,-380.824,346.461,856.616,0.514715,-0.780091,-0.294604,-0.199339
4.9565,-380.599,345.799,854.368,0.511392,-0.779611,-0.299605,-0.202292
4.97161,-380.592,345.482,853.32,0.509843,-0.779315,-0.302088,-0.203647
4.98672,-380.583,345.194,852.356,0.508333,-0.778998,-0.304535,-0.204985
5.00183,-380.688,344.658,850.25,0.505385,-0.778261,-0.309525,-0.207585
5.01694,-380.688,344.658,850.25,0.505385,-0.778261,-0.309525,-0.207585
5.03206,-380.688,344.659,850.25,0.505385,-0.778261,-0.309525,-0.207585
5.04717,-380.688,344.659,850.25,0.505385,-0.778261,-0.309525,-0.207585
5.06228,-380.688,344.658,850.25,0.505385,-0.778261,-0.309525,-0.207585
5.07739,-380.688,344.658,850.25,0.505385,-0.778261,-0.309525,-0.207585
5.0925,-380.688,344.659,850.25,0.505385,-0.77826,-0.309525,-0.207585
5.10761,-380.688,344.659,850.25,0.505385,-0.77826,-0.309525,-0.207585
5.12272,-381.585,341.638,839.837,0.48961,-0.771247,-0.340361,-0.222745
5.13783,-381.63,341.119,838.072,0.487385,-0.770202,-0.344661,-0.224618
5.15295,-381.6,340.86,837.31,0.486295,-0.769728,-0.346671,-0.225512
5.16806,-381.487,340.324,835.576,0.484061,-0.768794,-0.350674,-0.227308
5.18317,-381.403,340.049,834.772,0.482917,-0.768369,-0.352603,-0.228189
5.19828,-381.281,339.786,833.968,0.481758,-0.767914,-0.354567,-0.229126
5.21339,-380.995,339.109,831.646,0.478928,-0.767241,-0.358642,-0.230968
5.2285,-380.945,338.792,830.465,0.477568,-0.76695,-0.360593,-0.23171
5.24361,-380.897,338.111,827.693,0.474771,-0.766574,-0.364234,-0.233003
5.25872,-380.871,337.833,826.416,0.473451,-0.766306,-0.366032,-0.233752
5.27384,-380.802,337.616,825.328,0.472178,-0.766008,-0.367728,-0.234638
5.28895,-380.742,337.514,823.43,0.470011,-0.765153,-0.371082,-0.236494
5.30406,-380.742,337.514,823.43,0.470011,-0.765153,-0.371082,-0.236494
5.31917,-380.742,337.515,823.43,0.470011,-0.765153,-0.371082,-0.236494
5.33428,-380.742,337.515,823.43,0.470011,-0.765153,-0.371082,-0.236494
5.34939,-380.742,337.514,823.43,0.470011,-0.765153,-0.371082,-0.236494
5.3645,-380.742,337.514,823.43,0.470011,-0.765153,-0.371082,-0.236494
5.37961,-380.742,337.514,823.43,0.470011,-0.765153,-0.371082,-0.236494
5.39473,-380.742,337.515,823.43,0.470011,-0.765153,-0.371082,-0.236494
5.40984,-382.691,340.055,808.481,0.456747,-0.759356,-0.391739,-0.247591
5.42495,-382.747,341.087,806.268,0.455013,-0.758392,-0.394254,-0.249736
5.44006,-382.805,341.678,805.299,0.454262,-0.7579,-0.395425,-0.250744
5.45517,-382.896,342.834,803.277,0.452644,-0.756903,-0.39783,-0.252869
5.47028,-382.938,343.344,802.101,0.451726,-0.756484,-0.399021,-0.253884
5.48539,-383.103,344.557,799.56,0.449777,-0.75564,-0.401503,-0.255937
5.5005,-383.155,345.219,798.423,0.448841,-0.755166,-0.402747,-0.257023
5.51562,-383.237,345.877,797.295,0.447902,-0.754679,-0.404036,-0.258067
5.53073,-383.327,346.963,794.424,0.445687,-0.753759,-0.406838,-0.260181
5.54584,-383.314,347.515,793.06,0.444499,-0.753324,-0.408229,-0.261289
5.56095,-383.336,347.965,791.53,0.443185,-0.752967,-0.409667,-0.262298
5.57606,-383.4,348.666,787.967,0.440341,-0.752252,-0.412839,-0.264163
5.59117,-383.4,348.666,787.967,0.440341,-0.752252,-0.412839,-0.264163
5.60628,-383.4,348.666,787.967,0.440341,-0.752252,-0.412839,-0.264163
5.6214,-383.4,348.666,787.967,0.440341,-0.752252,-0.412839,-0.264163
5.63651,-383.4,348.666,787.967,0.440341,-0.752252,-0.412839,-0.264163
5.65162,-383.4,348.666,787.967,0.440341,-0.752252,-0.412839,-0.264163
5.66673,-383.4,348.666,787.967,0.440341,-0.752252,-0.412839,-0.264163
5.68184,-383.4,348.666,787.967,0.440341,-0.752252,-0.412839,-0.264163
5.69695,-383.4,348.666,787.967,0.440341,-0.752252,-0.412839,-0.264163
5.71206,-382.434,351.006,764.807,0.419076,-0.74525,-0.43719,-0.279005
5.72717,-382.189,351.07,762.395,0.416455,-0.743601,-0.440691,-0.281805
5.74229,-382.168,351.043,761.327,0.415266,-0.742718,-0.442485,-0.283074
5.7574,-382.279,350.868,758.819,0.412637,-0.741024,-0.446286,-0.285382
5.77251,-382.387,350.785,757.788,0.411642,-0.740185,-0.447921,-0.286433
5.78762,-382.468,350.642,756.868,0.410537,-0.73922,-0.449736,-0.287666
5.80273,-382.528,350.37,755.094,0.408458,-0.73711,-0.453287,-0.290451
5.81784,-382.526,350.327,754.536,0.407597,-0.735961,-0.454954,-0.291965
5.83295,-382.602,350.142,753.655,0.4065,-0.734774,-0.456869,-0.29349
5.84806,-382.832,349.72,752.135,0.404643,-0.732634,-0.460335,-0.295979
5.86318,-382.867,349.536,751.718,0.403865,-0.73147,-0.461935,-0.297423
5.87829,-382.858,349.386,751.307,0.403179,-0.730257,-0.463446,-0.298981
5.8934,-382.864,349.274,751.009,0.402532,-0.728997,-0.464956,-0.300578
5.90851,-382.865,349.274,751.009,0.402532,-0.728997,-0.464956,-0.300578
5.92362,-382.865,349.274,751.009,0.402532,-0.728997,-0.464956,-0.300578
5.93873,-382.865,349.274,751.009,0.402532,-0.728997,-0.464956,-0.300578
5.95384,-382.865,349.273,751.009,0.402532,-0.728997,-0.464956,-0.300578
5.96895,-382.865,349.273,751.009,0.402532,-0.728997,-0.464956,-0.300578
5.98407,-382.865,349.273,751.009,0.402532,-0.728997,-0.464956,-0.300578
5.99918,-382.865,349.273,751.009,0.402532,-0.728997,-0.464956,-0.300578
6.01429,-383.426,349.616,749.961,0.397781,-0.711021,-0.482728,-0.321239
6.0294,-383.721,349.576,749.654,0.397227,-0.708656,-0.485111,-0.32355
6.04451,-383.781,349.551,749.579,0.396911,-0.707399,-0.486276,-0.324937
6.05962,-383.93,349.477,749.166,0.396272,-0.705196,-0.488471,-0.327206
6.07473,-384.008,349.475,749.125,0.396003,-0.704065,-0.489576,-0.328314
6.08984,-384.128,349.449,748.949,0.395682,-0.702997,-0.490692,-0.329321
6.10496,-384.394,349.441,748.505,0.394879,-0.700906,-0.493014,-0.331269
6.12007,-384.505,349.499,748.356,0.394535,-0.699923,-0.494035,-0.332234
6.13518,-384.803,349.55,747.776,0.393888,-0.697954,-0.496207,-0.333903
6.15029,-384.98,349.544,747.38,0.393517,-0.697118,-0.49725,-0.334534
6.1654,-385.292,349.48,746.204,0.392391,-0.695484,-0.499574,-0.335794
6.18051,-385.476,349.417,745.467,0.391756,-0.694767,-0.50076,-0.336252
6.19562,-385.476,349.417,745.467,0.391756,-0.694767,-0.50076,-0.336252
6.21073,-385.476,349.417,745.467,0.391756,-0.694767,-0.50076,-0.336252
6.22585,-385.476,349.417,745.467,0.391756,-0.694767,-0.50076,-0.336252
6.24096,-385.476,349.417,745.467,0.391756,-0.694767,-0.50076,-0.336252
6.25607,-385.476,349.417,745.467,0.391756,-0.694767,-0.50076,-0.336252
6.27118,-385.476,349.417,745.467,0.391756,-0.694767,-0.50076,-0.336252
6.28629,-385.476,349.417,745.467,0.391756,-0.694767,-0.50076,-0.336252
6.3014,-385.476,349.417,745.467,0.391756,-0.694767,-0.50076,-0.336252
6.31651,-388.109,350.494,735.145,0.384192,-0.685366,-0.516439,-0.340531
6.33163,-388.234,350.728,734.169,0.383603,-0.684654,-0.517669,-0.340758
6.34674,-388.397,351.135,732.451,0.38247,-0.683397,-0.519943,-0.341093
6.36185,-388.431,351.232,731.366,0.38179,-0.682898,-0.52106,-0.341149
6.37696,-388.428,351.35,730.423,0.381136,-0.682324,-0.522232,-0.341239
6.39207,-388.453,351.768,728.839,0.380087,-0.681123,-0.52444,-0.34142
6.40718,-388.534,352.068,728.015,0.379681,-0.680476,-0.525539,-0.341471
6.42229,-388.59,352.351,727.164,0.379213,-0.679923,-0.526581,-0.341489
6.4374,-388.685,352.944,725.33,0.378172,-0.678797,-0.528793,-0.341466
6.45252,-388.743,353.21,724.408,0.377671,-0.678266,-0.529854,-0.34143
6.46763,-388.703,353.973,722.979,0.376898,-0.677131,-0.531803,-0.341508
6.48274,-388.691,354.443,722.25,0.37661,-0.676505,-0.532779,-0.341546
6.49785,-388.669,354.998,721.643,0.376352,-0.675853,-0.533731,-0.341634
6.51296,-388.67,354.998,721.643,0.376352,-0.675853,-0.533731,-0.341634
6.52807,-388.67,354.998,721.643,0.376352,-0.675853,-0.533731,-0.341634
6.54318,-388.67,354.998,721.643,0.376352,-0.675853,-0.533731,-0.341634
6.55829,-388.67,354.998,721.643,0.376352,-0.675853,-0.533731,-0.341634
6.57341,-388.669,354.998,721.643,0.376352,-0.675853,-0.533731,-0.341634
6.58852,-388.669,354.998,721.643,0.376352,-0.675853,-0.533731,-0.341634
6.60363,-393.397,364.518,714.568,0.377148,-0.664454,-0.548579,-0.33959
6.61874,-393.737,365.516,714.379,0.377453,-0.663413,-0.549615,-0.33961
6.63385,-394.604,367.405,713.695,0.377978,-0.661325,-0.551948,-0.339317
6.64896,-395.054,368.218,713.183,0.378106,-0.660433,-0.553059,-0.339101
6.66407,-395.555,368.959,712.498,0.378177,-0.659625,-0.554194,-0.338744
6.67918,-396.673,370.493,711.386,0.378412,-0.657864,-0.556567,-0.338012
6.6943,-397.234,371.345,710.92,0.378631,-0.656834,-0.557787,-0.337759
6.70941,-398.401,373.235,710.234,0.379099,-0.654663,-0.560237,-0.337394
6.72452,-398.955,374.006,709.696,0.379202,-0.653705,-0.561432,-0.337149
6.73963,-399.517,374.694,708.996,0.379264,-0.652801,-0.562654,-0.336794
6.75474,-400.556,375.854,707.489,0.379143,-0.651303,-0.564994,-0.335913
6.76985,-400.928,376.448,706.73,0.379052,-0.650591,-0.566075,-0.335575
6.78496,-401.304,377.077,706.085,0.379017,-0.649878,-0.567103,-0.335259
6.80008,-401.304,377.076,706.085,0.379017,-0.649878,-0.567103,-0.335259
6.81519,-401.304,377.076,706.085,0.379017,-0.649878,-0.567103,-0.335259
6.8303,-401.304,377.076,706.085,0.379017,-0.649878,-0.567103,-0.335259
6.84541,-401.304,377.076,706.085,0.379017,-0.649878,-0.567103,-0.335259
6.86052,-401.304,377.076,706.085,0.379017,-0.649878,-0.567103,-0.335259
6.87563,-401.304,377.076,706.085,0.379017,-0.649878,-0.567103,-0.335259
6.89074,-401.304,377.076,706.085,0.379017,-0.649878,-0.567103,-0.335259
6.90585,-408.063,383.098,694.528,0.377645,-0.641478,-0.581467,-0.328309
6.92097,-409.08,383.656,692.416,0.377275,-0.640699,-0.583306,-0.32699
6.93608,-409.648,383.923,691.35,0.377124,-0.640247,-0.584299,-0.326276
6.95119,-410.279,384.171,690.311,0.376958,-0.639767,-0.585351,-0.325523
6.9663,-411.625,384.531,688.1,0.376673,-0.63878,-0.587489,-0.323936
6.98141,-412.1,384.766,687.152,0.376498,-0.638304,-0.588462,-0.323311
6.99652,-412.997,385.107,684.881,0.375954,-0.637542,-0.590439,-0.321841
7.01163,-413.375,385.27,683.534,0.375597,-0.637211,-0.591439,-0.321075
7.02674,-413.668,385.411,682.469,0.375258,-0.636925,-0.592312,-0.320429
7.04186,-414.265,385.594,680.16,0.374544,-0.636422,-0.594006,-0.319124
7.05697,-414.634,385.718,678.991,0.374205,-0.636195,-0.594848,-0.318406
7.07208,-415.424,386.055,677.009,0.373694,-0.635497,-0.596597,-0.317125
7.08719,-415.424,386.055,677.009,0.373694,-0.635497,-0.596597,-0.317125
7.1023,-415.424,386.054,677.009,0.373694,-0.635497,-0.596597,-0.317125
7.11741,-415.424,386.054,677.009,0.373694,-0.635497,-0.596597,-0.317125
7.13252,-415.424,386.055,677.009,0.373694,-0.635497,-0.596597,-0.317125
7.14763,-415.424,386.055,677.009,0.373694,-0.635497,-0.596597,-0.317125
7.16275,-415.424,386.055,677.009,0.373694,-0.635497,-0.596597,-0.317125
7.17786,-415.424,386.054,677.009,0.373694,-0.635497,-0.596597,-0.317125
7.19297,-415.424,386.054,677.009,0.373694,-0.635497,-0.596597,-0.317125
7.20808,-419.258,386.638,664.964,0.370279,-0.631586,-0.606801,-0.309492
7.22319,-419.408,386.544,664.119,0.369948,-0.631414,-0.607434,-0.308997
7.2383,-419.725,386.488,662.69,0.369444,-0.631035,-0.60857,-0.308136
7.25341,-419.859,386.494,662.166,0.36924,-0.630796,-0.609117,-0.307791
7.26852,-419.978,386.517,661.626,0.369073,-0.630501,-0.609658,-0.307523
7.28364,-420.304,386.554,660.75,0.368808,-0.629914,-0.610717,-0.306942
7.29875,-420.603,386.538,660.139,0.368659,-0.629606,-0.611347,-0.306498
7.31386,-421.18,386.41,658.828,0.368287,-0.629139,-0.612509,-0.305584
7.32897,-421.5,386.399,658.355,0.368176,-0.628842,-0.613079,-0.305186
7.34408,-421.856,386.352,657.61,0.368007,-0.628587,-0.613703,-0.304661
7.35919,-422.388,386.285,656.413,0.367602,-0.628233,-0.614731,-0.303806
7.3743,-422.666,386.242,655.821,0.367454,-0.628038,-0.615229,-0.303378
7.38941,-422.849,386.172,655.144,0.367217,-0.627899,-0.615704,-0.302992
7.40453,-422.849,386.172,655.144,0.367217,-0.627899,-0.615704,-0.302992
7.41964,-422.849,386.172,655.144,0.367217,-0.627899,-0.615704,-0.302992
7.43475,-422.849,386.172,655.144,0.367217,-0.627899,-0.615704,-0.302992
7.44986,-422.849,386.172,655.144,0.367217,-0.627899,-0.615704,-0.302992
7.46497,-422.849,386.172,655.144,0.367217,-0.627899,-0.615704,-0.302992
7.48008,-422.849,386.172,655.144,0.367217,-0.627899,-0.615704,-0.302992
7.49519,-422.849,386.172,655.144,0.367217,-0.627899,-0.615704,-0.302992
7.5103,-423.259,383.914,644.788,0.362213,-0.628221,-0.621109,-0.297261
7.52542,-423.199,383.581,643.214,0.361448,-0.628393,-0.621763,-0.296461
7.54053,-423.196,383.388,642.367,0.360981,-0.628524,-0.622129,-0.295982
7.55564,-423.197,383.291,641.66,0.360644,-0.628618,-0.622411,-0.2956
7.57075,-423.2,383.236,640.414,0.360064,-0.628743,-0.622913,-0.294984
7.58586,-423.195,383.276,639.974,0.359836,-0.628772,-0.62313,-0.294743
7.60097,-423.214,383.314,639.486,0.359627,-0.628794,-0.623356,-0.294472
7.61608,-423.183,383.475,638.61,0.359282,-0.628823,-0.623709,-0.294084
7.6312,-423.184,383.496,638.113,0.359031,-0.62886,-0.623951,-0.293798
7.64631,-423.239,383.551,637.051,0.3586,-0.628971,-0.624347,-0.293246
7.66142,-423.268,383.585,636.581,0.358358,-0.629056,-0.624524,-0.292981
7.67653,-423.277,383.619,636.039,0.35809,-0.629151,-0.62471,-0.292707
7.69164,-423.389,383.592,635.417,0.357885,-0.629189,-0.624956,-0.292351
7.70675,-423.389,383.592,635.417,0.357885,-0.629189,-0.624956,-0.292351
7.72186,-423.389,383.592,635.417,0.357885,-0.629189,-0.624956,-0.292351
7.73697,-423.389,383.592,635.417,0.357886,-0.629189,-0.624956,-0.292351
7.75209,-423.389,383.592,635.417,0.357886,-0.629189,-0.624956,-0.292351
7.7672,-423.389,383.592,635.417,0.357886,-0.629189,-0.624956,-0.292351
7.78231,-423.389,383.592,635.417,0.357886,-0.629189,-0.624956,-0.292351
7.79742,-423.389,383.592,635.417,0.357886,-0.629189,-0.624956,-0.292351
7.81253,-425.391,383.051,628.252,0.355157,-0.629289,-0.628608,-0.287597
7.82764,-425.757,382.742,627.014,0.354696,-0.629224,-0.629302,-0.286787
7.84275,-425.905,382.618,626.511,0.354477,-0.629178,-0.629629,-0.28644
7.85786,-426.218,382.365,625.65,0.354145,-0.629024,-0.630249,-0.285826
7.87298,-426.361,382.256,625.271,0.354003,-0.628911,-0.630565,-0.285553
7.88809,-426.427,382.116,624.935,0.353808,-0.62887,-0.630822,-0.28532
7.9032,-426.586,381.788,624.07,0.353443,-0.628758,-0.631389,-0.284762
7.91831,-426.684,381.653,623.667,0.353264,-0.628708,-0.631661,-0.284491
7.93342,-426.771,381.537,623.327,0.353081,-0.628679,-0.63191,-0.284231
7.94853,-426.915,381.217,622.401,0.352665,-0.628659,-0.632413,-0.283673
7.96364,-426.91,381.066,622.019,0.352426,-0.628702,-0.632613,-0.283427
7.97875,-426.973,380.912,621.609,0.352215,-0.628721,-0.632829,-0.283164
7.99387,-427.04,380.69,621.022,0.351953,-0.62878,-0.633068,-0.282826
8.00898,-427.04,380.69,621.022,0.351953,-0.62878,-0.633068,-0.282826
8.02409,-427.041,380.69,621.022,0.351953,-0.62878,-0.633068,-0.282826
