0,-326.623,1051.5,1040.44,0.7,-0.7,0.0,0.0
0.00371747,-326.505,1051.18,1041.16,0.7,-0.7,0.0,0.0
0.00743494,-325.698,1050.68,1042.28,0.7,-0.7,0.0,0.0
0.0111524,-324.915,1050.09,1043.55,0.7,-0.7,0.0,0.0
0.0148699,-324.158,1049.42,1045,0.7,-0.7,0.0,0.0
0.0185874,-323.426,1048.65,1046.61,0.7,-0.7,0.0,0.0
0.0223048,-322.719,1047.8,1048.38,0.7,-0.7,0.0,0.0
0.0260223,-322.035,1046.86,1050.32,0.7,-0.7,0.0,0.0
0.0297398,-321.371,1045.84,1052.39,0.7,-0.7,0.0,0.0
0.0334572,-320.722,1044.76,1054.59,0.7,-0.7,0.0,0.0
0.0371747,-320.084,1043.62,1056.89,0.7,-0.7,0.0,0.0
0.0408922,-319.454,1042.44,1059.28,0.7,-0.7,0.0,0.0
0.0446097,-318.829,1041.21,1061.74,0.7,-0.7,0.0,0.0
0.0483271,-318.205,1039.96,1064.26,0.7,-0.7,0.0,0.0
0.0520446,-317.582,1038.66,1066.85,0.7,-0.7,0.0,0.0
0.0557621,-316.96,1037.33,1069.52,0.7,-0.7,0.0,0.0
0.0594796,-316.34,1035.94,1072.29,0.7,-0.7,0.0,0.0
0.063197,-315.725,1034.49,1075.17,0.7,-0.7,0.0,0.0
0.0669145,-315.117,1032.97,1078.18,0.7,-0.7,0.0,0.0
0.070632,-314.517,1031.37,1081.34,0.7,-0.7,0.0,0.0
0.0743494,-313.926,1029.69,1084.66,0.7,-0.7,0.0,0.0
0.0780669,-313.344,1027.93,1088.13,0.7,-0.7,0.0,0.0
0.0817844,-312.768,1026.1,1091.73,0.7,-0.7,0.0,0.0
0.0855019,-312.197,1024.21,1095.44,0.7,-0.7,0.0,0.0
0.0892193,-311.624,1022.3,1099.22,0.7,-0.7,0.0,0.0
0.0929368,-311.045,1020.36,1103.04,0.7,-0.7,0.0,0.0
0.0966543,-310.456,1018.44,1106.85,0.7,-0.7,0.0,0.0
0.100372,-309.852,1016.54,1110.63,0.7,-0.7,0.0,0.0
0.104089,-309.23,1014.67,1114.37,0.7,-0.7,0.0,0.0
0.107807,-308.588,1012.84,1118.05,0.7,-0.7,0.0,0.0
0.111524,-307.925,1011.04,1121.7,0.7,-0.7,0.0,0.0
0.115242,-307.243,1009.27,1125.32,0.7,-0.7,0.0,0.0
0.118959,-306.543,1007.5,1128.96,0.7,-0.7,0.0,0.0
0.122677,-305.827,1005.73,1132.62,0.7,-0.7,0.0,0.0
0.126394,-305.096,1003.95,1136.35,0.7,-0.7,0.0,0.0
0.130112,-304.353,1002.13,1140.14,0.7,-0.7,0.0,0.0
0.133829,-303.597,1000.3,1144.01,0.7,-0.7,0.0,0.0
0.137546,-302.828,998.438,1147.94,0.7,-0.7,0.0,0.0
0.141264,-302.045,996.567,1151.92,0.7,-0.7,0.0,0.0
0.144981,-301.245,994.701,1155.9,0.7,-0.7,0.0,0.0
0.148699,-300.427,992.853,1159.85,0.7,-0.7,0.0,0.0
0.152416,-299.587,991.041,1163.75,0.7,-0.7,0.0,0.0
0.156134,-298.721,989.276,1167.57,0.7,-0.7,0.0,0.0
0.159851,-297.829,987.565,1171.3,0.7,-0.7,0.0,0.0
0.163569,-296.906,985.908,1174.93,0.7,-0.7,0.0,0.0
0.167286,-295.95,984.301,1178.48,0.7,-0.7,0.0,0.0
0.171004,-294.962,982.733,1181.96,0.7,-0.7,0.0,0.0
0.174721,-293.938,981.192,1185.42,0.7,-0.7,0.0,0.0
0.178439,-292.88,979.666,1188.86,0.7,-0.7,0.0,0.0
0.182156,-291.787,978.143,1192.32,0.7,-0.7,0.0,0.0
0.185874,-290.66,976.616,1195.82,0.7,-0.7,0.0,0.0
0.189591,-289.501,975.085,1199.34,0.7,-0.7,0.0,0.0
0.193309,-288.309,973.552,1202.9,0.7,-0.7,0.0,0.0
0.197026,-287.089,972.028,1206.46,0.7,-0.7,0.0,0.0
0.200743,-285.839,970.526,1210,0.7,-0.7,0.0,0.0
0.204461,-284.562,969.058,1213.5,0.7,-0.7,0.0,0.0
0.208178,-283.258,967.639,1216.93,0.7,-0.7,0.0,0.0
0.211896,-281.926,966.279,1220.27,0.7,-0.7,0.0,0.0
0.215613,-280.562,964.985,1223.52,0.7,-0.7,0.0,0.0
0.219331,-279.164,963.758,1226.67,0.7,-0.7,0.0,0.0
0.223048,-277.728,962.595,1229.74,0.7,-0.7,0.0,0.0
0.226766,-276.247,961.489,1232.75,0.7,-0.7,0.0,0.0
0.230483,-274.717,960.433,1235.72,0.7,-0.7,0.0,0.0
0.234201,-273.135,959.417,1238.67,0.7,-0.7,0.0,0.0
0.237918,-271.497,958.433,1241.62,0.7,-0.7,0.0,0.0
0.241636,-269.805,957.475,1244.59,0.7,-0.7,0.0,0.0
0.245353,-268.061,956.542,1247.58,0.7,-0.7,0.0,0.0
0.249071,-266.269,955.636,1250.57,0.7,-0.7,0.0,0.0
0.252788,-264.436,954.762,1253.55,0.7,-0.7,0.0,0.0
0.256506,-262.568,953.929,1256.5,0.7,-0.7,0.0,0.0
0.260223,-260.672,953.145,1259.39,0.7,-0.7,0.0,0.0
0.263941,-258.753,952.418,1262.21,0.7,-0.7,0.0,0.0
0.267658,-256.813,951.757,1264.92,0.7,-0.7,0.0,0.0
0.271375,-254.85,951.167,1267.54,0.7,-0.7,0.0,0.0
0.275093,-252.86,950.651,1270.05,0.7,-0.7,0.0,0.0
0.27881,-250.836,950.21,1272.47,0.7,-0.7,0.0,0.0
0.282528,-248.768,949.842,1274.8,0.7,-0.7,0.0,0.0
0.286245,-246.648,949.543,1277.08,0.7,-0.7,0.0,0.0
0.289963,-244.469,949.309,1279.32,0.7,-0.7,0.0,0.0
0.29368,-242.226,949.135,1281.53,0.7,-0.7,0.0,0.0
0.297398,-239.918,949.014,1283.71,0.7,-0.7,0.0,0.0
0.301115,-237.551,948.942,1285.89,0.7,-0.7,0.0,0.0
0.304833,-235.134,948.914,1288.03,0.7,-0.7,0.0,0.0
0.30855,-232.678,948.926,1290.15,0.7,-0.7,0.0,0.0
0.312268,-230.198,948.975,1292.21,0.7,-0.7,0.0,0.0
0.315985,-227.706,949.059,1294.21,0.7,-0.7,0.0,0.0
0.319703,-225.215,949.176,1296.12,0.7,-0.7,0.0,0.0
0.32342,-222.729,949.326,1297.94,0.7,-0.7,0.0,0.0
0.327138,-220.251,949.508,1299.66,0.7,-0.7,0.0,0.0
0.330855,-217.776,949.725,1301.28,0.7,-0.7,0.0,0.0
0.334572,-215.296,949.976,1302.81,0.7,-0.7,0.0,0.0
0.33829,-212.798,950.264,1304.24,0.7,-0.7,0.0,0.0
0.342007,-210.271,950.59,1305.61,0.7,-0.7,0.0,0.0
0.345725,-207.705,950.953,1306.91,0.7,-0.7,0.0,0.0
0.349442,-205.091,951.353,1308.16,0.7,-0.7,0.0,0.0
0.35316,-202.428,951.788,1309.36,0.7,-0.7,0.0,0.0
0.356877,-199.719,952.254,1310.52,0.7,-0.7,0.0,0.0
0.360595,-196.973,952.746,1311.64,0.7,-0.7,0.0,0.0
0.364312,-194.203,953.259,1312.71,0.7,-0.7,0.0,0.0
0.36803,-191.423,953.788,1313.72,0.7,-0.7,0.0,0.0
0.371747,-188.648,954.327,1314.68,0.7,-0.7,0.0,0.0
0.375465,-185.888,954.871,1315.57,0.7,-0.7,0.0,0.0
0.379182,-183.149,955.419,1316.39,0.7,-0.7,0.0,0.0
0.3829,-180.431,955.97,1317.14,0.7,-0.7,0.0,0.0
0.386617,-177.728,956.525,1317.81,0.7,-0.7,0.0,0.0
0.390335,-175.029,957.087,1318.4,0.7,-0.7,0.0,0.0
0.394052,-172.322,957.66,1318.92,0.7,-0.7,0.0,0.0
0.39777,-169.592,958.247,1319.37,0.7,-0.7,0.0,0.0
0.401487,-166.827,958.852,1319.76,0.7,-0.7,0.0,0.0
0.405204,-164.022,959.477,1320.1,0.7,-0.7,0.0,0.0
0.408922,-161.174,960.121,1320.38,0.7,-0.7,0.0,0.0
0.412639,-158.289,960.784,1320.61,0.7,-0.7,0.0,0.0
0.416357,-155.379,961.46,1320.8,0.7,-0.7,0.0,0.0
0.420074,-152.461,962.145,1320.94,0.7,-0.7,0.0,0.0
0.423792,-149.551,962.835,1321.05,0.7,-0.7,0.0,0.0
0.427509,-146.667,963.524,1321.1,0.7,-0.7,0.0,0.0
0.431227,-143.822,964.209,1321.12,0.7,-0.7,0.0,0.0
0.434944,-141.026,964.887,1321.09,0.7,-0.7,0.0,0.0
0.438662,-138.279,965.56,1321.01,0.7,-0.7,0.0,0.0
0.442379,-135.578,966.229,1320.89,0.7,-0.7,0.0,0.0
0.446097,-132.912,966.9,1320.7,0.7,-0.7,0.0,0.0
0.449814,-130.271,967.576,1320.47,0.7,-0.7,0.0,0.0
0.453532,-127.641,968.263,1320.17,0.7,-0.7,0.0,0.0
0.457249,-125.011,968.965,1319.82,0.7,-0.7,0.0,0.0
0.460967,-122.376,969.684,1319.41,0.7,-0.7,0.0,0.0
0.464684,-119.734,970.42,1318.94,0.7,-0.7,0.0,0.0
0.468401,-117.092,971.172,1318.43,0.7,-0.7,0.0,0.0
0.472119,-114.459,971.934,1317.87,0.7,-0.7,0.0,0.0
0.475836,-111.854,972.703,1317.27,0.7,-0.7,0.0,0.0
0.479554,-109.29,973.472,1316.63,0.7,-0.7,0.0,0.0
0.483271,-106.787,974.236,1315.97,0.7,-0.7,0.0,0.0
0.486989,-104.358,974.992,1315.28,0.7,-0.7,0.0,0.0
0.490706,-102.012,975.738,1314.56,0.7,-0.7,0.0,0.0
0.494424,-99.7557,976.474,1313.8,0.7,-0.7,0.0,0.0
0.498141,-97.5874,977.205,1313.01,0.7,-0.7,0.0,0.0
0.501859,-95.5026,977.934,1312.17,0.7,-0.7,0.0,0.0
0.505576,-93.4935,978.667,1311.28,0.7,-0.7,0.0,0.0
0.509294,-91.5511,979.409,1310.32,0.7,-0.7,0.0,0.0
0.513011,-89.6663,980.165,1309.3,0.7,-0.7,0.0,0.0
0.516729,-87.8316,980.938,1308.21,0.7,-0.7,0.0,0.0
0.520446,-86.042,981.727,1307.04,0.7,-0.7,0.0,0.0
0.524164,-84.295,982.531,1305.81,0.7,-0.7,0.0,0.0
0.527881,-82.5912,983.344,1304.53,0.7,-0.7,0.0,0.0
0.531599,-80.9344,984.163,1303.19,0.7,-0.7,0.0,0.0
0.535316,-79.3272,984.981,1301.81,0.7,-0.7,0.0,0.0
0.539033,-77.7744,985.793,1300.39,0.7,-0.7,0.0,0.0
0.542751,-76.2803,986.597,1298.95,0.7,-0.7,0.0,0.0
0.546468,-74.8479,987.391,1297.46,0.7,-0.7,0.0,0.0
0.550186,-73.4791,988.178,1295.92,0.7,-0.7,0.0,0.0
0.553903,-72.1737,988.961,1294.33,0.7,-0.7,0.0,0.0
0.557621,-70.9303,989.745,1292.66,0.7,-0.7,0.0,0.0
0.561338,-69.7463,990.537,1290.9,0.7,-0.7,0.0,0.0
0.565056,-68.6181,991.344,1289.04,0.7,-0.7,0.0,0.0
0.568773,-67.5414,992.168,1287.07,0.7,-0.7,0.0,0.0
0.572491,-66.5115,993.013,1284.97,0.7,-0.7,0.0,0.0
0.576208,-65.5237,993.879,1282.77,0.7,-0.7,0.0,0.0
0.579926,-64.5733,994.763,1280.46,0.7,-0.7,0.0,0.0
0.583643,-63.6557,995.66,1278.07,0.7,-0.7,0.0,0.0
0.587361,-62.7679,996.565,1275.61,0.7,-0.7,0.0,0.0
0.591078,-61.9053,997.473,1273.1,0.7,-0.7,0.0,0.0
0.594796,-61.0658,998.378,1270.55,0.7,-0.7,0.0,0.0
0.598513,-60.2478,999.279,1267.97,0.7,-0.7,0.0,0.0
0.60223,-59.4509,1000.18,1265.35,0.7,-0.7,0.0,0.0
0.605948,-58.6754,1001.07,1262.68,0.7,-0.7,0.0,0.0
0.609665,-57.9225,1001.97,1259.94,0.7,-0.7,0.0,0.0
0.613383,-57.1937,1002.88,1257.11,0.7,-0.7,0.0,0.0
0.6171,-56.4903,1003.81,1254.17,0.7,-0.7,0.0,0.0
0.620818,-55.8134,1004.76,1251.08,0.7,-0.7,0.0,0.0
0.624535,-55.1633,1005.74,1247.86,0.7,-0.7,0.0,0.0
0.628253,-54.5393,1006.75,1244.48,0.7,-0.7,0.0,0.0
0.63197,-53.9394,1007.79,1240.97,0.7,-0.7,0.0,0.0
0.635688,-53.3605,1008.85,1237.34,0.7,-0.7,0.0,0.0
0.639405,-52.799,1009.93,1233.63,0.7,-0.7,0.0,0.0
0.643123,-52.2516,1011.02,1229.87,0.7,-0.7,0.0,0.0
0.64684,-51.7143,1012.11,1226.1,0.7,-0.7,0.0,0.0
0.650558,-51.1844,1013.19,1222.34,0.7,-0.7,0.0,0.0
0.654275,-50.6608,1014.27,1218.6,0.7,-0.7,0.0,0.0
0.657993,-50.1441,1015.33,1214.9,0.7,-0.7,0.0,0.0
0.66171,-49.6362,1016.39,1211.22,0.7,-0.7,0.0,0.0
0.665428,-49.1405,1017.45,1207.54,0.7,-0.7,0.0,0.0
0.669145,-48.661,1018.52,1203.83,0.7,-0.7,0.0,0.0
0.672862,-48.2017,1019.61,1200.06,0.7,-0.7,0.0,0.0
0.67658,-47.7661,1020.72,1196.21,0.7,-0.7,0.0,0.0
0.680297,-47.3563,1021.85,1192.27,0.7,-0.7,0.0,0.0
0.684015,-46.9729,1023.02,1188.22,0.7,-0.7,0.0,0.0
0.687732,-46.6144,1024.21,1184.09,0.7,-0.7,0.0,0.0
0.69145,-46.2777,1025.42,1179.89,0.7,-0.7,0.0,0.0
0.695167,-45.9584,1026.65,1175.67,0.7,-0.7,0.0,0.0
0.698885,-45.6527,1027.88,1171.46,0.7,-0.7,0.0,0.0
0.702602,-45.356,1029.1,1167.31,0.7,-0.7,0.0,0.0
0.70632,-45.0657,1030.31,1163.24,0.7,-0.7,0.0,0.0
0.710037,-44.7813,1031.5,1159.29,0.7,-0.7,0.0,0.0
0.713755,-44.5042,1032.67,1155.44,0.7,-0.7,0.0,0.0
0.717472,-44.2384,1033.83,1151.71,0.7,-0.7,0.0,0.0
0.72119,-43.9892,1034.97,1148.06,0.7,-0.7,0.0,0.0
0.724907,-43.7627,1036.12,1144.48,0.7,-0.7,0.0,0.0
0.728625,-43.5648,1037.28,1140.93,0.7,-0.7,0.0,0.0
0.732342,-43.4,1038.46,1137.38,0.7,-0.7,0.0,0.0
0.736059,-43.2706,1039.65,1133.83,0.7,-0.7,0.0,0.0
0.739777,-43.1761,1040.87,1130.26,0.7,-0.7,0.0,0.0
0.743494,-43.1127,1042.1,1126.67,0.7,-0.7,0.0,0.0
0.747212,-43.0741,1043.35,1123.1,0.7,-0.7,0.0,0.0
0.750929,-43.0521,1044.59,1119.57,0.7,-0.7,0.0,0.0
0.754647,-43.0387,1045.83,1116.1,0.7,-0.7,0.0,0.0
0.758364,-43.0258,1047.04,1112.73,0.7,-0.7,0.0,0.0
0.762082,-43.0075,1048.23,1109.48,0.7,-0.7,0.0,0.0
0.765799,-42.9813,1049.38,1106.38,0.7,-0.7,0.0,0.0
0.769517,-42.9477,1050.49,1103.42,0.7,-0.7,0.0,0.0
0.773234,-42.9104,1051.57,1100.59,0.7,-0.7,0.0,0.0
0.776952,-42.8759,1052.63,1097.9,0.7,-0.7,0.0,0.0
0.780669,-42.8513,1053.66,1095.3,0.7,-0.7,0.0,0.0
0.784387,-42.8442,1054.68,1092.79,0.7,-0.7,0.0,0.0
0.788104,-42.8604,1055.69,1090.34,0.7,-0.7,0.0,0.0
0.791822,-42.9033,1056.71,1087.93,0.7,-0.7,0.0,0.0
0.795539,-42.9728,1057.72,1085.56,0.7,-0.7,0.0,0.0
0.799257,-43.0656,1058.73,1083.22,0.7,-0.7,0.0,0.0
0.802974,-43.1751,1059.74,1080.93,0.7,-0.7,0.0,0.0
0.806691,-43.293,1060.72,1078.69,0.7,-0.7,0.0,0.0
0.810409,-43.4105,1061.69,1076.53,0.7,-0.7,0.0,0.0
0.814126,-43.5196,1062.62,1074.46,0.7,-0.7,0.0,0.0
0.817844,-43.6146,1063.52,1072.5,0.7,-0.7,0.0,0.0
0.821561,-43.6932,1064.38,1070.64,0.7,-0.7,0.0,0.0
0.825279,-43.7569,1065.19,1068.89,0.7,-0.7,0.0,0.0
0.828996,-43.8105,1065.96,1067.26,0.7,-0.7,0.0,0.0
0.832714,-43.8612,1066.7,1065.71,0.7,-0.7,0.0,0.0
0.836431,-43.9173,1067.4,1064.25,0.7,-0.7,0.0,0.0
0.840149,-43.9871,1068.08,1062.86,0.7,-0.7,0.0,0.0
0.843866,-44.0771,1068.74,1061.53,0.7,-0.7,0.0,0.0
0.847584,-44.1909,1069.37,1060.24,0.7,-0.7,0.0,0.0
0.851301,-44.3287,1070,1058.98,0.7,-0.7,0.0,0.0
0.855019,-44.4871,1070.61,1057.77,0.7,-0.7,0.0,0.0
0.858736,-44.6593,1071.2,1056.59,0.7,-0.7,0.0,0.0
0.862454,-44.8374,1071.77,1055.45,0.7,-0.7,0.0,0.0
0.866171,-45.0128,1072.32,1054.37,0.7,-0.7,0.0,0.0
0.869888,-45.1783,1072.84,1053.34,0.7,-0.7,0.0,0.0
0.873606,-45.3289,1073.34,1052.37,0.7,-0.7,0.0,0.0
0.877323,-45.4637,1073.8,1051.46,0.7,-0.7,0.0,0.0
0.881041,-45.5851,1074.23,1050.61,0.7,-0.7,0.0,0.0
0.884758,-45.6991,1074.63,1049.83,0.7,-0.7,0.0,0.0
0.888476,-45.8137,1075,1049.09,0.7,-0.7,0.0,0.0
0.892193,-45.9378,1075.34,1048.41,0.7,-0.7,0.0,0.0
0.895911,-46.0799,1075.67,1047.75,0.7,-0.7,0.0,0.0
0.899628,-46.2457,1075.97,1047.13,0.7,-0.7,0.0,0.0
0.903346,-46.4382,1076.26,1046.53,0.7,-0.7,0.0,0.0
0.907063,-46.6558,1076.53,1045.96,0.7,-0.7,0.0,0.0
0.910781,-46.8934,1076.79,1045.4,0.7,-0.7,0.0,0.0
0.914498,-47.1424,1077.04,1044.87,0.7,-0.7,0.0,0.0
0.918216,-47.3925,1077.27,1044.36,0.7,-0.7,0.0,0.0
0.921933,-47.6338,1077.49,1043.88,0.7,-0.7,0.0,0.0
0.925651,-47.8573,1077.7,1043.42,0.7,-0.7,0.0,0.0
0.929368,-48.0571,1077.89,1043,0.7,-0.7,0.0,0.0
0.933086,-48.2316,1078.07,1042.61,0.7,-0.7,0.0,0.0
0.936803,-48.3828,1078.24,1042.26,0.7,-0.7,0.0,0.0
0.94052,-48.5166,1078.4,1041.93,0.7,-0.7,0.0,0.0
0.944238,-48.6408,1078.54,1041.63,0.7,-0.7,0.0,0.0
0.947955,-48.7645,1078.68,1041.35,0.7,-0.7,0.0,0.0
0.951673,-48.8959,1078.8,1041.09,0.7,-0.7,0.0,0.0
0.95539,-49.0412,1078.92,1040.85,0.7,-0.7,0.0,0.0
0.959108,-49.2031,1079.03,1040.62,0.7,-0.7,0.0,0.0
0.962825,-49.3808,1079.13,1040.4,0.7,-0.7,0.0,0.0
0.966543,-49.5695,1079.23,1040.2,0.7,-0.7,0.0,0.0
0.97026,-49.7616,1079.32,1040.01,0.7,-0.7,0.0,0.0
0.973978,-49.9483,1079.41,1039.83,0.7,-0.7,0.0,0.0
0.977695,-50.1207,1079.49,1039.67,0.7,-0.7,0.0,0.0
0.981413,-50.2714,1079.57,1039.52,0.7,-0.7,0.0,0.0
0.98513,-50.396,1079.64,1039.4,0.7,-0.7,0.0,0.0
0.988848,-50.4937,1079.71,1039.29,0.7,-0.7,0.0,0.0
0.992565,-50.5674,1079.77,1039.2,0.7,-0.7,0.0,0.0
0.996283,-50.6232,1079.83,1039.13,0.7,-0.7,0.0,0.0
1,-50.669,1079.89,1039.07,0.7,-0.7,0.0,0.0
