0,-282.35,1042.35,1062.53,0.7,-0.7,0,0
0.00401606,-281.956,1041.63,1063.69,0.7,-0.7,0,0
0.00803213,-281.1,1040.87,1064.91,0.7,-0.7,0,0
0.0120482,-280.264,1039.95,1066.3,0.7,-0.7,0,0
0.0160643,-279.449,1038.88,1067.89,0.7,-0.7,0,0
0.0200803,-278.655,1037.65,1069.66,0.7,-0.7,0,0
0.0240964,-277.88,1036.25,1071.62,0.7,-0.7,0,0
0.0281124,-277.123,1034.71,1073.76,0.7,-0.7,0,0
0.0321285,-276.381,1033.03,1076.04,0.7,-0.7,0,0
0.0361446,-275.649,1031.25,1078.46,0.7,-0.7,0,0
0.0401606,-274.925,1029.36,1080.97,0.7,-0.7,0,0
0.0441767,-274.206,1027.4,1083.57,0.7,-0.7,0,0
0.0481928,-273.488,1025.36,1086.25,0.7,-0.7,0,0
0.0522088,-272.772,1023.24,1088.99,0.7,-0.7,0,0
0.0562249,-272.056,1021.03,1091.83,0.7,-0.7,0,0
0.060241,-271.342,1018.72,1094.77,0.7,-0.7,0,0
0.064257,-270.632,1016.28,1097.84,0.7,-0.7,0,0
0.0682731,-269.928,1013.68,1101.06,0.7,-0.7,0,0
0.0722892,-269.229,1010.93,1104.45,0.7,-0.7,0,0
0.0763052,-268.536,1008.01,1108.02,0.7,-0.7,0,0
0.0803213,-267.847,1004.93,1111.74,0.7,-0.7,0,0
0.0843373,-267.159,1001.73,1115.59,0.7,-0.7,0,0
0.0883534,-266.467,998.433,1119.54,0.7,-0.7,0,0
0.0923695,-265.765,995.092,1123.53,0.7,-0.7,0,0
0.0963855,-265.047,991.747,1127.52,0.7,-0.7,0,0
0.100402,-264.308,988.434,1131.46,0.7,-0.7,0,0
0.104418,-263.543,985.176,1135.34,0.7,-0.7,0,0
0.108434,-262.747,981.977,1139.14,0.7,-0.7,0,0
0.11245,-261.919,978.83,1142.88,0.7,-0.7,0,0
0.116466,-261.058,975.714,1146.57,0.7,-0.7,0,0
0.120482,-260.163,972.599,1150.26,0.7,-0.7,0,0
0.124498,-259.234,969.458,1153.96,0.7,-0.7,0,0
0.128514,-258.273,966.27,1157.71,0.7,-0.7,0,0
0.13253,-257.281,963.023,1161.52,0.7,-0.7,0,0
0.136546,-256.258,959.721,1165.37,0.7,-0.7,0,0
0.140562,-255.206,956.384,1169.26,0.7,-0.7,0,0
0.144578,-254.125,953.041,1173.15,0.7,-0.7,0,0
0.148594,-253.013,949.728,1176.99,0.7,-0.7,0,0
0.15261,-251.871,946.479,1180.77,0.7,-0.7,0,0
0.156627,-250.694,943.322,1184.43,0.7,-0.7,0,0
0.160643,-249.481,940.274,1187.97,0.7,-0.7,0,0
0.164659,-248.227,937.335,1191.38,0.7,-0.7,0,0
0.168675,-246.927,934.494,1194.67,0.7,-0.7,0,0
0.172691,-245.577,931.728,1197.88,0.7,-0.7,0,0
0.176707,-244.172,929.011,1201.02,0.7,-0.7,0,0
0.180723,-242.71,926.316,1204.12,0.7,-0.7,0,0
0.184739,-241.19,923.623,1207.21,0.7,-0.7,0,0
0.188755,-239.613,920.921,1210.31,0.7,-0.7,0,0
0.192771,-237.984,918.212,1213.4,0.7,-0.7,0,0
0.196787,-236.309,915.51,1216.48,0.7,-0.7,0,0
0.200803,-234.595,912.837,1219.53,0.7,-0.7,0,0
0.204819,-232.848,910.218,1222.52,0.7,-0.7,0,0
0.208835,-231.074,907.679,1225.43,0.7,-0.7,0,0
0.212851,-229.275,905.238,1228.24,0.7,-0.7,0,0
0.216867,-227.451,902.902,1230.95,0.7,-0.7,0,0
0.220884,-225.596,900.672,1233.56,0.7,-0.7,0,0
0.2249,-223.703,898.533,1236.08,0.7,-0.7,0,0
0.228916,-221.764,896.468,1238.54,0.7,-0.7,0,0
0.232932,-219.768,894.454,1240.95,0.7,-0.7,0,0
0.236948,-217.712,892.471,1243.34,0.7,-0.7,0,0
0.240964,-215.591,890.504,1245.73,0.7,-0.7,0,0
0.24498,-213.409,888.546,1248.12,0.7,-0.7,0,0
0.248996,-211.174,886.599,1250.5,0.7,-0.7,0,0
0.253012,-208.898,884.672,1252.88,0.7,-0.7,0,0
0.257028,-206.597,882.783,1255.22,0.7,-0.7,0,0
0.261044,-204.284,880.948,1257.52,0.7,-0.7,0,0
0.26506,-201.974,879.182,1259.76,0.7,-0.7,0,0
0.269076,-199.672,877.498,1261.92,0.7,-0.7,0,0
0.273092,-197.382,875.899,1264,0.7,-0.7,0,0
0.277108,-195.099,874.382,1266.01,0.7,-0.7,0,0
0.281124,-192.813,872.936,1267.95,0.7,-0.7,0,0
0.285141,-190.514,871.548,1269.86,0.7,-0.7,0,0
0.289157,-188.19,870.202,1271.74,0.7,-0.7,0,0
0.293173,-185.831,868.884,1273.61,0.7,-0.7,0,0
0.297189,-183.433,867.586,1275.48,0.7,-0.7,0,0
0.301205,-180.997,866.303,1277.34,0.7,-0.7,0,0
0.305221,-178.531,865.04,1279.21,0.7,-0.7,0,0
0.309237,-176.045,863.804,1281.07,0.7,-0.7,0,0
0.313253,-173.556,862.608,1282.89,0.7,-0.7,0,0
0.317269,-171.076,861.465,1284.67,0.7,-0.7,0,0
0.321285,-168.619,860.387,1286.39,0.7,-0.7,0,0
0.325301,-166.189,859.38,1288.05,0.7,-0.7,0,0
0.329317,-163.787,858.449,1289.64,0.7,-0.7,0,0
0.333333,-161.406,857.593,1291.16,0.7,-0.7,0,0
0.337349,-159.036,856.804,1292.64,0.7,-0.7,0,0
0.341365,-156.663,856.076,1294.07,0.7,-0.7,0,0
0.345382,-154.275,855.4,1295.47,0.7,-0.7,0,0
0.349398,-151.862,854.767,1296.85,0.7,-0.7,0,0
0.353414,-149.42,854.173,1298.22,0.7,-0.7,0,0
0.35743,-146.95,853.616,1299.57,0.7,-0.7,0,0
0.361446,-144.461,853.098,1300.9,0.7,-0.7,0,0
0.365462,-141.963,852.624,1302.2,0.7,-0.7,0,0
0.369478,-139.472,852.203,1303.45,0.7,-0.7,0,0
0.373494,-137,851.841,1304.63,0.7,-0.7,0,0
0.37751,-134.556,851.547,1305.75,0.7,-0.7,0,0
0.381526,-132.146,851.327,1306.78,0.7,-0.7,0,0
0.385542,-129.766,851.188,1307.72,0.7,-0.7,0,0
0.389558,-127.411,851.131,1308.57,0.7,-0.7,0,0
0.393574,-125.067,851.158,1309.34,0.7,-0.7,0,0
0.39759,-122.723,851.269,1310.03,0.7,-0.7,0,0
0.401606,-120.367,851.459,1310.64,0.7,-0.7,0,0
0.405622,-117.991,851.727,1311.18,0.7,-0.7,0,0
0.409639,-115.593,852.067,1311.66,0.7,-0.7,0,0
0.413655,-113.177,852.474,1312.08,0.7,-0.7,0,0
0.417671,-110.754,852.942,1312.44,0.7,-0.7,0,0
0.421687,-108.336,853.469,1312.74,0.7,-0.7,0,0
0.425703,-105.94,854.048,1312.98,0.7,-0.7,0,0
0.429719,-103.579,854.678,1313.14,0.7,-0.7,0,0
0.433735,-101.264,855.361,1313.23,0.7,-0.7,0,0
0.437751,-98.9996,856.1,1313.24,0.7,-0.7,0,0
0.441767,-96.7848,856.9,1313.16,0.7,-0.7,0,0
0.445783,-94.6134,857.769,1312.98,0.7,-0.7,0,0
0.449799,-92.4758,858.715,1312.71,0.7,-0.7,0,0
0.453815,-90.361,859.744,1312.33,0.7,-0.7,0,0
0.457831,-88.2591,860.861,1311.85,0.7,-0.7,0,0
0.461847,-86.1632,862.065,1311.27,0.7,-0.7,0,0
0.465863,-84.0707,863.351,1310.59,0.7,-0.7,0,0
0.46988,-81.9838,864.709,1309.84,0.7,-0.7,0,0
0.473896,-79.9091,866.128,1309.01,0.7,-0.7,0,0
0.477912,-77.8566,867.593,1308.11,0.7,-0.7,0,0
0.481928,-75.8358,869.089,1307.17,0.7,-0.7,0,0
0.485944,-73.856,870.607,1306.19,0.7,-0.7,0,0
0.48996,-71.9237,872.141,1305.16,0.7,-0.7,0,0
0.493976,-70.0413,873.693,1304.09,0.7,-0.7,0,0
0.497992,-68.2072,875.271,1302.97,0.7,-0.7,0,0
0.502008,-66.4167,876.885,1301.79,0.7,-0.7,0,0
0.506024,-64.6627,878.55,1300.53,0.7,-0.7,0,0
0.51004,-62.9376,880.278,1299.19,0.7,-0.7,0,0
0.514056,-61.2348,882.08,1297.75,0.7,-0.7,0,0
0.518072,-59.5498,883.956,1296.22,0.7,-0.7,0,0
0.522088,-57.8813,885.904,1294.59,0.7,-0.7,0,0
0.526104,-56.2309,887.912,1292.89,0.7,-0.7,0,0
0.53012,-54.6032,889.962,1291.13,0.7,-0.7,0,0
0.534137,-53.0054,892.036,1289.32,0.7,-0.7,0,0
0.538153,-51.4434,894.117,1287.48,0.7,-0.7,0,0
0.542169,-49.9239,896.191,1285.63,0.7,-0.7,0,0
0.546185,-48.4516,898.253,1283.77,0.7,-0.7,0,0
0.550201,-47.0291,900.305,1281.9,0.7,-0.7,0,0
0.554217,-45.6568,902.358,1279.99,0.7,-0.7,0,0
0.558233,-44.3331,904.429,1278.03,0.7,-0.7,0,0
0.562249,-43.055,906.535,1276.01,0.7,-0.7,0,0
0.566265,-41.8187,908.694,1273.9,0.7,-0.7,0,0
0.570281,-40.6205,910.917,1271.69,0.7,-0.7,0,0
0.574297,-39.4568,913.208,1269.38,0.7,-0.7,0,0
0.578313,-38.325,915.562,1266.97,0.7,-0.7,0,0
0.582329,-37.2233,917.965,1264.48,0.7,-0.7,0,0
0.586345,-36.151,920.399,1261.94,0.7,-0.7,0,0
0.590361,-35.109,922.842,1259.36,0.7,-0.7,0,0
0.594378,-34.0975,925.276,1256.76,0.7,-0.7,0,0
0.598394,-33.118,927.689,1254.16,0.7,-0.7,0,0
0.60241,-32.1727,930.077,1251.56,0.7,-0.7,0,0
0.606426,-31.2635,932.446,1248.94,0.7,-0.7,0,0
0.610442,-30.3926,934.811,1246.29,0.7,-0.7,0,0
0.614458,-29.5615,937.192,1243.59,0.7,-0.7,0,0
0.618474,-28.7716,939.61,1240.8,0.7,-0.7,0,0
0.62249,-28.0231,942.082,1237.9,0.7,-0.7,0,0
0.626506,-27.3149,944.621,1234.88,0.7,-0.7,0,0
0.630522,-26.645,947.227,1231.75,0.7,-0.7,0,0
0.634538,-26.0099,949.891,1228.51,0.7,-0.7,0,0
0.638554,-25.4052,952.595,1225.2,0.7,-0.7,0,0
0.64257,-24.8271,955.316,1221.84,0.7,-0.7,0,0
0.646586,-24.2709,958.027,1218.49,0.7,-0.7,0,0
0.650602,-23.7338,960.708,1215.16,0.7,-0.7,0,0
0.654618,-23.2148,963.345,1211.88,0.7,-0.7,0,0
0.658635,-22.7151,965.935,1208.65,0.7,-0.7,0,0
0.662651,-22.238,968.485,1205.46,0.7,-0.7,0,0
0.666667,-21.788,971.011,1202.28,0.7,-0.7,0,0
0.670683,-21.3703,973.534,1199.1,0.7,-0.7,0,0
0.674699,-20.9899,976.078,1195.88,0.7,-0.7,0,0
0.678715,-20.6498,978.659,1192.6,0.7,-0.7,0,0
0.682731,-20.351,981.288,1189.24,0.7,-0.7,0,0
0.686747,-20.0914,983.966,1185.81,0.7,-0.7,0,0
0.690763,-19.866,986.68,1182.33,0.7,-0.7,0,0
0.694779,-19.6674,989.412,1178.83,0.7,-0.7,0,0
0.698795,-19.4881,992.138,1175.34,0.7,-0.7,0,0
0.702811,-19.3202,994.832,1171.9,0.7,-0.7,0,0
0.706827,-19.1579,997.475,1168.55,0.7,-0.7,0,0
0.710843,-18.9988,1000.05,1165.31,0.7,-0.7,0,0
0.714859,-18.844,1002.57,1162.19,0.7,-0.7,0,0
0.718876,-18.698,1005.03,1159.16,0.7,-0.7,0,0
0.722892,-18.5678,1007.45,1156.23,0.7,-0.7,0,0
0.726908,-18.4612,1009.85,1153.34,0.7,-0.7,0,0
0.730924,-18.3856,1012.25,1150.49,0.7,-0.7,0,0
0.73494,-18.3458,1014.67,1147.64,0.7,-0.7,0,0
0.738956,-18.343,1017.12,1144.79,0.7,-0.7,0,0
0.742972,-18.3744,1019.59,1141.92,0.7,-0.7,0,0
0.746988,-18.4328,1022.07,1139.07,0.7,-0.7,0,0
0.751004,-18.5079,1024.54,1136.24,0.7,-0.7,0,0
0.75502,-18.5891,1026.99,1133.47,0.7,-0.7,0,0
0.759036,-18.6656,1029.38,1130.78,0.7,-0.7,0,0
0.763052,-18.7296,1031.69,1128.19,0.7,-0.7,0,0
0.767068,-18.7775,1033.93,1125.73,0.7,-0.7,0,0
0.771084,-18.8104,1036.08,1123.38,0.7,-0.7,0,0
0.7751,-18.8336,1038.16,1121.14,0.7,-0.7,0,0
0.779116,-18.8552,1040.18,1118.99,0.7,-0.7,0,0
0.783133,-18.8847,1042.15,1116.91,0.7,-0.7,0,0
0.787149,-18.9306,1044.1,1114.88,0.7,-0.7,0,0
0.791165,-18.999,1046.04,1112.89,0.7,-0.7,0,0
0.795181,-19.092,1047.97,1110.91,0.7,-0.7,0,0
0.799197,-19.2071,1049.89,1108.96,0.7,-0.7,0,0
0.803213,-19.3378,1051.8,1107.04,0.7,-0.7,0,0
0.807229,-19.4747,1053.68,1105.16,0.7,-0.7,0,0
0.811245,-19.608,1055.51,1103.35,0.7,-0.7,0,0
0.815261,-19.7285,1057.29,1101.61,0.7,-0.7,0,0
0.819277,-19.8303,1058.99,1099.97,0.7,-0.7,0,0
0.823293,-19.9118,1060.62,1098.43,0.7,-0.7,0,0
0.827309,-19.9761,1062.17,1096.99,0.7,-0.7,0,0
0.831325,-20.0301,1063.65,1095.65,0.7,-0.7,0,0
0.835341,-20.0833,1065.07,1094.38,0.7,-0.7,0,0
0.839357,-20.1457,1066.45,1093.18,0.7,-0.7,0,0
0.843373,-20.2259,1067.8,1092.04,0.7,-0.7,0,0
0.84739,-20.3296,1069.12,1090.93,0.7,-0.7,0,0
0.851406,-20.4579,1070.42,1089.86,0.7,-0.7,0,0
0.855422,-20.6078,1071.7,1088.82,0.7,-0.7,0,0
0.859438,-20.7718,1072.96,1087.81,0.7,-0.7,0,0
0.863454,-20.9406,1074.19,1086.84,0.7,-0.7,0,0
0.86747,-21.1048,1075.37,1085.91,0.7,-0.7,0,0
0.871486,-21.2563,1076.51,1085.04,0.7,-0.7,0,0
0.875502,-21.3907,1077.6,1084.22,0.7,-0.7,0,0
0.879518,-21.5083,1078.63,1083.46,0.7,-0.7,0,0
0.883534,-21.6139,1079.6,1082.75,0.7,-0.7,0,0
0.88755,-21.7159,1080.52,1082.09,0.7,-0.7,0,0
0.891566,-21.8245,1081.41,1081.48,0.7,-0.7,0,0
0.895582,-21.9497,1082.25,1080.89,0.7,-0.7,0,0
0.899598,-22.0993,1083.07,1080.33,0.7,-0.7,0,0
0.903614,-22.2772,1083.87,1079.79,0.7,-0.7,0,0
0.907631,-22.4822,1084.65,1079.26,0.7,-0.7,0,0
0.911647,-22.7082,1085.41,1078.75,0.7,-0.7,0,0
0.915663,-22.9451,1086.14,1078.25,0.7,-0.7,0,0
0.919679,-23.1811,1086.85,1077.78,0.7,-0.7,0,0
0.923695,-23.4046,1087.53,1077.33,0.7,-0.7,0,0
0.927711,-23.606,1088.18,1076.91,0.7,-0.7,0,0
0.931727,-23.7806,1088.79,1076.51,0.7,-0.7,0,0
0.935743,-23.9284,1089.36,1076.15,0.7,-0.7,0,0
0.939759,-24.0542,1089.89,1075.81,0.7,-0.7,0,0
0.943775,-24.1667,1090.38,1075.49,0.7,-0.7,0,0
0.947791,-24.276,1090.85,1075.19,0.7,-0.7,0,0
0.951807,-24.392,1091.28,1074.91,0.7,-0.7,0,0
0.955823,-24.5224,1091.69,1074.64,0.7,-0.7,0,0
0.959839,-24.6706,1092.08,1074.38,0.7,-0.7,0,0
0.963855,-24.8356,1092.45,1074.12,0.7,-0.7,0,0
0.967871,-25.0116,1092.81,1073.88,0.7,-0.7,0,0
0.971888,-25.1894,1093.14,1073.64,0.7,-0.7,0,0
0.975904,-25.3591,1093.46,1073.42,0.7,-0.7,0,0
0.97992,-25.511,1093.75,1073.22,0.7,-0.7,0,0
0.983936,-25.6379,1094.03,1073.05,0.7,-0.7,0,0
0.987952,-25.7372,1094.28,1072.89,0.7,-0.7,0,0
0.991968,-25.8107,1094.52,1072.76,0.7,-0.7,0,0
0.995984,-25.8646,1094.73,1072.66,0.7,-0.7,0,0
1,-25.9077,1094.92,1072.58,0.7,-0.7,0,0
