0,-314.447,1060.76,1091.1,0.7,-0.7,0.0,0.0
0.00371747,-313.766,1059.85,1092.03,0.7,-0.7,0.0,0.0
0.00743494,-312.831,1058.82,1093.31,0.7,-0.7,0.0,0.0
0.0111524,-311.912,1057.62,1094.76,0.7,-0.7,0.0,0.0
0.0148699,-311.01,1056.23,1096.4,0.7,-0.7,0.0,0.0
0.0185874,-310.125,1054.67,1098.23,0.7,-0.7,0.0,0.0
0.0223048,-309.257,1052.92,1100.24,0.7,-0.7,0.0,0.0
0.0260223,-308.406,1050.99,1102.43,0.7,-0.7,0.0,0.0
0.0297398,-307.57,1048.91,1104.77,0.7,-0.7,0.0,0.0
0.0334572,-306.748,1046.68,1107.25,0.7,-0.7,0.0,0.0
0.0371747,-305.94,1044.32,1109.84,0.7,-0.7,0.0,0.0
0.0408922,-305.143,1041.86,1112.52,0.7,-0.7,0.0,0.0
0.0446097,-304.357,1039.29,1115.28,0.7,-0.7,0.0,0.0
0.0483271,-303.583,1036.63,1118.1,0.7,-0.7,0.0,0.0
0.0520446,-302.82,1033.87,1121,0.7,-0.7,0.0,0.0
0.0557621,-302.071,1030.99,1123.97,0.7,-0.7,0.0,0.0
0.0594796,-301.337,1027.96,1127.04,0.7,-0.7,0.0,0.0
0.063197,-300.62,1024.78,1130.23,0.7,-0.7,0.0,0.0
0.0669145,-299.923,1021.4,1133.56,0.7,-0.7,0.0,0.0
0.070632,-299.246,1017.83,1137.05,0.7,-0.7,0.0,0.0
0.0743494,-298.587,1014.04,1140.7,0.7,-0.7,0.0,0.0
0.0780669,-297.946,1010.06,1144.5,0.7,-0.7,0.0,0.0
0.0817844,-297.316,1005.9,1148.44,0.7,-0.7,0.0,0.0
0.0855019,-296.692,1001.61,1152.49,0.7,-0.7,0.0,0.0
0.0892193,-296.067,997.22,1156.59,0.7,-0.7,0.0,0.0
0.0929368,-295.432,992.788,1160.72,0.7,-0.7,0.0,0.0
0.0966543,-294.779,988.362,1164.83,0.7,-0.7,0.0,0.0
0.100372,-294.1,983.978,1168.88,0.7,-0.7,0.0,0.0
0.104089,-293.389,979.659,1172.86,0.7,-0.7,0.0,0.0
0.107807,-292.642,975.412,1176.76,0.7,-0.7,0.0,0.0
0.111524,-291.856,971.228,1180.58,0.7,-0.7,0.0,0.0
0.115242,-291.028,967.085,1184.34,0.7,-0.7,0.0,0.0
0.118959,-290.159,962.952,1188.08,0.7,-0.7,0.0,0.0
0.122677,-289.25,958.798,1191.81,0.7,-0.7,0.0,0.0
0.126394,-288.301,954.597,1195.56,0.7,-0.7,0.0,0.0
0.130112,-287.314,950.333,1199.35,0.7,-0.7,0.0,0.0
0.133829,-286.29,946.003,1203.18,0.7,-0.7,0.0,0.0
0.137546,-285.231,941.62,1207.05,0.7,-0.7,0.0,0.0
0.141264,-284.136,937.212,1210.93,0.7,-0.7,0.0,0.0
0.144981,-283.007,932.817,1214.79,0.7,-0.7,0.0,0.0
0.148699,-281.84,928.476,1218.6,0.7,-0.7,0.0,0.0
0.152416,-280.635,924.227,1222.34,0.7,-0.7,0.0,0.0
0.156134,-279.39,920.103,1225.96,0.7,-0.7,0.0,0.0
0.159851,-278.099,916.123,1229.48,0.7,-0.7,0.0,0.0
0.163569,-276.76,912.291,1232.87,0.7,-0.7,0.0,0.0
0.167286,-275.367,908.598,1236.15,0.7,-0.7,0.0,0.0
0.171004,-273.916,905.023,1239.33,0.7,-0.7,0.0,0.0
0.174721,-272.401,901.538,1242.45,0.7,-0.7,0.0,0.0
0.178439,-270.821,898.113,1245.53,0.7,-0.7,0.0,0.0
0.182156,-269.174,894.724,1248.57,0.7,-0.7,0.0,0.0
0.185874,-267.461,891.35,1251.62,0.7,-0.7,0.0,0.0
0.189591,-265.684,887.985,1254.65,0.7,-0.7,0.0,0.0
0.193309,-263.851,884.632,1257.68,0.7,-0.7,0.0,0.0
0.197026,-261.969,881.306,1260.69,0.7,-0.7,0.0,0.0
0.200743,-260.046,878.029,1263.65,0.7,-0.7,0.0,0.0
0.204461,-258.089,874.825,1266.55,0.7,-0.7,0.0,0.0
0.208178,-256.107,871.715,1269.36,0.7,-0.7,0.0,0.0
0.211896,-254.101,868.72,1272.07,0.7,-0.7,0.0,0.0
0.215613,-252.073,865.846,1274.66,0.7,-0.7,0.0,0.0
0.219331,-250.018,863.094,1277.14,0.7,-0.7,0.0,0.0
0.223048,-247.932,860.452,1279.51,0.7,-0.7,0.0,0.0
0.226766,-245.804,857.903,1281.79,0.7,-0.7,0.0,0.0
0.230483,-243.627,855.424,1283.99,0.7,-0.7,0.0,0.0
0.234201,-241.394,852.995,1286.13,0.7,-0.7,0.0,0.0
0.237918,-239.099,850.594,1288.22,0.7,-0.7,0.0,0.0
0.241636,-236.741,848.211,1290.29,0.7,-0.7,0.0,0.0
0.245353,-234.325,845.839,1292.32,0.7,-0.7,0.0,0.0
0.249071,-231.86,843.481,1294.31,0.7,-0.7,0.0,0.0
0.252788,-229.356,841.148,1296.27,0.7,-0.7,0.0,0.0
0.256506,-226.829,838.856,1298.17,0.7,-0.7,0.0,0.0
0.260223,-224.293,836.62,1300,0.7,-0.7,0.0,0.0
0.263941,-221.76,834.456,1301.74,0.7,-0.7,0.0,0.0
0.267658,-219.237,832.374,1303.38,0.7,-0.7,0.0,0.0
0.271375,-216.728,830.38,1304.92,0.7,-0.7,0.0,0.0
0.275093,-214.23,828.471,1306.36,0.7,-0.7,0.0,0.0
0.27881,-211.736,826.639,1307.68,0.7,-0.7,0.0,0.0
0.282528,-209.235,824.871,1308.91,0.7,-0.7,0.0,0.0
0.286245,-206.716,823.152,1310.05,0.7,-0.7,0.0,0.0
0.289963,-204.169,821.467,1311.11,0.7,-0.7,0.0,0.0
0.29368,-201.585,819.804,1312.11,0.7,-0.7,0.0,0.0
0.297398,-198.961,818.157,1313.04,0.7,-0.7,0.0,0.0
0.301115,-196.3,816.526,1313.92,0.7,-0.7,0.0,0.0
0.304833,-193.608,814.916,1314.74,0.7,-0.7,0.0,0.0
0.30855,-190.899,813.338,1315.51,0.7,-0.7,0.0,0.0
0.312268,-188.184,811.808,1316.23,0.7,-0.7,0.0,0.0
0.315985,-185.477,810.341,1316.89,0.7,-0.7,0.0,0.0
0.319703,-182.791,808.952,1317.49,0.7,-0.7,0.0,0.0
0.32342,-180.131,807.651,1318.02,0.7,-0.7,0.0,0.0
0.327138,-177.5,806.447,1318.49,0.7,-0.7,0.0,0.0
0.330855,-174.895,805.342,1318.89,0.7,-0.7,0.0,0.0
0.334572,-172.305,804.334,1319.21,0.7,-0.7,0.0,0.0
0.33829,-169.72,803.417,1319.47,0.7,-0.7,0.0,0.0
0.342007,-167.128,802.583,1319.67,0.7,-0.7,0.0,0.0
0.345725,-164.518,801.826,1319.8,0.7,-0.7,0.0,0.0
0.349442,-161.882,801.137,1319.86,0.7,-0.7,0.0,0.0
0.35316,-159.218,800.511,1319.88,0.7,-0.7,0.0,0.0
0.356877,-156.529,799.947,1319.84,0.7,-0.7,0.0,0.0
0.360595,-153.824,799.443,1319.75,0.7,-0.7,0.0,0.0
0.364312,-151.116,799.005,1319.62,0.7,-0.7,0.0,0.0
0.36803,-148.421,798.639,1319.45,0.7,-0.7,0.0,0.0
0.371747,-145.753,798.35,1319.24,0.7,-0.7,0.0,0.0
0.375465,-143.126,798.147,1319,0.7,-0.7,0.0,0.0
0.379182,-140.548,798.039,1318.71,0.7,-0.7,0.0,0.0
0.3829,-138.022,798.032,1318.39,0.7,-0.7,0.0,0.0
0.386617,-135.546,798.133,1318.03,0.7,-0.7,0.0,0.0
0.390335,-133.113,798.348,1317.62,0.7,-0.7,0.0,0.0
0.394052,-130.713,798.679,1317.16,0.7,-0.7,0.0,0.0
0.39777,-128.337,799.129,1316.64,0.7,-0.7,0.0,0.0
0.401487,-125.973,799.697,1316.06,0.7,-0.7,0.0,0.0
0.405204,-123.616,800.38,1315.42,0.7,-0.7,0.0,0.0
0.408922,-121.263,801.171,1314.73,0.7,-0.7,0.0,0.0
0.412639,-118.915,802.063,1313.98,0.7,-0.7,0.0,0.0
0.416357,-116.578,803.046,1313.18,0.7,-0.7,0.0,0.0
0.420074,-114.264,804.11,1312.35,0.7,-0.7,0.0,0.0
0.423792,-111.984,805.247,1311.48,0.7,-0.7,0.0,0.0
0.427509,-109.749,806.448,1310.6,0.7,-0.7,0.0,0.0
0.431227,-107.569,807.711,1309.69,0.7,-0.7,0.0,0.0
0.434944,-105.453,809.035,1308.76,0.7,-0.7,0.0,0.0
0.438662,-103.404,810.427,1307.82,0.7,-0.7,0.0,0.0
0.442379,-101.42,811.896,1306.84,0.7,-0.7,0.0,0.0
0.446097,-99.4989,813.453,1305.83,0.7,-0.7,0.0,0.0
0.449814,-97.6331,815.112,1304.78,0.7,-0.7,0.0,0.0
0.453532,-95.8155,816.882,1303.67,0.7,-0.7,0.0,0.0
0.457249,-94.0386,818.773,1302.5,0.7,-0.7,0.0,0.0
0.460967,-92.2956,820.785,1301.27,0.7,-0.7,0.0,0.0
0.464684,-90.582,822.913,1299.97,0.7,-0.7,0.0,0.0
0.468401,-88.8949,825.146,1298.62,0.7,-0.7,0.0,0.0
0.472119,-87.2337,827.465,1297.21,0.7,-0.7,0.0,0.0
0.475836,-85.6007,829.851,1295.77,0.7,-0.7,0.0,0.0
0.479554,-83.9966,832.281,1294.31,0.7,-0.7,0.0,0.0
0.483271,-82.4242,834.738,1292.83,0.7,-0.7,0.0,0.0
0.486989,-80.8856,837.209,1291.34,0.7,-0.7,0.0,0.0
0.490706,-79.3821,839.689,1289.85,0.7,-0.7,0.0,0.0
0.494424,-77.9134,842.183,1288.35,0.7,-0.7,0.0,0.0
0.498141,-76.4784,844.702,1286.82,0.7,-0.7,0.0,0.0
0.501859,-75.0745,847.266,1285.26,0.7,-0.7,0.0,0.0
0.505576,-73.6988,849.893,1283.66,0.7,-0.7,0.0,0.0
0.509294,-72.3482,852.601,1281.99,0.7,-0.7,0.0,0.0
0.513011,-71.02,855.406,1280.26,0.7,-0.7,0.0,0.0
0.516729,-69.7124,858.313,1278.45,0.7,-0.7,0.0,0.0
0.520446,-68.4243,861.317,1276.56,0.7,-0.7,0.0,0.0
0.524164,-67.1564,864.407,1274.61,0.7,-0.7,0.0,0.0
0.527881,-65.91,867.561,1272.61,0.7,-0.7,0.0,0.0
0.531599,-64.6888,870.752,1270.58,0.7,-0.7,0.0,0.0
0.535316,-63.4952,873.955,1268.52,0.7,-0.7,0.0,0.0
0.539033,-62.333,877.145,1266.46,0.7,-0.7,0.0,0.0
0.542751,-61.2061,880.307,1264.4,0.7,-0.7,0.0,0.0
0.546468,-60.1182,883.436,1262.35,0.7,-0.7,0.0,0.0
0.550186,-59.0724,886.537,1260.3,0.7,-0.7,0.0,0.0
0.553903,-58.0714,889.624,1258.23,0.7,-0.7,0.0,0.0
0.557621,-57.117,892.72,1256.13,0.7,-0.7,0.0,0.0
0.561338,-56.2102,895.849,1253.98,0.7,-0.7,0.0,0.0
0.565056,-55.3511,899.034,1251.76,0.7,-0.7,0.0,0.0
0.568773,-54.5385,902.292,1249.47,0.7,-0.7,0.0,0.0
0.572491,-53.7703,905.632,1247.09,0.7,-0.7,0.0,0.0
0.576208,-53.043,909.05,1244.63,0.7,-0.7,0.0,0.0
0.579926,-52.3523,912.534,1242.1,0.7,-0.7,0.0,0.0
0.583643,-51.6931,916.06,1239.52,0.7,-0.7,0.0,0.0
0.587361,-51.0611,919.603,1236.9,0.7,-0.7,0.0,0.0
0.591078,-50.4513,923.135,1234.27,0.7,-0.7,0.0,0.0
0.594796,-49.8602,926.632,1231.65,0.7,-0.7,0.0,0.0
0.598513,-49.2862,930.079,1229.04,0.7,-0.7,0.0,0.0
0.60223,-48.7293,933.473,1226.45,0.7,-0.7,0.0,0.0
0.605948,-48.1914,936.821,1223.87,0.7,-0.7,0.0,0.0
0.609665,-47.6755,940.141,1221.28,0.7,-0.7,0.0,0.0
0.613383,-47.1858,943.457,1218.66,0.7,-0.7,0.0,0.0
0.6171,-46.726,946.795,1215.99,0.7,-0.7,0.0,0.0
0.620818,-46.2994,950.179,1213.25,0.7,-0.7,0.0,0.0
0.624535,-45.9074,953.626,1210.43,0.7,-0.7,0.0,0.0
0.628253,-45.5493,957.144,1207.53,0.7,-0.7,0.0,0.0
0.63197,-45.222,960.728,1204.54,0.7,-0.7,0.0,0.0
0.635688,-44.9198,964.362,1201.5,0.7,-0.7,0.0,0.0
0.639405,-44.6355,968.02,1198.43,0.7,-0.7,0.0,0.0
0.643123,-44.3615,971.673,1195.36,0.7,-0.7,0.0,0.0
0.64684,-44.0898,975.291,1192.31,0.7,-0.7,0.0,0.0
0.650558,-43.814,978.849,1189.32,0.7,-0.7,0.0,0.0
0.654275,-43.53,982.332,1186.39,0.7,-0.7,0.0,0.0
0.657993,-43.2366,985.735,1183.55,0.7,-0.7,0.0,0.0
0.66171,-42.9352,989.065,1180.77,0.7,-0.7,0.0,0.0
0.665428,-42.6296,992.34,1178.06,0.7,-0.7,0.0,0.0
0.669145,-42.325,995.582,1175.39,0.7,-0.7,0.0,0.0
0.672862,-42.0271,998.818,1172.73,0.7,-0.7,0.0,0.0
0.67658,-41.741,1002.07,1170.07,0.7,-0.7,0.0,0.0
0.680297,-41.4703,1005.35,1167.4,0.7,-0.7,0.0,0.0
0.684015,-41.2163,1008.68,1164.71,0.7,-0.7,0.0,0.0
0.687732,-40.9775,1012.03,1162,0.7,-0.7,0.0,0.0
0.69145,-40.7502,1015.41,1159.3,0.7,-0.7,0.0,0.0
0.695167,-40.5286,1018.77,1156.61,0.7,-0.7,0.0,0.0
0.698885,-40.3067,1022.11,1153.97,0.7,-0.7,0.0,0.0
0.702602,-40.0781,1025.38,1151.4,0.7,-0.7,0.0,0.0
0.70632,-39.8379,1028.56,1148.93,0.7,-0.7,0.0,0.0
0.710037,-39.5836,1031.65,1146.56,0.7,-0.7,0.0,0.0
0.713755,-39.3152,1034.63,1144.32,0.7,-0.7,0.0,0.0
0.717472,-39.0353,1037.51,1142.18,0.7,-0.7,0.0,0.0
0.72119,-38.7488,1040.31,1140.15,0.7,-0.7,0.0,0.0
0.724907,-38.4615,1043.04,1138.21,0.7,-0.7,0.0,0.0
0.728625,-38.1798,1045.73,1136.34,0.7,-0.7,0.0,0.0
0.732342,-37.9089,1048.4,1134.52,0.7,-0.7,0.0,0.0
0.736059,-37.6525,1051.06,1132.75,0.7,-0.7,0.0,0.0
0.739777,-37.4117,1053.71,1131.01,0.7,-0.7,0.0,0.0
0.743494,-37.1852,1056.35,1129.3,0.7,-0.7,0.0,0.0
0.747212,-36.9689,1058.98,1127.62,0.7,-0.7,0.0,0.0
0.750929,-36.7573,1061.57,1126,0.7,-0.7,0.0,0.0
0.754647,-36.5445,1064.1,1124.43,0.7,-0.7,0.0,0.0
0.758364,-36.3249,1066.55,1122.92,0.7,-0.7,0.0,0.0
0.762082,-36.094,1068.9,1121.5,0.7,-0.7,0.0,0.0
0.765799,-35.8502,1071.15,1120.15,0.7,-0.7,0.0,0.0
0.769517,-35.5943,1073.28,1118.9,0.7,-0.7,0.0,0.0
0.773234,-35.3298,1075.3,1117.72,0.7,-0.7,0.0,0.0
0.776952,-35.062,1077.23,1116.62,0.7,-0.7,0.0,0.0
0.780669,-34.7974,1079.07,1115.59,0.7,-0.7,0.0,0.0
0.784387,-34.5425,1080.83,1114.61,0.7,-0.7,0.0,0.0
0.788104,-34.3026,1082.54,1113.67,0.7,-0.7,0.0,0.0
0.791822,-34.0813,1084.21,1112.77,0.7,-0.7,0.0,0.0
0.795539,-33.8794,1085.84,1111.89,0.7,-0.7,0.0,0.0
0.799257,-33.6952,1087.43,1111.05,0.7,-0.7,0.0,0.0
0.802974,-33.5245,1088.98,1110.23,0.7,-0.7,0.0,0.0
0.806691,-33.3619,1090.48,1109.44,0.7,-0.7,0.0,0.0
0.810409,-33.2017,1091.93,1108.69,0.7,-0.7,0.0,0.0
0.814126,-33.0388,1093.3,1107.98,0.7,-0.7,0.0,0.0
0.817844,-32.8698,1094.6,1107.31,0.7,-0.7,0.0,0.0
0.821561,-32.6941,1095.82,1106.69,0.7,-0.7,0.0,0.0
0.825279,-32.5141,1096.96,1106.11,0.7,-0.7,0.0,0.0
0.828996,-32.3346,1098.02,1105.58,0.7,-0.7,0.0,0.0
0.832714,-32.1621,1099.01,1105.08,0.7,-0.7,0.0,0.0
0.836431,-32.0041,1099.93,1104.61,0.7,-0.7,0.0,0.0
0.840149,-31.8676,1100.79,1104.17,0.7,-0.7,0.0,0.0
0.843866,-31.7578,1101.6,1103.75,0.7,-0.7,0.0,0.0
0.847584,-31.6774,1102.37,1103.34,0.7,-0.7,0.0,0.0
0.851301,-31.6259,1103.1,1102.95,0.7,-0.7,0.0,0.0
0.855019,-31.5997,1103.79,1102.57,0.7,-0.7,0.0,0.0
0.858736,-31.5923,1104.45,1102.2,0.7,-0.7,0.0,0.0
0.862454,-31.5961,1105.07,1101.84,0.7,-0.7,0.0,0.0
0.866171,-31.6032,1105.65,1101.5,0.7,-0.7,0.0,0.0
0.869888,-31.6068,1106.19,1101.18,0.7,-0.7,0.0,0.0
0.873606,-31.6026,1106.68,1100.87,0.7,-0.7,0.0,0.0
0.877323,-31.5899,1107.13,1100.57,0.7,-0.7,0.0,0.0
0.881041,-31.5712,1107.53,1100.3,0.7,-0.7,0.0,0.0
0.884758,-31.552,1107.89,1100.03,0.7,-0.7,0.0,0.0
0.888476,-31.54,1108.2,1099.78,0.7,-0.7,0.0,0.0
0.892193,-31.5433,1108.46,1099.54,0.7,-0.7,0.0,0.0
0.895911,-31.5695,1108.69,1099.29,0.7,-0.7,0.0,0.0
0.899628,-31.6236,1108.87,1099.05,0.7,-0.7,0.0,0.0
0.903346,-31.7075,1109.03,1098.81,0.7,-0.7,0.0,0.0
0.907063,-31.819,1109.15,1098.57,0.7,-0.7,0.0,0.0
0.910781,-31.9521,1109.24,1098.33,0.7,-0.7,0.0,0.0
0.914498,-32.0975,1109.31,1098.1,0.7,-0.7,0.0,0.0
0.918216,-32.2443,1109.34,1097.87,0.7,-0.7,0.0,0.0
0.921933,-32.3818,1109.36,1097.65,0.7,-0.7,0.0,0.0
0.925651,-32.5002,1109.34,1097.45,0.7,-0.7,0.0,0.0
0.929368,-32.5932,1109.3,1097.26,0.7,-0.7,0.0,0.0
0.933086,-32.6581,1109.24,1097.09,0.7,-0.7,0.0,0.0
0.936803,-32.6964,1109.14,1096.94,0.7,-0.7,0.0,0.0
0.94052,-32.7131,1109.01,1096.8,0.7,-0.7,0.0,0.0
0.944238,-32.7156,1108.85,1096.68,0.7,-0.7,0.0,0.0
0.947955,-32.7122,1108.66,1096.57,0.7,-0.7,0.0,0.0
0.951673,-32.7112,1108.42,1096.47,0.7,-0.7,0.0,0.0
0.95539,-32.7186,1108.15,1096.38,0.7,-0.7,0.0,0.0
0.959108,-32.7379,1107.85,1096.3,0.7,-0.7,0.0,0.0
0.962825,-32.7688,1107.51,1096.23,0.7,-0.7,0.0,0.0
0.966543,-32.808,1107.15,1096.16,0.7,-0.7,0.0,0.0
0.97026,-32.8494,1106.76,1096.09,0.7,-0.7,0.0,0.0
0.973978,-32.8858,1106.35,1096.04,0.7,-0.7,0.0,0.0
0.977695,-32.9099,1105.92,1095.98,0.7,-0.7,0.0,0.0
0.981413,-32.9159,1105.48,1095.94,0.7,-0.7,0.0,0.0
0.98513,-32.9005,1105.03,1095.9,0.7,-0.7,0.0,0.0
0.988848,-32.8638,1104.57,1095.87,0.7,-0.7,0.0,0.0
0.992565,-32.8092,1104.09,1095.84,0.7,-0.7,0.0,0.0
0.996283,-32.7428,1103.59,1095.81,0.7,-0.7,0.0,0.0
1,-32.6725,1103.07,1095.79,0.7,-0.7,0.0,0.0
