0,0.859825,1060.76,1091.1,0.7,-0.7,0,0
0.00371747,0.784397,1059.85,1092.03,0.7,-0.7,0,0
0.00743494,1.60111,1058.96,1093.09,0.7,-0.7,0,0
0.0111524,2.38487,1057.91,1094.29,0.7,-0.7,0,0
0.0148699,3.13397,1056.7,1095.65,0.7,-0.7,0,0
0.0185874,3.8477,1055.32,1097.17,0.7,-0.7,0,0
0.0223048,4.52657,1053.78,1098.84,0.7,-0.7,0,0
0.0260223,5.17233,1052.08,1100.65,0.7,-0.7,0,0
0.0297398,5.78787,1050.24,1102.61,0.7,-0.7,0,0
0.0334572,6.37684,1048.26,1104.67,0.7,-0.7,0,0
0.0371747,6.94263,1046.16,1106.84,0.7,-0.7,0,0
0.0408922,7.48903,1043.96,1109.1,0.7,-0.7,0,0
0.0446097,8.01846,1041.66,1111.42,0.7,-0.7,0,0
0.0483271,8.53184,1039.26,1113.81,0.7,-0.7,0,0
0.0520446,9.02838,1036.76,1116.27,0.7,-0.7,0,0
0.0557621,9.5057,1034.13,1118.81,0.7,-0.7,0,0
0.0594796,9.96026,1031.37,1121.45,0.7,-0.7,0,0
0.063197,10.388,1028.43,1124.2,0.7,-0.7,0,0
0.0669145,10.7854,1025.32,1127.09,0.7,-0.7,0,0
0.070632,11.1501,1022,1130.13,0.7,-0.7,0,0
0.0743494,11.4818,1018.47,1133.32,0.7,-0.7,0,0
0.0780669,11.7834,1014.73,1136.66,0.7,-0.7,0,0
0.0817844,12.0604,1010.82,1140.14,0.7,-0.7,0,0
0.0855019,12.3212,1006.76,1143.71,0.7,-0.7,0,0
0.0892193,12.5765,1002.59,1147.36,0.7,-0.7,0,0
0.0929368,12.8375,998.35,1151.05,0.7,-0.7,0,0
0.0966543,13.1155,994.086,1154.74,0.7,-0.7,0,0
0.100372,13.4203,989.826,1158.39,0.7,-0.7,0,0
0.104089,13.7592,985.588,1162.01,0.7,-0.7,0,0
0.107807,14.1367,981.372,1165.58,0.7,-0.7,0,0
0.111524,14.5541,977.162,1169.11,0.7,-0.7,0,0
0.115242,15.0106,972.934,1172.62,0.7,-0.7,0,0
0.118959,15.5034,968.655,1176.14,0.7,-0.7,0,0
0.122677,16.0287,964.291,1179.69,0.7,-0.7,0,0
0.126394,16.5828,959.817,1183.29,0.7,-0.7,0,0
0.130112,17.1626,955.218,1186.96,0.7,-0.7,0,0
0.133829,17.7662,950.494,1190.7,0.7,-0.7,0,0
0.137546,18.3935,945.662,1194.5,0.7,-0.7,0,0
0.141264,19.0458,940.756,1198.33,0.7,-0.7,0,0
0.144981,19.7261,935.82,1202.15,0.7,-0.7,0,0
0.148699,20.4389,930.897,1205.94,0.7,-0.7,0,0
0.152416,21.1879,926.033,1209.67,0.7,-0.7,0,0
0.156134,21.9776,921.261,1213.29,0.7,-0.7,0,0
0.159851,22.8118,916.599,1216.81,0.7,-0.7,0,0
0.163569,23.6937,912.049,1220.21,0.7,-0.7,0,0
0.167286,24.6256,907.596,1223.51,0.7,-0.7,0,0
0.171004,25.6088,903.213,1226.72,0.7,-0.7,0,0
0.174721,26.644,898.865,1229.86,0.7,-0.7,0,0
0.178439,27.7308,894.519,1232.97,0.7,-0.7,0,0
0.182156,28.8681,890.144,1236.05,0.7,-0.7,0,0
0.185874,30.0543,885.722,1239.14,0.7,-0.7,0,0
0.189591,31.2871,881.252,1242.22,0.7,-0.7,0,0
0.193309,32.5637,876.744,1245.29,0.7,-0.7,0,0
0.197026,33.8815,872.226,1248.35,0.7,-0.7,0,0
0.200743,35.2391,867.735,1251.37,0.7,-0.7,0,0
0.204461,36.6339,863.307,1254.32,0.7,-0.7,0,0
0.208178,38.0656,858.979,1257.18,0.7,-0.7,0,0
0.211896,39.5352,854.779,1259.94,0.7,-0.7,0,0
0.215613,41.0456,850.72,1262.59,0.7,-0.7,0,0
0.219331,42.6009,846.803,1265.12,0.7,-0.7,0,0
0.223048,44.2064,843.013,1267.54,0.7,-0.7,0,0
0.226766,45.8679,839.326,1269.87,0.7,-0.7,0,0
0.230483,47.5909,835.711,1272.12,0.7,-0.7,0,0
0.234201,49.3792,832.139,1274.32,0.7,-0.7,0,0
0.237918,51.2348,828.584,1276.48,0.7,-0.7,0,0
0.241636,53.1564,825.03,1278.6,0.7,-0.7,0,0
0.245353,55.1396,821.472,1280.71,0.7,-0.7,0,0
0.249071,57.1768,817.92,1282.78,0.7,-0.7,0,0
0.252788,59.2577,814.392,1284.82,0.7,-0.7,0,0
0.256506,61.3723,810.916,1286.82,0.7,-0.7,0,0
0.260223,63.509,807.519,1288.75,0.7,-0.7,0,0
0.263941,65.6593,804.226,1290.61,0.7,-0.7,0,0
0.267658,67.8177,801.058,1292.39,0.7,-0.7,0,0
0.271375,69.9829,798.023,1294.08,0.7,-0.7,0,0
0.275093,72.1577,795.119,1295.68,0.7,-0.7,0,0
0.27881,74.3484,792.336,1297.19,0.7,-0.7,0,0
0.282528,76.5636,789.655,1298.64,0.7,-0.7,0,0
0.286245,78.8125,787.053,1300.01,0.7,-0.7,0,0
0.289963,81.1035,784.507,1301.34,0.7,-0.7,0,0
0.29368,83.442,782.002,1302.63,0.7,-0.7,0,0
0.297398,85.8296,779.524,1303.88,0.7,-0.7,0,0
0.301115,88.2634,777.074,1305.11,0.7,-0.7,0,0
0.304833,90.7359,774.657,1306.29,0.7,-0.7,0,0
0.30855,93.2359,772.289,1307.45,0.7,-0.7,0,0
0.312268,95.7516,769.993,1308.55,0.7,-0.7,0,0
0.315985,98.2703,767.788,1309.61,0.7,-0.7,0,0
0.319703,100.782,765.694,1310.6,0.7,-0.7,0,0
0.32342,103.281,763.728,1311.53,0.7,-0.7,0,0
0.327138,105.766,761.899,1312.39,0.7,-0.7,0,0
0.330855,108.242,760.209,1313.17,0.7,-0.7,0,0
0.334572,110.716,758.654,1313.88,0.7,-0.7,0,0
0.33829,113.2,757.225,1314.53,0.7,-0.7,0,0
0.342007,115.705,755.908,1315.11,0.7,-0.7,0,0
0.345725,118.241,754.692,1315.63,0.7,-0.7,0,0
0.349442,120.815,753.564,1316.1,0.7,-0.7,0,0
0.35316,123.429,752.516,1316.53,0.7,-0.7,0,0
0.356877,126.079,751.543,1316.9,0.7,-0.7,0,0
0.360595,128.757,750.645,1317.24,0.7,-0.7,0,0
0.364312,131.449,749.825,1317.53,0.7,-0.7,0,0
0.36803,134.142,749.092,1317.77,0.7,-0.7,0,0
0.371747,136.82,748.452,1317.97,0.7,-0.7,0,0
0.375465,139.472,747.916,1318.12,0.7,-0.7,0,0
0.379182,142.092,747.49,1318.22,0.7,-0.7,0,0
0.3829,144.678,747.184,1318.26,0.7,-0.7,0,0
0.386617,147.233,747.001,1318.24,0.7,-0.7,0,0
0.390335,149.765,746.946,1318.15,0.7,-0.7,0,0
0.394052,152.287,747.018,1318,0.7,-0.7,0,0
0.39777,154.809,747.218,1317.79,0.7,-0.7,0,0
0.401487,157.342,747.541,1317.5,0.7,-0.7,0,0
0.405204,159.892,747.982,1317.16,0.7,-0.7,0,0
0.408922,162.461,748.534,1316.74,0.7,-0.7,0,0
0.412639,165.047,749.189,1316.27,0.7,-0.7,0,0
0.416357,167.64,749.936,1315.75,0.7,-0.7,0,0
0.420074,170.228,750.767,1315.18,0.7,-0.7,0,0
0.423792,172.796,751.676,1314.57,0.7,-0.7,0,0
0.427509,175.331,752.654,1313.93,0.7,-0.7,0,0
0.431227,177.822,753.7,1313.25,0.7,-0.7,0,0
0.434944,180.262,754.813,1312.54,0.7,-0.7,0,0
0.438662,182.648,756,1311.79,0.7,-0.7,0,0
0.442379,184.984,757.268,1311,0.7,-0.7,0,0
0.446097,187.275,758.627,1310.16,0.7,-0.7,0,0
0.449814,189.532,760.09,1309.26,0.7,-0.7,0,0
0.453532,191.764,761.664,1308.3,0.7,-0.7,0,0
0.457249,193.981,763.355,1307.26,0.7,-0.7,0,0
0.460967,196.189,765.165,1306.16,0.7,-0.7,0,0
0.464684,198.392,767.088,1304.98,0.7,-0.7,0,0
0.468401,200.589,769.113,1303.74,0.7,-0.7,0,0
0.472119,202.776,771.223,1302.45,0.7,-0.7,0,0
0.475836,204.944,773.4,1301.12,0.7,-0.7,0,0
0.479554,207.087,775.624,1299.76,0.7,-0.7,0,0
0.483271,209.196,777.878,1298.37,0.7,-0.7,0,0
0.486989,211.265,780.151,1296.98,0.7,-0.7,0,0
0.490706,213.289,782.439,1295.57,0.7,-0.7,0,0
0.494424,215.27,784.747,1294.15,0.7,-0.7,0,0
0.498141,217.209,787.087,1292.7,0.7,-0.7,0,0
0.501859,219.113,789.474,1291.22,0.7,-0.7,0,0
0.505576,220.987,791.928,1289.69,0.7,-0.7,0,0
0.509294,222.839,794.465,1288.1,0.7,-0.7,0,0
0.513011,224.676,797.098,1286.44,0.7,-0.7,0,0
0.516729,226.501,799.833,1284.7,0.7,-0.7,0,0
0.520446,228.315,802.666,1282.89,0.7,-0.7,0,0
0.524164,230.119,805.584,1281.02,0.7,-0.7,0,0
0.527881,231.906,808.569,1279.1,0.7,-0.7,0,0
0.531599,233.672,811.595,1277.15,0.7,-0.7,0,0
0.535316,235.409,814.639,1275.17,0.7,-0.7,0,0
0.539033,237.112,817.68,1273.19,0.7,-0.7,0,0
0.542751,238.774,820.702,1271.21,0.7,-0.7,0,0
0.546468,240.393,823.703,1269.24,0.7,-0.7,0,0
0.550186,241.965,826.688,1267.27,0.7,-0.7,0,0
0.553903,243.493,829.672,1265.28,0.7,-0.7,0,0
0.557621,244.978,832.676,1263.27,0.7,-0.7,0,0
0.561338,246.423,835.725,1261.2,0.7,-0.7,0,0
0.565056,247.832,838.839,1259.08,0.7,-0.7,0,0
0.568773,249.21,842.037,1256.88,0.7,-0.7,0,0
0.572491,250.558,845.324,1254.61,0.7,-0.7,0,0
0.576208,251.879,848.699,1252.26,0.7,-0.7,0,0
0.579926,253.174,852.147,1249.84,0.7,-0.7,0,0
0.583643,254.442,855.646,1247.37,0.7,-0.7,0,0
0.587361,255.682,859.17,1244.88,0.7,-0.7,0,0
0.591078,256.891,862.691,1242.38,0.7,-0.7,0,0
0.594796,258.067,866.186,1239.89,0.7,-0.7,0,0
0.598513,259.208,869.642,1237.41,0.7,-0.7,0,0
0.60223,260.311,873.056,1234.96,0.7,-0.7,0,0
0.605948,261.374,876.435,1232.51,0.7,-0.7,0,0
0.609665,262.394,879.798,1230.07,0.7,-0.7,0,0
0.613383,263.372,883.169,1227.6,0.7,-0.7,0,0
0.6171,264.306,886.577,1225.09,0.7,-0.7,0,0
0.620818,265.198,890.043,1222.53,0.7,-0.7,0,0
0.624535,266.047,893.587,1219.89,0.7,-0.7,0,0
0.628253,266.857,897.215,1217.17,0.7,-0.7,0,0
0.63197,267.63,900.922,1214.39,0.7,-0.7,0,0
0.635688,268.37,904.691,1211.55,0.7,-0.7,0,0
0.639405,269.08,908.496,1208.68,0.7,-0.7,0,0
0.643123,269.765,912.308,1205.81,0.7,-0.7,0,0
0.64684,270.426,916.096,1202.96,0.7,-0.7,0,0
0.650558,271.067,919.836,1200.16,0.7,-0.7,0,0
0.654275,271.688,923.513,1197.41,0.7,-0.7,0,0
0.657993,272.288,927.124,1194.73,0.7,-0.7,0,0
0.66171,272.863,930.677,1192.11,0.7,-0.7,0,0
0.665428,273.411,934.194,1189.54,0.7,-0.7,0,0
0.669145,273.927,937.698,1186.99,0.7,-0.7,0,0
0.672862,274.408,941.219,1184.45,0.7,-0.7,0,0
0.67658,274.851,944.779,1181.9,0.7,-0.7,0,0
0.680297,275.253,948.397,1179.32,0.7,-0.7,0,0
0.684015,275.618,952.079,1176.72,0.7,-0.7,0,0
0.687732,275.946,955.817,1174.08,0.7,-0.7,0,0
0.69145,276.245,959.594,1171.44,0.7,-0.7,0,0
0.695167,276.52,963.384,1168.8,0.7,-0.7,0,0
0.698885,276.778,967.155,1166.19,0.7,-0.7,0,0
0.702602,277.026,970.877,1163.64,0.7,-0.7,0,0
0.70632,277.269,974.527,1161.16,0.7,-0.7,0,0
0.710037,277.509,978.09,1158.77,0.7,-0.7,0,0
0.713755,277.744,981.563,1156.47,0.7,-0.7,0,0
0.717472,277.973,984.954,1154.26,0.7,-0.7,0,0
0.72119,278.189,988.283,1152.12,0.7,-0.7,0,0
0.724907,278.387,991.575,1150.05,0.7,-0.7,0,0
0.728625,278.56,994.854,1148.01,0.7,-0.7,0,0
0.732342,278.704,998.143,1146,0.7,-0.7,0,0
0.736059,278.817,1001.46,1144.01,0.7,-0.7,0,0
0.739777,278.899,1004.81,1142.02,0.7,-0.7,0,0
0.743494,278.955,1008.18,1140.04,0.7,-0.7,0,0
0.747212,278.993,1011.56,1138.08,0.7,-0.7,0,0
0.750929,279.022,1014.93,1136.15,0.7,-0.7,0,0
0.754647,279.053,1018.25,1134.27,0.7,-0.7,0,0
0.758364,279.096,1021.51,1132.45,0.7,-0.7,0,0
0.762082,279.158,1024.68,1130.7,0.7,-0.7,0,0
0.765799,279.244,1027.74,1129.05,0.7,-0.7,0,0
0.769517,279.356,1030.71,1127.47,0.7,-0.7,0,0
0.773234,279.491,1033.58,1125.98,0.7,-0.7,0,0
0.776952,279.645,1036.37,1124.57,0.7,-0.7,0,0
0.780669,279.809,1039.1,1123.21,0.7,-0.7,0,0
0.784387,279.978,1041.79,1121.91,0.7,-0.7,0,0
0.788104,280.145,1044.46,1120.65,0.7,-0.7,0,0
0.791822,280.305,1047.13,1119.41,0.7,-0.7,0,0
0.795539,280.455,1049.8,1118.2,0.7,-0.7,0,0
0.799257,280.597,1052.46,1117.01,0.7,-0.7,0,0
0.802974,280.732,1055.1,1115.85,0.7,-0.7,0,0
0.806691,280.866,1057.71,1114.73,0.7,-0.7,0,0
0.810409,281.003,1060.26,1113.64,0.7,-0.7,0,0
0.814126,281.147,1062.73,1112.61,0.7,-0.7,0,0
0.817844,281.301,1065.1,1111.62,0.7,-0.7,0,0
0.821561,281.465,1067.38,1110.7,0.7,-0.7,0,0
0.825279,281.636,1069.55,1109.84,0.7,-0.7,0,0
0.828996,281.809,1071.62,1109.04,0.7,-0.7,0,0
0.832714,281.976,1073.6,1108.28,0.7,-0.7,0,0
0.836431,282.132,1075.51,1107.57,0.7,-0.7,0,0
0.840149,282.268,1077.36,1106.9,0.7,-0.7,0,0
0.843866,282.379,1079.17,1106.25,0.7,-0.7,0,0
0.847584,282.463,1080.94,1105.63,0.7,-0.7,0,0
0.851301,282.52,1082.68,1105.02,0.7,-0.7,0,0
0.855019,282.555,1084.39,1104.44,0.7,-0.7,0,0
0.858736,282.573,1086.07,1103.87,0.7,-0.7,0,0
0.862454,282.584,1087.69,1103.33,0.7,-0.7,0,0
0.866171,282.594,1089.25,1102.81,0.7,-0.7,0,0
0.869888,282.613,1090.74,1102.31,0.7,-0.7,0,0
0.873606,282.643,1092.15,1101.85,0.7,-0.7,0,0
0.877323,282.688,1093.47,1101.41,0.7,-0.7,0,0
0.881041,282.745,1094.7,1101.01,0.7,-0.7,0,0
0.884758,282.809,1095.85,1100.62,0.7,-0.7,0,0
0.888476,282.874,1096.91,1100.27,0.7,-0.7,0,0
0.892193,282.932,1097.9,1099.93,0.7,-0.7,0,0
0.895911,282.975,1098.82,1099.6,0.7,-0.7,0,0
0.899628,282.998,1099.69,1099.29,0.7,-0.7,0,0
0.903346,283,1100.5,1098.98,0.7,-0.7,0,0
0.907063,282.981,1101.27,1098.68,0.7,-0.7,0,0
0.910781,282.947,1101.99,1098.39,0.7,-0.7,0,0
0.914498,282.906,1102.67,1098.1,0.7,-0.7,0,0
0.918216,282.867,1103.3,1097.83,0.7,-0.7,0,0
0.921933,282.84,1103.88,1097.57,0.7,-0.7,0,0
0.925651,282.833,1104.4,1097.33,0.7,-0.7,0,0
0.929368,282.851,1104.87,1097.1,0.7,-0.7,0,0
0.933086,282.898,1105.26,1096.89,0.7,-0.7,0,0
0.936803,282.972,1105.6,1096.7,0.7,-0.7,0,0
0.94052,283.069,1105.86,1096.53,0.7,-0.7,0,0
0.944238,283.182,1106.06,1096.37,0.7,-0.7,0,0
0.947955,283.303,1106.19,1096.22,0.7,-0.7,0,0
0.951673,283.425,1106.26,1096.09,0.7,-0.7,0,0
0.95539,283.543,1106.27,1095.96,0.7,-0.7,0,0
0.959108,283.654,1106.22,1095.84,0.7,-0.7,0,0
0.962825,283.757,1106.12,1095.73,0.7,-0.7,0,0
0.966543,283.855,1105.97,1095.64,0.7,-0.7,0,0
0.97026,283.954,1105.79,1095.55,0.7,-0.7,0,0
0.973978,284.06,1105.56,1095.47,0.7,-0.7,0,0
0.977695,284.178,1105.31,1095.41,0.7,-0.7,0,0
0.981413,284.315,1105.02,1095.37,0.7,-0.7,0,0
0.98513,284.473,1104.7,1095.35,0.7,-0.7,0,0
0.988848,284.652,1104.35,1095.35,0.7,-0.7,0,0
0.992565,284.849,1103.97,1095.38,0.7,-0.7,0,0
0.996283,285.06,1103.55,1095.43,0.7,-0.7,0,0
1,285.278,1103.08,1095.5,0.7,-0.7,0,0
