timestamp,x,y,z,qw,qx,qy,qz
0,-0.2,0.7,1,0.70036,-0.71365,0.012155,0.0072555
0.001,-0.2,0.70031,1.0003,0.70036,-0.71365,0.012155,0.0072555
0.002,-0.2,0.70063,1.0006,0.70036,-0.71365,0.012155,0.0072555
0.003,-0.2,0.70094,1.0009,0.70036,-0.71365,0.012155,0.0072555
0.004,-0.2,0.70126,1.0013,0.70036,-0.71365,0.012155,0.0072555
0.005,-0.2,0.70157,1.0016,0.70036,-0.71365,0.012155,0.0072555
0.006,-0.2,0.70188,1.0019,0.70036,-0.71365,0.012155,0.0072555
0.007,-0.2,0.7022,1.0022,0.70036,-0.71365,0.012155,0.0072555
0.008,-0.2,0.70251,1.0025,0.70036,-0.71365,0.012155,0.0072555
0.009,-0.2,0.70283,1.0028,0.70036,-0.71365,0.012155,0.0072555
0.01,-0.2,0.70314,1.0031,0.70036,-0.71365,0.012155,0.0072555
0.011,-0.2,0.70346,1.0035,0.70036,-0.71365,0.012155,0.0072555
0.012,-0.2,0.70377,1.0038,0.70036,-0.71365,0.012155,0.0072555
0.013,-0.2,0.70408,1.0041,0.70036,-0.71365,0.012155,0.0072555
0.014,-0.2,0.7044,1.0044,0.70036,-0.71365,0.012155,0.0072555
0.015,-0.2,0.70471,1.0047,0.70036,-0.71365,0.012155,0.0072555
0.016,-0.2,0.70502,1.005,0.70036,-0.71365,0.012155,0.0072555
0.017,-0.2,0.70534,1.0053,0.70036,-0.71365,0.012155,0.0072555
0.018,-0.2,0.70565,1.0057,0.70036,-0.71365,0.012155,0.0072555
0.019,-0.2,0.70597,1.006,0.70036,-0.71365,0.012155,0.0072555
0.02,-0.2,0.70628,1.0063,0.70036,-0.71365,0.012155,0.0072555
0.021,-0.2,0.70659,1.0066,0.70036,-0.71365,0.012155,0.0072555
0.022,-0.2,0.70691,1.0069,0.70036,-0.71365,0.012155,0.0072555
0.023,-0.2,0.70722,1.0072,0.70036,-0.71365,0.012155,0.0072555
0.024,-0.2,0.70753,1.0075,0.70036,-0.71365,0.012155,0.0072555
0.025,-0.2,0.70785,1.0078,0.70036,-0.71365,0.012155,0.0072555
0.026,-0.2,0.70816,1.0082,0.70036,-0.71365,0.012155,0.0072555
0.027,-0.2,0.70847,1.0085,0.70036,-0.71365,0.012155,0.0072555
0.028,-0.2,0.70879,1.0088,0.70036,-0.71365,0.012155,0.0072555
0.029,-0.2,0.7091,1.0091,0.70036,-0.71365,0.012155,0.0072555
0.03,-0.2,0.70941,1.0094,0.70036,-0.71365,0.012155,0.0072555
0.031,-0.2,0.70972,1.0097,0.70036,-0.71365,0.012155,0.0072555
0.032,-0.2,0.71004,1.01,0.70036,-0.71365,0.012155,0.0072555
0.033,-0.2,0.71035,1.0103,0.70036,-0.71365,0.012155,0.0072555
0.034,-0.2,0.71066,1.0107,0.70036,-0.71365,0.012155,0.0072555
0.035,-0.2,0.71097,1.011,0.70036,-0.71365,0.012155,0.0072555
0.036,-0.2,0.71129,1.0113,0.70036,-0.71365,0.012155,0.0072555
0.037,-0.2,0.7116,1.0116,0.70036,-0.71365,0.012155,0.0072555
0.038,-0.2,0.71191,1.0119,0.70036,-0.71365,0.012155,0.0072555
0.039,-0.2,0.71222,1.0122,0.70036,-0.71365,0.012155,0.0072555
0.04,-0.2,0.71253,1.0125,0.70036,-0.71365,0.012155,0.0072555
0.041,-0.2,0.71284,1.0128,0.70036,-0.71365,0.012155,0.0072555
0.042,-0.2,0.71316,1.0132,0.70036,-0.71365,0.012155,0.0072555
0.043,-0.2,0.71347,1.0135,0.70036,-0.71365,0.012155,0.0072555
0.044,-0.2,0.71378,1.0138,0.70036,-0.71365,0.012155,0.0072555
0.045,-0.2,0.71409,1.0141,0.70036,-0.71365,0.012155,0.0072555
0.046,-0.2,0.7144,1.0144,0.70036,-0.71365,0.012155,0.0072555
0.047,-0.2,0.71471,1.0147,0.70036,-0.71365,0.012155,0.0072555
0.048,-0.2,0.71502,1.015,0.70036,-0.71365,0.012155,0.0072555
0.049,-0.2,0.71533,1.0153,0.70036,-0.71365,0.012155,0.0072555
0.05,-0.2,0.71564,1.0156,0.70036,-0.71365,0.012155,0.0072555
0.051,-0.2,0.71595,1.016,0.70036,-0.71365,0.012155,0.0072555
0.052,-0.2,0.71626,1.0163,0.70036,-0.71365,0.012155,0.0072555
0.053,-0.2,0.71657,1.0166,0.70036,-0.71365,0.012155,0.0072555
0.054,-0.2,0.71688,1.0169,0.70036,-0.71365,0.012155,0.0072555
0.055,-0.2,0.71719,1.0172,0.70036,-0.71365,0.012155,0.0072555
0.056,-0.2,0.7175,1.0175,0.70036,-0.71365,0.012155,0.0072555
0.057,-0.2,0.71781,1.0178,0.70036,-0.71365,0.012155,0.0072555
0.058,-0.2,0.71812,1.0181,0.70036,-0.71365,0.012155,0.0072555
0.059,-0.2,0.71843,1.0184,0.70036,-0.71365,0.012155,0.0072555
0.06,-0.2,0.71874,1.0187,0.70036,-0.71365,0.012155,0.0072555
0.061,-0.2,0.71905,1.019,0.70036,-0.71365,0.012155,0.0072555
0.062,-0.2,0.71935,1.0194,0.70036,-0.71365,0.012155,0.0072555
0.063,-0.2,0.71966,1.0197,0.70036,-0.71365,0.012155,0.0072555
0.064,-0.2,0.71997,1.02,0.70036,-0.71365,0.012155,0.0072555
0.065,-0.2,0.72028,1.0203,0.70036,-0.71365,0.012155,0.0072555
0.066,-0.2,0.72059,1.0206,0.70036,-0.71365,0.012155,0.0072555
0.067,-0.2,0.72089,1.0209,0.70036,-0.71365,0.012155,0.0072555
0.068,-0.2,0.7212,1.0212,0.70036,-0.71365,0.012155,0.0072555
0.069,-0.2,0.72151,1.0215,0.70036,-0.71365,0.012155,0.0072555
0.07,-0.2,0.72181,1.0218,0.70036,-0.71365,0.012155,0.0072555
0.071,-0.2,0.72212,1.0221,0.70036,-0.71365,0.012155,0.0072555
0.072,-0.2,0.72243,1.0224,0.70036,-0.71365,0.012155,0.0072555
0.073,-0.2,0.72273,1.0227,0.70036,-0.71365,0.012155,0.0072555
0.074,-0.2,0.72304,1.023,0.70036,-0.71365,0.012155,0.0072555
0.075,-0.2,0.72334,1.0233,0.70036,-0.71365,0.012155,0.0072555
0.076,-0.2,0.72365,1.0236,0.70036,-0.71365,0.012155,0.0072555
0.077,-0.2,0.72396,1.024,0.70036,-0.71365,0.012155,0.0072555
0.078,-0.2,0.72426,1.0243,0.70036,-0.71365,0.012155,0.0072555
0.079,-0.2,0.72456,1.0246,0.70036,-0.71365,0.012155,0.0072555
0.08,-0.2,0.72487,1.0249,0.70036,-0.71365,0.012155,0.0072555
0.081,-0.2,0.72517,1.0252,0.70036,-0.71365,0.012155,0.0072555
0.082,-0.2,0.72548,1.0255,0.70036,-0.71365,0.012155,0.0072555
0.083,-0.2,0.72578,1.0258,0.70036,-0.71365,0.012155,0.0072555
0.084,-0.2,0.72608,1.0261,0.70036,-0.71365,0.012155,0.0072555
0.085,-0.2,0.72639,1.0264,0.70036,-0.71365,0.012155,0.0072555
0.086,-0.2,0.72669,1.0267,0.70036,-0.71365,0.012155,0.0072555
0.087,-0.2,0.72699,1.027,0.70036,-0.71365,0.012155,0.0072555
0.088,-0.2,0.7273,1.0273,0.70036,-0.71365,0.012155,0.0072555
0.089,-0.2,0.7276,1.0276,0.70036,-0.71365,0.012155,0.0072555
0.09,-0.2,0.7279,1.0279,0.70036,-0.71365,0.012155,0.0072555
0.091,-0.2,0.7282,1.0282,0.70036,-0.71365,0.012155,0.0072555
0.092,-0.2,0.7285,1.0285,0.70036,-0.71365,0.012155,0.0072555
0.093,-0.2,0.7288,1.0288,0.70036,-0.71365,0.012155,0.0072555
0.094,-0.2,0.7291,1.0291,0.70036,-0.71365,0.012155,0.0072555
0.095,-0.2,0.7294,1.0294,0.70036,-0.71365,0.012155,0.0072555
0.096,-0.2,0.7297,1.0297,0.70036,-0.71365,0.012155,0.0072555
0.097,-0.2,0.73,1.03,0.70036,-0.71365,0.012155,0.0072555
0.098,-0.2,0.7303,1.0303,0.70036,-0.71365,0.012155,0.0072555
0.099,-0.2,0.7306,1.0306,0.70036,-0.71365,0.012155,0.0072555
0.1,-0.2,0.7309,1.0309,0.70036,-0.71365,0.012155,0.0072555
0.101,-0.2,0.7312,1.0312,0.70036,-0.71365,0.012155,0.0072555
0.102,-0.2,0.7315,1.0315,0.70036,-0.71365,0.012155,0.0072555
0.103,-0.2,0.7318,1.0318,0.70036,-0.71365,0.012155,0.0072555
0.104,-0.2,0.73209,1.0321,0.70036,-0.71365,0.012155,0.0072555
0.105,-0.2,0.73239,1.0324,0.70036,-0.71365,0.012155,0.0072555
0.106,-0.2,0.73269,1.0327,0.70036,-0.71365,0.012155,0.0072555
0.107,-0.2,0.73299,1.033,0.70036,-0.71365,0.012155,0.0072555
0.108,-0.2,0.73328,1.0333,0.70036,-0.71365,0.012155,0.0072555
0.109,-0.2,0.73358,1.0336,0.70036,-0.71365,0.012155,0.0072555
0.11,-0.2,0.73387,1.0339,0.70036,-0.71365,0.012155,0.0072555
0.111,-0.2,0.73417,1.0342,0.70036,-0.71365,0.012155,0.0072555
0.112,-0.2,0.73446,1.0345,0.70036,-0.71365,0.012155,0.0072555
0.113,-0.2,0.73476,1.0348,0.70036,-0.71365,0.012155,0.0072555
0.114,-0.2,0.73505,1.0351,0.70036,-0.71365,0.012155,0.0072555
0.115,-0.2,0.73535,1.0353,0.70036,-0.71365,0.012155,0.0072555
0.116,-0.2,0.73564,1.0356,0.70036,-0.71365,0.012155,0.0072555
0.117,-0.2,0.73593,1.0359,0.70036,-0.71365,0.012155,0.0072555
0.118,-0.2,0.73623,1.0362,0.70036,-0.71365,0.012155,0.0072555
0.119,-0.2,0.73652,1.0365,0.70036,-0.71365,0.012155,0.0072555
0.12,-0.2,0.73681,1.0368,0.70036,-0.71365,0.012155,0.0072555
0.121,-0.2,0.7371,1.0371,0.70036,-0.71365,0.012155,0.0072555
0.122,-0.2,0.7374,1.0374,0.70036,-0.71365,0.012155,0.0072555
0.123,-0.2,0.73769,1.0377,0.70036,-0.71365,0.012155,0.0072555
0.124,-0.2,0.73798,1.038,0.70036,-0.71365,0.012155,0.0072555
0.125,-0.2,0.73827,1.0383,0.70036,-0.71365,0.012155,0.0072555
0.126,-0.2,0.73856,1.0386,0.70036,-0.71365,0.012155,0.0072555
0.127,-0.2,0.73885,1.0388,0.70036,-0.71365,0.012155,0.0072555
0.128,-0.2,0.73914,1.0391,0.70036,-0.71365,0.012155,0.0072555
0.129,-0.2,0.73943,1.0394,0.70036,-0.71365,0.012155,0.0072555
0.13,-0.2,0.73971,1.0397,0.70036,-0.71365,0.012155,0.0072555
0.131,-0.2,0.74,1.04,0.70036,-0.71365,0.012155,0.0072555
0.132,-0.2,0.74029,1.0403,0.70036,-0.71365,0.012155,0.0072555
0.133,-0.2,0.74058,1.0406,0.70036,-0.71365,0.012155,0.0072555
0.134,-0.2,0.74086,1.0409,0.70036,-0.71365,0.012155,0.0072555
0.135,-0.2,0.74115,1.0412,0.70036,-0.71365,0.012155,0.0072555
0.136,-0.2,0.74144,1.0414,0.70036,-0.71365,0.012155,0.0072555
0.137,-0.2,0.74172,1.0417,0.70036,-0.71365,0.012155,0.0072555
0.138,-0.2,0.74201,1.042,0.70036,-0.71365,0.012155,0.0072555
0.139,-0.2,0.74229,1.0423,0.70036,-0.71365,0.012155,0.0072555
0.14,-0.2,0.74258,1.0426,0.70036,-0.71365,0.012155,0.0072555
0.141,-0.2,0.74286,1.0429,0.70036,-0.71365,0.012155,0.0072555
0.142,-0.2,0.74315,1.0431,0.70036,-0.71365,0.012155,0.0072555
0.143,-0.2,0.74343,1.0434,0.70036,-0.71365,0.012155,0.0072555
0.144,-0.2,0.74371,1.0437,0.70036,-0.71365,0.012155,0.0072555
0.145,-0.2,0.74399,1.044,0.70036,-0.71365,0.012155,0.0072555
0.146,-0.2,0.74428,1.0443,0.70036,-0.71365,0.012155,0.0072555
0.147,-0.2,0.74456,1.0446,0.70036,-0.71365,0.012155,0.0072555
0.148,-0.2,0.74484,1.0448,0.70036,-0.71365,0.012155,0.0072555
0.149,-0.2,0.74512,1.0451,0.70036,-0.71365,0.012155,0.0072555
0.15,-0.2,0.7454,1.0454,0.70036,-0.71365,0.012155,0.0072555
0.151,-0.2,0.74568,1.0457,0.70036,-0.71365,0.012155,0.0072555
0.152,-0.2,0.74596,1.046,0.70036,-0.71365,0.012155,0.0072555
0.153,-0.2,0.74624,1.0462,0.70036,-0.71365,0.012155,0.0072555
0.154,-0.2,0.74652,1.0465,0.70036,-0.71365,0.012155,0.0072555
0.155,-0.2,0.74679,1.0468,0.70036,-0.71365,0.012155,0.0072555
0.156,-0.2,0.74707,1.0471,0.70036,-0.71365,0.012155,0.0072555
0.157,-0.2,0.74735,1.0473,0.70036,-0.71365,0.012155,0.0072555
0.158,-0.2,0.74762,1.0476,0.70036,-0.71365,0.012155,0.0072555
0.159,-0.2,0.7479,1.0479,0.70036,-0.71365,0.012155,0.0072555
0.16,-0.2,0.74818,1.0482,0.70036,-0.71365,0.012155,0.0072555
0.161,-0.2,0.74845,1.0485,0.70036,-0.71365,0.012155,0.0072555
0.162,-0.2,0.74873,1.0487,0.70036,-0.71365,0.012155,0.0072555
0.163,-0.2,0.749,1.049,0.70036,-0.71365,0.012155,0.0072555
0.164,-0.2,0.74927,1.0493,0.70036,-0.71365,0.012155,0.0072555
0.165,-0.2,0.74955,1.0495,0.70036,-0.71365,0.012155,0.0072555
0.166,-0.2,0.74982,1.0498,0.70036,-0.71365,0.012155,0.0072555
0.167,-0.2,0.75009,1.0501,0.70036,-0.71365,0.012155,0.0072555
0.168,-0.2,0.75036,1.0504,0.70036,-0.71365,0.012155,0.0072555
0.169,-0.2,0.75063,1.0506,0.70036,-0.71365,0.012155,0.0072555
0.17,-0.2,0.7509,1.0509,0.70036,-0.71365,0.012155,0.0072555
0.171,-0.2,0.75117,1.0512,0.70036,-0.71365,0.012155,0.0072555
0.172,-0.2,0.75144,1.0514,0.70036,-0.71365,0.012155,0.0072555
0.173,-0.2,0.75171,1.0517,0.70036,-0.71365,0.012155,0.0072555
0.174,-0.2,0.75198,1.052,0.70036,-0.71365,0.012155,0.0072555
0.175,-0.2,0.75225,1.0522,0.70036,-0.71365,0.012155,0.0072555
0.176,-0.2,0.75252,1.0525,0.70036,-0.71365,0.012155,0.0072555
0.177,-0.2,0.75278,1.0528,0.70036,-0.71365,0.012155,0.0072555
0.178,-0.2,0.75305,1.0531,0.70036,-0.71365,0.012155,0.0072555
0.179,-0.2,0.75332,1.0533,0.70036,-0.71365,0.012155,0.0072555
0.18,-0.2,0.75358,1.0536,0.70036,-0.71365,0.012155,0.0072555
0.181,-0.2,0.75385,1.0538,0.70036,-0.71365,0.012155,0.0072555
0.182,-0.2,0.75411,1.0541,0.70036,-0.71365,0.012155,0.0072555
0.183,-0.2,0.75438,1.0544,0.70036,-0.71365,0.012155,0.0072555
0.184,-0.2,0.75464,1.0546,0.70036,-0.71365,0.012155,0.0072555
0.185,-0.2,0.7549,1.0549,0.70036,-0.71365,0.012155,0.0072555
0.186,-0.2,0.75516,1.0552,0.70036,-0.71365,0.012155,0.0072555
0.187,-0.2,0.75543,1.0554,0.70036,-0.71365,0.012155,0.0072555
0.188,-0.2,0.75569,1.0557,0.70036,-0.71365,0.012155,0.0072555
0.189,-0.2,0.75595,1.0559,0.70036,-0.71365,0.012155,0.0072555
0.19,-0.2,0.75621,1.0562,0.70036,-0.71365,0.012155,0.0072555
0.191,-0.2,0.75647,1.0565,0.70036,-0.71365,0.012155,0.0072555
0.192,-0.2,0.75673,1.0567,0.70036,-0.71365,0.012155,0.0072555
0.193,-0.2,0.75699,1.057,0.70036,-0.71365,0.012155,0.0072555
0.194,-0.2,0.75724,1.0572,0.70036,-0.71365,0.012155,0.0072555
0.195,-0.2,0.7575,1.0575,0.70036,-0.71365,0.012155,0.0072555
0.196,-0.2,0.75776,1.0578,0.70036,-0.71365,0.012155,0.0072555
0.197,-0.2,0.75801,1.058,0.70036,-0.71365,0.012155,0.0072555
0.198,-0.2,0.75827,1.0583,0.70036,-0.71365,0.012155,0.0072555
0.199,-0.2,0.75852,1.0585,0.70036,-0.71365,0.012155,0.0072555
0.2,-0.2,0.75878,1.0588,0.70036,-0.71365,0.012155,0.0072555
0.201,-0.2,0.75903,1.059,0.70036,-0.71365,0.012155,0.0072555
0.202,-0.2,0.75929,1.0593,0.70036,-0.71365,0.012155,0.0072555
0.203,-0.2,0.75954,1.0595,0.70036,-0.71365,0.012155,0.0072555
0.204,-0.2,0.75979,1.0598,0.70036,-0.71365,0.012155,0.0072555
0.205,-0.2,0.76004,1.06,0.70036,-0.71365,0.012155,0.0072555
0.206,-0.2,0.76029,1.0603,0.70036,-0.71365,0.012155,0.0072555
0.207,-0.2,0.76054,1.0605,0.70036,-0.71365,0.012155,0.0072555
0.208,-0.2,0.76079,1.0608,0.70036,-0.71365,0.012155,0.0072555
0.209,-0.2,0.76104,1.061,0.70036,-0.71365,0.012155,0.0072555
0.21,-0.2,0.76129,1.0613,0.70036,-0.71365,0.012155,0.0072555
0.211,-0.2,0.76154,1.0615,0.70036,-0.71365,0.012155,0.0072555
0.212,-0.2,0.76179,1.0618,0.70036,-0.71365,0.012155,0.0072555
0.213,-0.2,0.76203,1.062,0.70036,-0.71365,0.012155,0.0072555
0.214,-0.2,0.76228,1.0623,0.70036,-0.71365,0.012155,0.0072555
0.215,-0.2,0.76252,1.0625,0.70036,-0.71365,0.012155,0.0072555
0.216,-0.2,0.76277,1.0628,0.70036,-0.71365,0.012155,0.0072555
0.217,-0.2,0.76301,1.063,0.70036,-0.71365,0.012155,0.0072555
0.218,-0.2,0.76326,1.0633,0.70036,-0.71365,0.012155,0.0072555
0.219,-0.2,0.7635,1.0635,0.70036,-0.71365,0.012155,0.0072555
0.22,-0.2,0.76374,1.0637,0.70036,-0.71365,0.012155,0.0072555
0.221,-0.2,0.76398,1.064,0.70036,-0.71365,0.012155,0.0072555
0.222,-0.2,0.76423,1.0642,0.70036,-0.71365,0.012155,0.0072555
0.223,-0.2,0.76447,1.0645,0.70036,-0.71365,0.012155,0.0072555
0.224,-0.2,0.76471,1.0647,0.70036,-0.71365,0.012155,0.0072555
0.225,-0.2,0.76494,1.0649,0.70036,-0.71365,0.012155,0.0072555
0.226,-0.2,0.76518,1.0652,0.70036,-0.71365,0.012155,0.0072555
0.227,-0.2,0.76542,1.0654,0.70036,-0.71365,0.012155,0.0072555
0.228,-0.2,0.76566,1.0657,0.70036,-0.71365,0.012155,0.0072555
0.229,-0.2,0.7659,1.0659,0.70036,-0.71365,0.012155,0.0072555
0.23,-0.2,0.76613,1.0661,0.70036,-0.71365,0.012155,0.0072555
0.231,-0.2,0.76637,1.0664,0.70036,-0.71365,0.012155,0.0072555
0.232,-0.2,0.7666,1.0666,0.70036,-0.71365,0.012155,0.0072555
0.233,-0.2,0.76684,1.0668,0.70036,-0.71365,0.012155,0.0072555
0.234,-0.2,0.76707,1.0671,0.70036,-0.71365,0.012155,0.0072555
0.235,-0.2,0.7673,1.0673,0.70036,-0.71365,0.012155,0.0072555
0.236,-0.2,0.76753,1.0675,0.70036,-0.71365,0.012155,0.0072555
0.237,-0.2,0.76776,1.0678,0.70036,-0.71365,0.012155,0.0072555
0.238,-0.2,0.768,1.068,0.70036,-0.71365,0.012155,0.0072555
0.239,-0.2,0.76823,1.0682,0.70036,-0.71365,0.012155,0.0072555
0.24,-0.2,0.76845,1.0685,0.70036,-0.71365,0.012155,0.0072555
0.241,-0.2,0.76868,1.0687,0.70036,-0.71365,0.012155,0.0072555
0.242,-0.2,0.76891,1.0689,0.70036,-0.71365,0.012155,0.0072555
0.243,-0.2,0.76914,1.0691,0.70036,-0.71365,0.012155,0.0072555
0.244,-0.2,0.76937,1.0694,0.70036,-0.71365,0.012155,0.0072555
0.245,-0.2,0.76959,1.0696,0.70036,-0.71365,0.012155,0.0072555
0.246,-0.2,0.76982,1.0698,0.70036,-0.71365,0.012155,0.0072555
0.247,-0.2,0.77004,1.07,0.70036,-0.71365,0.012155,0.0072555
0.248,-0.2,0.77026,1.0703,0.70036,-0.71365,0.012155,0.0072555
0.249,-0.2,0.77049,1.0705,0.70036,-0.71365,0.012155,0.0072555
0.25,-0.2,0.77071,1.0707,0.70036,-0.71365,0.012155,0.0072555
0.251,-0.2,0.77093,1.0709,0.70036,-0.71365,0.012155,0.0072555
0.252,-0.2,0.77115,1.0712,0.70036,-0.71365,0.012155,0.0072555
0.253,-0.2,0.77137,1.0714,0.70036,-0.71365,0.012155,0.0072555
0.254,-0.2,0.77159,1.0716,0.70036,-0.71365,0.012155,0.0072555
0.255,-0.2,0.77181,1.0718,0.70036,-0.71365,0.012155,0.0072555
0.256,-0.2,0.77203,1.072,0.70036,-0.71365,0.012155,0.0072555
0.257,-0.2,0.77225,1.0722,0.70036,-0.71365,0.012155,0.0072555
0.258,-0.2,0.77247,1.0725,0.70036,-0.71365,0.012155,0.0072555
0.259,-0.2,0.77268,1.0727,0.70036,-0.71365,0.012155,0.0072555
0.26,-0.2,0.7729,1.0729,0.70036,-0.71365,0.012155,0.0072555
0.261,-0.2,0.77311,1.0731,0.70036,-0.71365,0.012155,0.0072555
0.262,-0.2,0.77333,1.0733,0.70036,-0.71365,0.012155,0.0072555
0.263,-0.2,0.77354,1.0735,0.70036,-0.71365,0.012155,0.0072555
0.264,-0.2,0.77375,1.0738,0.70036,-0.71365,0.012155,0.0072555
0.265,-0.2,0.77396,1.074,0.70036,-0.71365,0.012155,0.0072555
0.266,-0.2,0.77417,1.0742,0.70036,-0.71365,0.012155,0.0072555
0.267,-0.2,0.77438,1.0744,0.70036,-0.71365,0.012155,0.0072555
0.268,-0.2,0.77459,1.0746,0.70036,-0.71365,0.012155,0.0072555
0.269,-0.2,0.7748,1.0748,0.70036,-0.71365,0.012155,0.0072555
0.27,-0.2,0.77501,1.075,0.70036,-0.71365,0.012155,0.0072555
0.271,-0.2,0.77522,1.0752,0.70036,-0.71365,0.012155,0.0072555
0.272,-0.2,0.77543,1.0754,0.70036,-0.71365,0.012155,0.0072555
0.273,-0.2,0.77563,1.0756,0.70036,-0.71365,0.012155,0.0072555
0.274,-0.2,0.77584,1.0758,0.70036,-0.71365,0.012155,0.0072555
0.275,-0.2,0.77604,1.076,0.70036,-0.71365,0.012155,0.0072555
0.276,-0.2,0.77624,1.0762,0.70036,-0.71365,0.012155,0.0072555
0.277,-0.2,0.77645,1.0764,0.70036,-0.71365,0.012155,0.0072555
0.278,-0.2,0.77665,1.0766,0.70036,-0.71365,0.012155,0.0072555
0.279,-0.2,0.77685,1.0769,0.70036,-0.71365,0.012155,0.0072555
0.28,-0.2,0.77705,1.0771,0.70036,-0.71365,0.012155,0.0072555
0.281,-0.2,0.77725,1.0773,0.70036,-0.71365,0.012155,0.0072555
0.282,-0.2,0.77745,1.0775,0.70036,-0.71365,0.012155,0.0072555
0.283,-0.2,0.77765,1.0776,0.70036,-0.71365,0.012155,0.0072555
0.284,-0.2,0.77785,1.0778,0.70036,-0.71365,0.012155,0.0072555
0.285,-0.2,0.77804,1.078,0.70036,-0.71365,0.012155,0.0072555
0.286,-0.2,0.77824,1.0782,0.70036,-0.71365,0.012155,0.0072555
0.287,-0.2,0.77843,1.0784,0.70036,-0.71365,0.012155,0.0072555
0.288,-0.2,0.77863,1.0786,0.70036,-0.71365,0.012155,0.0072555
0.289,-0.2,0.77882,1.0788,0.70036,-0.71365,0.012155,0.0072555
0.29,-0.2,0.77902,1.079,0.70036,-0.71365,0.012155,0.0072555
0.291,-0.2,0.77921,1.0792,0.70036,-0.71365,0.012155,0.0072555
0.292,-0.2,0.7794,1.0794,0.70036,-0.71365,0.012155,0.0072555
0.293,-0.2,0.77959,1.0796,0.70036,-0.71365,0.012155,0.0072555
0.294,-0.2,0.77978,1.0798,0.70036,-0.71365,0.012155,0.0072555
0.295,-0.2,0.77997,1.08,0.70036,-0.71365,0.012155,0.0072555
0.296,-0.2,0.78016,1.0802,0.70036,-0.71365,0.012155,0.0072555
0.297,-0.2,0.78034,1.0803,0.70036,-0.71365,0.012155,0.0072555
0.298,-0.2,0.78053,1.0805,0.70036,-0.71365,0.012155,0.0072555
0.299,-0.2,0.78072,1.0807,0.70036,-0.71365,0.012155,0.0072555
0.3,-0.2,0.7809,1.0809,0.70036,-0.71365,0.012155,0.0072555
0.301,-0.2,0.78109,1.0811,0.70036,-0.71365,0.012155,0.0072555
0.302,-0.2,0.78127,1.0813,0.70036,-0.71365,0.012155,0.0072555
0.303,-0.2,0.78145,1.0815,0.70036,-0.71365,0.012155,0.0072555
0.304,-0.2,0.78163,1.0816,0.70036,-0.71365,0.012155,0.0072555
0.305,-0.2,0.78181,1.0818,0.70036,-0.71365,0.012155,0.0072555
0.306,-0.2,0.782,1.082,0.70036,-0.71365,0.012155,0.0072555
0.307,-0.2,0.78217,1.0822,0.70036,-0.71365,0.012155,0.0072555
0.308,-0.2,0.78235,1.0824,0.70036,-0.71365,0.012155,0.0072555
0.309,-0.2,0.78253,1.0825,0.70036,-0.71365,0.012155,0.0072555
0.31,-0.2,0.78271,1.0827,0.70036,-0.71365,0.012155,0.0072555
0.311,-0.2,0.78288,1.0829,0.70036,-0.71365,0.012155,0.0072555
0.312,-0.2,0.78306,1.0831,0.70036,-0.71365,0.012155,0.0072555
0.313,-0.2,0.78323,1.0832,0.70036,-0.71365,0.012155,0.0072555
0.314,-0.2,0.78341,1.0834,0.70036,-0.71365,0.012155,0.0072555
0.315,-0.2,0.78358,1.0836,0.70036,-0.71365,0.012155,0.0072555
0.316,-0.2,0.78375,1.0838,0.70036,-0.71365,0.012155,0.0072555
0.317,-0.2,0.78392,1.0839,0.70036,-0.71365,0.012155,0.0072555
0.318,-0.2,0.78409,1.0841,0.70036,-0.71365,0.012155,0.0072555
0.319,-0.2,0.78426,1.0843,0.70036,-0.71365,0.012155,0.0072555
0.32,-0.2,0.78443,1.0844,0.70036,-0.71365,0.012155,0.0072555
0.321,-0.2,0.7846,1.0846,0.70036,-0.71365,0.012155,0.0072555
0.322,-0.2,0.78477,1.0848,0.70036,-0.71365,0.012155,0.0072555
0.323,-0.2,0.78493,1.0849,0.70036,-0.71365,0.012155,0.0072555
0.324,-0.2,0.7851,1.0851,0.70036,-0.71365,0.012155,0.0072555
0.325,-0.2,0.78526,1.0853,0.70036,-0.71365,0.012155,0.0072555
0.326,-0.2,0.78543,1.0854,0.70036,-0.71365,0.012155,0.0072555
0.327,-0.2,0.78559,1.0856,0.70036,-0.71365,0.012155,0.0072555
0.328,-0.2,0.78575,1.0858,0.70036,-0.71365,0.012155,0.0072555
0.329,-0.2,0.78591,1.0859,0.70036,-0.71365,0.012155,0.0072555
0.33,-0.2,0.78607,1.0861,0.70036,-0.71365,0.012155,0.0072555
0.331,-0.2,0.78623,1.0862,0.70036,-0.71365,0.012155,0.0072555
0.332,-0.2,0.78639,1.0864,0.70036,-0.71365,0.012155,0.0072555
0.333,-0.2,0.78655,1.0866,0.70036,-0.71365,0.012155,0.0072555
0.334,-0.2,0.78671,1.0867,0.70036,-0.71365,0.012155,0.0072555
0.335,-0.2,0.78686,1.0869,0.70036,-0.71365,0.012155,0.0072555
0.336,-0.2,0.78702,1.087,0.70036,-0.71365,0.012155,0.0072555
0.337,-0.2,0.78717,1.0872,0.70036,-0.71365,0.012155,0.0072555
0.338,-0.2,0.78733,1.0873,0.70036,-0.71365,0.012155,0.0072555
0.339,-0.2,0.78748,1.0875,0.70036,-0.71365,0.012155,0.0072555
0.34,-0.2,0.78763,1.0876,0.70036,-0.71365,0.012155,0.0072555
0.341,-0.2,0.78778,1.0878,0.70036,-0.71365,0.012155,0.0072555
0.342,-0.2,0.78793,1.0879,0.70036,-0.71365,0.012155,0.0072555
0.343,-0.2,0.78808,1.0881,0.70036,-0.71365,0.012155,0.0072555
0.344,-0.2,0.78823,1.0882,0.70036,-0.71365,0.012155,0.0072555
0.345,-0.2,0.78838,1.0884,0.70036,-0.71365,0.012155,0.0072555
0.346,-0.2,0.78852,1.0885,0.70036,-0.71365,0.012155,0.0072555
0.347,-0.2,0.78867,1.0887,0.70036,-0.71365,0.012155,0.0072555
0.348,-0.2,0.78881,1.0888,0.70036,-0.71365,0.012155,0.0072555
0.349,-0.2,0.78896,1.089,0.70036,-0.71365,0.012155,0.0072555
0.35,-0.2,0.7891,1.0891,0.70036,-0.71365,0.012155,0.0072555
0.351,-0.2,0.78924,1.0892,0.70036,-0.71365,0.012155,0.0072555
0.352,-0.2,0.78938,1.0894,0.70036,-0.71365,0.012155,0.0072555
0.353,-0.2,0.78952,1.0895,0.70036,-0.71365,0.012155,0.0072555
0.354,-0.2,0.78966,1.0897,0.70036,-0.71365,0.012155,0.0072555
0.355,-0.2,0.7898,1.0898,0.70036,-0.71365,0.012155,0.0072555
0.356,-0.2,0.78994,1.0899,0.70036,-0.71365,0.012155,0.0072555
0.357,-0.2,0.79008,1.0901,0.70036,-0.71365,0.012155,0.0072555
0.358,-0.2,0.79021,1.0902,0.70036,-0.71365,0.012155,0.0072555
0.359,-0.2,0.79035,1.0903,0.70036,-0.71365,0.012155,0.0072555
0.36,-0.2,0.79048,1.0905,0.70036,-0.71365,0.012155,0.0072555
0.361,-0.2,0.79062,1.0906,0.70036,-0.71365,0.012155,0.0072555
0.362,-0.2,0.79075,1.0907,0.70036,-0.71365,0.012155,0.0072555
0.363,-0.2,0.79088,1.0909,0.70036,-0.71365,0.012155,0.0072555
0.364,-0.2,0.79101,1.091,0.70036,-0.71365,0.012155,0.0072555
0.365,-0.2,0.79114,1.0911,0.70036,-0.71365,0.012155,0.0072555
0.366,-0.2,0.79127,1.0913,0.70036,-0.71365,0.012155,0.0072555
0.367,-0.2,0.7914,1.0914,0.70036,-0.71365,0.012155,0.0072555
0.368,-0.2,0.79152,1.0915,0.70036,-0.71365,0.012155,0.0072555
0.369,-0.2,0.79165,1.0917,0.70036,-0.71365,0.012155,0.0072555
0.37,-0.2,0.79178,1.0918,0.70036,-0.71365,0.012155,0.0072555
0.371,-0.2,0.7919,1.0919,0.70036,-0.71365,0.012155,0.0072555
0.372,-0.2,0.79202,1.092,0.70036,-0.71365,0.012155,0.0072555
0.373,-0.2,0.79215,1.0921,0.70036,-0.71365,0.012155,0.0072555
0.374,-0.2,0.79227,1.0923,0.70036,-0.71365,0.012155,0.0072555
0.375,-0.2,0.79239,1.0924,0.70036,-0.71365,0.012155,0.0072555
0.376,-0.2,0.79251,1.0925,0.70036,-0.71365,0.012155,0.0072555
0.377,-0.2,0.79263,1.0926,0.70036,-0.71365,0.012155,0.0072555
0.378,-0.2,0.79274,1.0927,0.70036,-0.71365,0.012155,0.0072555
0.379,-0.2,0.79286,1.0929,0.70036,-0.71365,0.012155,0.0072555
0.38,-0.2,0.79298,1.093,0.70036,-0.71365,0.012155,0.0072555
0.381,-0.2,0.79309,1.0931,0.70036,-0.71365,0.012155,0.0072555
0.382,-0.2,0.79321,1.0932,0.70036,-0.71365,0.012155,0.0072555
0.383,-0.2,0.79332,1.0933,0.70036,-0.71365,0.012155,0.0072555
0.384,-0.2,0.79343,1.0934,0.70036,-0.71365,0.012155,0.0072555
0.385,-0.2,0.79354,1.0935,0.70036,-0.71365,0.012155,0.0072555
0.386,-0.2,0.79365,1.0937,0.70036,-0.71365,0.012155,0.0072555
0.387,-0.2,0.79376,1.0938,0.70036,-0.71365,0.012155,0.0072555
0.388,-0.2,0.79387,1.0939,0.70036,-0.71365,0.012155,0.0072555
0.389,-0.2,0.79398,1.094,0.70036,-0.71365,0.012155,0.0072555
0.39,-0.2,0.79409,1.0941,0.70036,-0.71365,0.012155,0.0072555
0.391,-0.2,0.79419,1.0942,0.70036,-0.71365,0.012155,0.0072555
0.392,-0.2,0.7943,1.0943,0.70036,-0.71365,0.012155,0.0072555
0.393,-0.2,0.7944,1.0944,0.70036,-0.71365,0.012155,0.0072555
0.394,-0.2,0.79451,1.0945,0.70036,-0.71365,0.012155,0.0072555
0.395,-0.2,0.79461,1.0946,0.70036,-0.71365,0.012155,0.0072555
0.396,-0.2,0.79471,1.0947,0.70036,-0.71365,0.012155,0.0072555
0.397,-0.2,0.79481,1.0948,0.70036,-0.71365,0.012155,0.0072555
0.398,-0.2,0.79491,1.0949,0.70036,-0.71365,0.012155,0.0072555
0.399,-0.2,0.79501,1.095,0.70036,-0.71365,0.012155,0.0072555
0.4,-0.2,0.79511,1.0951,0.70036,-0.71365,0.012155,0.0072555
0.401,-0.2,0.7952,1.0952,0.70036,-0.71365,0.012155,0.0072555
0.402,-0.2,0.7953,1.0953,0.70036,-0.71365,0.012155,0.0072555
0.403,-0.2,0.79539,1.0954,0.70036,-0.71365,0.012155,0.0072555
0.404,-0.2,0.79549,1.0955,0.70036,-0.71365,0.012155,0.0072555
0.405,-0.2,0.79558,1.0956,0.70036,-0.71365,0.012155,0.0072555
0.406,-0.2,0.79567,1.0957,0.70036,-0.71365,0.012155,0.0072555
0.407,-0.2,0.79576,1.0958,0.70036,-0.71365,0.012155,0.0072555
0.408,-0.2,0.79585,1.0959,0.70036,-0.71365,0.012155,0.0072555
0.409,-0.2,0.79594,1.0959,0.70036,-0.71365,0.012155,0.0072555
0.41,-0.2,0.79603,1.096,0.70036,-0.71365,0.012155,0.0072555
0.411,-0.2,0.79612,1.0961,0.70036,-0.71365,0.012155,0.0072555
0.412,-0.2,0.7962,1.0962,0.70036,-0.71365,0.012155,0.0072555
0.413,-0.2,0.79629,1.0963,0.70036,-0.71365,0.012155,0.0072555
0.414,-0.2,0.79637,1.0964,0.70036,-0.71365,0.012155,0.0072555
0.415,-0.2,0.79646,1.0965,0.70036,-0.71365,0.012155,0.0072555
0.416,-0.2,0.79654,1.0965,0.70036,-0.71365,0.012155,0.0072555
0.417,-0.2,0.79662,1.0966,0.70036,-0.71365,0.012155,0.0072555
0.418,-0.2,0.7967,1.0967,0.70036,-0.71365,0.012155,0.0072555
0.419,-0.2,0.79678,1.0968,0.70036,-0.71365,0.012155,0.0072555
0.42,-0.2,0.79686,1.0969,0.70036,-0.71365,0.012155,0.0072555
0.421,-0.2,0.79694,1.0969,0.70036,-0.71365,0.012155,0.0072555
0.422,-0.2,0.79701,1.097,0.70036,-0.71365,0.012155,0.0072555
0.423,-0.2,0.79709,1.0971,0.70036,-0.71365,0.012155,0.0072555
0.424,-0.2,0.79716,1.0972,0.70036,-0.71365,0.012155,0.0072555
0.425,-0.2,0.79724,1.0972,0.70036,-0.71365,0.012155,0.0072555
0.426,-0.2,0.79731,1.0973,0.70036,-0.71365,0.012155,0.0072555
0.427,-0.2,0.79738,1.0974,0.70036,-0.71365,0.012155,0.0072555
0.428,-0.2,0.79745,1.0975,0.70036,-0.71365,0.012155,0.0072555
0.429,-0.2,0.79752,1.0975,0.70036,-0.71365,0.012155,0.0072555
0.43,-0.2,0.79759,1.0976,0.70036,-0.71365,0.012155,0.0072555
0.431,-0.2,0.79766,1.0977,0.70036,-0.71365,0.012155,0.0072555
0.432,-0.2,0.79773,1.0977,0.70036,-0.71365,0.012155,0.0072555
0.433,-0.2,0.79779,1.0978,0.70036,-0.71365,0.012155,0.0072555
0.434,-0.2,0.79786,1.0979,0.70036,-0.71365,0.012155,0.0072555
0.435,-0.2,0.79792,1.0979,0.70036,-0.71365,0.012155,0.0072555
0.436,-0.2,0.79799,1.098,0.70036,-0.71365,0.012155,0.0072555
0.437,-0.2,0.79805,1.098,0.70036,-0.71365,0.012155,0.0072555
0.438,-0.2,0.79811,1.0981,0.70036,-0.71365,0.012155,0.0072555
0.439,-0.2,0.79817,1.0982,0.70036,-0.71365,0.012155,0.0072555
0.44,-0.2,0.79823,1.0982,0.70036,-0.71365,0.012155,0.0072555
0.441,-0.2,0.79829,1.0983,0.70036,-0.71365,0.012155,0.0072555
0.442,-0.2,0.79834,1.0983,0.70036,-0.71365,0.012155,0.0072555
0.443,-0.2,0.7984,1.0984,0.70036,-0.71365,0.012155,0.0072555
0.444,-0.2,0.79846,1.0985,0.70036,-0.71365,0.012155,0.0072555
0.445,-0.2,0.79851,1.0985,0.70036,-0.71365,0.012155,0.0072555
0.446,-0.2,0.79856,1.0986,0.70036,-0.71365,0.012155,0.0072555
0.447,-0.2,0.79862,1.0986,0.70036,-0.71365,0.012155,0.0072555
0.448,-0.2,0.79867,1.0987,0.70036,-0.71365,0.012155,0.0072555
0.449,-0.2,0.79872,1.0987,0.70036,-0.71365,0.012155,0.0072555
0.45,-0.2,0.79877,1.0988,0.70036,-0.71365,0.012155,0.0072555
0.451,-0.2,0.79882,1.0988,0.70036,-0.71365,0.012155,0.0072555
0.452,-0.2,0.79887,1.0989,0.70036,-0.71365,0.012155,0.0072555
0.453,-0.2,0.79891,1.0989,0.70036,-0.71365,0.012155,0.0072555
0.454,-0.2,0.79896,1.099,0.70036,-0.71365,0.012155,0.0072555
0.455,-0.2,0.799,1.099,0.70036,-0.71365,0.012155,0.0072555
0.456,-0.2,0.79905,1.099,0.70036,-0.71365,0.012155,0.0072555
0.457,-0.2,0.79909,1.0991,0.70036,-0.71365,0.012155,0.0072555
0.458,-0.2,0.79913,1.0991,0.70036,-0.71365,0.012155,0.0072555
0.459,-0.2,0.79917,1.0992,0.70036,-0.71365,0.012155,0.0072555
0.46,-0.2,0.79921,1.0992,0.70036,-0.71365,0.012155,0.0072555
0.461,-0.2,0.79925,1.0993,0.70036,-0.71365,0.012155,0.0072555
0.462,-0.2,0.79929,1.0993,0.70036,-0.71365,0.012155,0.0072555
0.463,-0.2,0.79933,1.0993,0.70036,-0.71365,0.012155,0.0072555
0.464,-0.2,0.79936,1.0994,0.70036,-0.71365,0.012155,0.0072555
0.465,-0.2,0.7994,1.0994,0.70036,-0.71365,0.012155,0.0072555
0.466,-0.2,0.79943,1.0994,0.70036,-0.71365,0.012155,0.0072555
0.467,-0.2,0.79946,1.0995,0.70036,-0.71365,0.012155,0.0072555
0.468,-0.2,0.7995,1.0995,0.70036,-0.71365,0.012155,0.0072555
0.469,-0.2,0.79953,1.0995,0.70036,-0.71365,0.012155,0.0072555
0.47,-0.2,0.79956,1.0996,0.70036,-0.71365,0.012155,0.0072555
0.471,-0.2,0.79959,1.0996,0.70036,-0.71365,0.012155,0.0072555
0.472,-0.2,0.79961,1.0996,0.70036,-0.71365,0.012155,0.0072555
0.473,-0.2,0.79964,1.0996,0.70036,-0.71365,0.012155,0.0072555
0.474,-0.2,0.79967,1.0997,0.70036,-0.71365,0.012155,0.0072555
0.475,-0.2,0.79969,1.0997,0.70036,-0.71365,0.012155,0.0072555
0.476,-0.2,0.79972,1.0997,0.70036,-0.71365,0.012155,0.0072555
0.477,-0.2,0.79974,1.0997,0.70036,-0.71365,0.012155,0.0072555
0.478,-0.2,0.79976,1.0998,0.70036,-0.71365,0.012155,0.0072555
0.479,-0.2,0.79978,1.0998,0.70036,-0.71365,0.012155,0.0072555
0.48,-0.2,0.7998,1.0998,0.70036,-0.71365,0.012155,0.0072555
0.481,-0.2,0.79982,1.0998,0.70036,-0.71365,0.012155,0.0072555
0.482,-0.2,0.79984,1.0998,0.70036,-0.71365,0.012155,0.0072555
0.483,-0.2,0.79986,1.0999,0.70036,-0.71365,0.012155,0.0072555
0.484,-0.2,0.79987,1.0999,0.70036,-0.71365,0.012155,0.0072555
0.485,-0.2,0.79989,1.0999,0.70036,-0.71365,0.012155,0.0072555
0.486,-0.2,0.7999,1.0999,0.70036,-0.71365,0.012155,0.0072555
0.487,-0.2,0.79992,1.0999,0.70036,-0.71365,0.012155,0.0072555
0.488,-0.2,0.79993,1.0999,0.70036,-0.71365,0.012155,0.0072555
0.489,-0.2,0.79994,1.0999,0.70036,-0.71365,0.012155,0.0072555
0.49,-0.2,0.79995,1.1,0.70036,-0.71365,0.012155,0.0072555
0.491,-0.2,0.79996,1.1,0.70036,-0.71365,0.012155,0.0072555
0.492,-0.2,0.79997,1.1,0.70036,-0.71365,0.012155,0.0072555
0.493,-0.2,0.79998,1.1,0.70036,-0.71365,0.012155,0.0072555
0.494,-0.2,0.79998,1.1,0.70036,-0.71365,0.012155,0.0072555
0.495,-0.2,0.79999,1.1,0.70036,-0.71365,0.012155,0.0072555
0.496,-0.2,0.79999,1.1,0.70036,-0.71365,0.012155,0.0072555
0.497,-0.2,0.8,1.1,0.70036,-0.71365,0.012155,0.0072555
0.498,-0.2,0.8,1.1,0.70036,-0.71365,0.012155,0.0072555
0.499,-0.2,0.8,1.1,0.70036,-0.71365,0.012155,0.0072555
0.5,-0.2,0.8,1.1,0.70036,-0.71365,0.012155,0.0072555
0.501,-0.2,0.8,1.1,0.70036,-0.71365,0.012155,0.0072555
0.502,-0.2,0.8,1.1,0.70036,-0.71365,0.012155,0.0072555
0.503,-0.2,0.8,1.1,0.70036,-0.71365,0.012155,0.0072555
0.504,-0.2,0.79999,1.1,0.70036,-0.71365,0.012155,0.0072555
0.505,-0.2,0.79999,1.1,0.70036,-0.71365,0.012155,0.0072555
0.506,-0.2,0.79998,1.1,0.70036,-0.71365,0.012155,0.0072555
0.507,-0.2,0.79998,1.1,0.70036,-0.71365,0.012155,0.0072555
0.508,-0.2,0.79997,1.1,0.70036,-0.71365,0.012155,0.0072555
0.509,-0.2,0.79996,1.1,0.70036,-0.71365,0.012155,0.0072555
0.51,-0.2,0.79995,1.1,0.70036,-0.71365,0.012155,0.0072555
0.511,-0.2,0.79994,1.0999,0.70036,-0.71365,0.012155,0.0072555
0.512,-0.2,0.79993,1.0999,0.70036,-0.71365,0.012155,0.0072555
0.513,-0.2,0.79992,1.0999,0.70036,-0.71365,0.012155,0.0072555
0.514,-0.2,0.7999,1.0999,0.70036,-0.71365,0.012155,0.0072555
0.515,-0.2,0.79989,1.0999,0.70036,-0.71365,0.012155,0.0072555
0.516,-0.2,0.79987,1.0999,0.70036,-0.71365,0.012155,0.0072555
0.517,-0.2,0.79986,1.0999,0.70036,-0.71365,0.012155,0.0072555
0.518,-0.2,0.79984,1.0998,0.70036,-0.71365,0.012155,0.0072555
0.519,-0.2,0.79982,1.0998,0.70036,-0.71365,0.012155,0.0072555
0.52,-0.2,0.7998,1.0998,0.70036,-0.71365,0.012155,0.0072555
0.521,-0.2,0.79978,1.0998,0.70036,-0.71365,0.012155,0.0072555
0.522,-0.2,0.79976,1.0998,0.70036,-0.71365,0.012155,0.0072555
0.523,-0.2,0.79974,1.0997,0.70036,-0.71365,0.012155,0.0072555
0.524,-0.2,0.79972,1.0997,0.70036,-0.71365,0.012155,0.0072555
0.525,-0.2,0.79969,1.0997,0.70036,-0.71365,0.012155,0.0072555
0.526,-0.2,0.79967,1.0997,0.70036,-0.71365,0.012155,0.0072555
0.527,-0.2,0.79964,1.0996,0.70036,-0.71365,0.012155,0.0072555
0.528,-0.2,0.79961,1.0996,0.70036,-0.71365,0.012155,0.0072555
0.529,-0.2,0.79959,1.0996,0.70036,-0.71365,0.012155,0.0072555
0.53,-0.2,0.79956,1.0996,0.70036,-0.71365,0.012155,0.0072555
0.531,-0.2,0.79953,1.0995,0.70036,-0.71365,0.012155,0.0072555
0.532,-0.2,0.7995,1.0995,0.70036,-0.71365,0.012155,0.0072555
0.533,-0.2,0.79946,1.0995,0.70036,-0.71365,0.012155,0.0072555
0.534,-0.2,0.79943,1.0994,0.70036,-0.71365,0.012155,0.0072555
0.535,-0.2,0.7994,1.0994,0.70036,-0.71365,0.012155,0.0072555
0.536,-0.2,0.79936,1.0994,0.70036,-0.71365,0.012155,0.0072555
0.537,-0.2,0.79933,1.0993,0.70036,-0.71365,0.012155,0.0072555
0.538,-0.2,0.79929,1.0993,0.70036,-0.71365,0.012155,0.0072555
0.539,-0.2,0.79925,1.0993,0.70036,-0.71365,0.012155,0.0072555
0.54,-0.2,0.79921,1.0992,0.70036,-0.71365,0.012155,0.0072555
0.541,-0.2,0.79917,1.0992,0.70036,-0.71365,0.012155,0.0072555
0.542,-0.2,0.79913,1.0991,0.70036,-0.71365,0.012155,0.0072555
0.543,-0.2,0.79909,1.0991,0.70036,-0.71365,0.012155,0.0072555
0.544,-0.2,0.79905,1.099,0.70036,-0.71365,0.012155,0.0072555
0.545,-0.2,0.799,1.099,0.70036,-0.71365,0.012155,0.0072555
0.546,-0.2,0.79896,1.099,0.70036,-0.71365,0.012155,0.0072555
0.547,-0.2,0.79891,1.0989,0.70036,-0.71365,0.012155,0.0072555
0.548,-0.2,0.79887,1.0989,0.70036,-0.71365,0.012155,0.0072555
0.549,-0.2,0.79882,1.0988,0.70036,-0.71365,0.012155,0.0072555
0.55,-0.2,0.79877,1.0988,0.70036,-0.71365,0.012155,0.0072555
0.551,-0.2,0.79872,1.0987,0.70036,-0.71365,0.012155,0.0072555
0.552,-0.2,0.79867,1.0987,0.70036,-0.71365,0.012155,0.0072555
0.553,-0.2,0.79862,1.0986,0.70036,-0.71365,0.012155,0.0072555
0.554,-0.2,0.79856,1.0986,0.70036,-0.71365,0.012155,0.0072555
0.555,-0.2,0.79851,1.0985,0.70036,-0.71365,0.012155,0.0072555
0.556,-0.2,0.79846,1.0985,0.70036,-0.71365,0.012155,0.0072555
0.557,-0.2,0.7984,1.0984,0.70036,-0.71365,0.012155,0.0072555
0.558,-0.2,0.79834,1.0983,0.70036,-0.71365,0.012155,0.0072555
0.559,-0.2,0.79829,1.0983,0.70036,-0.71365,0.012155,0.0072555
0.56,-0.2,0.79823,1.0982,0.70036,-0.71365,0.012155,0.0072555
0.561,-0.2,0.79817,1.0982,0.70036,-0.71365,0.012155,0.0072555
0.562,-0.2,0.79811,1.0981,0.70036,-0.71365,0.012155,0.0072555
0.563,-0.2,0.79805,1.098,0.70036,-0.71365,0.012155,0.0072555
0.564,-0.2,0.79799,1.098,0.70036,-0.71365,0.012155,0.0072555
0.565,-0.2,0.79792,1.0979,0.70036,-0.71365,0.012155,0.0072555
0.566,-0.2,0.79786,1.0979,0.70036,-0.71365,0.012155,0.0072555
0.567,-0.2,0.79779,1.0978,0.70036,-0.71365,0.012155,0.0072555
0.568,-0.2,0.79773,1.0977,0.70036,-0.71365,0.012155,0.0072555
0.569,-0.2,0.79766,1.0977,0.70036,-0.71365,0.012155,0.0072555
0.57,-0.2,0.79759,1.0976,0.70036,-0.71365,0.012155,0.0072555
0.571,-0.2,0.79752,1.0975,0.70036,-0.71365,0.012155,0.0072555
0.572,-0.2,0.79745,1.0975,0.70036,-0.71365,0.012155,0.0072555
0.573,-0.2,0.79738,1.0974,0.70036,-0.71365,0.012155,0.0072555
0.574,-0.2,0.79731,1.0973,0.70036,-0.71365,0.012155,0.0072555
0.575,-0.2,0.79724,1.0972,0.70036,-0.71365,0.012155,0.0072555
0.576,-0.2,0.79716,1.0972,0.70036,-0.71365,0.012155,0.0072555
0.577,-0.2,0.79709,1.0971,0.70036,-0.71365,0.012155,0.0072555
0.578,-0.2,0.79701,1.097,0.70036,-0.71365,0.012155,0.0072555
0.579,-0.2,0.79694,1.0969,0.70036,-0.71365,0.012155,0.0072555
0.58,-0.2,0.79686,1.0969,0.70036,-0.71365,0.012155,0.0072555
0.581,-0.2,0.79678,1.0968,0.70036,-0.71365,0.012155,0.0072555
0.582,-0.2,0.7967,1.0967,0.70036,-0.71365,0.012155,0.0072555
0.583,-0.2,0.79662,1.0966,0.70036,-0.71365,0.012155,0.0072555
0.584,-0.2,0.79654,1.0965,0.70036,-0.71365,0.012155,0.0072555
0.585,-0.2,0.79646,1.0965,0.70036,-0.71365,0.012155,0.0072555
0.586,-0.2,0.79637,1.0964,0.70036,-0.71365,0.012155,0.0072555
0.587,-0.2,0.79629,1.0963,0.70036,-0.71365,0.012155,0.0072555
0.588,-0.2,0.7962,1.0962,0.70036,-0.71365,0.012155,0.0072555
0.589,-0.2,0.79612,1.0961,0.70036,-0.71365,0.012155,0.0072555
0.59,-0.2,0.79603,1.096,0.70036,-0.71365,0.012155,0.0072555
0.591,-0.2,0.79594,1.0959,0.70036,-0.71365,0.012155,0.0072555
0.592,-0.2,0.79585,1.0959,0.70036,-0.71365,0.012155,0.0072555
0.593,-0.2,0.79576,1.0958,0.70036,-0.71365,0.012155,0.0072555
0.594,-0.2,0.79567,1.0957,0.70036,-0.71365,0.012155,0.0072555
0.595,-0.2,0.79558,1.0956,0.70036,-0.71365,0.012155,0.0072555
0.596,-0.2,0.79549,1.0955,0.70036,-0.71365,0.012155,0.0072555
0.597,-0.2,0.79539,1.0954,0.70036,-0.71365,0.012155,0.0072555
0.598,-0.2,0.7953,1.0953,0.70036,-0.71365,0.012155,0.0072555
0.599,-0.2,0.7952,1.0952,0.70036,-0.71365,0.012155,0.0072555
0.6,-0.2,0.79511,1.0951,0.70036,-0.71365,0.012155,0.0072555
0.601,-0.2,0.79501,1.095,0.70036,-0.71365,0.012155,0.0072555
0.602,-0.2,0.79491,1.0949,0.70036,-0.71365,0.012155,0.0072555
0.603,-0.2,0.79481,1.0948,0.70036,-0.71365,0.012155,0.0072555
0.604,-0.2,0.79471,1.0947,0.70036,-0.71365,0.012155,0.0072555
0.605,-0.2,0.79461,1.0946,0.70036,-0.71365,0.012155,0.0072555
0.606,-0.2,0.79451,1.0945,0.70036,-0.71365,0.012155,0.0072555
0.607,-0.2,0.7944,1.0944,0.70036,-0.71365,0.012155,0.0072555
0.608,-0.2,0.7943,1.0943,0.70036,-0.71365,0.012155,0.0072555
0.609,-0.2,0.79419,1.0942,0.70036,-0.71365,0.012155,0.0072555
0.61,-0.2,0.79409,1.0941,0.70036,-0.71365,0.012155,0.0072555
0.611,-0.2,0.79398,1.094,0.70036,-0.71365,0.012155,0.0072555
0.612,-0.2,0.79387,1.0939,0.70036,-0.71365,0.012155,0.0072555
0.613,-0.2,0.79376,1.0938,0.70036,-0.71365,0.012155,0.0072555
0.614,-0.2,0.79365,1.0937,0.70036,-0.71365,0.012155,0.0072555
0.615,-0.2,0.79354,1.0935,0.70036,-0.71365,0.012155,0.0072555
0.616,-0.2,0.79343,1.0934,0.70036,-0.71365,0.012155,0.0072555
0.617,-0.2,0.79332,1.0933,0.70036,-0.71365,0.012155,0.0072555
0.618,-0.2,0.79321,1.0932,0.70036,-0.71365,0.012155,0.0072555
0.619,-0.2,0.79309,1.0931,0.70036,-0.71365,0.012155,0.0072555
0.62,-0.2,0.79298,1.093,0.70036,-0.71365,0.012155,0.0072555
0.621,-0.2,0.79286,1.0929,0.70036,-0.71365,0.012155,0.0072555
0.622,-0.2,0.79274,1.0927,0.70036,-0.71365,0.012155,0.0072555
0.623,-0.2,0.79263,1.0926,0.70036,-0.71365,0.012155,0.0072555
0.624,-0.2,0.79251,1.0925,0.70036,-0.71365,0.012155,0.0072555
0.625,-0.2,0.79239,1.0924,0.70036,-0.71365,0.012155,0.0072555
0.626,-0.2,0.79227,1.0923,0.70036,-0.71365,0.012155,0.0072555
0.627,-0.2,0.79215,1.0921,0.70036,-0.71365,0.012155,0.0072555
0.628,-0.2,0.79202,1.092,0.70036,-0.71365,0.012155,0.0072555
0.629,-0.2,0.7919,1.0919,0.70036,-0.71365,0.012155,0.0072555
0.63,-0.2,0.79178,1.0918,0.70036,-0.71365,0.012155,0.0072555
0.631,-0.2,0.79165,1.0917,0.70036,-0.71365,0.012155,0.0072555
0.632,-0.2,0.79152,1.0915,0.70036,-0.71365,0.012155,0.0072555
0.633,-0.2,0.7914,1.0914,0.70036,-0.71365,0.012155,0.0072555
0.634,-0.2,0.79127,1.0913,0.70036,-0.71365,0.012155,0.0072555
0.635,-0.2,0.79114,1.0911,0.70036,-0.71365,0.012155,0.0072555
0.636,-0.2,0.79101,1.091,0.70036,-0.71365,0.012155,0.0072555
0.637,-0.2,0.79088,1.0909,0.70036,-0.71365,0.012155,0.0072555
0.638,-0.2,0.79075,1.0907,0.70036,-0.71365,0.012155,0.0072555
0.639,-0.2,0.79062,1.0906,0.70036,-0.71365,0.012155,0.0072555
0.64,-0.2,0.79048,1.0905,0.70036,-0.71365,0.012155,0.0072555
0.641,-0.2,0.79035,1.0903,0.70036,-0.71365,0.012155,0.0072555
0.642,-0.2,0.79021,1.0902,0.70036,-0.71365,0.012155,0.0072555
0.643,-0.2,0.79008,1.0901,0.70036,-0.71365,0.012155,0.0072555
0.644,-0.2,0.78994,1.0899,0.70036,-0.71365,0.012155,0.0072555
0.645,-0.2,0.7898,1.0898,0.70036,-0.71365,0.012155,0.0072555
0.646,-0.2,0.78966,1.0897,0.70036,-0.71365,0.012155,0.0072555
0.647,-0.2,0.78952,1.0895,0.70036,-0.71365,0.012155,0.0072555
0.648,-0.2,0.78938,1.0894,0.70036,-0.71365,0.012155,0.0072555
0.649,-0.2,0.78924,1.0892,0.70036,-0.71365,0.012155,0.0072555
0.65,-0.2,0.7891,1.0891,0.70036,-0.71365,0.012155,0.0072555
0.651,-0.2,0.78896,1.089,0.70036,-0.71365,0.012155,0.0072555
0.652,-0.2,0.78881,1.0888,0.70036,-0.71365,0.012155,0.0072555
0.653,-0.2,0.78867,1.0887,0.70036,-0.71365,0.012155,0.0072555
0.654,-0.2,0.78852,1.0885,0.70036,-0.71365,0.012155,0.0072555
0.655,-0.2,0.78838,1.0884,0.70036,-0.71365,0.012155,0.0072555
0.656,-0.2,0.78823,1.0882,0.70036,-0.71365,0.012155,0.0072555
0.657,-0.2,0.78808,1.0881,0.70036,-0.71365,0.012155,0.0072555
0.658,-0.2,0.78793,1.0879,0.70036,-0.71365,0.012155,0.0072555
0.659,-0.2,0.78778,1.0878,0.70036,-0.71365,0.012155,0.0072555
0.66,-0.2,0.78763,1.0876,0.70036,-0.71365,0.012155,0.0072555
0.661,-0.2,0.78748,1.0875,0.70036,-0.71365,0.012155,0.0072555
0.662,-0.2,0.78733,1.0873,0.70036,-0.71365,0.012155,0.0072555
0.663,-0.2,0.78717,1.0872,0.70036,-0.71365,0.012155,0.0072555
0.664,-0.2,0.78702,1.087,0.70036,-0.71365,0.012155,0.0072555
0.665,-0.2,0.78686,1.0869,0.70036,-0.71365,0.012155,0.0072555
0.666,-0.2,0.78671,1.0867,0.70036,-0.71365,0.012155,0.0072555
0.667,-0.2,0.78655,1.0866,0.70036,-0.71365,0.012155,0.0072555
0.668,-0.2,0.78639,1.0864,0.70036,-0.71365,0.012155,0.0072555
0.669,-0.2,0.78623,1.0862,0.70036,-0.71365,0.012155,0.0072555
0.67,-0.2,0.78607,1.0861,0.70036,-0.71365,0.012155,0.0072555
0.671,-0.2,0.78591,1.0859,0.70036,-0.71365,0.012155,0.0072555
0.672,-0.2,0.78575,1.0858,0.70036,-0.71365,0.012155,0.0072555
0.673,-0.2,0.78559,1.0856,0.70036,-0.71365,0.012155,0.0072555
0.674,-0.2,0.78543,1.0854,0.70036,-0.71365,0.012155,0.0072555
0.675,-0.2,0.78526,1.0853,0.70036,-0.71365,0.012155,0.0072555
0.676,-0.2,0.7851,1.0851,0.70036,-0.71365,0.012155,0.0072555
0.677,-0.2,0.78493,1.0849,0.70036,-0.71365,0.012155,0.0072555
0.678,-0.2,0.78477,1.0848,0.70036,-0.71365,0.012155,0.0072555
0.679,-0.2,0.7846,1.0846,0.70036,-0.71365,0.012155,0.0072555
0.68,-0.2,0.78443,1.0844,0.70036,-0.71365,0.012155,0.0072555
0.681,-0.2,0.78426,1.0843,0.70036,-0.71365,0.012155,0.0072555
0.682,-0.2,0.78409,1.0841,0.70036,-0.71365,0.012155,0.0072555
0.683,-0.2,0.78392,1.0839,0.70036,-0.71365,0.012155,0.0072555
0.684,-0.2,0.78375,1.0838,0.70036,-0.71365,0.012155,0.0072555
0.685,-0.2,0.78358,1.0836,0.70036,-0.71365,0.012155,0.0072555
0.686,-0.2,0.78341,1.0834,0.70036,-0.71365,0.012155,0.0072555
0.687,-0.2,0.78323,1.0832,0.70036,-0.71365,0.012155,0.0072555
0.688,-0.2,0.78306,1.0831,0.70036,-0.71365,0.012155,0.0072555
0.689,-0.2,0.78288,1.0829,0.70036,-0.71365,0.012155,0.0072555
0.69,-0.2,0.78271,1.0827,0.70036,-0.71365,0.012155,0.0072555
0.691,-0.2,0.78253,1.0825,0.70036,-0.71365,0.012155,0.0072555
0.692,-0.2,0.78235,1.0824,0.70036,-0.71365,0.012155,0.0072555
0.693,-0.2,0.78217,1.0822,0.70036,-0.71365,0.012155,0.0072555
0.694,-0.2,0.782,1.082,0.70036,-0.71365,0.012155,0.0072555
0.695,-0.2,0.78181,1.0818,0.70036,-0.71365,0.012155,0.0072555
0.696,-0.2,0.78163,1.0816,0.70036,-0.71365,0.012155,0.0072555
0.697,-0.2,0.78145,1.0815,0.70036,-0.71365,0.012155,0.0072555
0.698,-0.2,0.78127,1.0813,0.70036,-0.71365,0.012155,0.0072555
0.699,-0.2,0.78109,1.0811,0.70036,-0.71365,0.012155,0.0072555
0.7,-0.2,0.7809,1.0809,0.70036,-0.71365,0.012155,0.0072555
0.701,-0.2,0.78072,1.0807,0.70036,-0.71365,0.012155,0.0072555
0.702,-0.2,0.78053,1.0805,0.70036,-0.71365,0.012155,0.0072555
0.703,-0.2,0.78034,1.0803,0.70036,-0.71365,0.012155,0.0072555
0.704,-0.2,0.78016,1.0802,0.70036,-0.71365,0.012155,0.0072555
0.705,-0.2,0.77997,1.08,0.70036,-0.71365,0.012155,0.0072555
0.706,-0.2,0.77978,1.0798,0.70036,-0.71365,0.012155,0.0072555
0.707,-0.2,0.77959,1.0796,0.70036,-0.71365,0.012155,0.0072555
0.708,-0.2,0.7794,1.0794,0.70036,-0.71365,0.012155,0.0072555
0.709,-0.2,0.77921,1.0792,0.70036,-0.71365,0.012155,0.0072555
0.71,-0.2,0.77902,1.079,0.70036,-0.71365,0.012155,0.0072555
0.711,-0.2,0.77882,1.0788,0.70036,-0.71365,0.012155,0.0072555
0.712,-0.2,0.77863,1.0786,0.70036,-0.71365,0.012155,0.0072555
0.713,-0.2,0.77843,1.0784,0.70036,-0.71365,0.012155,0.0072555
0.714,-0.2,0.77824,1.0782,0.70036,-0.71365,0.012155,0.0072555
0.715,-0.2,0.77804,1.078,0.70036,-0.71365,0.012155,0.0072555
0.716,-0.2,0.77785,1.0778,0.70036,-0.71365,0.012155,0.0072555
0.717,-0.2,0.77765,1.0776,0.70036,-0.71365,0.012155,0.0072555
0.718,-0.2,0.77745,1.0775,0.70036,-0.71365,0.012155,0.0072555
0.719,-0.2,0.77725,1.0773,0.70036,-0.71365,0.012155,0.0072555
0.72,-0.2,0.77705,1.0771,0.70036,-0.71365,0.012155,0.0072555
0.721,-0.2,0.77685,1.0769,0.70036,-0.71365,0.012155,0.0072555
0.722,-0.2,0.77665,1.0766,0.70036,-0.71365,0.012155,0.0072555
0.723,-0.2,0.77645,1.0764,0.70036,-0.71365,0.012155,0.0072555
0.724,-0.2,0.77624,1.0762,0.70036,-0.71365,0.012155,0.0072555
0.725,-0.2,0.77604,1.076,0.70036,-0.71365,0.012155,0.0072555
0.726,-0.2,0.77584,1.0758,0.70036,-0.71365,0.012155,0.0072555
0.727,-0.2,0.77563,1.0756,0.70036,-0.71365,0.012155,0.0072555
0.728,-0.2,0.77543,1.0754,0.70036,-0.71365,0.012155,0.0072555
0.729,-0.2,0.77522,1.0752,0.70036,-0.71365,0.012155,0.0072555
0.73,-0.2,0.77501,1.075,0.70036,-0.71365,0.012155,0.0072555
0.731,-0.2,0.7748,1.0748,0.70036,-0.71365,0.012155,0.0072555
0.732,-0.2,0.77459,1.0746,0.70036,-0.71365,0.012155,0.0072555
0.733,-0.2,0.77438,1.0744,0.70036,-0.71365,0.012155,0.0072555
0.734,-0.2,0.77417,1.0742,0.70036,-0.71365,0.012155,0.0072555
0.735,-0.2,0.77396,1.074,0.70036,-0.71365,0.012155,0.0072555
0.736,-0.2,0.77375,1.0738,0.70036,-0.71365,0.012155,0.0072555
0.737,-0.2,0.77354,1.0735,0.70036,-0.71365,0.012155,0.0072555
0.738,-0.2,0.77333,1.0733,0.70036,-0.71365,0.012155,0.0072555
0.739,-0.2,0.77311,1.0731,0.70036,-0.71365,0.012155,0.0072555
0.74,-0.2,0.7729,1.0729,0.70036,-0.71365,0.012155,0.0072555
0.741,-0.2,0.77268,1.0727,0.70036,-0.71365,0.012155,0.0072555
0.742,-0.2,0.77247,1.0725,0.70036,-0.71365,0.012155,0.0072555
0.743,-0.2,0.77225,1.0722,0.70036,-0.71365,0.012155,0.0072555
0.744,-0.2,0.77203,1.072,0.70036,-0.71365,0.012155,0.0072555
0.745,-0.2,0.77181,1.0718,0.70036,-0.71365,0.012155,0.0072555
0.746,-0.2,0.77159,1.0716,0.70036,-0.71365,0.012155,0.0072555
0.747,-0.2,0.77137,1.0714,0.70036,-0.71365,0.012155,0.0072555
0.748,-0.2,0.77115,1.0712,0.70036,-0.71365,0.012155,0.0072555
0.749,-0.2,0.77093,1.0709,0.70036,-0.71365,0.012155,0.0072555
0.75,-0.2,0.77071,1.0707,0.70036,-0.71365,0.012155,0.0072555
0.751,-0.2,0.77049,1.0705,0.70036,-0.71365,0.012155,0.0072555
0.752,-0.2,0.77026,1.0703,0.70036,-0.71365,0.012155,0.0072555
0.753,-0.2,0.77004,1.07,0.70036,-0.71365,0.012155,0.0072555
0.754,-0.2,0.76982,1.0698,0.70036,-0.71365,0.012155,0.0072555
0.755,-0.2,0.76959,1.0696,0.70036,-0.71365,0.012155,0.0072555
0.756,-0.2,0.76937,1.0694,0.70036,-0.71365,0.012155,0.0072555
0.757,-0.2,0.76914,1.0691,0.70036,-0.71365,0.012155,0.0072555
0.758,-0.2,0.76891,1.0689,0.70036,-0.71365,0.012155,0.0072555
0.759,-0.2,0.76868,1.0687,0.70036,-0.71365,0.012155,0.0072555
0.76,-0.2,0.76845,1.0685,0.70036,-0.71365,0.012155,0.0072555
0.761,-0.2,0.76823,1.0682,0.70036,-0.71365,0.012155,0.0072555
0.762,-0.2,0.768,1.068,0.70036,-0.71365,0.012155,0.0072555
0.763,-0.2,0.76776,1.0678,0.70036,-0.71365,0.012155,0.0072555
0.764,-0.2,0.76753,1.0675,0.70036,-0.71365,0.012155,0.0072555
0.765,-0.2,0.7673,1.0673,0.70036,-0.71365,0.012155,0.0072555
0.766,-0.2,0.76707,1.0671,0.70036,-0.71365,0.012155,0.0072555
0.767,-0.2,0.76684,1.0668,0.70036,-0.71365,0.012155,0.0072555
0.768,-0.2,0.7666,1.0666,0.70036,-0.71365,0.012155,0.0072555
0.769,-0.2,0.76637,1.0664,0.70036,-0.71365,0.012155,0.0072555
0.77,-0.2,0.76613,1.0661,0.70036,-0.71365,0.012155,0.0072555
0.771,-0.2,0.7659,1.0659,0.70036,-0.71365,0.012155,0.0072555
0.772,-0.2,0.76566,1.0657,0.70036,-0.71365,0.012155,0.0072555
0.773,-0.2,0.76542,1.0654,0.70036,-0.71365,0.012155,0.0072555
0.774,-0.2,0.76518,1.0652,0.70036,-0.71365,0.012155,0.0072555
0.775,-0.2,0.76494,1.0649,0.70036,-0.71365,0.012155,0.0072555
0.776,-0.2,0.76471,1.0647,0.70036,-0.71365,0.012155,0.0072555
0.777,-0.2,0.76447,1.0645,0.70036,-0.71365,0.012155,0.0072555
0.778,-0.2,0.76423,1.0642,0.70036,-0.71365,0.012155,0.0072555
0.779,-0.2,0.76398,1.064,0.70036,-0.71365,0.012155,0.0072555
0.78,-0.2,0.76374,1.0637,0.70036,-0.71365,0.012155,0.0072555
0.781,-0.2,0.7635,1.0635,0.70036,-0.71365,0.012155,0.0072555
0.782,-0.2,0.76326,1.0633,0.70036,-0.71365,0.012155,0.0072555
0.783,-0.2,0.76301,1.063,0.70036,-0.71365,0.012155,0.0072555
0.784,-0.2,0.76277,1.0628,0.70036,-0.71365,0.012155,0.0072555
0.785,-0.2,0.76252,1.0625,0.70036,-0.71365,0.012155,0.0072555
0.786,-0.2,0.76228,1.0623,0.70036,-0.71365,0.012155,0.0072555
0.787,-0.2,0.76203,1.062,0.70036,-0.71365,0.012155,0.0072555
0.788,-0.2,0.76179,1.0618,0.70036,-0.71365,0.012155,0.0072555
0.789,-0.2,0.76154,1.0615,0.70036,-0.71365,0.012155,0.0072555
0.79,-0.2,0.76129,1.0613,0.70036,-0.71365,0.012155,0.0072555
0.791,-0.2,0.76104,1.061,0.70036,-0.71365,0.012155,0.0072555
0.792,-0.2,0.76079,1.0608,0.70036,-0.71365,0.012155,0.0072555
0.793,-0.2,0.76054,1.0605,0.70036,-0.71365,0.012155,0.0072555
0.794,-0.2,0.76029,1.0603,0.70036,-0.71365,0.012155,0.0072555
0.795,-0.2,0.76004,1.06,0.70036,-0.71365,0.012155,0.0072555
0.796,-0.2,0.75979,1.0598,0.70036,-0.71365,0.012155,0.0072555
0.797,-0.2,0.75954,1.0595,0.70036,-0.71365,0.012155,0.0072555
0.798,-0.2,0.75929,1.0593,0.70036,-0.71365,0.012155,0.0072555
0.799,-0.2,0.75903,1.059,0.70036,-0.71365,0.012155,0.0072555
0.8,-0.2,0.75878,1.0588,0.70036,-0.71365,0.012155,0.0072555
0.801,-0.2,0.75852,1.0585,0.70036,-0.71365,0.012155,0.0072555
0.802,-0.2,0.75827,1.0583,0.70036,-0.71365,0.012155,0.0072555
0.803,-0.2,0.75801,1.058,0.70036,-0.71365,0.012155,0.0072555
0.804,-0.2,0.75776,1.0578,0.70036,-0.71365,0.012155,0.0072555
0.805,-0.2,0.7575,1.0575,0.70036,-0.71365,0.012155,0.0072555
0.806,-0.2,0.75724,1.0572,0.70036,-0.71365,0.012155,0.0072555
0.807,-0.2,0.75699,1.057,0.70036,-0.71365,0.012155,0.0072555
0.808,-0.2,0.75673,1.0567,0.70036,-0.71365,0.012155,0.0072555
0.809,-0.2,0.75647,1.0565,0.70036,-0.71365,0.012155,0.0072555
0.81,-0.2,0.75621,1.0562,0.70036,-0.71365,0.012155,0.0072555
0.811,-0.2,0.75595,1.0559,0.70036,-0.71365,0.012155,0.0072555
0.812,-0.2,0.75569,1.0557,0.70036,-0.71365,0.012155,0.0072555
0.813,-0.2,0.75543,1.0554,0.70036,-0.71365,0.012155,0.0072555
0.814,-0.2,0.75516,1.0552,0.70036,-0.71365,0.012155,0.0072555
0.815,-0.2,0.7549,1.0549,0.70036,-0.71365,0.012155,0.0072555
0.816,-0.2,0.75464,1.0546,0.70036,-0.71365,0.012155,0.0072555
0.817,-0.2,0.75438,1.0544,0.70036,-0.71365,0.012155,0.0072555
0.818,-0.2,0.75411,1.0541,0.70036,-0.71365,0.012155,0.0072555
0.819,-0.2,0.75385,1.0538,0.70036,-0.71365,0.012155,0.0072555
0.82,-0.2,0.75358,1.0536,0.70036,-0.71365,0.012155,0.0072555
0.821,-0.2,0.75332,1.0533,0.70036,-0.71365,0.012155,0.0072555
0.822,-0.2,0.75305,1.0531,0.70036,-0.71365,0.012155,0.0072555
0.823,-0.2,0.75278,1.0528,0.70036,-0.71365,0.012155,0.0072555
0.824,-0.2,0.75252,1.0525,0.70036,-0.71365,0.012155,0.0072555
0.825,-0.2,0.75225,1.0522,0.70036,-0.71365,0.012155,0.0072555
0.826,-0.2,0.75198,1.052,0.70036,-0.71365,0.012155,0.0072555
0.827,-0.2,0.75171,1.0517,0.70036,-0.71365,0.012155,0.0072555
0.828,-0.2,0.75144,1.0514,0.70036,-0.71365,0.012155,0.0072555
0.829,-0.2,0.75117,1.0512,0.70036,-0.71365,0.012155,0.0072555
0.83,-0.2,0.7509,1.0509,0.70036,-0.71365,0.012155,0.0072555
0.831,-0.2,0.75063,1.0506,0.70036,-0.71365,0.012155,0.0072555
0.832,-0.2,0.75036,1.0504,0.70036,-0.71365,0.012155,0.0072555
0.833,-0.2,0.75009,1.0501,0.70036,-0.71365,0.012155,0.0072555
0.834,-0.2,0.74982,1.0498,0.70036,-0.71365,0.012155,0.0072555
0.835,-0.2,0.74955,1.0495,0.70036,-0.71365,0.012155,0.0072555
0.836,-0.2,0.74927,1.0493,0.70036,-0.71365,0.012155,0.0072555
0.837,-0.2,0.749,1.049,0.70036,-0.71365,0.012155,0.0072555
0.838,-0.2,0.74873,1.0487,0.70036,-0.71365,0.012155,0.0072555
0.839,-0.2,0.74845,1.0485,0.70036,-0.71365,0.012155,0.0072555
0.84,-0.2,0.74818,1.0482,0.70036,-0.71365,0.012155,0.0072555
0.841,-0.2,0.7479,1.0479,0.70036,-0.71365,0.012155,0.0072555
0.842,-0.2,0.74762,1.0476,0.70036,-0.71365,0.012155,0.0072555
0.843,-0.2,0.74735,1.0473,0.70036,-0.71365,0.012155,0.0072555
0.844,-0.2,0.74707,1.0471,0.70036,-0.71365,0.012155,0.0072555
0.845,-0.2,0.74679,1.0468,0.70036,-0.71365,0.012155,0.0072555
0.846,-0.2,0.74652,1.0465,0.70036,-0.71365,0.012155,0.0072555
0.847,-0.2,0.74624,1.0462,0.70036,-0.71365,0.012155,0.0072555
0.848,-0.2,0.74596,1.046,0.70036,-0.71365,0.012155,0.0072555
0.849,-0.2,0.74568,1.0457,0.70036,-0.71365,0.012155,0.0072555
0.85,-0.2,0.7454,1.0454,0.70036,-0.71365,0.012155,0.0072555
0.851,-0.2,0.74512,1.0451,0.70036,-0.71365,0.012155,0.0072555
0.852,-0.2,0.74484,1.0448,0.70036,-0.71365,0.012155,0.0072555
0.853,-0.2,0.74456,1.0446,0.70036,-0.71365,0.012155,0.0072555
0.854,-0.2,0.74428,1.0443,0.70036,-0.71365,0.012155,0.0072555
0.855,-0.2,0.74399,1.044,0.70036,-0.71365,0.012155,0.0072555
0.856,-0.2,0.74371,1.0437,0.70036,-0.71365,0.012155,0.0072555
0.857,-0.2,0.74343,1.0434,0.70036,-0.71365,0.012155,0.0072555
0.858,-0.2,0.74315,1.0431,0.70036,-0.71365,0.012155,0.0072555
0.859,-0.2,0.74286,1.0429,0.70036,-0.71365,0.012155,0.0072555
0.86,-0.2,0.74258,1.0426,0.70036,-0.71365,0.012155,0.0072555
0.861,-0.2,0.74229,1.0423,0.70036,-0.71365,0.012155,0.0072555
0.862,-0.2,0.74201,1.042,0.70036,-0.71365,0.012155,0.0072555
0.863,-0.2,0.74172,1.0417,0.70036,-0.71365,0.012155,0.0072555
0.864,-0.2,0.74144,1.0414,0.70036,-0.71365,0.012155,0.0072555
0.865,-0.2,0.74115,1.0412,0.70036,-0.71365,0.012155,0.0072555
0.866,-0.2,0.74086,1.0409,0.70036,-0.71365,0.012155,0.0072555
0.867,-0.2,0.74058,1.0406,0.70036,-0.71365,0.012155,0.0072555
0.868,-0.2,0.74029,1.0403,0.70036,-0.71365,0.012155,0.0072555
0.869,-0.2,0.74,1.04,0.70036,-0.71365,0.012155,0.0072555
0.87,-0.2,0.73971,1.0397,0.70036,-0.71365,0.012155,0.0072555
0.871,-0.2,0.73943,1.0394,0.70036,-0.71365,0.012155,0.0072555
0.872,-0.2,0.73914,1.0391,0.70036,-0.71365,0.012155,0.0072555
0.873,-0.2,0.73885,1.0388,0.70036,-0.71365,0.012155,0.0072555
0.874,-0.2,0.73856,1.0386,0.70036,-0.71365,0.012155,0.0072555
0.875,-0.2,0.73827,1.0383,0.70036,-0.71365,0.012155,0.0072555
0.876,-0.2,0.73798,1.038,0.70036,-0.71365,0.012155,0.0072555
0.877,-0.2,0.73769,1.0377,0.70036,-0.71365,0.012155,0.0072555
0.878,-0.2,0.7374,1.0374,0.70036,-0.71365,0.012155,0.0072555
0.879,-0.2,0.7371,1.0371,0.70036,-0.71365,0.012155,0.0072555
0.88,-0.2,0.73681,1.0368,0.70036,-0.71365,0.012155,0.0072555
0.881,-0.2,0.73652,1.0365,0.70036,-0.71365,0.012155,0.0072555
0.882,-0.2,0.73623,1.0362,0.70036,-0.71365,0.012155,0.0072555
0.883,-0.2,0.73593,1.0359,0.70036,-0.71365,0.012155,0.0072555
0.884,-0.2,0.73564,1.0356,0.70036,-0.71365,0.012155,0.0072555
0.885,-0.2,0.73535,1.0353,0.70036,-0.71365,0.012155,0.0072555
0.886,-0.2,0.73505,1.0351,0.70036,-0.71365,0.012155,0.0072555
0.887,-0.2,0.73476,1.0348,0.70036,-0.71365,0.012155,0.0072555
0.888,-0.2,0.73446,1.0345,0.70036,-0.71365,0.012155,0.0072555
0.889,-0.2,0.73417,1.0342,0.70036,-0.71365,0.012155,0.0072555
0.89,-0.2,0.73387,1.0339,0.70036,-0.71365,0.012155,0.0072555
0.891,-0.2,0.73358,1.0336,0.70036,-0.71365,0.012155,0.0072555
0.892,-0.2,0.73328,1.0333,0.70036,-0.71365,0.012155,0.0072555
0.893,-0.2,0.73299,1.033,0.70036,-0.71365,0.012155,0.0072555
0.894,-0.2,0.73269,1.0327,0.70036,-0.71365,0.012155,0.0072555
0.895,-0.2,0.73239,1.0324,0.70036,-0.71365,0.012155,0.0072555
0.896,-0.2,0.73209,1.0321,0.70036,-0.71365,0.012155,0.0072555
0.897,-0.2,0.7318,1.0318,0.70036,-0.71365,0.012155,0.0072555
0.898,-0.2,0.7315,1.0315,0.70036,-0.71365,0.012155,0.0072555
0.899,-0.2,0.7312,1.0312,0.70036,-0.71365,0.012155,0.0072555
0.9,-0.2,0.7309,1.0309,0.70036,-0.71365,0.012155,0.0072555
0.901,-0.2,0.7306,1.0306,0.70036,-0.71365,0.012155,0.0072555
0.902,-0.2,0.7303,1.0303,0.70036,-0.71365,0.012155,0.0072555
0.903,-0.2,0.73,1.03,0.70036,-0.71365,0.012155,0.0072555
0.904,-0.2,0.7297,1.0297,0.70036,-0.71365,0.012155,0.0072555
0.905,-0.2,0.7294,1.0294,0.70036,-0.71365,0.012155,0.0072555
0.906,-0.2,0.7291,1.0291,0.70036,-0.71365,0.012155,0.0072555
0.907,-0.2,0.7288,1.0288,0.70036,-0.71365,0.012155,0.0072555
0.908,-0.2,0.7285,1.0285,0.70036,-0.71365,0.012155,0.0072555
0.909,-0.2,0.7282,1.0282,0.70036,-0.71365,0.012155,0.0072555
0.91,-0.2,0.7279,1.0279,0.70036,-0.71365,0.012155,0.0072555
0.911,-0.2,0.7276,1.0276,0.70036,-0.71365,0.012155,0.0072555
0.912,-0.2,0.7273,1.0273,0.70036,-0.71365,0.012155,0.0072555
0.913,-0.2,0.72699,1.027,0.70036,-0.71365,0.012155,0.0072555
0.914,-0.2,0.72669,1.0267,0.70036,-0.71365,0.012155,0.0072555
0.915,-0.2,0.72639,1.0264,0.70036,-0.71365,0.012155,0.0072555
0.916,-0.2,0.72608,1.0261,0.70036,-0.71365,0.012155,0.0072555
0.917,-0.2,0.72578,1.0258,0.70036,-0.71365,0.012155,0.0072555
0.918,-0.2,0.72548,1.0255,0.70036,-0.71365,0.012155,0.0072555
0.919,-0.2,0.72517,1.0252,0.70036,-0.71365,0.012155,0.0072555
0.92,-0.2,0.72487,1.0249,0.70036,-0.71365,0.012155,0.0072555
0.921,-0.2,0.72456,1.0246,0.70036,-0.71365,0.012155,0.0072555
0.922,-0.2,0.72426,1.0243,0.70036,-0.71365,0.012155,0.0072555
0.923,-0.2,0.72396,1.024,0.70036,-0.71365,0.012155,0.0072555
0.924,-0.2,0.72365,1.0236,0.70036,-0.71365,0.012155,0.0072555
0.925,-0.2,0.72334,1.0233,0.70036,-0.71365,0.012155,0.0072555
0.926,-0.2,0.72304,1.023,0.70036,-0.71365,0.012155,0.0072555
0.927,-0.2,0.72273,1.0227,0.70036,-0.71365,0.012155,0.0072555
0.928,-0.2,0.72243,1.0224,0.70036,-0.71365,0.012155,0.0072555
0.929,-0.2,0.72212,1.0221,0.70036,-0.71365,0.012155,0.0072555
0.93,-0.2,0.72181,1.0218,0.70036,-0.71365,0.012155,0.0072555
0.931,-0.2,0.72151,1.0215,0.70036,-0.71365,0.012155,0.0072555
0.932,-0.2,0.7212,1.0212,0.70036,-0.71365,0.012155,0.0072555
0.933,-0.2,0.72089,1.0209,0.70036,-0.71365,0.012155,0.0072555
0.934,-0.2,0.72059,1.0206,0.70036,-0.71365,0.012155,0.0072555
0.935,-0.2,0.72028,1.0203,0.70036,-0.71365,0.012155,0.0072555
0.936,-0.2,0.71997,1.02,0.70036,-0.71365,0.012155,0.0072555
0.937,-0.2,0.71966,1.0197,0.70036,-0.71365,0.012155,0.0072555
0.938,-0.2,0.71935,1.0194,0.70036,-0.71365,0.012155,0.0072555
0.939,-0.2,0.71905,1.019,0.70036,-0.71365,0.012155,0.0072555
0.94,-0.2,0.71874,1.0187,0.70036,-0.71365,0.012155,0.0072555
0.941,-0.2,0.71843,1.0184,0.70036,-0.71365,0.012155,0.0072555
0.942,-0.2,0.71812,1.0181,0.70036,-0.71365,0.012155,0.0072555
0.943,-0.2,0.71781,1.0178,0.70036,-0.71365,0.012155,0.0072555
0.944,-0.2,0.7175,1.0175,0.70036,-0.71365,0.012155,0.0072555
0.945,-0.2,0.71719,1.0172,0.70036,-0.71365,0.012155,0.0072555
0.946,-0.2,0.71688,1.0169,0.70036,-0.71365,0.012155,0.0072555
0.947,-0.2,0.71657,1.0166,0.70036,-0.71365,0.012155,0.0072555
0.948,-0.2,0.71626,1.0163,0.70036,-0.71365,0.012155,0.0072555
0.949,-0.2,0.71595,1.016,0.70036,-0.71365,0.012155,0.0072555
0.95,-0.2,0.71564,1.0156,0.70036,-0.71365,0.012155,0.0072555
0.951,-0.2,0.71533,1.0153,0.70036,-0.71365,0.012155,0.0072555
0.952,-0.2,0.71502,1.015,0.70036,-0.71365,0.012155,0.0072555
0.953,-0.2,0.71471,1.0147,0.70036,-0.71365,0.012155,0.0072555
0.954,-0.2,0.7144,1.0144,0.70036,-0.71365,0.012155,0.0072555
0.955,-0.2,0.71409,1.0141,0.70036,-0.71365,0.012155,0.0072555
0.956,-0.2,0.71378,1.0138,0.70036,-0.71365,0.012155,0.0072555
0.957,-0.2,0.71347,1.0135,0.70036,-0.71365,0.012155,0.0072555
0.958,-0.2,0.71316,1.0132,0.70036,-0.71365,0.012155,0.0072555
0.959,-0.2,0.71284,1.0128,0.70036,-0.71365,0.012155,0.0072555
0.96,-0.2,0.71253,1.0125,0.70036,-0.71365,0.012155,0.0072555
0.961,-0.2,0.71222,1.0122,0.70036,-0.71365,0.012155,0.0072555
0.962,-0.2,0.71191,1.0119,0.70036,-0.71365,0.012155,0.0072555
0.963,-0.2,0.7116,1.0116,0.70036,-0.71365,0.012155,0.0072555
0.964,-0.2,0.71129,1.0113,0.70036,-0.71365,0.012155,0.0072555
0.965,-0.2,0.71097,1.011,0.70036,-0.71365,0.012155,0.0072555
0.966,-0.2,0.71066,1.0107,0.70036,-0.71365,0.012155,0.0072555
0.967,-0.2,0.71035,1.0103,0.70036,-0.71365,0.012155,0.0072555
0.968,-0.2,0.71004,1.01,0.70036,-0.71365,0.012155,0.0072555
0.969,-0.2,0.70972,1.0097,0.70036,-0.71365,0.012155,0.0072555
0.97,-0.2,0.70941,1.0094,0.70036,-0.71365,0.012155,0.0072555
0.971,-0.2,0.7091,1.0091,0.70036,-0.71365,0.012155,0.0072555
0.972,-0.2,0.70879,1.0088,0.70036,-0.71365,0.012155,0.0072555
0.973,-0.2,0.70847,1.0085,0.70036,-0.71365,0.012155,0.0072555
0.974,-0.2,0.70816,1.0082,0.70036,-0.71365,0.012155,0.0072555
0.975,-0.2,0.70785,1.0078,0.70036,-0.71365,0.012155,0.0072555
0.976,-0.2,0.70753,1.0075,0.70036,-0.71365,0.012155,0.0072555
0.977,-0.2,0.70722,1.0072,0.70036,-0.71365,0.012155,0.0072555
0.978,-0.2,0.70691,1.0069,0.70036,-0.71365,0.012155,0.0072555
0.979,-0.2,0.70659,1.0066,0.70036,-0.71365,0.012155,0.0072555
0.98,-0.2,0.70628,1.0063,0.70036,-0.71365,0.012155,0.0072555
0.981,-0.2,0.70597,1.006,0.70036,-0.71365,0.012155,0.0072555
0.982,-0.2,0.70565,1.0057,0.70036,-0.71365,0.012155,0.0072555
0.983,-0.2,0.70534,1.0053,0.70036,-0.71365,0.012155,0.0072555
0.984,-0.2,0.70502,1.005,0.70036,-0.71365,0.012155,0.0072555
0.985,-0.2,0.70471,1.0047,0.70036,-0.71365,0.012155,0.0072555
0.986,-0.2,0.7044,1.0044,0.70036,-0.71365,0.012155,0.0072555
0.987,-0.2,0.70408,1.0041,0.70036,-0.71365,0.012155,0.0072555
0.988,-0.2,0.70377,1.0038,0.70036,-0.71365,0.012155,0.0072555
0.989,-0.2,0.70346,1.0035,0.70036,-0.71365,0.012155,0.0072555
0.99,-0.2,0.70314,1.0031,0.70036,-0.71365,0.012155,0.0072555
0.991,-0.2,0.70283,1.0028,0.70036,-0.71365,0.012155,0.0072555
0.992,-0.2,0.70251,1.0025,0.70036,-0.71365,0.012155,0.0072555
0.993,-0.2,0.7022,1.0022,0.70036,-0.71365,0.012155,0.0072555
0.994,-0.2,0.70188,1.0019,0.70036,-0.71365,0.012155,0.0072555
0.995,-0.2,0.70157,1.0016,0.70036,-0.71365,0.012155,0.0072555
0.996,-0.2,0.70126,1.0013,0.70036,-0.71365,0.012155,0.0072555
0.997,-0.2,0.70094,1.0009,0.70036,-0.71365,0.012155,0.0072555
0.998,-0.2,0.70063,1.0006,0.70036,-0.71365,0.012155,0.0072555
0.999,-0.2,0.70031,1.0003,0.70036,-0.71365,0.012155,0.0072555
1,-0.2,0.7,1,0.70036,-0.71365,0.012155,0.0072555
