0,-0.2,0.7,1,0.70036,-0.71365,0.012155,0.0072555
0.001,-0.2,0.70031,1.0006,0.70036,-0.71365,0.012155,0.0072555
0.002,-0.2,0.70063,1.0013,0.70036,-0.71365,0.012155,0.0072555
0.003,-0.2,0.70094,1.0019,0.70036,-0.71365,0.012155,0.0072555
0.004,-0.2,0.70126,1.0025,0.70036,-0.71365,0.012155,0.0072555
0.005,-0.2,0.70157,1.0031,0.70036,-0.71365,0.012155,0.0072555
0.006,-0.2,0.70188,1.0038,0.70036,-0.71365,0.012155,0.0072555
0.007,-0.2,0.7022,1.0044,0.70036,-0.71365,0.012155,0.0072555
0.008,-0.2,0.70251,1.005,0.70036,-0.71365,0.012155,0.0072555
0.009,-0.2,0.70283,1.0057,0.70036,-0.71365,0.012155,0.0072555
0.01,-0.2,0.70314,1.0063,0.70036,-0.71365,0.012155,0.0072555
0.011,-0.2,0.70346,1.0069,0.70036,-0.71365,0.012155,0.0072555
0.012,-0.2,0.70377,1.0075,0.70036,-0.71365,0.012155,0.0072555
0.013,-0.2,0.70408,1.0082,0.70036,-0.71365,0.012155,0.0072555
0.014,-0.2,0.7044,1.0088,0.70036,-0.71365,0.012155,0.0072555
0.015,-0.2,0.70471,1.0094,0.70036,-0.71365,0.012155,0.0072555
0.016,-0.2,0.70502,1.01,0.70036,-0.71365,0.012155,0.0072555
0.017,-0.2,0.70534,1.0107,0.70036,-0.71365,0.012155,0.0072555
0.018,-0.2,0.70565,1.0113,0.70036,-0.71365,0.012155,0.0072555
0.019,-0.2,0.70597,1.0119,0.70036,-0.71365,0.012155,0.0072555
0.02,-0.2,0.70628,1.0126,0.70036,-0.71365,0.012155,0.0072555
0.021,-0.2,0.70659,1.0132,0.70036,-0.71365,0.012155,0.0072555
0.022,-0.2,0.70691,1.0138,0.70036,-0.71365,0.012155,0.0072555
0.023,-0.2,0.70722,1.0144,0.70036,-0.71365,0.012155,0.0072555
0.024,-0.2,0.70753,1.0151,0.70036,-0.71365,0.012155,0.0072555
0.025,-0.2,0.70785,1.0157,0.70036,-0.71365,0.012155,0.0072555
0.026,-0.2,0.70816,1.0163,0.70036,-0.71365,0.012155,0.0072555
0.027,-0.2,0.70847,1.0169,0.70036,-0.71365,0.012155,0.0072555
0.028,-0.2,0.70879,1.0176,0.70036,-0.71365,0.012155,0.0072555
0.029,-0.2,0.7091,1.0182,0.70036,-0.71365,0.012155,0.0072555
0.03,-0.2,0.70941,1.0188,0.70036,-0.71365,0.012155,0.0072555
0.031,-0.2,0.70972,1.0194,0.70036,-0.71365,0.012155,0.0072555
0.032,-0.2,0.71004,1.0201,0.70036,-0.71365,0.012155,0.0072555
0.033,-0.2,0.71035,1.0207,0.70036,-0.71365,0.012155,0.0072555
0.034,-0.2,0.71066,1.0213,0.70036,-0.71365,0.012155,0.0072555
0.035,-0.2,0.71097,1.0219,0.70036,-0.71365,0.012155,0.0072555
0.036,-0.2,0.71129,1.0226,0.70036,-0.71365,0.012155,0.0072555
0.037,-0.2,0.7116,1.0232,0.70036,-0.71365,0.012155,0.0072555
0.038,-0.2,0.71191,1.0238,0.70036,-0.71365,0.012155,0.0072555
0.039,-0.2,0.71222,1.0244,0.70036,-0.71365,0.012155,0.0072555
0.04,-0.2,0.71253,1.0251,0.70036,-0.71365,0.012155,0.0072555
0.041,-0.2,0.71284,1.0257,0.70036,-0.71365,0.012155,0.0072555
0.042,-0.2,0.71316,1.0263,0.70036,-0.71365,0.012155,0.0072555
0.043,-0.2,0.71347,1.0269,0.70036,-0.71365,0.012155,0.0072555
0.044,-0.2,0.71378,1.0276,0.70036,-0.71365,0.012155,0.0072555
0.045,-0.2,0.71409,1.0282,0.70036,-0.71365,0.012155,0.0072555
0.046,-0.2,0.7144,1.0288,0.70036,-0.71365,0.012155,0.0072555
0.047,-0.2,0.71471,1.0294,0.70036,-0.71365,0.012155,0.0072555
0.048,-0.2,0.71502,1.03,0.70036,-0.71365,0.012155,0.0072555
0.049,-0.2,0.71533,1.0307,0.70036,-0.71365,0.012155,0.0072555
0.05,-0.2,0.71564,1.0313,0.70036,-0.71365,0.012155,0.0072555
0.051,-0.2,0.71595,1.0319,0.70036,-0.71365,0.012155,0.0072555
0.052,-0.2,0.71626,1.0325,0.70036,-0.71365,0.012155,0.0072555
0.053,-0.2,0.71657,1.0331,0.70036,-0.71365,0.012155,0.0072555
0.054,-0.2,0.71688,1.0338,0.70036,-0.71365,0.012155,0.0072555
0.055,-0.2,0.71719,1.0344,0.70036,-0.71365,0.012155,0.0072555
0.056,-0.2,0.7175,1.035,0.70036,-0.71365,0.012155,0.0072555
0.057,-0.2,0.71781,1.0356,0.70036,-0.71365,0.012155,0.0072555
0.058,-0.2,0.71812,1.0362,0.70036,-0.71365,0.012155,0.0072555
0.059,-0.2,0.71843,1.0369,0.70036,-0.71365,0.012155,0.0072555
0.06,-0.2,0.71874,1.0375,0.70036,-0.71365,0.012155,0.0072555
0.061,-0.2,0.71905,1.0381,0.70036,-0.71365,0.012155,0.0072555
0.062,-0.2,0.71935,1.0387,0.70036,-0.71365,0.012155,0.0072555
0.063,-0.2,0.71966,1.0393,0.70036,-0.71365,0.012155,0.0072555
0.064,-0.2,0.71997,1.0399,0.70036,-0.71365,0.012155,0.0072555
0.065,-0.2,0.72028,1.0406,0.70036,-0.71365,0.012155,0.0072555
0.066,-0.2,0.72059,1.0412,0.70036,-0.71365,0.012155,0.0072555
0.067,-0.2,0.72089,1.0418,0.70036,-0.71365,0.012155,0.0072555
0.068,-0.2,0.7212,1.0424,0.70036,-0.71365,0.012155,0.0072555
0.069,-0.2,0.72151,1.043,0.70036,-0.71365,0.012155,0.0072555
0.07,-0.2,0.72181,1.0436,0.70036,-0.71365,0.012155,0.0072555
0.071,-0.2,0.72212,1.0442,0.70036,-0.71365,0.012155,0.0072555
0.072,-0.2,0.72243,1.0449,0.70036,-0.71365,0.012155,0.0072555
0.073,-0.2,0.72273,1.0455,0.70036,-0.71365,0.012155,0.0072555
0.074,-0.2,0.72304,1.0461,0.70036,-0.71365,0.012155,0.0072555
0.075,-0.2,0.72334,1.0467,0.70036,-0.71365,0.012155,0.0072555
0.076,-0.2,0.72365,1.0473,0.70036,-0.71365,0.012155,0.0072555
0.077,-0.2,0.72396,1.0479,0.70036,-0.71365,0.012155,0.0072555
0.078,-0.2,0.72426,1.0485,0.70036,-0.71365,0.012155,0.0072555
0.079,-0.2,0.72456,1.0491,0.70036,-0.71365,0.012155,0.0072555
0.08,-0.2,0.72487,1.0497,0.70036,-0.71365,0.012155,0.0072555
0.081,-0.2,0.72517,1.0503,0.70036,-0.71365,0.012155,0.0072555
0.082,-0.2,0.72548,1.051,0.70036,-0.71365,0.012155,0.0072555
0.083,-0.2,0.72578,1.0516,0.70036,-0.71365,0.012155,0.0072555
0.084,-0.2,0.72608,1.0522,0.70036,-0.71365,0.012155,0.0072555
0.085,-0.2,0.72639,1.0528,0.70036,-0.71365,0.012155,0.0072555
0.086,-0.2,0.72669,1.0534,0.70036,-0.71365,0.012155,0.0072555
0.087,-0.2,0.72699,1.054,0.70036,-0.71365,0.012155,0.0072555
0.088,-0.2,0.7273,1.0546,0.70036,-0.71365,0.012155,0.0072555
0.089,-0.2,0.7276,1.0552,0.70036,-0.71365,0.012155,0.0072555
0.09,-0.2,0.7279,1.0558,0.70036,-0.71365,0.012155,0.0072555
0.091,-0.2,0.7282,1.0564,0.70036,-0.71365,0.012155,0.0072555
0.092,-0.2,0.7285,1.057,0.70036,-0.71365,0.012155,0.0072555
0.093,-0.2,0.7288,1.0576,0.70036,-0.71365,0.012155,0.0072555
0.094,-0.2,0.7291,1.0582,0.70036,-0.71365,0.012155,0.0072555
0.095,-0.2,0.7294,1.0588,0.70036,-0.71365,0.012155,0.0072555
0.096,-0.2,0.7297,1.0594,0.70036,-0.71365,0.012155,0.0072555
0.097,-0.2,0.73,1.06,0.70036,-0.71365,0.012155,0.0072555
0.098,-0.2,0.7303,1.0606,0.70036,-0.71365,0.012155,0.0072555
0.099,-0.2,0.7306,1.0612,0.70036,-0.71365,0.012155,0.0072555
0.1,-0.2,0.7309,1.0618,0.70036,-0.71365,0.012155,0.0072555
0.101,-0.2,0.7312,1.0624,0.70036,-0.71365,0.012155,0.0072555
0.102,-0.2,0.7315,1.063,0.70036,-0.71365,0.012155,0.0072555
0.103,-0.2,0.7318,1.0636,0.70036,-0.71365,0.012155,0.0072555
0.104,-0.2,0.73209,1.0642,0.70036,-0.71365,0.012155,0.0072555
0.105,-0.2,0.73239,1.0648,0.70036,-0.71365,0.012155,0.0072555
0.106,-0.2,0.73269,1.0654,0.70036,-0.71365,0.012155,0.0072555
0.107,-0.2,0.73299,1.066,0.70036,-0.71365,0.012155,0.0072555
0.108,-0.2,0.73328,1.0666,0.70036,-0.71365,0.012155,0.0072555
0.109,-0.2,0.73358,1.0672,0.70036,-0.71365,0.012155,0.0072555
0.11,-0.2,0.73387,1.0677,0.70036,-0.71365,0.012155,0.0072555
0.111,-0.2,0.73417,1.0683,0.70036,-0.71365,0.012155,0.0072555
0.112,-0.2,0.73446,1.0689,0.70036,-0.71365,0.012155,0.0072555
0.113,-0.2,0.73476,1.0695,0.70036,-0.71365,0.012155,0.0072555
0.114,-0.2,0.73505,1.0701,0.70036,-0.71365,0.012155,0.0072555
0.115,-0.2,0.73535,1.0707,0.70036,-0.71365,0.012155,0.0072555
0.116,-0.2,0.73564,1.0713,0.70036,-0.71365,0.012155,0.0072555
0.117,-0.2,0.73593,1.0719,0.70036,-0.71365,0.012155,0.0072555
0.118,-0.2,0.73623,1.0725,0.70036,-0.71365,0.012155,0.0072555
0.119,-0.2,0.73652,1.073,0.70036,-0.71365,0.012155,0.0072555
0.12,-0.2,0.73681,1.0736,0.70036,-0.71365,0.012155,0.0072555
0.121,-0.2,0.7371,1.0742,0.70036,-0.71365,0.012155,0.0072555
0.122,-0.2,0.7374,1.0748,0.70036,-0.71365,0.012155,0.0072555
0.123,-0.2,0.73769,1.0754,0.70036,-0.71365,0.012155,0.0072555
0.124,-0.2,0.73798,1.076,0.70036,-0.71365,0.012155,0.0072555
0.125,-0.2,0.73827,1.0765,0.70036,-0.71365,0.012155,0.0072555
0.126,-0.2,0.73856,1.0771,0.70036,-0.71365,0.012155,0.0072555
0.127,-0.2,0.73885,1.0777,0.70036,-0.71365,0.012155,0.0072555
0.128,-0.2,0.73914,1.0783,0.70036,-0.71365,0.012155,0.0072555
0.129,-0.2,0.73943,1.0789,0.70036,-0.71365,0.012155,0.0072555
0.13,-0.2,0.73971,1.0794,0.70036,-0.71365,0.012155,0.0072555
0.131,-0.2,0.74,1.08,0.70036,-0.71365,0.012155,0.0072555
0.132,-0.2,0.74029,1.0806,0.70036,-0.71365,0.012155,0.0072555
0.133,-0.2,0.74058,1.0812,0.70036,-0.71365,0.012155,0.0072555
0.134,-0.2,0.74086,1.0817,0.70036,-0.71365,0.012155,0.0072555
0.135,-0.2,0.74115,1.0823,0.70036,-0.71365,0.012155,0.0072555
0.136,-0.2,0.74144,1.0829,0.70036,-0.71365,0.012155,0.0072555
0.137,-0.2,0.74172,1.0834,0.70036,-0.71365,0.012155,0.0072555
0.138,-0.2,0.74201,1.084,0.70036,-0.71365,0.012155,0.0072555
0.139,-0.2,0.74229,1.0846,0.70036,-0.71365,0.012155,0.0072555
0.14,-0.2,0.74258,1.0852,0.70036,-0.71365,0.012155,0.0072555
0.141,-0.2,0.74286,1.0857,0.70036,-0.71365,0.012155,0.0072555
0.142,-0.2,0.74315,1.0863,0.70036,-0.71365,0.012155,0.0072555
0.143,-0.2,0.74343,1.0869,0.70036,-0.71365,0.012155,0.0072555
0.144,-0.2,0.74371,1.0874,0.70036,-0.71365,0.012155,0.0072555
0.145,-0.2,0.74399,1.088,0.70036,-0.71365,0.012155,0.0072555
0.146,-0.2,0.74428,1.0886,0.70036,-0.71365,0.012155,0.0072555
0.147,-0.2,0.74456,1.0891,0.70036,-0.71365,0.012155,0.0072555
0.148,-0.2,0.74484,1.0897,0.70036,-0.71365,0.012155,0.0072555
0.149,-0.2,0.74512,1.0902,0.70036,-0.71365,0.012155,0.0072555
0.15,-0.2,0.7454,1.0908,0.70036,-0.71365,0.012155,0.0072555
0.151,-0.2,0.74568,1.0914,0.70036,-0.71365,0.012155,0.0072555
0.152,-0.2,0.74596,1.0919,0.70036,-0.71365,0.012155,0.0072555
0.153,-0.2,0.74624,1.0925,0.70036,-0.71365,0.012155,0.0072555
0.154,-0.2,0.74652,1.093,0.70036,-0.71365,0.012155,0.0072555
0.155,-0.2,0.74679,1.0936,0.70036,-0.71365,0.012155,0.0072555
0.156,-0.2,0.74707,1.0941,0.70036,-0.71365,0.012155,0.0072555
0.157,-0.2,0.74735,1.0947,0.70036,-0.71365,0.012155,0.0072555
0.158,-0.2,0.74762,1.0952,0.70036,-0.71365,0.012155,0.0072555
0.159,-0.2,0.7479,1.0958,0.70036,-0.71365,0.012155,0.0072555
0.16,-0.2,0.74818,1.0964,0.70036,-0.71365,0.012155,0.0072555
0.161,-0.2,0.74845,1.0969,0.70036,-0.71365,0.012155,0.0072555
0.162,-0.2,0.74873,1.0975,0.70036,-0.71365,0.012155,0.0072555
0.163,-0.2,0.749,1.098,0.70036,-0.71365,0.012155,0.0072555
0.164,-0.2,0.74927,1.0985,0.70036,-0.71365,0.012155,0.0072555
0.165,-0.2,0.74955,1.0991,0.70036,-0.71365,0.012155,0.0072555
0.166,-0.2,0.74982,1.0996,0.70036,-0.71365,0.012155,0.0072555
0.167,-0.2,0.75009,1.1002,0.70036,-0.71365,0.012155,0.0072555
0.168,-0.2,0.75036,1.1007,0.70036,-0.71365,0.012155,0.0072555
0.169,-0.2,0.75063,1.1013,0.70036,-0.71365,0.012155,0.0072555
0.17,-0.2,0.7509,1.1018,0.70036,-0.71365,0.012155,0.0072555
0.171,-0.2,0.75117,1.1023,0.70036,-0.71365,0.012155,0.0072555
0.172,-0.2,0.75144,1.1029,0.70036,-0.71365,0.012155,0.0072555
0.173,-0.2,0.75171,1.1034,0.70036,-0.71365,0.012155,0.0072555
0.174,-0.2,0.75198,1.104,0.70036,-0.71365,0.012155,0.0072555
0.175,-0.2,0.75225,1.1045,0.70036,-0.71365,0.012155,0.0072555
0.176,-0.2,0.75252,1.105,0.70036,-0.71365,0.012155,0.0072555
0.177,-0.2,0.75278,1.1056,0.70036,-0.71365,0.012155,0.0072555
0.178,-0.2,0.75305,1.1061,0.70036,-0.71365,0.012155,0.0072555
0.179,-0.2,0.75332,1.1066,0.70036,-0.71365,0.012155,0.0072555
0.18,-0.2,0.75358,1.1072,0.70036,-0.71365,0.012155,0.0072555
0.181,-0.2,0.75385,1.1077,0.70036,-0.71365,0.012155,0.0072555
0.182,-0.2,0.75411,1.1082,0.70036,-0.71365,0.012155,0.0072555
0.183,-0.2,0.75438,1.1088,0.70036,-0.71365,0.012155,0.0072555
0.184,-0.2,0.75464,1.1093,0.70036,-0.71365,0.012155,0.0072555
0.185,-0.2,0.7549,1.1098,0.70036,-0.71365,0.012155,0.0072555
0.186,-0.2,0.75516,1.1103,0.70036,-0.71365,0.012155,0.0072555
0.187,-0.2,0.75543,1.1109,0.70036,-0.71365,0.012155,0.0072555
0.188,-0.2,0.75569,1.1114,0.70036,-0.71365,0.012155,0.0072555
0.189,-0.2,0.75595,1.1119,0.70036,-0.71365,0.012155,0.0072555
0.19,-0.2,0.75621,1.1124,0.70036,-0.71365,0.012155,0.0072555
0.191,-0.2,0.75647,1.1129,0.70036,-0.71365,0.012155,0.0072555
0.192,-0.2,0.75673,1.1135,0.70036,-0.71365,0.012155,0.0072555
0.193,-0.2,0.75699,1.114,0.70036,-0.71365,0.012155,0.0072555
0.194,-0.2,0.75724,1.1145,0.70036,-0.71365,0.012155,0.0072555
0.195,-0.2,0.7575,1.115,0.70036,-0.71365,0.012155,0.0072555
0.196,-0.2,0.75776,1.1155,0.70036,-0.71365,0.012155,0.0072555
0.197,-0.2,0.75801,1.116,0.70036,-0.71365,0.012155,0.0072555
0.198,-0.2,0.75827,1.1165,0.70036,-0.71365,0.012155,0.0072555
0.199,-0.2,0.75852,1.117,0.70036,-0.71365,0.012155,0.0072555
0.2,-0.2,0.75878,1.1176,0.70036,-0.71365,0.012155,0.0072555
0.201,-0.2,0.75903,1.1181,0.70036,-0.71365,0.012155,0.0072555
0.202,-0.2,0.75929,1.1186,0.70036,-0.71365,0.012155,0.0072555
0.203,-0.2,0.75954,1.1191,0.70036,-0.71365,0.012155,0.0072555
0.204,-0.2,0.75979,1.1196,0.70036,-0.71365,0.012155,0.0072555
0.205,-0.2,0.76004,1.1201,0.70036,-0.71365,0.012155,0.0072555
0.206,-0.2,0.76029,1.1206,0.70036,-0.71365,0.012155,0.0072555
0.207,-0.2,0.76054,1.1211,0.70036,-0.71365,0.012155,0.0072555
0.208,-0.2,0.76079,1.1216,0.70036,-0.71365,0.012155,0.0072555
0.209,-0.2,0.76104,1.1221,0.70036,-0.71365,0.012155,0.0072555
0.21,-0.2,0.76129,1.1226,0.70036,-0.71365,0.012155,0.0072555
0.211,-0.2,0.76154,1.1231,0.70036,-0.71365,0.012155,0.0072555
0.212,-0.2,0.76179,1.1236,0.70036,-0.71365,0.012155,0.0072555
0.213,-0.2,0.76203,1.1241,0.70036,-0.71365,0.012155,0.0072555
0.214,-0.2,0.76228,1.1246,0.70036,-0.71365,0.012155,0.0072555
0.215,-0.2,0.76252,1.125,0.70036,-0.71365,0.012155,0.0072555
0.216,-0.2,0.76277,1.1255,0.70036,-0.71365,0.012155,0.0072555
0.217,-0.2,0.76301,1.126,0.70036,-0.71365,0.012155,0.0072555
0.218,-0.2,0.76326,1.1265,0.70036,-0.71365,0.012155,0.0072555
0.219,-0.2,0.7635,1.127,0.70036,-0.71365,0.012155,0.0072555
0.22,-0.2,0.76374,1.1275,0.70036,-0.71365,0.012155,0.0072555
0.221,-0.2,0.76398,1.128,0.70036,-0.71365,0.012155,0.0072555
0.222,-0.2,0.76423,1.1285,0.70036,-0.71365,0.012155,0.0072555
0.223,-0.2,0.76447,1.1289,0.70036,-0.71365,0.012155,0.0072555
0.224,-0.2,0.76471,1.1294,0.70036,-0.71365,0.012155,0.0072555
0.225,-0.2,0.76494,1.1299,0.70036,-0.71365,0.012155,0.0072555
0.226,-0.2,0.76518,1.1304,0.70036,-0.71365,0.012155,0.0072555
0.227,-0.2,0.76542,1.1308,0.70036,-0.71365,0.012155,0.0072555
0.228,-0.2,0.76566,1.1313,0.70036,-0.71365,0.012155,0.0072555
0.229,-0.2,0.7659,1.1318,0.70036,-0.71365,0.012155,0.0072555
0.23,-0.2,0.76613,1.1323,0.70036,-0.71365,0.012155,0.0072555
0.231,-0.2,0.76637,1.1327,0.70036,-0.71365,0.012155,0.0072555
0.232,-0.2,0.7666,1.1332,0.70036,-0.71365,0.012155,0.0072555
0.233,-0.2,0.76684,1.1337,0.70036,-0.71365,0.012155,0.0072555
0.234,-0.2,0.76707,1.1341,0.70036,-0.71365,0.012155,0.0072555
0.235,-0.2,0.7673,1.1346,0.70036,-0.71365,0.012155,0.0072555
0.236,-0.2,0.76753,1.1351,0.70036,-0.71365,0.012155,0.0072555
0.237,-0.2,0.76776,1.1355,0.70036,-0.71365,0.012155,0.0072555
0.238,-0.2,0.768,1.136,0.70036,-0.71365,0.012155,0.0072555
0.239,-0.2,0.76823,1.1365,0.70036,-0.71365,0.012155,0.0072555
0.24,-0.2,0.76845,1.1369,0.70036,-0.71365,0.012155,0.0072555
0.241,-0.2,0.76868,1.1374,0.70036,-0.71365,0.012155,0.0072555
0.242,-0.2,0.76891,1.1378,0.70036,-0.71365,0.012155,0.0072555
0.243,-0.2,0.76914,1.1383,0.70036,-0.71365,0.012155,0.0072555
0.244,-0.2,0.76937,1.1387,0.70036,-0.71365,0.012155,0.0072555
0.245,-0.2,0.76959,1.1392,0.70036,-0.71365,0.012155,0.0072555
0.246,-0.2,0.76982,1.1396,0.70036,-0.71365,0.012155,0.0072555
0.247,-0.2,0.77004,1.1401,0.70036,-0.71365,0.012155,0.0072555
0.248,-0.2,0.77026,1.1405,0.70036,-0.71365,0.012155,0.0072555
0.249,-0.2,0.77049,1.141,0.70036,-0.71365,0.012155,0.0072555
0.25,-0.2,0.77071,1.1414,0.70036,-0.71365,0.012155,0.0072555
0.251,-0.2,0.77093,1.1419,0.70036,-0.71365,0.012155,0.0072555
0.252,-0.2,0.77115,1.1423,0.70036,-0.71365,0.012155,0.0072555
0.253,-0.2,0.77137,1.1427,0.70036,-0.71365,0.012155,0.0072555
0.254,-0.2,0.77159,1.1432,0.70036,-0.71365,0.012155,0.0072555
0.255,-0.2,0.77181,1.1436,0.70036,-0.71365,0.012155,0.0072555
0.256,-0.2,0.77203,1.1441,0.70036,-0.71365,0.012155,0.0072555
0.257,-0.2,0.77225,1.1445,0.70036,-0.71365,0.012155,0.0072555
0.258,-0.2,0.77247,1.1449,0.70036,-0.71365,0.012155,0.0072555
0.259,-0.2,0.77268,1.1454,0.70036,-0.71365,0.012155,0.0072555
0.26,-0.2,0.7729,1.1458,0.70036,-0.71365,0.012155,0.0072555
0.261,-0.2,0.77311,1.1462,0.70036,-0.71365,0.012155,0.0072555
0.262,-0.2,0.77333,1.1467,0.70036,-0.71365,0.012155,0.0072555
0.263,-0.2,0.77354,1.1471,0.70036,-0.71365,0.012155,0.0072555
0.264,-0.2,0.77375,1.1475,0.70036,-0.71365,0.012155,0.0072555
0.265,-0.2,0.77396,1.1479,0.70036,-0.71365,0.012155,0.0072555
0.266,-0.2,0.77417,1.1483,0.70036,-0.71365,0.012155,0.0072555
0.267,-0.2,0.77438,1.1488,0.70036,-0.71365,0.012155,0.0072555
0.268,-0.2,0.77459,1.1492,0.70036,-0.71365,0.012155,0.0072555
0.269,-0.2,0.7748,1.1496,0.70036,-0.71365,0.012155,0.0072555
0.27,-0.2,0.77501,1.15,0.70036,-0.71365,0.012155,0.0072555
0.271,-0.2,0.77522,1.1504,0.70036,-0.71365,0.012155,0.0072555
0.272,-0.2,0.77543,1.1509,0.70036,-0.71365,0.012155,0.0072555
0.273,-0.2,0.77563,1.1513,0.70036,-0.71365,0.012155,0.0072555
0.274,-0.2,0.77584,1.1517,0.70036,-0.71365,0.012155,0.0072555
0.275,-0.2,0.77604,1.1521,0.70036,-0.71365,0.012155,0.0072555
0.276,-0.2,0.77624,1.1525,0.70036,-0.71365,0.012155,0.0072555
0.277,-0.2,0.77645,1.1529,0.70036,-0.71365,0.012155,0.0072555
0.278,-0.2,0.77665,1.1533,0.70036,-0.71365,0.012155,0.0072555
0.279,-0.2,0.77685,1.1537,0.70036,-0.71365,0.012155,0.0072555
0.28,-0.2,0.77705,1.1541,0.70036,-0.71365,0.012155,0.0072555
0.281,-0.2,0.77725,1.1545,0.70036,-0.71365,0.012155,0.0072555
0.282,-0.2,0.77745,1.1549,0.70036,-0.71365,0.012155,0.0072555
0.283,-0.2,0.77765,1.1553,0.70036,-0.71365,0.012155,0.0072555
0.284,-0.2,0.77785,1.1557,0.70036,-0.71365,0.012155,0.0072555
0.285,-0.2,0.77804,1.1561,0.70036,-0.71365,0.012155,0.0072555
0.286,-0.2,0.77824,1.1565,0.70036,-0.71365,0.012155,0.0072555
0.287,-0.2,0.77843,1.1569,0.70036,-0.71365,0.012155,0.0072555
0.288,-0.2,0.77863,1.1573,0.70036,-0.71365,0.012155,0.0072555
0.289,-0.2,0.77882,1.1576,0.70036,-0.71365,0.012155,0.0072555
0.29,-0.2,0.77902,1.158,0.70036,-0.71365,0.012155,0.0072555
0.291,-0.2,0.77921,1.1584,0.70036,-0.71365,0.012155,0.0072555
0.292,-0.2,0.7794,1.1588,0.70036,-0.71365,0.012155,0.0072555
0.293,-0.2,0.77959,1.1592,0.70036,-0.71365,0.012155,0.0072555
0.294,-0.2,0.77978,1.1596,0.70036,-0.71365,0.012155,0.0072555
0.295,-0.2,0.77997,1.1599,0.70036,-0.71365,0.012155,0.0072555
0.296,-0.2,0.78016,1.1603,0.70036,-0.71365,0.012155,0.0072555
0.297,-0.2,0.78034,1.1607,0.70036,-0.71365,0.012155,0.0072555
0.298,-0.2,0.78053,1.1611,0.70036,-0.71365,0.012155,0.0072555
0.299,-0.2,0.78072,1.1614,0.70036,-0.71365,0.012155,0.0072555
0.3,-0.2,0.7809,1.1618,0.70036,-0.71365,0.012155,0.0072555
0.301,-0.2,0.78109,1.1622,0.70036,-0.71365,0.012155,0.0072555
0.302,-0.2,0.78127,1.1625,0.70036,-0.71365,0.012155,0.0072555
0.303,-0.2,0.78145,1.1629,0.70036,-0.71365,0.012155,0.0072555
0.304,-0.2,0.78163,1.1633,0.70036,-0.71365,0.012155,0.0072555
0.305,-0.2,0.78181,1.1636,0.70036,-0.71365,0.012155,0.0072555
0.306,-0.2,0.782,1.164,0.70036,-0.71365,0.012155,0.0072555
0.307,-0.2,0.78217,1.1643,0.70036,-0.71365,0.012155,0.0072555
0.308,-0.2,0.78235,1.1647,0.70036,-0.71365,0.012155,0.0072555
0.309,-0.2,0.78253,1.1651,0.70036,-0.71365,0.012155,0.0072555
0.31,-0.2,0.78271,1.1654,0.70036,-0.71365,0.012155,0.0072555
0.311,-0.2,0.78288,1.1658,0.70036,-0.71365,0.012155,0.0072555
0.312,-0.2,0.78306,1.1661,0.70036,-0.71365,0.012155,0.0072555
0.313,-0.2,0.78323,1.1665,0.70036,-0.71365,0.012155,0.0072555
0.314,-0.2,0.78341,1.1668,0.70036,-0.71365,0.012155,0.0072555
0.315,-0.2,0.78358,1.1672,0.70036,-0.71365,0.012155,0.0072555
0.316,-0.2,0.78375,1.1675,0.70036,-0.71365,0.012155,0.0072555
0.317,-0.2,0.78392,1.1678,0.70036,-0.71365,0.012155,0.0072555
0.318,-0.2,0.78409,1.1682,0.70036,-0.71365,0.012155,0.0072555
0.319,-0.2,0.78426,1.1685,0.70036,-0.71365,0.012155,0.0072555
0.32,-0.2,0.78443,1.1689,0.70036,-0.71365,0.012155,0.0072555
0.321,-0.2,0.7846,1.1692,0.70036,-0.71365,0.012155,0.0072555
0.322,-0.2,0.78477,1.1695,0.70036,-0.71365,0.012155,0.0072555
0.323,-0.2,0.78493,1.1699,0.70036,-0.71365,0.012155,0.0072555
0.324,-0.2,0.7851,1.1702,0.70036,-0.71365,0.012155,0.0072555
0.325,-0.2,0.78526,1.1705,0.70036,-0.71365,0.012155,0.0072555
0.326,-0.2,0.78543,1.1709,0.70036,-0.71365,0.012155,0.0072555
0.327,-0.2,0.78559,1.1712,0.70036,-0.71365,0.012155,0.0072555
0.328,-0.2,0.78575,1.1715,0.70036,-0.71365,0.012155,0.0072555
0.329,-0.2,0.78591,1.1718,0.70036,-0.71365,0.012155,0.0072555
0.33,-0.2,0.78607,1.1721,0.70036,-0.71365,0.012155,0.0072555
0.331,-0.2,0.78623,1.1725,0.70036,-0.71365,0.012155,0.0072555
0.332,-0.2,0.78639,1.1728,0.70036,-0.71365,0.012155,0.0072555
0.333,-0.2,0.78655,1.1731,0.70036,-0.71365,0.012155,0.0072555
0.334,-0.2,0.78671,1.1734,0.70036,-0.71365,0.012155,0.0072555
0.335,-0.2,0.78686,1.1737,0.70036,-0.71365,0.012155,0.0072555
0.336,-0.2,0.78702,1.174,0.70036,-0.71365,0.012155,0.0072555
0.337,-0.2,0.78717,1.1743,0.70036,-0.71365,0.012155,0.0072555
0.338,-0.2,0.78733,1.1747,0.70036,-0.71365,0.012155,0.0072555
0.339,-0.2,0.78748,1.175,0.70036,-0.71365,0.012155,0.0072555
0.34,-0.2,0.78763,1.1753,0.70036,-0.71365,0.012155,0.0072555
0.341,-0.2,0.78778,1.1756,0.70036,-0.71365,0.012155,0.0072555
0.342,-0.2,0.78793,1.1759,0.70036,-0.71365,0.012155,0.0072555
0.343,-0.2,0.78808,1.1762,0.70036,-0.71365,0.012155,0.0072555
0.344,-0.2,0.78823,1.1765,0.70036,-0.71365,0.012155,0.0072555
0.345,-0.2,0.78838,1.1768,0.70036,-0.71365,0.012155,0.0072555
0.346,-0.2,0.78852,1.177,0.70036,-0.71365,0.012155,0.0072555
0.347,-0.2,0.78867,1.1773,0.70036,-0.71365,0.012155,0.0072555
0.348,-0.2,0.78881,1.1776,0.70036,-0.71365,0.012155,0.0072555
0.349,-0.2,0.78896,1.1779,0.70036,-0.71365,0.012155,0.0072555
0.35,-0.2,0.7891,1.1782,0.70036,-0.71365,0.012155,0.0072555
0.351,-0.2,0.78924,1.1785,0.70036,-0.71365,0.012155,0.0072555
0.352,-0.2,0.78938,1.1788,0.70036,-0.71365,0.012155,0.0072555
0.353,-0.2,0.78952,1.179,0.70036,-0.71365,0.012155,0.0072555
0.354,-0.2,0.78966,1.1793,0.70036,-0.71365,0.012155,0.0072555
0.355,-0.2,0.7898,1.1796,0.70036,-0.71365,0.012155,0.0072555
0.356,-0.2,0.78994,1.1799,0.70036,-0.71365,0.012155,0.0072555
0.357,-0.2,0.79008,1.1802,0.70036,-0.71365,0.012155,0.0072555
0.358,-0.2,0.79021,1.1804,0.70036,-0.71365,0.012155,0.0072555
0.359,-0.2,0.79035,1.1807,0.70036,-0.71365,0.012155,0.0072555
0.36,-0.2,0.79048,1.181,0.70036,-0.71365,0.012155,0.0072555
0.361,-0.2,0.79062,1.1812,0.70036,-0.71365,0.012155,0.0072555
0.362,-0.2,0.79075,1.1815,0.70036,-0.71365,0.012155,0.0072555
0.363,-0.2,0.79088,1.1818,0.70036,-0.71365,0.012155,0.0072555
0.364,-0.2,0.79101,1.182,0.70036,-0.71365,0.012155,0.0072555
0.365,-0.2,0.79114,1.1823,0.70036,-0.71365,0.012155,0.0072555
0.366,-0.2,0.79127,1.1825,0.70036,-0.71365,0.012155,0.0072555
0.367,-0.2,0.7914,1.1828,0.70036,-0.71365,0.012155,0.0072555
0.368,-0.2,0.79152,1.183,0.70036,-0.71365,0.012155,0.0072555
0.369,-0.2,0.79165,1.1833,0.70036,-0.71365,0.012155,0.0072555
0.37,-0.2,0.79178,1.1836,0.70036,-0.71365,0.012155,0.0072555
0.371,-0.2,0.7919,1.1838,0.70036,-0.71365,0.012155,0.0072555
0.372,-0.2,0.79202,1.184,0.70036,-0.71365,0.012155,0.0072555
0.373,-0.2,0.79215,1.1843,0.70036,-0.71365,0.012155,0.0072555
0.374,-0.2,0.79227,1.1845,0.70036,-0.71365,0.012155,0.0072555
0.375,-0.2,0.79239,1.1848,0.70036,-0.71365,0.012155,0.0072555
0.376,-0.2,0.79251,1.185,0.70036,-0.71365,0.012155,0.0072555
0.377,-0.2,0.79263,1.1853,0.70036,-0.71365,0.012155,0.0072555
0.378,-0.2,0.79274,1.1855,0.70036,-0.71365,0.012155,0.0072555
0.379,-0.2,0.79286,1.1857,0.70036,-0.71365,0.012155,0.0072555
0.38,-0.2,0.79298,1.186,0.70036,-0.71365,0.012155,0.0072555
0.381,-0.2,0.79309,1.1862,0.70036,-0.71365,0.012155,0.0072555
0.382,-0.2,0.79321,1.1864,0.70036,-0.71365,0.012155,0.0072555
0.383,-0.2,0.79332,1.1866,0.70036,-0.71365,0.012155,0.0072555
0.384,-0.2,0.79343,1.1869,0.70036,-0.71365,0.012155,0.0072555
0.385,-0.2,0.79354,1.1871,0.70036,-0.71365,0.012155,0.0072555
0.386,-0.2,0.79365,1.1873,0.70036,-0.71365,0.012155,0.0072555
0.387,-0.2,0.79376,1.1875,0.70036,-0.71365,0.012155,0.0072555
0.388,-0.2,0.79387,1.1877,0.70036,-0.71365,0.012155,0.0072555
0.389,-0.2,0.79398,1.188,0.70036,-0.71365,0.012155,0.0072555
0.39,-0.2,0.79409,1.1882,0.70036,-0.71365,0.012155,0.0072555
0.391,-0.2,0.79419,1.1884,0.70036,-0.71365,0.012155,0.0072555
0.392,-0.2,0.7943,1.1886,0.70036,-0.71365,0.012155,0.0072555
0.393,-0.2,0.7944,1.1888,0.70036,-0.71365,0.012155,0.0072555
0.394,-0.2,0.79451,1.189,0.70036,-0.71365,0.012155,0.0072555
0.395,-0.2,0.79461,1.1892,0.70036,-0.71365,0.012155,0.0072555
0.396,-0.2,0.79471,1.1894,0.70036,-0.71365,0.012155,0.0072555
0.397,-0.2,0.79481,1.1896,0.70036,-0.71365,0.012155,0.0072555
0.398,-0.2,0.79491,1.1898,0.70036,-0.71365,0.012155,0.0072555
0.399,-0.2,0.79501,1.19,0.70036,-0.71365,0.012155,0.0072555
0.4,-0.2,0.79511,1.1902,0.70036,-0.71365,0.012155,0.0072555
0.401,-0.2,0.7952,1.1904,0.70036,-0.71365,0.012155,0.0072555
0.402,-0.2,0.7953,1.1906,0.70036,-0.71365,0.012155,0.0072555
0.403,-0.2,0.79539,1.1908,0.70036,-0.71365,0.012155,0.0072555
0.404,-0.2,0.79549,1.191,0.70036,-0.71365,0.012155,0.0072555
0.405,-0.2,0.79558,1.1912,0.70036,-0.71365,0.012155,0.0072555
0.406,-0.2,0.79567,1.1913,0.70036,-0.71365,0.012155,0.0072555
0.407,-0.2,0.79576,1.1915,0.70036,-0.71365,0.012155,0.0072555
0.408,-0.2,0.79585,1.1917,0.70036,-0.71365,0.012155,0.0072555
0.409,-0.2,0.79594,1.1919,0.70036,-0.71365,0.012155,0.0072555
0.41,-0.2,0.79603,1.1921,0.70036,-0.71365,0.012155,0.0072555
0.411,-0.2,0.79612,1.1922,0.70036,-0.71365,0.012155,0.0072555
0.412,-0.2,0.7962,1.1924,0.70036,-0.71365,0.012155,0.0072555
0.413,-0.2,0.79629,1.1926,0.70036,-0.71365,0.012155,0.0072555
0.414,-0.2,0.79637,1.1927,0.70036,-0.71365,0.012155,0.0072555
0.415,-0.2,0.79646,1.1929,0.70036,-0.71365,0.012155,0.0072555
0.416,-0.2,0.79654,1.1931,0.70036,-0.71365,0.012155,0.0072555
0.417,-0.2,0.79662,1.1932,0.70036,-0.71365,0.012155,0.0072555
0.418,-0.2,0.7967,1.1934,0.70036,-0.71365,0.012155,0.0072555
0.419,-0.2,0.79678,1.1936,0.70036,-0.71365,0.012155,0.0072555
0.42,-0.2,0.79686,1.1937,0.70036,-0.71365,0.012155,0.0072555
0.421,-0.2,0.79694,1.1939,0.70036,-0.71365,0.012155,0.0072555
0.422,-0.2,0.79701,1.194,0.70036,-0.71365,0.012155,0.0072555
0.423,-0.2,0.79709,1.1942,0.70036,-0.71365,0.012155,0.0072555
0.424,-0.2,0.79716,1.1943,0.70036,-0.71365,0.012155,0.0072555
0.425,-0.2,0.79724,1.1945,0.70036,-0.71365,0.012155,0.0072555
0.426,-0.2,0.79731,1.1946,0.70036,-0.71365,0.012155,0.0072555
0.427,-0.2,0.79738,1.1948,0.70036,-0.71365,0.012155,0.0072555
0.428,-0.2,0.79745,1.1949,0.70036,-0.71365,0.012155,0.0072555
0.429,-0.2,0.79752,1.195,0.70036,-0.71365,0.012155,0.0072555
0.43,-0.2,0.79759,1.1952,0.70036,-0.71365,0.012155,0.0072555
0.431,-0.2,0.79766,1.1953,0.70036,-0.71365,0.012155,0.0072555
0.432,-0.2,0.79773,1.1955,0.70036,-0.71365,0.012155,0.0072555
0.433,-0.2,0.79779,1.1956,0.70036,-0.71365,0.012155,0.0072555
0.434,-0.2,0.79786,1.1957,0.70036,-0.71365,0.012155,0.0072555
0.435,-0.2,0.79792,1.1958,0.70036,-0.71365,0.012155,0.0072555
0.436,-0.2,0.79799,1.196,0.70036,-0.71365,0.012155,0.0072555
0.437,-0.2,0.79805,1.1961,0.70036,-0.71365,0.012155,0.0072555
0.438,-0.2,0.79811,1.1962,0.70036,-0.71365,0.012155,0.0072555
0.439,-0.2,0.79817,1.1963,0.70036,-0.71365,0.012155,0.0072555
0.44,-0.2,0.79823,1.1965,0.70036,-0.71365,0.012155,0.0072555
0.441,-0.2,0.79829,1.1966,0.70036,-0.71365,0.012155,0.0072555
0.442,-0.2,0.79834,1.1967,0.70036,-0.71365,0.012155,0.0072555
0.443,-0.2,0.7984,1.1968,0.70036,-0.71365,0.012155,0.0072555
0.444,-0.2,0.79846,1.1969,0.70036,-0.71365,0.012155,0.0072555
0.445,-0.2,0.79851,1.197,0.70036,-0.71365,0.012155,0.0072555
0.446,-0.2,0.79856,1.1971,0.70036,-0.71365,0.012155,0.0072555
0.447,-0.2,0.79862,1.1972,0.70036,-0.71365,0.012155,0.0072555
0.448,-0.2,0.79867,1.1973,0.70036,-0.71365,0.012155,0.0072555
0.449,-0.2,0.79872,1.1974,0.70036,-0.71365,0.012155,0.0072555
0.45,-0.2,0.79877,1.1975,0.70036,-0.71365,0.012155,0.0072555
0.451,-0.2,0.79882,1.1976,0.70036,-0.71365,0.012155,0.0072555
0.452,-0.2,0.79887,1.1977,0.70036,-0.71365,0.012155,0.0072555
0.453,-0.2,0.79891,1.1978,0.70036,-0.71365,0.012155,0.0072555
0.454,-0.2,0.79896,1.1979,0.70036,-0.71365,0.012155,0.0072555
0.455,-0.2,0.799,1.198,0.70036,-0.71365,0.012155,0.0072555
0.456,-0.2,0.79905,1.1981,0.70036,-0.71365,0.012155,0.0072555
0.457,-0.2,0.79909,1.1982,0.70036,-0.71365,0.012155,0.0072555
0.458,-0.2,0.79913,1.1983,0.70036,-0.71365,0.012155,0.0072555
0.459,-0.2,0.79917,1.1983,0.70036,-0.71365,0.012155,0.0072555
0.46,-0.2,0.79921,1.1984,0.70036,-0.71365,0.012155,0.0072555
0.461,-0.2,0.79925,1.1985,0.70036,-0.71365,0.012155,0.0072555
0.462,-0.2,0.79929,1.1986,0.70036,-0.71365,0.012155,0.0072555
0.463,-0.2,0.79933,1.1987,0.70036,-0.71365,0.012155,0.0072555
0.464,-0.2,0.79936,1.1987,0.70036,-0.71365,0.012155,0.0072555
0.465,-0.2,0.7994,1.1988,0.70036,-0.71365,0.012155,0.0072555
0.466,-0.2,0.79943,1.1989,0.70036,-0.71365,0.012155,0.0072555
0.467,-0.2,0.79946,1.1989,0.70036,-0.71365,0.012155,0.0072555
0.468,-0.2,0.7995,1.199,0.70036,-0.71365,0.012155,0.0072555
0.469,-0.2,0.79953,1.1991,0.70036,-0.71365,0.012155,0.0072555
0.47,-0.2,0.79956,1.1991,0.70036,-0.71365,0.012155,0.0072555
0.471,-0.2,0.79959,1.1992,0.70036,-0.71365,0.012155,0.0072555
0.472,-0.2,0.79961,1.1992,0.70036,-0.71365,0.012155,0.0072555
0.473,-0.2,0.79964,1.1993,0.70036,-0.71365,0.012155,0.0072555
0.474,-0.2,0.79967,1.1993,0.70036,-0.71365,0.012155,0.0072555
0.475,-0.2,0.79969,1.1994,0.70036,-0.71365,0.012155,0.0072555
0.476,-0.2,0.79972,1.1994,0.70036,-0.71365,0.012155,0.0072555
0.477,-0.2,0.79974,1.1995,0.70036,-0.71365,0.012155,0.0072555
0.478,-0.2,0.79976,1.1995,0.70036,-0.71365,0.012155,0.0072555
0.479,-0.2,0.79978,1.1996,0.70036,-0.71365,0.012155,0.0072555
0.48,-0.2,0.7998,1.1996,0.70036,-0.71365,0.012155,0.0072555
0.481,-0.2,0.79982,1.1996,0.70036,-0.71365,0.012155,0.0072555
0.482,-0.2,0.79984,1.1997,0.70036,-0.71365,0.012155,0.0072555
0.483,-0.2,0.79986,1.1997,0.70036,-0.71365,0.012155,0.0072555
0.484,-0.2,0.79987,1.1997,0.70036,-0.71365,0.012155,0.0072555
0.485,-0.2,0.79989,1.1998,0.70036,-0.71365,0.012155,0.0072555
0.486,-0.2,0.7999,1.1998,0.70036,-0.71365,0.012155,0.0072555
0.487,-0.2,0.79992,1.1998,0.70036,-0.71365,0.012155,0.0072555
0.488,-0.2,0.79993,1.1999,0.70036,-0.71365,0.012155,0.0072555
0.489,-0.2,0.79994,1.1999,0.70036,-0.71365,0.012155,0.0072555
0.49,-0.2,0.79995,1.1999,0.70036,-0.71365,0.012155,0.0072555
0.491,-0.2,0.79996,1.1999,0.70036,-0.71365,0.012155,0.0072555
0.492,-0.2,0.79997,1.1999,0.70036,-0.71365,0.012155,0.0072555
0.493,-0.2,0.79998,1.2,0.70036,-0.71365,0.012155,0.0072555
0.494,-0.2,0.79998,1.2,0.70036,-0.71365,0.012155,0.0072555
0.495,-0.2,0.79999,1.2,0.70036,-0.71365,0.012155,0.0072555
0.496,-0.2,0.79999,1.2,0.70036,-0.71365,0.012155,0.0072555
0.497,-0.2,0.8,1.2,0.70036,-0.71365,0.012155,0.0072555
0.498,-0.2,0.8,1.2,0.70036,-0.71365,0.012155,0.0072555
0.499,-0.2,0.8,1.2,0.70036,-0.71365,0.012155,0.0072555
0.5,-0.2,0.8,1.2,0.70036,-0.71365,0.012155,0.0072555
0.501,-0.2,0.8,1.2,0.70036,-0.71365,0.012155,0.0072555
0.502,-0.2,0.8,1.2,0.70036,-0.71365,0.012155,0.0072555
0.503,-0.2,0.8,1.2,0.70036,-0.71365,0.012155,0.0072555
0.504,-0.2,0.79999,1.2,0.70036,-0.71365,0.012155,0.0072555
0.505,-0.2,0.79999,1.2,0.70036,-0.71365,0.012155,0.0072555
0.506,-0.2,0.79998,1.2,0.70036,-0.71365,0.012155,0.0072555
0.507,-0.2,0.79998,1.2,0.70036,-0.71365,0.012155,0.0072555
0.508,-0.2,0.79997,1.1999,0.70036,-0.71365,0.012155,0.0072555
0.509,-0.2,0.79996,1.1999,0.70036,-0.71365,0.012155,0.0072555
0.51,-0.2,0.79995,1.1999,0.70036,-0.71365,0.012155,0.0072555
0.511,-0.2,0.79994,1.1999,0.70036,-0.71365,0.012155,0.0072555
0.512,-0.2,0.79993,1.1999,0.70036,-0.71365,0.012155,0.0072555
0.513,-0.2,0.79992,1.1998,0.70036,-0.71365,0.012155,0.0072555
0.514,-0.2,0.7999,1.1998,0.70036,-0.71365,0.012155,0.0072555
0.515,-0.2,0.79989,1.1998,0.70036,-0.71365,0.012155,0.0072555
0.516,-0.2,0.79987,1.1997,0.70036,-0.71365,0.012155,0.0072555
0.517,-0.2,0.79986,1.1997,0.70036,-0.71365,0.012155,0.0072555
0.518,-0.2,0.79984,1.1997,0.70036,-0.71365,0.012155,0.0072555
0.519,-0.2,0.79982,1.1996,0.70036,-0.71365,0.012155,0.0072555
0.52,-0.2,0.7998,1.1996,0.70036,-0.71365,0.012155,0.0072555
0.521,-0.2,0.79978,1.1996,0.70036,-0.71365,0.012155,0.0072555
0.522,-0.2,0.79976,1.1995,0.70036,-0.71365,0.012155,0.0072555
0.523,-0.2,0.79974,1.1995,0.70036,-0.71365,0.012155,0.0072555
0.524,-0.2,0.79972,1.1994,0.70036,-0.71365,0.012155,0.0072555
0.525,-0.2,0.79969,1.1994,0.70036,-0.71365,0.012155,0.0072555
0.526,-0.2,0.79967,1.1993,0.70036,-0.71365,0.012155,0.0072555
0.527,-0.2,0.79964,1.1993,0.70036,-0.71365,0.012155,0.0072555
0.528,-0.2,0.79961,1.1992,0.70036,-0.71365,0.012155,0.0072555
0.529,-0.2,0.79959,1.1992,0.70036,-0.71365,0.012155,0.0072555
0.53,-0.2,0.79956,1.1991,0.70036,-0.71365,0.012155,0.0072555
0.531,-0.2,0.79953,1.1991,0.70036,-0.71365,0.012155,0.0072555
0.532,-0.2,0.7995,1.199,0.70036,-0.71365,0.012155,0.0072555
0.533,-0.2,0.79946,1.1989,0.70036,-0.71365,0.012155,0.0072555
0.534,-0.2,0.79943,1.1989,0.70036,-0.71365,0.012155,0.0072555
0.535,-0.2,0.7994,1.1988,0.70036,-0.71365,0.012155,0.0072555
0.536,-0.2,0.79936,1.1987,0.70036,-0.71365,0.012155,0.0072555
0.537,-0.2,0.79933,1.1987,0.70036,-0.71365,0.012155,0.0072555
0.538,-0.2,0.79929,1.1986,0.70036,-0.71365,0.012155,0.0072555
0.539,-0.2,0.79925,1.1985,0.70036,-0.71365,0.012155,0.0072555
0.54,-0.2,0.79921,1.1984,0.70036,-0.71365,0.012155,0.0072555
0.541,-0.2,0.79917,1.1983,0.70036,-0.71365,0.012155,0.0072555
0.542,-0.2,0.79913,1.1983,0.70036,-0.71365,0.012155,0.0072555
0.543,-0.2,0.79909,1.1982,0.70036,-0.71365,0.012155,0.0072555
0.544,-0.2,0.79905,1.1981,0.70036,-0.71365,0.012155,0.0072555
0.545,-0.2,0.799,1.198,0.70036,-0.71365,0.012155,0.0072555
0.546,-0.2,0.79896,1.1979,0.70036,-0.71365,0.012155,0.0072555
0.547,-0.2,0.79891,1.1978,0.70036,-0.71365,0.012155,0.0072555
0.548,-0.2,0.79887,1.1977,0.70036,-0.71365,0.012155,0.0072555
0.549,-0.2,0.79882,1.1976,0.70036,-0.71365,0.012155,0.0072555
0.55,-0.2,0.79877,1.1975,0.70036,-0.71365,0.012155,0.0072555
0.551,-0.2,0.79872,1.1974,0.70036,-0.71365,0.012155,0.0072555
0.552,-0.2,0.79867,1.1973,0.70036,-0.71365,0.012155,0.0072555
0.553,-0.2,0.79862,1.1972,0.70036,-0.71365,0.012155,0.0072555
0.554,-0.2,0.79856,1.1971,0.70036,-0.71365,0.012155,0.0072555
0.555,-0.2,0.79851,1.197,0.70036,-0.71365,0.012155,0.0072555
0.556,-0.2,0.79846,1.1969,0.70036,-0.71365,0.012155,0.0072555
0.557,-0.2,0.7984,1.1968,0.70036,-0.71365,0.012155,0.0072555
0.558,-0.2,0.79834,1.1967,0.70036,-0.71365,0.012155,0.0072555
0.559,-0.2,0.79829,1.1966,0.70036,-0.71365,0.012155,0.0072555
0.56,-0.2,0.79823,1.1965,0.70036,-0.71365,0.012155,0.0072555
0.561,-0.2,0.79817,1.1963,0.70036,-0.71365,0.012155,0.0072555
0.562,-0.2,0.79811,1.1962,0.70036,-0.71365,0.012155,0.0072555
0.563,-0.2,0.79805,1.1961,0.70036,-0.71365,0.012155,0.0072555
0.564,-0.2,0.79799,1.196,0.70036,-0.71365,0.012155,0.0072555
0.565,-0.2,0.79792,1.1958,0.70036,-0.71365,0.012155,0.0072555
0.566,-0.2,0.79786,1.1957,0.70036,-0.71365,0.012155,0.0072555
0.567,-0.2,0.79779,1.1956,0.70036,-0.71365,0.012155,0.0072555
0.568,-0.2,0.79773,1.1955,0.70036,-0.71365,0.012155,0.0072555
0.569,-0.2,0.79766,1.1953,0.70036,-0.71365,0.012155,0.0072555
0.57,-0.2,0.79759,1.1952,0.70036,-0.71365,0.012155,0.0072555
0.571,-0.2,0.79752,1.195,0.70036,-0.71365,0.012155,0.0072555
0.572,-0.2,0.79745,1.1949,0.70036,-0.71365,0.012155,0.0072555
0.573,-0.2,0.79738,1.1948,0.70036,-0.71365,0.012155,0.0072555
0.574,-0.2,0.79731,1.1946,0.70036,-0.71365,0.012155,0.0072555
0.575,-0.2,0.79724,1.1945,0.70036,-0.71365,0.012155,0.0072555
0.576,-0.2,0.79716,1.1943,0.70036,-0.71365,0.012155,0.0072555
0.577,-0.2,0.79709,1.1942,0.70036,-0.71365,0.012155,0.0072555
0.578,-0.2,0.79701,1.194,0.70036,-0.71365,0.012155,0.0072555
0.579,-0.2,0.79694,1.1939,0.70036,-0.71365,0.012155,0.0072555
0.58,-0.2,0.79686,1.1937,0.70036,-0.71365,0.012155,0.0072555
0.581,-0.2,0.79678,1.1936,0.70036,-0.71365,0.012155,0.0072555
0.582,-0.2,0.7967,1.1934,0.70036,-0.71365,0.012155,0.0072555
0.583,-0.2,0.79662,1.1932,0.70036,-0.71365,0.012155,0.0072555
0.584,-0.2,0.79654,1.1931,0.70036,-0.71365,0.012155,0.0072555
0.585,-0.2,0.79646,1.1929,0.70036,-0.71365,0.012155,0.0072555
0.586,-0.2,0.79637,1.1927,0.70036,-0.71365,0.012155,0.0072555
0.587,-0.2,0.79629,1.1926,0.70036,-0.71365,0.012155,0.0072555
0.588,-0.2,0.7962,1.1924,0.70036,-0.71365,0.012155,0.0072555
0.589,-0.2,0.79612,1.1922,0.70036,-0.71365,0.012155,0.0072555
0.59,-0.2,0.79603,1.1921,0.70036,-0.71365,0.012155,0.0072555
0.591,-0.2,0.79594,1.1919,0.70036,-0.71365,0.012155,0.0072555
0.592,-0.2,0.79585,1.1917,0.70036,-0.71365,0.012155,0.0072555
0.593,-0.2,0.79576,1.1915,0.70036,-0.71365,0.012155,0.0072555
0.594,-0.2,0.79567,1.1913,0.70036,-0.71365,0.012155,0.0072555
0.595,-0.2,0.79558,1.1912,0.70036,-0.71365,0.012155,0.0072555
0.596,-0.2,0.79549,1.191,0.70036,-0.71365,0.012155,0.0072555
0.597,-0.2,0.79539,1.1908,0.70036,-0.71365,0.012155,0.0072555
0.598,-0.2,0.7953,1.1906,0.70036,-0.71365,0.012155,0.0072555
0.599,-0.2,0.7952,1.1904,0.70036,-0.71365,0.012155,0.0072555
0.6,-0.2,0.79511,1.1902,0.70036,-0.71365,0.012155,0.0072555
0.601,-0.2,0.79501,1.19,0.70036,-0.71365,0.012155,0.0072555
0.602,-0.2,0.79491,1.1898,0.70036,-0.71365,0.012155,0.0072555
0.603,-0.2,0.79481,1.1896,0.70036,-0.71365,0.012155,0.0072555
0.604,-0.2,0.79471,1.1894,0.70036,-0.71365,0.012155,0.0072555
0.605,-0.2,0.79461,1.1892,0.70036,-0.71365,0.012155,0.0072555
0.606,-0.2,0.79451,1.189,0.70036,-0.71365,0.012155,0.0072555
0.607,-0.2,0.7944,1.1888,0.70036,-0.71365,0.012155,0.0072555
0.608,-0.2,0.7943,1.1886,0.70036,-0.71365,0.012155,0.0072555
0.609,-0.2,0.79419,1.1884,0.70036,-0.71365,0.012155,0.0072555
0.61,-0.2,0.79409,1.1882,0.70036,-0.71365,0.012155,0.0072555
0.611,-0.2,0.79398,1.188,0.70036,-0.71365,0.012155,0.0072555
0.612,-0.2,0.79387,1.1877,0.70036,-0.71365,0.012155,0.0072555
0.613,-0.2,0.79376,1.1875,0.70036,-0.71365,0.012155,0.0072555
0.614,-0.2,0.79365,1.1873,0.70036,-0.71365,0.012155,0.0072555
0.615,-0.2,0.79354,1.1871,0.70036,-0.71365,0.012155,0.0072555
0.616,-0.2,0.79343,1.1869,0.70036,-0.71365,0.012155,0.0072555
0.617,-0.2,0.79332,1.1866,0.70036,-0.71365,0.012155,0.0072555
0.618,-0.2,0.79321,1.1864,0.70036,-0.71365,0.012155,0.0072555
0.619,-0.2,0.79309,1.1862,0.70036,-0.71365,0.012155,0.0072555
0.62,-0.2,0.79298,1.186,0.70036,-0.71365,0.012155,0.0072555
0.621,-0.2,0.79286,1.1857,0.70036,-0.71365,0.012155,0.0072555
0.622,-0.2,0.79274,1.1855,0.70036,-0.71365,0.012155,0.0072555
0.623,-0.2,0.79263,1.1853,0.70036,-0.71365,0.012155,0.0072555
0.624,-0.2,0.79251,1.185,0.70036,-0.71365,0.012155,0.0072555
0.625,-0.2,0.79239,1.1848,0.70036,-0.71365,0.012155,0.0072555
0.626,-0.2,0.79227,1.1845,0.70036,-0.71365,0.012155,0.0072555
0.627,-0.2,0.79215,1.1843,0.70036,-0.71365,0.012155,0.0072555
0.628,-0.2,0.79202,1.184,0.70036,-0.71365,0.012155,0.0072555
0.629,-0.2,0.7919,1.1838,0.70036,-0.71365,0.012155,0.0072555
0.63,-0.2,0.79178,1.1836,0.70036,-0.71365,0.012155,0.0072555
0.631,-0.2,0.79165,1.1833,0.70036,-0.71365,0.012155,0.0072555
0.632,-0.2,0.79152,1.183,0.70036,-0.71365,0.012155,0.0072555
0.633,-0.2,0.7914,1.1828,0.70036,-0.71365,0.012155,0.0072555
0.634,-0.2,0.79127,1.1825,0.70036,-0.71365,0.012155,0.0072555
0.635,-0.2,0.79114,1.1823,0.70036,-0.71365,0.012155,0.0072555
0.636,-0.2,0.79101,1.182,0.70036,-0.71365,0.012155,0.0072555
0.637,-0.2,0.79088,1.1818,0.70036,-0.71365,0.012155,0.0072555
0.638,-0.2,0.79075,1.1815,0.70036,-0.71365,0.012155,0.0072555
0.639,-0.2,0.79062,1.1812,0.70036,-0.71365,0.012155,0.0072555
0.64,-0.2,0.79048,1.181,0.70036,-0.71365,0.012155,0.0072555
0.641,-0.2,0.79035,1.1807,0.70036,-0.71365,0.012155,0.0072555
0.642,-0.2,0.79021,1.1804,0.70036,-0.71365,0.012155,0.0072555
0.643,-0.2,0.79008,1.1802,0.70036,-0.71365,0.012155,0.0072555
0.644,-0.2,0.78994,1.1799,0.70036,-0.71365,0.012155,0.0072555
0.645,-0.2,0.7898,1.1796,0.70036,-0.71365,0.012155,0.0072555
0.646,-0.2,0.78966,1.1793,0.70036,-0.71365,0.012155,0.0072555
0.647,-0.2,0.78952,1.179,0.70036,-0.71365,0.012155,0.0072555
0.648,-0.2,0.78938,1.1788,0.70036,-0.71365,0.012155,0.0072555
0.649,-0.2,0.78924,1.1785,0.70036,-0.71365,0.012155,0.0072555
0.65,-0.2,0.7891,1.1782,0.70036,-0.71365,0.012155,0.0072555
0.651,-0.2,0.78896,1.1779,0.70036,-0.71365,0.012155,0.0072555
0.652,-0.2,0.78881,1.1776,0.70036,-0.71365,0.012155,0.0072555
0.653,-0.2,0.78867,1.1773,0.70036,-0.71365,0.012155,0.0072555
0.654,-0.2,0.78852,1.177,0.70036,-0.71365,0.012155,0.0072555
0.655,-0.2,0.78838,1.1768,0.70036,-0.71365,0.012155,0.0072555
0.656,-0.2,0.78823,1.1765,0.70036,-0.71365,0.012155,0.0072555
0.657,-0.2,0.78808,1.1762,0.70036,-0.71365,0.012155,0.0072555
0.658,-0.2,0.78793,1.1759,0.70036,-0.71365,0.012155,0.0072555
0.659,-0.2,0.78778,1.1756,0.70036,-0.71365,0.012155,0.0072555
0.66,-0.2,0.78763,1.1753,0.70036,-0.71365,0.012155,0.0072555
0.661,-0.2,0.78748,1.175,0.70036,-0.71365,0.012155,0.0072555
0.662,-0.2,0.78733,1.1747,0.70036,-0.71365,0.012155,0.0072555
0.663,-0.2,0.78717,1.1743,0.70036,-0.71365,0.012155,0.0072555
0.664,-0.2,0.78702,1.174,0.70036,-0.71365,0.012155,0.0072555
0.665,-0.2,0.78686,1.1737,0.70036,-0.71365,0.012155,0.0072555
0.666,-0.2,0.78671,1.1734,0.70036,-0.71365,0.012155,0.0072555
0.667,-0.2,0.78655,1.1731,0.70036,-0.71365,0.012155,0.0072555
0.668,-0.2,0.78639,1.1728,0.70036,-0.71365,0.012155,0.0072555
0.669,-0.2,0.78623,1.1725,0.70036,-0.71365,0.012155,0.0072555
0.67,-0.2,0.78607,1.1721,0.70036,-0.71365,0.012155,0.0072555
0.671,-0.2,0.78591,1.1718,0.70036,-0.71365,0.012155,0.0072555
0.672,-0.2,0.78575,1.1715,0.70036,-0.71365,0.012155,0.0072555
0.673,-0.2,0.78559,1.1712,0.70036,-0.71365,0.012155,0.0072555
0.674,-0.2,0.78543,1.1709,0.70036,-0.71365,0.012155,0.0072555
0.675,-0.2,0.78526,1.1705,0.70036,-0.71365,0.012155,0.0072555
0.676,-0.2,0.7851,1.1702,0.70036,-0.71365,0.012155,0.0072555
0.677,-0.2,0.78493,1.1699,0.70036,-0.71365,0.012155,0.0072555
0.678,-0.2,0.78477,1.1695,0.70036,-0.71365,0.012155,0.0072555
0.679,-0.2,0.7846,1.1692,0.70036,-0.71365,0.012155,0.0072555
0.68,-0.2,0.78443,1.1689,0.70036,-0.71365,0.012155,0.0072555
0.681,-0.2,0.78426,1.1685,0.70036,-0.71365,0.012155,0.0072555
0.682,-0.2,0.78409,1.1682,0.70036,-0.71365,0.012155,0.0072555
0.683,-0.2,0.78392,1.1678,0.70036,-0.71365,0.012155,0.0072555
0.684,-0.2,0.78375,1.1675,0.70036,-0.71365,0.012155,0.0072555
0.685,-0.2,0.78358,1.1672,0.70036,-0.71365,0.012155,0.0072555
0.686,-0.2,0.78341,1.1668,0.70036,-0.71365,0.012155,0.0072555
0.687,-0.2,0.78323,1.1665,0.70036,-0.71365,0.012155,0.0072555
0.688,-0.2,0.78306,1.1661,0.70036,-0.71365,0.012155,0.0072555
0.689,-0.2,0.78288,1.1658,0.70036,-0.71365,0.012155,0.0072555
0.69,-0.2,0.78271,1.1654,0.70036,-0.71365,0.012155,0.0072555
0.691,-0.2,0.78253,1.1651,0.70036,-0.71365,0.012155,0.0072555
0.692,-0.2,0.78235,1.1647,0.70036,-0.71365,0.012155,0.0072555
0.693,-0.2,0.78217,1.1643,0.70036,-0.71365,0.012155,0.0072555
0.694,-0.2,0.782,1.164,0.70036,-0.71365,0.012155,0.0072555
0.695,-0.2,0.78181,1.1636,0.70036,-0.71365,0.012155,0.0072555
0.696,-0.2,0.78163,1.1633,0.70036,-0.71365,0.012155,0.0072555
0.697,-0.2,0.78145,1.1629,0.70036,-0.71365,0.012155,0.0072555
0.698,-0.2,0.78127,1.1625,0.70036,-0.71365,0.012155,0.0072555
0.699,-0.2,0.78109,1.1622,0.70036,-0.71365,0.012155,0.0072555
0.7,-0.2,0.7809,1.1618,0.70036,-0.71365,0.012155,0.0072555
0.701,-0.2,0.78072,1.1614,0.70036,-0.71365,0.012155,0.0072555
0.702,-0.2,0.78053,1.1611,0.70036,-0.71365,0.012155,0.0072555
0.703,-0.2,0.78034,1.1607,0.70036,-0.71365,0.012155,0.0072555
0.704,-0.2,0.78016,1.1603,0.70036,-0.71365,0.012155,0.0072555
0.705,-0.2,0.77997,1.1599,0.70036,-0.71365,0.012155,0.0072555
0.706,-0.2,0.77978,1.1596,0.70036,-0.71365,0.012155,0.0072555
0.707,-0.2,0.77959,1.1592,0.70036,-0.71365,0.012155,0.0072555
0.708,-0.2,0.7794,1.1588,0.70036,-0.71365,0.012155,0.0072555
0.709,-0.2,0.77921,1.1584,0.70036,-0.71365,0.012155,0.0072555
0.71,-0.2,0.77902,1.158,0.70036,-0.71365,0.012155,0.0072555
0.711,-0.2,0.77882,1.1576,0.70036,-0.71365,0.012155,0.0072555
0.712,-0.2,0.77863,1.1573,0.70036,-0.71365,0.012155,0.0072555
0.713,-0.2,0.77843,1.1569,0.70036,-0.71365,0.012155,0.0072555
0.714,-0.2,0.77824,1.1565,0.70036,-0.71365,0.012155,0.0072555
0.715,-0.2,0.77804,1.1561,0.70036,-0.71365,0.012155,0.0072555
0.716,-0.2,0.77785,1.1557,0.70036,-0.71365,0.012155,0.0072555
0.717,-0.2,0.77765,1.1553,0.70036,-0.71365,0.012155,0.0072555
0.718,-0.2,0.77745,1.1549,0.70036,-0.71365,0.012155,0.0072555
0.719,-0.2,0.77725,1.1545,0.70036,-0.71365,0.012155,0.0072555
0.72,-0.2,0.77705,1.1541,0.70036,-0.71365,0.012155,0.0072555
0.721,-0.2,0.77685,1.1537,0.70036,-0.71365,0.012155,0.0072555
0.722,-0.2,0.77665,1.1533,0.70036,-0.71365,0.012155,0.0072555
0.723,-0.2,0.77645,1.1529,0.70036,-0.71365,0.012155,0.0072555
0.724,-0.2,0.77624,1.1525,0.70036,-0.71365,0.012155,0.0072555
0.725,-0.2,0.77604,1.1521,0.70036,-0.71365,0.012155,0.0072555
0.726,-0.2,0.77584,1.1517,0.70036,-0.71365,0.012155,0.0072555
0.727,-0.2,0.77563,1.1513,0.70036,-0.71365,0.012155,0.0072555
0.728,-0.2,0.77543,1.1509,0.70036,-0.71365,0.012155,0.0072555
0.729,-0.2,0.77522,1.1504,0.70036,-0.71365,0.012155,0.0072555
0.73,-0.2,0.77501,1.15,0.70036,-0.71365,0.012155,0.0072555
0.731,-0.2,0.7748,1.1496,0.70036,-0.71365,0.012155,0.0072555
0.732,-0.2,0.77459,1.1492,0.70036,-0.71365,0.012155,0.0072555
0.733,-0.2,0.77438,1.1488,0.70036,-0.71365,0.012155,0.0072555
0.734,-0.2,0.77417,1.1483,0.70036,-0.71365,0.012155,0.0072555
0.735,-0.2,0.77396,1.1479,0.70036,-0.71365,0.012155,0.0072555
0.736,-0.2,0.77375,1.1475,0.70036,-0.71365,0.012155,0.0072555
0.737,-0.2,0.77354,1.1471,0.70036,-0.71365,0.012155,0.0072555
0.738,-0.2,0.77333,1.1467,0.70036,-0.71365,0.012155,0.0072555
0.739,-0.2,0.77311,1.1462,0.70036,-0.71365,0.012155,0.0072555
0.74,-0.2,0.7729,1.1458,0.70036,-0.71365,0.012155,0.0072555
0.741,-0.2,0.77268,1.1454,0.70036,-0.71365,0.012155,0.0072555
0.742,-0.2,0.77247,1.1449,0.70036,-0.71365,0.012155,0.0072555
0.743,-0.2,0.77225,1.1445,0.70036,-0.71365,0.012155,0.0072555
0.744,-0.2,0.77203,1.1441,0.70036,-0.71365,0.012155,0.0072555
0.745,-0.2,0.77181,1.1436,0.70036,-0.71365,0.012155,0.0072555
0.746,-0.2,0.77159,1.1432,0.70036,-0.71365,0.012155,0.0072555
0.747,-0.2,0.77137,1.1427,0.70036,-0.71365,0.012155,0.0072555
0.748,-0.2,0.77115,1.1423,0.70036,-0.71365,0.012155,0.0072555
0.749,-0.2,0.77093,1.1419,0.70036,-0.71365,0.012155,0.0072555
0.75,-0.2,0.77071,1.1414,0.70036,-0.71365,0.012155,0.0072555
0.751,-0.2,0.77049,1.141,0.70036,-0.71365,0.012155,0.0072555
0.752,-0.2,0.77026,1.1405,0.70036,-0.71365,0.012155,0.0072555
0.753,-0.2,0.77004,1.1401,0.70036,-0.71365,0.012155,0.0072555
0.754,-0.2,0.76982,1.1396,0.70036,-0.71365,0.012155,0.0072555
0.755,-0.2,0.76959,1.1392,0.70036,-0.71365,0.012155,0.0072555
0.756,-0.2,0.76937,1.1387,0.70036,-0.71365,0.012155,0.0072555
0.757,-0.2,0.76914,1.1383,0.70036,-0.71365,0.012155,0.0072555
0.758,-0.2,0.76891,1.1378,0.70036,-0.71365,0.012155,0.0072555
0.759,-0.2,0.76868,1.1374,0.70036,-0.71365,0.012155,0.0072555
0.76,-0.2,0.76845,1.1369,0.70036,-0.71365,0.012155,0.0072555
0.761,-0.2,0.76823,1.1365,0.70036,-0.71365,0.012155,0.0072555
0.762,-0.2,0.768,1.136,0.70036,-0.71365,0.012155,0.0072555
0.763,-0.2,0.76776,1.1355,0.70036,-0.71365,0.012155,0.0072555
0.764,-0.2,0.76753,1.1351,0.70036,-0.71365,0.012155,0.0072555
0.765,-0.2,0.7673,1.1346,0.70036,-0.71365,0.012155,0.0072555
0.766,-0.2,0.76707,1.1341,0.70036,-0.71365,0.012155,0.0072555
0.767,-0.2,0.76684,1.1337,0.70036,-0.71365,0.012155,0.0072555
0.768,-0.2,0.7666,1.1332,0.70036,-0.71365,0.012155,0.0072555
0.769,-0.2,0.76637,1.1327,0.70036,-0.71365,0.012155,0.0072555
0.77,-0.2,0.76613,1.1323,0.70036,-0.71365,0.012155,0.0072555
0.771,-0.2,0.7659,1.1318,0.70036,-0.71365,0.012155,0.0072555
0.772,-0.2,0.76566,1.1313,0.70036,-0.71365,0.012155,0.0072555
0.773,-0.2,0.76542,1.1308,0.70036,-0.71365,0.012155,0.0072555
0.774,-0.2,0.76518,1.1304,0.70036,-0.71365,0.012155,0.0072555
0.775,-0.2,0.76494,1.1299,0.70036,-0.71365,0.012155,0.0072555
0.776,-0.2,0.76471,1.1294,0.70036,-0.71365,0.012155,0.0072555
0.777,-0.2,0.76447,1.1289,0.70036,-0.71365,0.012155,0.0072555
0.778,-0.2,0.76423,1.1285,0.70036,-0.71365,0.012155,0.0072555
0.779,-0.2,0.76398,1.128,0.70036,-0.71365,0.012155,0.0072555
0.78,-0.2,0.76374,1.1275,0.70036,-0.71365,0.012155,0.0072555
0.781,-0.2,0.7635,1.127,0.70036,-0.71365,0.012155,0.0072555
0.782,-0.2,0.76326,1.1265,0.70036,-0.71365,0.012155,0.0072555
0.783,-0.2,0.76301,1.126,0.70036,-0.71365,0.012155,0.0072555
0.784,-0.2,0.76277,1.1255,0.70036,-0.71365,0.012155,0.0072555
0.785,-0.2,0.76252,1.125,0.70036,-0.71365,0.012155,0.0072555
0.786,-0.2,0.76228,1.1246,0.70036,-0.71365,0.012155,0.0072555
0.787,-0.2,0.76203,1.1241,0.70036,-0.71365,0.012155,0.0072555
0.788,-0.2,0.76179,1.1236,0.70036,-0.71365,0.012155,0.0072555
0.789,-0.2,0.76154,1.1231,0.70036,-0.71365,0.012155,0.0072555
0.79,-0.2,0.76129,1.1226,0.70036,-0.71365,0.012155,0.0072555
0.791,-0.2,0.76104,1.1221,0.70036,-0.71365,0.012155,0.0072555
0.792,-0.2,0.76079,1.1216,0.70036,-0.71365,0.012155,0.0072555
0.793,-0.2,0.76054,1.1211,0.70036,-0.71365,0.012155,0.0072555
0.794,-0.2,0.76029,1.1206,0.70036,-0.71365,0.012155,0.0072555
0.795,-0.2,0.76004,1.1201,0.70036,-0.71365,0.012155,0.0072555
0.796,-0.2,0.75979,1.1196,0.70036,-0.71365,0.012155,0.0072555
0.797,-0.2,0.75954,1.1191,0.70036,-0.71365,0.012155,0.0072555
0.798,-0.2,0.75929,1.1186,0.70036,-0.71365,0.012155,0.0072555
0.799,-0.2,0.75903,1.1181,0.70036,-0.71365,0.012155,0.0072555
0.8,-0.2,0.75878,1.1176,0.70036,-0.71365,0.012155,0.0072555
0.801,-0.2,0.75852,1.117,0.70036,-0.71365,0.012155,0.0072555
0.802,-0.2,0.75827,1.1165,0.70036,-0.71365,0.012155,0.0072555
0.803,-0.2,0.75801,1.116,0.70036,-0.71365,0.012155,0.0072555
0.804,-0.2,0.75776,1.1155,0.70036,-0.71365,0.012155,0.0072555
0.805,-0.2,0.7575,1.115,0.70036,-0.71365,0.012155,0.0072555
0.806,-0.2,0.75724,1.1145,0.70036,-0.71365,0.012155,0.0072555
0.807,-0.2,0.75699,1.114,0.70036,-0.71365,0.012155,0.0072555
0.808,-0.2,0.75673,1.1135,0.70036,-0.71365,0.012155,0.0072555
0.809,-0.2,0.75647,1.1129,0.70036,-0.71365,0.012155,0.0072555
0.81,-0.2,0.75621,1.1124,0.70036,-0.71365,0.012155,0.0072555
0.811,-0.2,0.75595,1.1119,0.70036,-0.71365,0.012155,0.0072555
0.812,-0.2,0.75569,1.1114,0.70036,-0.71365,0.012155,0.0072555
0.813,-0.2,0.75543,1.1109,0.70036,-0.71365,0.012155,0.0072555
0.814,-0.2,0.75516,1.1103,0.70036,-0.71365,0.012155,0.0072555
0.815,-0.2,0.7549,1.1098,0.70036,-0.71365,0.012155,0.0072555
0.816,-0.2,0.75464,1.1093,0.70036,-0.71365,0.012155,0.0072555
0.817,-0.2,0.75438,1.1088,0.70036,-0.71365,0.012155,0.0072555
0.818,-0.2,0.75411,1.1082,0.70036,-0.71365,0.012155,0.0072555
0.819,-0.2,0.75385,1.1077,0.70036,-0.71365,0.012155,0.0072555
0.82,-0.2,0.75358,1.1072,0.70036,-0.71365,0.012155,0.0072555
0.821,-0.2,0.75332,1.1066,0.70036,-0.71365,0.012155,0.0072555
0.822,-0.2,0.75305,1.1061,0.70036,-0.71365,0.012155,0.0072555
0.823,-0.2,0.75278,1.1056,0.70036,-0.71365,0.012155,0.0072555
0.824,-0.2,0.75252,1.105,0.70036,-0.71365,0.012155,0.0072555
0.825,-0.2,0.75225,1.1045,0.70036,-0.71365,0.012155,0.0072555
0.826,-0.2,0.75198,1.104,0.70036,-0.71365,0.012155,0.0072555
0.827,-0.2,0.75171,1.1034,0.70036,-0.71365,0.012155,0.0072555
0.828,-0.2,0.75144,1.1029,0.70036,-0.71365,0.012155,0.0072555
0.829,-0.2,0.75117,1.1023,0.70036,-0.71365,0.012155,0.0072555
0.83,-0.2,0.7509,1.1018,0.70036,-0.71365,0.012155,0.0072555
0.831,-0.2,0.75063,1.1013,0.70036,-0.71365,0.012155,0.0072555
0.832,-0.2,0.75036,1.1007,0.70036,-0.71365,0.012155,0.0072555
0.833,-0.2,0.75009,1.1002,0.70036,-0.71365,0.012155,0.0072555
0.834,-0.2,0.74982,1.0996,0.70036,-0.71365,0.012155,0.0072555
0.835,-0.2,0.74955,1.0991,0.70036,-0.71365,0.012155,0.0072555
0.836,-0.2,0.74927,1.0985,0.70036,-0.71365,0.012155,0.0072555
0.837,-0.2,0.749,1.098,0.70036,-0.71365,0.012155,0.0072555
0.838,-0.2,0.74873,1.0975,0.70036,-0.71365,0.012155,0.0072555
0.839,-0.2,0.74845,1.0969,0.70036,-0.71365,0.012155,0.0072555
0.84,-0.2,0.74818,1.0964,0.70036,-0.71365,0.012155,0.0072555
0.841,-0.2,0.7479,1.0958,0.70036,-0.71365,0.012155,0.0072555
0.842,-0.2,0.74762,1.0952,0.70036,-0.71365,0.012155,0.0072555
0.843,-0.2,0.74735,1.0947,0.70036,-0.71365,0.012155,0.0072555
0.844,-0.2,0.74707,1.0941,0.70036,-0.71365,0.012155,0.0072555
0.845,-0.2,0.74679,1.0936,0.70036,-0.71365,0.012155,0.0072555
0.846,-0.2,0.74652,1.093,0.70036,-0.71365,0.012155,0.0072555
0.847,-0.2,0.74624,1.0925,0.70036,-0.71365,0.012155,0.0072555
0.848,-0.2,0.74596,1.0919,0.70036,-0.71365,0.012155,0.0072555
0.849,-0.2,0.74568,1.0914,0.70036,-0.71365,0.012155,0.0072555
0.85,-0.2,0.7454,1.0908,0.70036,-0.71365,0.012155,0.0072555
0.851,-0.2,0.74512,1.0902,0.70036,-0.71365,0.012155,0.0072555
0.852,-0.2,0.74484,1.0897,0.70036,-0.71365,0.012155,0.0072555
0.853,-0.2,0.74456,1.0891,0.70036,-0.71365,0.012155,0.0072555
0.854,-0.2,0.74428,1.0886,0.70036,-0.71365,0.012155,0.0072555
0.855,-0.2,0.74399,1.088,0.70036,-0.71365,0.012155,0.0072555
0.856,-0.2,0.74371,1.0874,0.70036,-0.71365,0.012155,0.0072555
0.857,-0.2,0.74343,1.0869,0.70036,-0.71365,0.012155,0.0072555
0.858,-0.2,0.74315,1.0863,0.70036,-0.71365,0.012155,0.0072555
0.859,-0.2,0.74286,1.0857,0.70036,-0.71365,0.012155,0.0072555
0.86,-0.2,0.74258,1.0852,0.70036,-0.71365,0.012155,0.0072555
0.861,-0.2,0.74229,1.0846,0.70036,-0.71365,0.012155,0.0072555
0.862,-0.2,0.74201,1.084,0.70036,-0.71365,0.012155,0.0072555
0.863,-0.2,0.74172,1.0834,0.70036,-0.71365,0.012155,0.0072555
0.864,-0.2,0.74144,1.0829,0.70036,-0.71365,0.012155,0.0072555
0.865,-0.2,0.74115,1.0823,0.70036,-0.71365,0.012155,0.0072555
0.866,-0.2,0.74086,1.0817,0.70036,-0.71365,0.012155,0.0072555
0.867,-0.2,0.74058,1.0812,0.70036,-0.71365,0.012155,0.0072555
0.868,-0.2,0.74029,1.0806,0.70036,-0.71365,0.012155,0.0072555
0.869,-0.2,0.74,1.08,0.70036,-0.71365,0.012155,0.0072555
0.87,-0.2,0.73971,1.0794,0.70036,-0.71365,0.012155,0.0072555
0.871,-0.2,0.73943,1.0789,0.70036,-0.71365,0.012155,0.0072555
0.872,-0.2,0.73914,1.0783,0.70036,-0.71365,0.012155,0.0072555
0.873,-0.2,0.73885,1.0777,0.70036,-0.71365,0.012155,0.0072555
0.874,-0.2,0.73856,1.0771,0.70036,-0.71365,0.012155,0.0072555
0.875,-0.2,0.73827,1.0765,0.70036,-0.71365,0.012155,0.0072555
0.876,-0.2,0.73798,1.076,0.70036,-0.71365,0.012155,0.0072555
0.877,-0.2,0.73769,1.0754,0.70036,-0.71365,0.012155,0.0072555
0.878,-0.2,0.7374,1.0748,0.70036,-0.71365,0.012155,0.0072555
0.879,-0.2,0.7371,1.0742,0.70036,-0.71365,0.012155,0.0072555
0.88,-0.2,0.73681,1.0736,0.70036,-0.71365,0.012155,0.0072555
0.881,-0.2,0.73652,1.073,0.70036,-0.71365,0.012155,0.0072555
0.882,-0.2,0.73623,1.0725,0.70036,-0.71365,0.012155,0.0072555
0.883,-0.2,0.73593,1.0719,0.70036,-0.71365,0.012155,0.0072555
0.884,-0.2,0.73564,1.0713,0.70036,-0.71365,0.012155,0.0072555
0.885,-0.2,0.73535,1.0707,0.70036,-0.71365,0.012155,0.0072555
0.886,-0.2,0.73505,1.0701,0.70036,-0.71365,0.012155,0.0072555
0.887,-0.2,0.73476,1.0695,0.70036,-0.71365,0.012155,0.0072555
0.888,-0.2,0.73446,1.0689,0.70036,-0.71365,0.012155,0.0072555
0.889,-0.2,0.73417,1.0683,0.70036,-0.71365,0.012155,0.0072555
0.89,-0.2,0.73387,1.0677,0.70036,-0.71365,0.012155,0.0072555
0.891,-0.2,0.73358,1.0672,0.70036,-0.71365,0.012155,0.0072555
0.892,-0.2,0.73328,1.0666,0.70036,-0.71365,0.012155,0.0072555
0.893,-0.2,0.73299,1.066,0.70036,-0.71365,0.012155,0.0072555
0.894,-0.2,0.73269,1.0654,0.70036,-0.71365,0.012155,0.0072555
0.895,-0.2,0.73239,1.0648,0.70036,-0.71365,0.012155,0.0072555
0.896,-0.2,0.73209,1.0642,0.70036,-0.71365,0.012155,0.0072555
0.897,-0.2,0.7318,1.0636,0.70036,-0.71365,0.012155,0.0072555
0.898,-0.2,0.7315,1.063,0.70036,-0.71365,0.012155,0.0072555
0.899,-0.2,0.7312,1.0624,0.70036,-0.71365,0.012155,0.0072555
0.9,-0.2,0.7309,1.0618,0.70036,-0.71365,0.012155,0.0072555
0.901,-0.2,0.7306,1.0612,0.70036,-0.71365,0.012155,0.0072555
0.902,-0.2,0.7303,1.0606,0.70036,-0.71365,0.012155,0.0072555
0.903,-0.2,0.73,1.06,0.70036,-0.71365,0.012155,0.0072555
0.904,-0.2,0.7297,1.0594,0.70036,-0.71365,0.012155,0.0072555
0.905,-0.2,0.7294,1.0588,0.70036,-0.71365,0.012155,0.0072555
0.906,-0.2,0.7291,1.0582,0.70036,-0.71365,0.012155,0.0072555
0.907,-0.2,0.7288,1.0576,0.70036,-0.71365,0.012155,0.0072555
0.908,-0.2,0.7285,1.057,0.70036,-0.71365,0.012155,0.0072555
0.909,-0.2,0.7282,1.0564,0.70036,-0.71365,0.012155,0.0072555
0.91,-0.2,0.7279,1.0558,0.70036,-0.71365,0.012155,0.0072555
0.911,-0.2,0.7276,1.0552,0.70036,-0.71365,0.012155,0.0072555
0.912,-0.2,0.7273,1.0546,0.70036,-0.71365,0.012155,0.0072555
0.913,-0.2,0.72699,1.054,0.70036,-0.71365,0.012155,0.0072555
0.914,-0.2,0.72669,1.0534,0.70036,-0.71365,0.012155,0.0072555
0.915,-0.2,0.72639,1.0528,0.70036,-0.71365,0.012155,0.0072555
0.916,-0.2,0.72608,1.0522,0.70036,-0.71365,0.012155,0.0072555
0.917,-0.2,0.72578,1.0516,0.70036,-0.71365,0.012155,0.0072555
0.918,-0.2,0.72548,1.051,0.70036,-0.71365,0.012155,0.0072555
0.919,-0.2,0.72517,1.0503,0.70036,-0.71365,0.012155,0.0072555
0.92,-0.2,0.72487,1.0497,0.70036,-0.71365,0.012155,0.0072555
0.921,-0.2,0.72456,1.0491,0.70036,-0.71365,0.012155,0.0072555
0.922,-0.2,0.72426,1.0485,0.70036,-0.71365,0.012155,0.0072555
0.923,-0.2,0.72396,1.0479,0.70036,-0.71365,0.012155,0.0072555
0.924,-0.2,0.72365,1.0473,0.70036,-0.71365,0.012155,0.0072555
0.925,-0.2,0.72334,1.0467,0.70036,-0.71365,0.012155,0.0072555
0.926,-0.2,0.72304,1.0461,0.70036,-0.71365,0.012155,0.0072555
0.927,-0.2,0.72273,1.0455,0.70036,-0.71365,0.012155,0.0072555
0.928,-0.2,0.72243,1.0449,0.70036,-0.71365,0.012155,0.0072555
0.929,-0.2,0.72212,1.0442,0.70036,-0.71365,0.012155,0.0072555
0.93,-0.2,0.72181,1.0436,0.70036,-0.71365,0.012155,0.0072555
0.931,-0.2,0.72151,1.043,0.70036,-0.71365,0.012155,0.0072555
0.932,-0.2,0.7212,1.0424,0.70036,-0.71365,0.012155,0.0072555
0.933,-0.2,0.72089,1.0418,0.70036,-0.71365,0.012155,0.0072555
0.934,-0.2,0.72059,1.0412,0.70036,-0.71365,0.012155,0.0072555
0.935,-0.2,0.72028,1.0406,0.70036,-0.71365,0.012155,0.0072555
0.936,-0.2,0.71997,1.0399,0.70036,-0.71365,0.012155,0.0072555
0.937,-0.2,0.71966,1.0393,0.70036,-0.71365,0.012155,0.0072555
0.938,-0.2,0.71935,1.0387,0.70036,-0.71365,0.012155,0.0072555
0.939,-0.2,0.71905,1.0381,0.70036,-0.71365,0.012155,0.0072555
0.94,-0.2,0.71874,1.0375,0.70036,-0.71365,0.012155,0.0072555
0.941,-0.2,0.71843,1.0369,0.70036,-0.71365,0.012155,0.0072555
0.942,-0.2,0.71812,1.0362,0.70036,-0.71365,0.012155,0.0072555
0.943,-0.2,0.71781,1.0356,0.70036,-0.71365,0.012155,0.0072555
0.944,-0.2,0.7175,1.035,0.70036,-0.71365,0.012155,0.0072555
0.945,-0.2,0.71719,1.0344,0.70036,-0.71365,0.012155,0.0072555
0.946,-0.2,0.71688,1.0338,0.70036,-0.71365,0.012155,0.0072555
0.947,-0.2,0.71657,1.0331,0.70036,-0.71365,0.012155,0.0072555
0.948,-0.2,0.71626,1.0325,0.70036,-0.71365,0.012155,0.0072555
0.949,-0.2,0.71595,1.0319,0.70036,-0.71365,0.012155,0.0072555
0.95,-0.2,0.71564,1.0313,0.70036,-0.71365,0.012155,0.0072555
0.951,-0.2,0.71533,1.0307,0.70036,-0.71365,0.012155,0.0072555
0.952,-0.2,0.71502,1.03,0.70036,-0.71365,0.012155,0.0072555
0.953,-0.2,0.71471,1.0294,0.70036,-0.71365,0.012155,0.0072555
0.954,-0.2,0.7144,1.0288,0.70036,-0.71365,0.012155,0.0072555
0.955,-0.2,0.71409,1.0282,0.70036,-0.71365,0.012155,0.0072555
0.956,-0.2,0.71378,1.0276,0.70036,-0.71365,0.012155,0.0072555
0.957,-0.2,0.71347,1.0269,0.70036,-0.71365,0.012155,0.0072555
0.958,-0.2,0.71316,1.0263,0.70036,-0.71365,0.012155,0.0072555
0.959,-0.2,0.71284,1.0257,0.70036,-0.71365,0.012155,0.0072555
0.96,-0.2,0.71253,1.0251,0.70036,-0.71365,0.012155,0.0072555
0.961,-0.2,0.71222,1.0244,0.70036,-0.71365,0.012155,0.0072555
0.962,-0.2,0.71191,1.0238,0.70036,-0.71365,0.012155,0.0072555
0.963,-0.2,0.7116,1.0232,0.70036,-0.71365,0.012155,0.0072555
0.964,-0.2,0.71129,1.0226,0.70036,-0.71365,0.012155,0.0072555
0.965,-0.2,0.71097,1.0219,0.70036,-0.71365,0.012155,0.0072555
0.966,-0.2,0.71066,1.0213,0.70036,-0.71365,0.012155,0.0072555
0.967,-0.2,0.71035,1.0207,0.70036,-0.71365,0.012155,0.0072555
0.968,-0.2,0.71004,1.0201,0.70036,-0.71365,0.012155,0.0072555
0.969,-0.2,0.70972,1.0194,0.70036,-0.71365,0.012155,0.0072555
0.97,-0.2,0.70941,1.0188,0.70036,-0.71365,0.012155,0.0072555
0.971,-0.2,0.7091,1.0182,0.70036,-0.71365,0.012155,0.0072555
0.972,-0.2,0.70879,1.0176,0.70036,-0.71365,0.012155,0.0072555
0.973,-0.2,0.70847,1.0169,0.70036,-0.71365,0.012155,0.0072555
0.974,-0.2,0.70816,1.0163,0.70036,-0.71365,0.012155,0.0072555
0.975,-0.2,0.70785,1.0157,0.70036,-0.71365,0.012155,0.0072555
0.976,-0.2,0.70753,1.0151,0.70036,-0.71365,0.012155,0.0072555
0.977,-0.2,0.70722,1.0144,0.70036,-0.71365,0.012155,0.0072555
0.978,-0.2,0.70691,1.0138,0.70036,-0.71365,0.012155,0.0072555
0.979,-0.2,0.70659,1.0132,0.70036,-0.71365,0.012155,0.0072555
0.98,-0.2,0.70628,1.0126,0.70036,-0.71365,0.012155,0.0072555
0.981,-0.2,0.70597,1.0119,0.70036,-0.71365,0.012155,0.0072555
0.982,-0.2,0.70565,1.0113,0.70036,-0.71365,0.012155,0.0072555
0.983,-0.2,0.70534,1.0107,0.70036,-0.71365,0.012155,0.0072555
0.984,-0.2,0.70502,1.01,0.70036,-0.71365,0.012155,0.0072555
0.985,-0.2,0.70471,1.0094,0.70036,-0.71365,0.012155,0.0072555
0.986,-0.2,0.7044,1.0088,0.70036,-0.71365,0.012155,0.0072555
0.987,-0.2,0.70408,1.0082,0.70036,-0.71365,0.012155,0.0072555
0.988,-0.2,0.70377,1.0075,0.70036,-0.71365,0.012155,0.0072555
0.989,-0.2,0.70346,1.0069,0.70036,-0.71365,0.012155,0.0072555
0.99,-0.2,0.70314,1.0063,0.70036,-0.71365,0.012155,0.0072555
0.991,-0.2,0.70283,1.0057,0.70036,-0.71365,0.012155,0.0072555
0.992,-0.2,0.70251,1.005,0.70036,-0.71365,0.012155,0.0072555
0.993,-0.2,0.7022,1.0044,0.70036,-0.71365,0.012155,0.0072555
0.994,-0.2,0.70188,1.0038,0.70036,-0.71365,0.012155,0.0072555
0.995,-0.2,0.70157,1.0031,0.70036,-0.71365,0.012155,0.0072555
0.996,-0.2,0.70126,1.0025,0.70036,-0.71365,0.012155,0.0072555
0.997,-0.2,0.70094,1.0019,0.70036,-0.71365,0.012155,0.0072555
0.998,-0.2,0.70063,1.0013,0.70036,-0.71365,0.012155,0.0072555
0.999,-0.2,0.70031,1.0006,0.70036,-0.71365,0.012155,0.0072555
1,-0.2,0.7,1,0.70036,-0.71365,0.012155,0.0072555
