timestamp,ArmL2_Sho1,ArmL3_Sho2,ArmL4_Sho3,ArmL5_Elb1,ArmL6_Elb2,ArmL7_Wri1,ArmL8_Wri2
0,-0.624055,0.271352,0.521003,1.19646,0.820675,0.0215352,0.122047
0.0150518,-0.624053,0.271352,0.521007,1.19646,0.820672,0.0215234,0.122049
0.0301036,-0.624052,0.271355,0.521035,1.19646,0.820665,0.021487,0.12205
0.0451554,-0.624079,0.271365,0.521066,1.19646,0.820674,0.0215257,0.122022
0.0602072,-0.624091,0.271376,0.521135,1.19646,0.820662,0.0215706,0.121999
0.075259,-0.624101,0.271362,0.521136,1.19647,0.820662,0.0215305,0.122009
0.0903108,-0.624094,0.271355,0.52115,1.19646,0.820666,0.0215712,0.121993
0.105363,-0.624094,0.27136,0.521154,1.19646,0.82067,0.0215712,0.121984
0.120414,-0.624082,0.271352,0.521143,1.19647,0.820662,0.0215818,0.121995
0.135466,-0.62409,0.271352,0.521135,1.19646,0.820662,0.0216046,0.121988
0.150518,-0.624079,0.271375,0.52117,1.19646,0.820662,0.0215601,0.121975
0.16557,-0.624091,0.271376,0.521159,1.19648,0.820662,0.0215592,0.121975
0.180622,-0.624091,0.271376,0.521159,1.19648,0.820662,0.0215592,0.121975
0.195673,-0.624091,0.271376,0.521158,1.19648,0.820662,0.0215592,0.121975
0.210725,-0.624091,0.271376,0.521158,1.19648,0.820662,0.0215592,0.121975
0.225777,-0.624091,0.271376,0.521159,1.19648,0.820662,0.0215592,0.121975
0.240829,-0.624091,0.271376,0.521158,1.19648,0.820662,0.0215592,0.121975
0.255881,-0.624091,0.271376,0.521158,1.19648,0.820662,0.0215592,0.121975
0.270932,-0.624091,0.271376,0.521159,1.19648,0.820662,0.0215592,0.121975
0.285984,-0.624091,0.271376,0.521159,1.19648,0.820662,0.0215592,0.121975
0.301036,-0.624058,0.271402,0.521314,1.19653,0.820669,0.0215592,0.122007
0.316088,-0.624038,0.271438,0.521481,1.19658,0.82066,0.0215801,0.122042
0.331139,-0.624069,0.271456,0.521592,1.1966,0.820659,0.021638,0.122021
0.346191,-0.624058,0.27147,0.521689,1.1966,0.820673,0.0216551,0.122011
0.361243,-0.624078,0.271495,0.521732,1.19661,0.820651,0.0217014,0.122011
0.376295,-0.62409,0.271506,0.521798,1.19664,0.820661,0.0217353,0.121989
0.391347,-0.624091,0.271527,0.521825,1.19669,0.820662,0.021739,0.121977
0.406398,-0.62408,0.271553,0.521873,1.19672,0.820662,0.0218464,0.121996
0.42145,-0.624072,0.271569,0.521897,1.19671,0.820662,0.0218722,0.121999
0.436502,-0.624059,0.271599,0.521933,1.19671,0.820658,0.0219255,0.122007
0.451554,-0.624049,0.271651,0.521985,1.19672,0.820656,0.0220378,0.122023
0.466606,-0.624047,0.271717,0.52202,1.19674,0.820662,0.0221238,0.122046
0.481657,-0.624043,0.271747,0.522033,1.19674,0.820662,0.0221584,0.122059
0.496709,-0.624043,0.271747,0.522033,1.19674,0.820662,0.0221584,0.122059
0.511761,-0.624043,0.271747,0.522033,1.19674,0.820662,0.0221584,0.122059
0.526813,-0.624043,0.271747,0.522033,1.19674,0.820662,0.0221584,0.122059
0.541865,-0.624043,0.271747,0.522033,1.19674,0.820662,0.0221584,0.122059
0.556916,-0.624043,0.271747,0.522033,1.19674,0.820662,0.0221584,0.122059
0.571968,-0.624043,0.271747,0.522033,1.19674,0.820662,0.0221584,0.122059
0.58702,-0.624043,0.271747,0.522033,1.19674,0.820662,0.0221584,0.122059
0.602072,-0.624042,0.271753,0.522041,1.19675,0.820662,0.0221721,0.122059
0.617124,-0.623991,0.2721,0.522541,1.19693,0.820662,0.0230077,0.12208
0.632175,-0.623952,0.272186,0.522702,1.19696,0.820673,0.023335,0.122073
0.647227,-0.623947,0.272236,0.522888,1.19699,0.820665,0.0236039,0.122071
0.662279,-0.623967,0.272301,0.523126,1.19701,0.820662,0.0237918,0.12206
0.677331,-0.623953,0.272374,0.52325,1.19704,0.820662,0.023776,0.122041
0.692383,-0.623967,0.272546,0.52335,1.19707,0.820662,0.0237945,0.122035
0.707434,-0.623971,0.272694,0.523396,1.19708,0.820662,0.0238111,0.122089
0.722486,-0.623964,0.272893,0.523427,1.19711,0.820662,0.023826,0.122122
0.737538,-0.623955,0.2731,0.52346,1.19713,0.820654,0.0238274,0.122147
0.75259,-0.623959,0.273423,0.523566,1.19718,0.820656,0.02383,0.12222
0.767642,-0.623971,0.273629,0.523651,1.19722,0.820675,0.0238482,0.122286
0.782693,-0.623971,0.273629,0.523651,1.19722,0.820675,0.0238482,0.122286
0.797745,-0.623971,0.273629,0.523651,1.19722,0.820675,0.0238482,0.122286
0.812797,-0.623971,0.273629,0.523651,1.19722,0.820675,0.0238482,0.122286
0.827849,-0.623971,0.273629,0.523651,1.19722,0.820675,0.0238482,0.122286
0.8429,-0.623971,0.273629,0.523651,1.19722,0.820675,0.0238482,0.122286
0.857952,-0.623971,0.273629,0.523651,1.19722,0.820675,0.0238482,0.122286
0.873004,-0.623971,0.273629,0.523651,1.19722,0.820675,0.0238482,0.122286
0.888056,-0.623971,0.273629,0.523651,1.19722,0.820675,0.0238482,0.122286
0.903108,-0.623955,0.275003,0.524702,1.19811,0.820667,0.0239373,0.122255
0.918159,-0.623909,0.280125,0.52865,1.2013,0.820639,0.024352,0.122162
0.933211,-0.623917,0.280749,0.529225,1.20144,0.820632,0.0246396,0.122235
0.948263,-0.623872,0.281716,0.530193,1.20204,0.820633,0.0255741,0.122307
0.963315,-0.623804,0.282631,0.531131,1.20287,0.820638,0.0265998,0.122288
0.978367,-0.623675,0.283748,0.532242,1.20422,0.820639,0.0277169,0.122098
0.993418,-0.623517,0.284998,0.533538,1.20565,0.820631,0.0288098,0.121857
1.00847,-0.623339,0.286732,0.535196,1.20693,0.820619,0.0298911,0.121302
1.02352,-0.623254,0.288105,0.536502,1.20768,0.820615,0.0305368,0.12064
1.03857,-0.623255,0.28942,0.537744,1.20812,0.820607,0.0310613,0.119652
1.05363,-0.623399,0.292019,0.540121,1.20857,0.820603,0.0321704,0.117687
1.06868,-0.623432,0.292539,0.540596,1.20864,0.820603,0.0323928,0.117301
1.08373,-0.623432,0.292539,0.540596,1.20864,0.820603,0.0323928,0.117301
1.09878,-0.623432,0.292539,0.540596,1.20864,0.820603,0.0323928,0.117301
1.11383,-0.623432,0.292539,0.540596,1.20864,0.820603,0.0323928,0.117301
1.12888,-0.623432,0.292539,0.540596,1.20864,0.820603,0.0323928,0.117301
1.14394,-0.623432,0.292539,0.540596,1.20864,0.820603,0.0323928,0.117301
1.15899,-0.623432,0.292539,0.540596,1.20864,0.820603,0.0323928,0.117301
1.17404,-0.623432,0.292539,0.540596,1.20864,0.820603,0.0323928,0.117301
1.18909,-0.623432,0.292539,0.540596,1.20864,0.820603,0.0323928,0.117301
1.20414,-0.623471,0.298771,0.546712,1.21151,0.82048,0.036892,0.116423
1.2192,-0.623605,0.315724,0.563284,1.2191,0.820072,0.0491688,0.113697
1.23425,-0.623672,0.317685,0.564961,1.21947,0.819798,0.0507171,0.112527
1.2493,-0.623604,0.320598,0.567245,1.22042,0.819117,0.0541622,0.111182
1.26435,-0.623426,0.32297,0.569143,1.22159,0.818376,0.0577795,0.110671
1.2794,-0.623285,0.324425,0.57036,1.22261,0.817903,0.060155,0.110761
1.29445,-0.623071,0.327329,0.57357,1.22516,0.817345,0.0643741,0.110895
1.30951,-0.623016,0.328761,0.575479,1.22641,0.81709,0.0659792,0.110771
1.32456,-0.623026,0.330689,0.578154,1.22778,0.816754,0.0675418,0.110417
1.33961,-0.623036,0.332686,0.58085,1.22905,0.816415,0.0689731,0.109951
1.35466,-0.623086,0.335664,0.584297,1.23022,0.815898,0.0705945,0.108188
1.36971,-0.623132,0.337408,0.586208,1.23079,0.815581,0.0715325,0.106887
1.38477,-0.623132,0.337408,0.586208,1.23079,0.815581,0.0715325,0.106887
1.39982,-0.623132,0.337408,0.586208,1.23079,0.815581,0.0715325,0.106887
1.41487,-0.623132,0.337408,0.586208,1.23079,0.815581,0.0715325,0.106887
1.42992,-0.623132,0.337408,0.586208,1.23079,0.815581,0.0715325,0.106887
1.44497,-0.623132,0.337408,0.586208,1.23079,0.815581,0.0715325,0.106887
1.46002,-0.623132,0.337408,0.586208,1.23079,0.815581,0.0715325,0.106887
1.47508,-0.623132,0.337408,0.586208,1.23079,0.815581,0.0715325,0.106887
1.49013,-0.623132,0.337408,0.586208,1.23079,0.815581,0.0715325,0.106887
1.50518,-0.622723,0.347992,0.598154,1.23699,0.811591,0.0846156,0.0989797
1.52023,-0.622009,0.359897,0.611347,1.24371,0.807138,0.0981496,0.0895502
1.53528,-0.621673,0.361737,0.613322,1.24444,0.806449,0.0991032,0.0875648
1.55033,-0.62152,0.363321,0.615453,1.24498,0.805871,0.0999637,0.0859423
1.56539,-0.621471,0.364712,0.617477,1.24553,0.805364,0.101053,0.0846704
1.58044,-0.621478,0.366039,0.619525,1.24656,0.804705,0.103329,0.083787
1.59549,-0.621396,0.36732,0.621346,1.24782,0.803994,0.10604,0.0830933
1.61054,-0.621042,0.368758,0.622757,1.24947,0.803199,0.109501,0.0826361
1.62559,-0.620707,0.369948,0.623729,1.25077,0.802515,0.112221,0.0822913
1.64065,-0.620286,0.371185,0.624502,1.25178,0.80185,0.11431,0.0819605
1.6557,-0.619647,0.372802,0.625424,1.25288,0.801063,0.116307,0.0815347
1.67075,-0.619357,0.373432,0.625779,1.2532,0.800781,0.116676,0.081361
1.6858,-0.619357,0.373432,0.625778,1.2532,0.800781,0.116676,0.081361
1.70085,-0.619357,0.373432,0.625778,1.2532,0.800781,0.116676,0.081361
1.7159,-0.619357,0.373432,0.625778,1.2532,0.800781,0.116676,0.081361
1.73096,-0.619357,0.373432,0.625779,1.2532,0.800781,0.116676,0.081361
1.74601,-0.619357,0.373432,0.625778,1.2532,0.800781,0.116676,0.081361
1.76106,-0.619357,0.373432,0.625778,1.2532,0.800781,0.116676,0.081361
1.77611,-0.619357,0.373432,0.625778,1.2532,0.800781,0.116676,0.081361
1.79116,-0.619357,0.373432,0.625779,1.2532,0.800781,0.116676,0.081361
1.80622,-0.616108,0.382422,0.634096,1.25847,0.794114,0.129715,0.0828333
1.82127,-0.614859,0.385486,0.636417,1.25948,0.791756,0.133035,0.0833433
1.83632,-0.614418,0.386424,0.636972,1.25964,0.791062,0.133719,0.0835108
1.85137,-0.614014,0.387254,0.637462,1.25977,0.790444,0.134496,0.0839346
1.86642,-0.613384,0.388926,0.638362,1.26,0.789553,0.13645,0.0855392
1.88147,-0.613182,0.3897,0.638645,1.26016,0.789098,0.137688,0.0869095
1.89653,-0.612972,0.390589,0.638873,1.2604,0.788539,0.139387,0.0888661
1.91158,-0.61269,0.391636,0.639037,1.26074,0.78792,0.141488,0.0913762
1.92663,-0.612566,0.391976,0.639074,1.2609,0.787715,0.14215,0.0921312
1.94168,-0.612142,0.392972,0.639154,1.26139,0.787054,0.143542,0.0940393
1.95673,-0.611248,0.394671,0.639165,1.2619,0.786027,0.145169,0.0970945
1.97179,-0.611028,0.395051,0.639153,1.26196,0.785813,0.145462,0.097767
1.98684,-0.611028,0.395051,0.639153,1.26196,0.785813,0.145462,0.097767
2.00189,-0.611028,0.395051,0.639153,1.26196,0.785813,0.145462,0.097767
2.01694,-0.611028,0.395051,0.639153,1.26196,0.785813,0.145462,0.097767
2.03199,-0.611028,0.395051,0.639153,1.26196,0.785813,0.145462,0.097767
2.04704,-0.611028,0.395051,0.639153,1.26196,0.785813,0.145462,0.097767
2.0621,-0.611028,0.395051,0.639153,1.26196,0.785813,0.145462,0.097767
2.07715,-0.611028,0.395051,0.639153,1.26196,0.785813,0.145462,0.097767
2.0922,-0.611028,0.395051,0.639153,1.26196,0.785813,0.145462,0.097767
2.10725,-0.605073,0.403463,0.638976,1.26455,0.780113,0.155014,0.117259
2.1223,-0.60348,0.405814,0.638876,1.26488,0.778509,0.156824,0.121445
2.13735,-0.603061,0.406748,0.638844,1.26496,0.777945,0.157559,0.12296
2.15241,-0.602775,0.407483,0.638762,1.26505,0.777464,0.158335,0.124162
2.16746,-0.602238,0.409145,0.638642,1.26543,0.776373,0.160139,0.12743
2.18251,-0.601982,0.410019,0.638607,1.2658,0.775886,0.161021,0.129368
2.19756,-0.60167,0.411479,0.638639,1.26643,0.774906,0.162213,0.132779
2.21261,-0.601514,0.412234,0.638649,1.26667,0.774563,0.162539,0.134684
2.22767,-0.601339,0.413318,0.638641,1.2668,0.774245,0.1631,0.137194
2.24272,-0.601189,0.414367,0.638617,1.26683,0.77394,0.163524,0.139561
2.25777,-0.600985,0.416122,0.63855,1.26676,0.773344,0.163647,0.143119
2.27282,-0.600926,0.416646,0.638529,1.26674,0.773158,0.163653,0.144157
2.28787,-0.600926,0.416646,0.63853,1.26674,0.773158,0.163654,0.144157
2.30292,-0.600926,0.416646,0.63853,1.26674,0.773158,0.163653,0.144157
2.31798,-0.600926,0.416646,0.63853,1.26674,0.773158,0.163653,0.144157
2.33303,-0.600926,0.416646,0.63853,1.26674,0.773158,0.163653,0.144157
2.34808,-0.600926,0.416646,0.63853,1.26674,0.773158,0.163653,0.144157
2.36313,-0.600926,0.416646,0.63853,1.26674,0.773158,0.163653,0.144157
2.37818,-0.600926,0.416646,0.63853,1.26674,0.773158,0.163653,0.144157
2.39324,-0.600926,0.416646,0.63853,1.26674,0.773158,0.163653,0.144157
2.40829,-0.600578,0.423141,0.637958,1.26679,0.76914,0.163858,0.158731
2.42334,-0.600241,0.4294,0.637359,1.26684,0.765152,0.164035,0.172783
2.43839,-0.600217,0.42979,0.637237,1.26685,0.7647,0.164011,0.173673
2.45344,-0.600137,0.430788,0.636984,1.26685,0.763627,0.164007,0.176125
2.46849,-0.600011,0.432417,0.636654,1.26681,0.761953,0.164018,0.180924
2.48355,-0.599922,0.433749,0.636447,1.26676,0.760668,0.164017,0.185384
2.4986,-0.599894,0.434523,0.63637,1.26673,0.759985,0.164004,0.187904
2.51365,-0.599859,0.435607,0.636253,1.26668,0.75893,0.164001,0.191144
2.5287,-0.599859,0.435978,0.636217,1.26666,0.758595,0.163966,0.192194
2.54375,-0.599805,0.43706,0.636142,1.26658,0.757562,0.163971,0.195083
2.5588,-0.599732,0.438596,0.636099,1.26642,0.756147,0.163955,0.198692
2.57386,-0.599727,0.438709,0.636097,1.26641,0.756045,0.163953,0.198948
2.58891,-0.599727,0.438709,0.636097,1.26641,0.756045,0.163953,0.198948
2.60396,-0.599727,0.438709,0.636097,1.26641,0.756045,0.163953,0.198948
2.61901,-0.599727,0.438709,0.636097,1.26641,0.756045,0.163953,0.198948
2.63406,-0.599727,0.438709,0.636097,1.26641,0.756045,0.163953,0.198948
2.64912,-0.599727,0.438709,0.636097,1.26641,0.756045,0.163953,0.198948
2.66417,-0.599727,0.438709,0.636097,1.26641,0.756045,0.163953,0.198948
2.67922,-0.599727,0.438709,0.636097,1.26641,0.756045,0.163953,0.198948
2.69427,-0.599727,0.438709,0.636097,1.26641,0.756045,0.163953,0.198948
2.70932,-0.599088,0.449435,0.636011,1.26664,0.748415,0.164037,0.223038
2.72437,-0.599052,0.451225,0.636009,1.26667,0.747039,0.164099,0.226471
2.73943,-0.599039,0.452275,0.636041,1.26671,0.746193,0.164097,0.228259
2.75448,-0.599014,0.453286,0.636073,1.26674,0.745381,0.16412,0.229959
2.76953,-0.598996,0.454677,0.636097,1.2668,0.744158,0.164085,0.232446
2.78458,-0.598975,0.456008,0.636104,1.26687,0.742943,0.164106,0.235114
2.79963,-0.598917,0.457276,0.636076,1.26698,0.741771,0.164096,0.238485
2.81469,-0.598864,0.458453,0.636043,1.26705,0.740696,0.164071,0.24179
2.82974,-0.598839,0.458896,0.63603,1.26706,0.740297,0.164115,0.243023
2.84479,-0.598683,0.460683,0.635952,1.26707,0.738718,0.164111,0.247529
2.85984,-0.59853,0.46239,0.635897,1.26708,0.737192,0.164097,0.251553
2.87489,-0.598505,0.462676,0.635893,1.26709,0.73693,0.164097,0.252169
2.88994,-0.598505,0.462676,0.635893,1.26709,0.73693,0.164097,0.252169
2.905,-0.598505,0.462676,0.635893,1.26709,0.73693,0.164097,0.252169
2.92005,-0.598505,0.462676,0.635893,1.26709,0.73693,0.164097,0.252169
2.9351,-0.598505,0.462676,0.635893,1.26709,0.73693,0.164097,0.252169
2.95015,-0.598505,0.462676,0.635893,1.26709,0.73693,0.164097,0.252169
2.9652,-0.598505,0.462676,0.635893,1.26709,0.73693,0.164097,0.252169
2.98026,-0.598505,0.462676,0.635893,1.26709,0.73693,0.164097,0.252169
2.99531,-0.598505,0.462676,0.635893,1.26709,0.73693,0.164097,0.252169
3.01036,-0.598269,0.47496,0.635869,1.26724,0.728207,0.165368,0.27825
3.02541,-0.59815,0.481507,0.63588,1.26731,0.723648,0.166012,0.292074
3.04046,-0.598153,0.483565,0.635901,1.26734,0.722408,0.166038,0.296008
3.05551,-0.59815,0.48507,0.635912,1.26735,0.721479,0.166073,0.298859
3.07057,-0.598132,0.486952,0.635962,1.26737,0.720207,0.166111,0.302363
3.08562,-0.598122,0.488781,0.636029,1.26741,0.718931,0.166115,0.305826
3.10067,-0.598084,0.490624,0.636056,1.26745,0.717636,0.166133,0.30971
3.11572,-0.598062,0.491805,0.636053,1.26745,0.716808,0.16615,0.312378
3.13077,-0.598062,0.492334,0.636041,1.26744,0.716435,0.166156,0.313714
3.14582,-0.597999,0.494779,0.63593,1.26738,0.71492,0.166167,0.32056
3.16088,-0.597934,0.496442,0.635872,1.26733,0.713904,0.16617,0.325345
3.17593,-0.59793,0.496531,0.635869,1.26733,0.713849,0.16617,0.325607
3.19098,-0.59793,0.496531,0.635869,1.26733,0.713849,0.16617,0.325607
3.20603,-0.59793,0.496531,0.635869,1.26733,0.713849,0.16617,0.325607
3.22108,-0.59793,0.496531,0.635869,1.26733,0.713849,0.16617,0.325607
3.23614,-0.59793,0.496531,0.635869,1.26733,0.713849,0.16617,0.325607
3.25119,-0.59793,0.496531,0.635869,1.26733,0.713849,0.16617,0.325607
3.26624,-0.59793,0.496531,0.635869,1.26733,0.713849,0.16617,0.325607
3.28129,-0.59793,0.496531,0.635869,1.26733,0.713849,0.16617,0.325607
3.29634,-0.59793,0.496531,0.635869,1.26733,0.713849,0.16617,0.325607
3.31139,-0.597838,0.511262,0.636073,1.26742,0.70305,0.16616,0.355017
3.32645,-0.597843,0.515619,0.636078,1.2674,0.699928,0.166169,0.364925
3.3415,-0.597856,0.516752,0.636044,1.26739,0.699189,0.16617,0.367593
3.35655,-0.597839,0.518448,0.636037,1.26739,0.698025,0.166141,0.371611
3.3716,-0.597824,0.51959,0.636056,1.2674,0.697232,0.166134,0.374193
3.38665,-0.597799,0.521622,0.636072,1.2674,0.695902,0.166134,0.378374
3.40171,-0.597775,0.522744,0.636088,1.2674,0.695145,0.166179,0.380699
3.41676,-0.597782,0.52383,0.636115,1.26743,0.69438,0.166156,0.382767
3.43181,-0.597765,0.525176,0.63614,1.26746,0.693502,0.166148,0.38517
3.44686,-0.597633,0.527287,0.636157,1.26749,0.692056,0.166181,0.389301
3.46191,-0.59751,0.528229,0.636181,1.2675,0.691571,0.166218,0.391303
3.47696,-0.59751,0.528229,0.636181,1.2675,0.691571,0.166218,0.391303
3.49202,-0.59751,0.528229,0.636181,1.2675,0.691571,0.166218,0.391303
3.50707,-0.59751,0.528229,0.636181,1.2675,0.691571,0.166218,0.391303
3.52212,-0.59751,0.528229,0.636181,1.2675,0.691571,0.166218,0.391303
3.53717,-0.59751,0.528229,0.636181,1.2675,0.691571,0.166218,0.391303
3.55222,-0.59751,0.528229,0.636181,1.2675,0.691571,0.166218,0.391303
3.56728,-0.59751,0.528229,0.636181,1.2675,0.691571,0.166218,0.391303
3.58233,-0.59751,0.528229,0.636181,1.2675,0.691571,0.166218,0.391303
3.59738,-0.59751,0.528229,0.636181,1.2675,0.691571,0.166218,0.391303
3.61243,-0.596309,0.533757,0.636187,1.26752,0.684918,0.167584,0.404667
3.62748,-0.594539,0.540239,0.636158,1.26757,0.676843,0.169405,0.420324
3.64253,-0.593856,0.541117,0.636102,1.26762,0.675473,0.169913,0.422551
3.65759,-0.592864,0.542039,0.636006,1.26776,0.6741,0.170678,0.425155
3.67264,-0.592028,0.542725,0.635945,1.26793,0.673042,0.17148,0.426979
3.68769,-0.591375,0.543242,0.635919,1.26816,0.672329,0.17216,0.42823
3.70274,-0.59005,0.544182,0.635778,1.26907,0.671,0.173787,0.430296
3.71779,-0.589661,0.54446,0.635722,1.2694,0.670605,0.174261,0.430786
3.73284,-0.589393,0.544654,0.635677,1.26966,0.670329,0.174584,0.431076
3.7479,-0.589125,0.544847,0.635632,1.26992,0.670054,0.174908,0.431366
3.76295,-0.587621,0.54576,0.635343,1.27147,0.668648,0.176357,0.432275
3.778,-0.585078,0.547108,0.634619,1.27374,0.666656,0.178109,0.432604
3.79305,-0.584855,0.547223,0.634551,1.27393,0.666488,0.17825,0.432612
3.8081,-0.584855,0.547223,0.634551,1.27393,0.666488,0.17825,0.432612
3.82316,-0.584855,0.547223,0.634551,1.27393,0.666489,0.17825,0.432612
3.83821,-0.584855,0.547223,0.634551,1.27393,0.666488,0.17825,0.432612
3.85326,-0.584855,0.547223,0.634551,1.27393,0.666488,0.17825,0.432612
3.86831,-0.584855,0.547223,0.634551,1.27393,0.666488,0.17825,0.432612
3.88336,-0.584855,0.547223,0.634551,1.27393,0.666489,0.17825,0.432612
3.89841,-0.579262,0.550272,0.633391,1.28006,0.66497,0.180205,0.432298
3.91347,-0.563139,0.559218,0.629943,1.29769,0.660684,0.18573,0.430939
3.92852,-0.560633,0.561336,0.628879,1.30048,0.660189,0.186275,0.42915
3.94357,-0.558136,0.563505,0.627818,1.30371,0.659511,0.187275,0.428131
3.95862,-0.556657,0.564851,0.627299,1.30593,0.659192,0.188222,0.428273
3.97367,-0.554026,0.567388,0.626716,1.3107,0.659163,0.189523,0.429587
3.98873,-0.552568,0.56877,0.626505,1.31323,0.659229,0.190022,0.430683
4.00378,-0.551181,0.570162,0.626333,1.31527,0.659302,0.190272,0.431918
4.01883,-0.548096,0.573247,0.625942,1.31913,0.659332,0.190417,0.433927
4.03388,-0.54681,0.574511,0.625779,1.32065,0.65931,0.190477,0.434314
4.04893,-0.546021,0.575277,0.625679,1.32155,0.65928,0.190524,0.434314
4.06398,-0.543702,0.578084,0.62525,1.32442,0.659125,0.190664,0.433598
4.07904,-0.542186,0.580094,0.624933,1.32646,0.658938,0.190792,0.432724
4.09409,-0.541892,0.580503,0.624868,1.32688,0.65889,0.190821,0.432504
4.10914,-0.541892,0.580503,0.624868,1.32688,0.658891,0.190821,0.432504
4.12419,-0.541893,0.580503,0.624868,1.32688,0.658891,0.190821,0.432504
4.13924,-0.541893,0.580503,0.624868,1.32688,0.65889,0.190821,0.432504
4.15429,-0.541892,0.580503,0.624868,1.32688,0.65889,0.190821,0.432504
4.16935,-0.541892,0.580503,0.624868,1.32688,0.658891,0.190821,0.432504
4.1844,-0.541893,0.580503,0.624868,1.32688,0.658891,0.190821,0.432504
4.19945,-0.541893,0.580503,0.624868,1.32688,0.65889,0.190821,0.432504
4.2145,-0.531094,0.599406,0.623285,1.34539,0.656235,0.187379,0.439297
4.22955,-0.524457,0.61161,0.622333,1.35684,0.653904,0.185612,0.443264
4.24461,-0.523095,0.615928,0.622128,1.36053,0.650976,0.186264,0.444799
4.25966,-0.522545,0.617824,0.622217,1.3626,0.649504,0.186758,0.445929
4.27471,-0.521963,0.619637,0.622334,1.36456,0.64808,0.187313,0.447614
4.28976,-0.520188,0.623435,0.622374,1.36908,0.645653,0.187893,0.452577
4.30481,-0.519155,0.625318,0.622304,1.37103,0.644957,0.187778,0.455189
4.31987,-0.516792,0.629504,0.62195,1.37433,0.644021,0.186544,0.459491
4.33492,-0.516023,0.630847,0.621851,1.37523,0.643804,0.185948,0.460396
4.34997,-0.515406,0.631922,0.621776,1.37592,0.643649,0.185421,0.460997
4.36502,-0.513623,0.635053,0.621619,1.37779,0.642988,0.183628,0.461601
4.38007,-0.512089,0.63791,0.621585,1.37951,0.64215,0.182196,0.46181
4.39512,-0.511633,0.638817,0.621608,1.38006,0.641813,0.181821,0.461805
4.41018,-0.511633,0.638817,0.621608,1.38006,0.641813,0.181821,0.461805
4.42523,-0.511633,0.638817,0.621608,1.38006,0.641813,0.181821,0.461805
4.44028,-0.511633,0.638817,0.621608,1.38006,0.641813,0.181821,0.461805
4.45533,-0.511633,0.638817,0.621608,1.38006,0.641813,0.181821,0.461805
4.47038,-0.511633,0.638817,0.621608,1.38006,0.641813,0.181821,0.461805
4.48543,-0.511633,0.638817,0.621608,1.38006,0.641813,0.181821,0.461805
4.50049,-0.511633,0.638817,0.621608,1.38006,0.641813,0.181821,0.461805
4.51554,-0.505935,0.647318,0.621467,1.38904,0.635487,0.181871,0.462787
4.53059,-0.489528,0.671738,0.620994,1.41479,0.617442,0.182017,0.465435
4.54564,-0.487036,0.675054,0.620451,1.41816,0.615906,0.182045,0.464555
4.56069,-0.484973,0.677846,0.619917,1.42175,0.614538,0.182329,0.464688
4.57575,-0.482588,0.681085,0.619407,1.42648,0.613105,0.182905,0.465792
4.5908,-0.480492,0.683906,0.619147,1.43079,0.612113,0.183383,0.467521
4.60585,-0.47828,0.686888,0.618988,1.43451,0.611623,0.183317,0.469333
4.6209,-0.476575,0.689217,0.618832,1.4371,0.611357,0.183171,0.470372
4.63595,-0.476019,0.689989,0.618776,1.43787,0.611263,0.183143,0.470475
4.651,-0.475444,0.690783,0.618717,1.43866,0.611163,0.183113,0.470573
4.66606,-0.471715,0.695559,0.618106,1.44316,0.609872,0.182793,0.469525
4.68111,-0.466889,0.701209,0.616749,1.44847,0.607275,0.182813,0.466585
4.69616,-0.463916,0.704559,0.615669,1.45206,0.605125,0.182897,0.465907
4.71121,-0.46198,0.706694,0.614995,1.45484,0.603781,0.18314,0.466731
4.72626,-0.459368,0.70944,0.614284,1.45869,0.602261,0.183487,0.46856
4.74132,-0.457667,0.711187,0.613981,1.46136,0.601565,0.183562,0.470557
4.75637,-0.455119,0.713989,0.613552,1.46514,0.6007,0.183536,0.473912
4.77142,-0.453106,0.716272,0.613104,1.46777,0.600036,0.183501,0.47569
4.78647,-0.451473,0.718127,0.612478,1.46945,0.599413,0.183541,0.476179
4.80152,-0.448154,0.721878,0.610667,1.47203,0.597293,0.183691,0.476126
4.81657,-0.447717,0.722408,0.610359,1.47231,0.596908,0.183687,0.476076
4.83163,-0.444508,0.726322,0.608058,1.47453,0.594049,0.183628,0.475691
4.84668,-0.44215,0.729147,0.606324,1.47652,0.592024,0.183497,0.475639
4.86173,-0.440812,0.730533,0.605518,1.4779,0.591361,0.183463,0.476376
4.87678,-0.438874,0.732346,0.604646,1.48067,0.59122,0.183406,0.478462
4.89183,-0.437222,0.733803,0.604037,1.48335,0.591412,0.183278,0.480914
4.90688,-0.43607,0.734833,0.603667,1.48525,0.591684,0.183142,0.483094
4.92194,-0.435125,0.73566,0.603346,1.48653,0.591878,0.182955,0.484766
4.93699,-0.434257,0.736406,0.603043,1.48758,0.592034,0.182744,0.486224
4.95204,-0.433388,0.737152,0.602739,1.48864,0.59219,0.182533,0.487683
4.96709,-0.432181,0.738323,0.602113,1.48958,0.592222,0.182162,0.489263
4.98214,-0.429677,0.740866,0.600297,1.49094,0.591803,0.180888,0.490938
4.9972,-0.429423,0.741125,0.600109,1.49107,0.591756,0.180755,0.491094
5.01225,-0.429423,0.741125,0.600109,1.49107,0.591756,0.180755,0.491094
5.0273,-0.429423,0.741125,0.600109,1.49107,0.591756,0.180755,0.491094
5.04235,-0.429423,0.741125,0.600109,1.49107,0.591756,0.180755,0.491094
5.0574,-0.429423,0.741125,0.600109,1.49107,0.591756,0.180755,0.491094
5.07245,-0.429423,0.741125,0.600109,1.49107,0.591756,0.180755,0.491094
5.08751,-0.429423,0.741125,0.600109,1.49107,0.591756,0.180755,0.491094
5.10256,-0.424577,0.74875,0.596796,1.49592,0.588897,0.179993,0.500584
5.11761,-0.416518,0.76271,0.591261,1.50392,0.583574,0.178563,0.51652
5.13266,-0.415866,0.765739,0.590653,1.5044,0.581981,0.177979,0.517765
5.14771,-0.415443,0.767932,0.590161,1.50467,0.5804,0.177288,0.518224
5.16277,-0.414756,0.771573,0.589555,1.50527,0.577493,0.176274,0.518978
5.17782,-0.41434,0.773935,0.589321,1.50578,0.575625,0.17556,0.519543
5.19287,-0.41387,0.776805,0.58934,1.50677,0.573847,0.174774,0.520929
5.20792,-0.41344,0.779232,0.589387,1.50784,0.572793,0.174102,0.522795
5.22297,-0.413147,0.780659,0.58933,1.50864,0.572632,0.173627,0.524615
5.23802,-0.412882,0.781891,0.589227,1.50938,0.572637,0.173184,0.526409
5.25308,-0.412618,0.783123,0.589125,1.51011,0.572641,0.172741,0.528203
5.26813,-0.411619,0.787728,0.588625,1.5128,0.572567,0.170897,0.537213
5.28318,-0.411506,0.788246,0.588569,1.5131,0.572558,0.170688,0.538239
5.29823,-0.411507,0.788246,0.588568,1.5131,0.572558,0.170688,0.538239
5.31328,-0.411507,0.788246,0.588568,1.5131,0.572558,0.170688,0.538239
5.32834,-0.411507,0.788246,0.588569,1.5131,0.572558,0.170688,0.538239
5.34339,-0.411507,0.788246,0.588568,1.5131,0.572558,0.170688,0.538239
5.35844,-0.411507,0.788246,0.588568,1.5131,0.572558,0.170688,0.538239
5.37349,-0.411507,0.788246,0.588569,1.5131,0.572558,0.170688,0.538239
5.38854,-0.411506,0.788246,0.588569,1.5131,0.572558,0.170688,0.538239
5.40359,-0.407758,0.813957,0.589037,1.52068,0.553847,0.164383,0.559723
5.41865,-0.406955,0.815512,0.588768,1.52177,0.55376,0.163223,0.563584
5.4337,-0.405863,0.817872,0.588435,1.5228,0.553358,0.161836,0.567802
5.44875,-0.404919,0.820476,0.588196,1.52343,0.552454,0.160585,0.571013
5.4638,-0.404552,0.822098,0.58813,1.52358,0.551231,0.160015,0.571906
5.47885,-0.404179,0.824904,0.588301,1.52383,0.54761,0.15982,0.572521
5.49391,-0.403962,0.827427,0.588594,1.52401,0.543434,0.159904,0.572793
5.50896,-0.403821,0.829086,0.588832,1.52416,0.540006,0.159928,0.57284
5.52401,-0.403418,0.831674,0.589179,1.52453,0.534139,0.159802,0.573507
5.53906,-0.402972,0.833588,0.589405,1.52491,0.530001,0.159685,0.574513
5.55411,-0.402543,0.834742,0.589499,1.52526,0.527873,0.159602,0.575583
5.56916,-0.401792,0.836216,0.589586,1.52583,0.525518,0.15936,0.577474
5.58422,-0.40126,0.837105,0.589611,1.52618,0.52443,0.159243,0.578853
5.59927,-0.40126,0.837105,0.589611,1.52618,0.52443,0.159243,0.578853
5.61432,-0.40126,0.837105,0.589611,1.52618,0.52443,0.159243,0.578853
5.62937,-0.40126,0.837105,0.589611,1.52618,0.52443,0.159243,0.578853
5.64442,-0.40126,0.837105,0.589611,1.52618,0.52443,0.159243,0.578853
5.65947,-0.40126,0.837105,0.589611,1.52618,0.52443,0.159243,0.578853
5.67453,-0.40126,0.837105,0.589611,1.52618,0.52443,0.159243,0.578853
5.68958,-0.40126,0.837105,0.589611,1.52618,0.52443,0.159243,0.578853
5.70463,-0.393078,0.857675,0.589718,1.52962,0.505802,0.164607,0.601403
5.71968,-0.392368,0.859209,0.589881,1.52966,0.503655,0.165725,0.603132
5.73473,-0.391113,0.861137,0.589937,1.52978,0.502254,0.166527,0.60707
5.74979,-0.389265,0.863467,0.589804,1.53012,0.501672,0.167327,0.613341
5.76484,-0.388109,0.864829,0.589625,1.53044,0.501829,0.167746,0.617813
5.77989,-0.386525,0.86706,0.589327,1.53072,0.501772,0.168686,0.624205
5.79494,-0.385642,0.868788,0.58923,1.53068,0.501314,0.169861,0.62794
5.80999,-0.385269,0.869954,0.589209,1.53056,0.500484,0.171131,0.629565
5.82504,-0.385037,0.871196,0.589302,1.53052,0.499125,0.172575,0.63051
5.8401,-0.384847,0.872475,0.589435,1.5305,0.497589,0.174079,0.631252
5.85515,-0.384648,0.873882,0.58962,1.53049,0.495722,0.175717,0.631898
5.8702,-0.384214,0.876301,0.590082,1.53054,0.491759,0.178161,0.63221
5.88525,-0.383668,0.878629,0.59051,1.53062,0.487951,0.180203,0.632432
5.9003,-0.383668,0.878629,0.59051,1.53062,0.487951,0.180203,0.632432
5.91536,-0.383668,0.878629,0.59051,1.53062,0.487951,0.180203,0.632432
5.93041,-0.383668,0.878629,0.59051,1.53062,0.487951,0.180203,0.632432
5.94546,-0.383668,0.878629,0.59051,1.53062,0.487951,0.180203,0.632432
5.96051,-0.383668,0.878629,0.59051,1.53062,0.487951,0.180203,0.632432
5.97556,-0.383668,0.878629,0.59051,1.53062,0.487951,0.180203,0.632432
5.99061,-0.383668,0.878629,0.59051,1.53062,0.487951,0.180203,0.632432
6.00567,-0.37603,0.894385,0.590572,1.53122,0.475982,0.189264,0.654901
6.02072,-0.372752,0.901376,0.590883,1.53154,0.469056,0.194087,0.66293
6.03577,-0.370687,0.905093,0.59134,1.53174,0.462676,0.196928,0.664098
6.05082,-0.369251,0.906837,0.591401,1.53188,0.460084,0.197712,0.665365
6.06587,-0.367147,0.908847,0.591226,1.53218,0.458146,0.198075,0.668474
6.08092,-0.364532,0.911137,0.590773,1.53265,0.457079,0.198406,0.673551
6.09598,-0.363162,0.912268,0.590495,1.53307,0.457253,0.198726,0.676905
6.11103,-0.362216,0.913137,0.590347,1.5334,0.457359,0.199224,0.679617
6.12608,-0.361505,0.913935,0.590194,1.53366,0.457198,0.199881,0.681882
6.14113,-0.360794,0.914732,0.590041,1.53392,0.457037,0.200538,0.684146
6.15618,-0.35986,0.916102,0.589711,1.53429,0.45641,0.201834,0.687013
6.17124,-0.35846,0.918954,0.589009,1.53475,0.454027,0.204865,0.690469
6.18629,-0.357555,0.921256,0.588569,1.53485,0.451184,0.207455,0.691561
6.20134,-0.357555,0.921256,0.588568,1.53485,0.451184,0.207455,0.691561
6.21639,-0.357555,0.921256,0.588568,1.53485,0.451184,0.207455,0.691561
6.23144,-0.357555,0.921256,0.588569,1.53485,0.451184,0.207455,0.691561
6.24649,-0.357555,0.921256,0.588568,1.53485,0.451184,0.207455,0.691561
6.26155,-0.357555,0.921256,0.588568,1.53485,0.451184,0.207455,0.691561
6.2766,-0.357555,0.921256,0.588569,1.53485,0.451184,0.207455,0.691561
6.29165,-0.357555,0.921256,0.588569,1.53485,0.451184,0.207455,0.691561
6.3067,-0.351713,0.92883,0.587317,1.53638,0.444735,0.212283,0.699731
6.32175,-0.337833,0.947042,0.58415,1.53995,0.428921,0.224177,0.719112
6.33681,-0.336674,0.949173,0.583234,1.54003,0.425759,0.226425,0.720076
6.35186,-0.334632,0.952347,0.582094,1.5402,0.420926,0.229104,0.721104
6.36691,-0.332717,0.954715,0.581716,1.54047,0.417876,0.229792,0.722114
6.38196,-0.32956,0.958097,0.581354,1.54104,0.414429,0.230044,0.72417
6.39701,-0.32773,0.959872,0.581163,1.54138,0.413529,0.229973,0.726065
6.41206,-0.325504,0.961954,0.580711,1.5418,0.413378,0.22988,0.729644
6.42712,-0.323173,0.964104,0.580079,1.54231,0.413599,0.229821,0.734271
6.44217,-0.322462,0.964742,0.579812,1.54251,0.413678,0.229857,0.736094
6.45722,-0.321143,0.966125,0.5789,1.54282,0.413481,0.230212,0.73999
6.47227,-0.319607,0.968014,0.57738,1.54312,0.412804,0.23103,0.744968
6.48732,-0.319122,0.968809,0.57662,1.54317,0.412284,0.231579,0.746747
6.50237,-0.319122,0.968809,0.57662,1.54317,0.412284,0.231579,0.746747
6.51743,-0.319122,0.968809,0.57662,1.54317,0.412284,0.231579,0.746747
6.53248,-0.319122,0.968809,0.57662,1.54317,0.412284,0.231579,0.746747
6.54753,-0.319122,0.968809,0.57662,1.54317,0.412284,0.231579,0.746747
6.56258,-0.319122,0.968809,0.57662,1.54317,0.412284,0.231579,0.746747
6.57763,-0.319122,0.968809,0.57662,1.54317,0.412284,0.231579,0.746747
6.59269,-0.319122,0.968809,0.57662,1.54317,0.412284,0.231579,0.746747
6.60774,-0.302948,0.98705,0.566515,1.54416,0.398501,0.231882,0.775168
6.62279,-0.30046,0.990147,0.563797,1.5442,0.395812,0.233084,0.780719
6.63784,-0.298816,0.992882,0.559916,1.54417,0.391671,0.235233,0.78395
6.65289,-0.297071,0.994859,0.557824,1.54416,0.388402,0.23581,0.785739
6.66794,-0.294649,0.997211,0.556104,1.5442,0.384521,0.235832,0.788104
6.683,-0.293124,0.998387,0.555619,1.5442,0.38287,0.235577,0.789788
6.69805,-0.290533,0.999972,0.554984,1.54426,0.381208,0.234781,0.793219
6.7131,-0.287078,1.00209,0.554068,1.54435,0.379944,0.233005,0.798683
6.72815,-0.286504,1.00241,0.553823,1.54433,0.379962,0.23255,0.799834
6.7432,-0.285931,1.00273,0.553578,1.54432,0.379979,0.232095,0.800986
6.75826,-0.285357,1.00305,0.553333,1.54431,0.379997,0.23164,0.802137
6.77331,-0.279925,1.0058,0.548205,1.54385,0.379769,0.23015,0.81358
6.78836,-0.278856,1.00634,0.547188,1.54377,0.379723,0.229865,0.815835
6.80341,-0.278856,1.00634,0.547188,1.54376,0.379723,0.229865,0.815835
6.81846,-0.278856,1.00634,0.547188,1.54376,0.379723,0.229865,0.815835
6.83351,-0.278856,1.00634,0.547188,1.54376,0.379723,0.229865,0.815835
6.84857,-0.278856,1.00634,0.547188,1.54376,0.379723,0.229865,0.815835
6.86362,-0.278856,1.00634,0.547188,1.54376,0.379723,0.229865,0.815835
6.87867,-0.278856,1.00634,0.547188,1.54376,0.379723,0.229865,0.815835
6.89372,-0.278856,1.00634,0.547188,1.54376,0.379723,0.229865,0.815835
6.90877,-0.256313,1.01513,0.522452,1.54337,0.371661,0.22099,0.847963
6.92383,-0.250799,1.01718,0.514697,1.5432,0.369869,0.219207,0.856162
6.93888,-0.248239,1.01822,0.50919,1.5432,0.368501,0.218656,0.859119
6.95393,-0.246484,1.01891,0.50597,1.54318,0.367156,0.218094,0.860379
6.96898,-0.242652,1.02032,0.500759,1.54318,0.364821,0.215931,0.862659
6.98403,-0.240441,1.02098,0.498721,1.54316,0.364382,0.2135,0.864411
6.99908,-0.238096,1.02162,0.496962,1.54324,0.364322,0.210588,0.866915
7.01414,-0.234487,1.02241,0.494349,1.54335,0.36511,0.205793,0.871923
7.02919,-0.23098,1.02308,0.491534,1.5434,0.366443,0.2012,0.877594
7.04424,-0.229476,1.02334,0.489994,1.54334,0.367224,0.199226,0.880494
7.05929,-0.228598,1.02347,0.488863,1.54325,0.36773,0.197966,0.882429
7.07434,-0.225486,1.02405,0.482824,1.54307,0.368435,0.19502,0.888347
7.08939,-0.222254,1.02481,0.474433,1.54297,0.367974,0.192801,0.893366
7.10445,-0.220552,1.02537,0.470079,1.54293,0.366949,0.192048,0.894959
7.1195,-0.216986,1.02669,0.464781,1.543,0.365634,0.189844,0.897052
7.13455,-0.214516,1.02754,0.462377,1.54314,0.365669,0.187437,0.899036
7.1496,-0.212158,1.0283,0.460488,1.54331,0.36599,0.184886,0.901435
7.16465,-0.209668,1.02912,0.458619,1.54343,0.36669,0.181729,0.904734
7.17971,-0.205396,1.03054,0.455211,1.54349,0.368778,0.175723,0.911598
7.19476,-0.202159,1.03169,0.45145,1.54358,0.370711,0.171755,0.917779
7.20981,-0.200468,1.03234,0.449158,1.54361,0.371754,0.169669,0.921366
7.22486,-0.197662,1.03385,0.443664,1.54378,0.37196,0.168141,0.926026
7.23991,-0.196018,1.03487,0.439262,1.54382,0.371519,0.167764,0.92819
7.25496,-0.193083,1.03678,0.432891,1.54398,0.369742,0.167073,0.929809
7.27002,-0.190982,1.03797,0.429954,1.54405,0.368689,0.166445,0.930816
7.28507,-0.188885,1.03907,0.427766,1.54412,0.368122,0.165405,0.932174
7.30012,-0.185055,1.04073,0.424904,1.54434,0.368168,0.162098,0.936041
7.31517,-0.182057,1.0419,0.422827,1.54457,0.368616,0.15869,0.939984
7.33022,-0.181147,1.04222,0.422153,1.54462,0.368993,0.157623,0.941532
7.34528,-0.18039,1.04249,0.421579,1.54464,0.369357,0.156762,0.942877
7.36033,-0.178333,1.04318,0.419519,1.5447,0.370509,0.154619,0.946823
7.37538,-0.174319,1.04452,0.415148,1.5448,0.372868,0.150579,0.954729
7.39043,-0.174319,1.04452,0.415148,1.5448,0.372868,0.150579,0.954729
7.40548,-0.174319,1.04452,0.415148,1.5448,0.372868,0.150579,0.954729
7.42053,-0.174319,1.04452,0.415148,1.5448,0.372868,0.150579,0.954729
7.43559,-0.174319,1.04452,0.415148,1.5448,0.372868,0.150579,0.954729
7.45064,-0.174319,1.04452,0.415148,1.5448,0.372868,0.150579,0.954729
7.46569,-0.174319,1.04452,0.415148,1.5448,0.372868,0.150579,0.954729
7.48074,-0.174319,1.04452,0.415148,1.5448,0.372868,0.150579,0.954729
7.49579,-0.174319,1.04452,0.415148,1.5448,0.372868,0.150579,0.954729
7.51085,-0.159657,1.05268,0.396185,1.54429,0.372859,0.137852,0.974742
7.5259,-0.154332,1.0557,0.388591,1.54397,0.373065,0.13341,0.982665
7.54095,-0.153516,1.05626,0.386178,1.54382,0.372752,0.133304,0.98392
7.556,-0.152758,1.05696,0.382608,1.54357,0.37174,0.133145,0.98471
7.57105,-0.151811,1.05782,0.378864,1.54325,0.370273,0.132659,0.985227
7.5861,-0.151087,1.05826,0.377471,1.54296,0.369612,0.132228,0.985645
7.60116,-0.149631,1.05889,0.376204,1.54244,0.369364,0.130781,0.987054
7.61621,-0.14844,1.05931,0.375483,1.54208,0.369466,0.129385,0.988434
7.63126,-0.148048,1.0594,0.375324,1.54204,0.36961,0.128831,0.989049
7.64631,-0.147656,1.0595,0.375166,1.54199,0.369753,0.128276,0.989664
7.66136,-0.14657,1.05969,0.374732,1.54193,0.370577,0.126482,0.99202
7.67641,-0.144748,1.05994,0.373692,1.54177,0.372451,0.123418,0.996973
7.69147,-0.14382,1.06003,0.372808,1.5416,0.373743,0.121925,1.00029
7.70652,-0.14382,1.06003,0.372808,1.5416,0.373743,0.121925,1.00029
7.72157,-0.14382,1.06003,0.372808,1.5416,0.373743,0.121925,1.00029
7.73662,-0.14382,1.06003,0.372808,1.5416,0.373743,0.121925,1.00029
7.75167,-0.14382,1.06003,0.372808,1.5416,0.373743,0.121925,1.00029
7.76673,-0.14382,1.06003,0.372808,1.5416,0.373743,0.121925,1.00029
7.78178,-0.14382,1.06003,0.372808,1.5416,0.373743,0.121925,1.00029
7.79683,-0.14382,1.06003,0.372808,1.5416,0.373743,0.121925,1.00029
7.81188,-0.132695,1.06108,0.355775,1.5365,0.37401,0.110592,1.01887
7.82693,-0.13129,1.06115,0.353254,1.53604,0.375166,0.109992,1.02405
7.84198,-0.13087,1.06124,0.351666,1.53586,0.375011,0.110005,1.0258
7.85704,-0.130479,1.06132,0.349541,1.53567,0.374366,0.110122,1.02692
7.87209,-0.129692,1.06155,0.345607,1.53522,0.372825,0.110008,1.02787
7.88714,-0.128538,1.06162,0.343085,1.53464,0.371741,0.109627,1.02824
7.90219,-0.126945,1.06167,0.340824,1.53382,0.37105,0.108998,1.02883
7.91724,-0.126131,1.06167,0.340215,1.53341,0.371107,0.108505,1.0293
7.9323,-0.12575,1.06165,0.340017,1.53322,0.371197,0.108187,1.02955
7.94735,-0.125369,1.06164,0.339819,1.53304,0.371287,0.107869,1.0298
7.9624,-0.124243,1.06163,0.339308,1.53266,0.371872,0.106918,1.03105
7.97745,-0.120907,1.06164,0.337875,1.53169,0.373959,0.104081,1.0353
7.9925,-0.120906,1.06164,0.337875,1.53169,0.373959,0.104081,1.0353
8.00756,-0.120907,1.06164,0.337875,1.53169,0.373959,0.104081,1.0353
8.02261,-0.120907,1.06164,0.337875,1.53169,0.373959,0.104081,1.0353
8.03766,-0.120907,1.06164,0.337875,1.53169,0.373959,0.104081,1.0353
8.05271,-0.120907,1.06164,0.337875,1.53169,0.373959,0.104081,1.0353
8.06776,-0.120907,1.06164,0.337875,1.53169,0.373959,0.104081,1.0353
8.08281,-0.120907,1.06164,0.337875,1.53169,0.373959,0.104081,1.0353
8.09787,-0.1113,1.06168,0.326076,1.52966,0.374869,0.10226,1.04661
8.11292,-0.100576,1.06169,0.313436,1.52756,0.376604,0.10013,1.05962
8.12797,-0.0987091,1.06168,0.311867,1.52745,0.37786,0.099824,1.06259
8.14302,-0.095921,1.06179,0.307892,1.52715,0.379103,0.100014,1.06633
8.15807,-0.0946436,1.06181,0.305001,1.52703,0.37888,0.100727,1.06719
8.17312,-0.0933661,1.06178,0.301395,1.52697,0.37815,0.101551,1.06749
8.18818,-0.0916571,1.0618,0.297099,1.52681,0.377068,0.102437,1.06773
8.20323,-0.0903571,1.0618,0.295038,1.52671,0.376578,0.102448,1.06811
8.21828,-0.088978,1.0618,0.293606,1.52667,0.376511,0.102317,1.06879
8.23333,-0.0871981,1.06179,0.292286,1.52666,0.376734,0.102121,1.06993
8.24838,-0.0839946,1.06175,0.290293,1.52667,0.377958,0.101417,1.07309
8.26344,-0.08119,1.06171,0.288595,1.52664,0.379654,0.100497,1.07633
8.27849,-0.0807722,1.06171,0.288333,1.52663,0.379963,0.10033,1.07683
8.29354,-0.0807721,1.06171,0.288333,1.52663,0.379963,0.10033,1.07683
8.30859,-0.0807722,1.06171,0.288333,1.52663,0.379963,0.10033,1.07683
8.32364,-0.0807721,1.06171,0.288333,1.52663,0.379963,0.10033,1.07683
8.33869,-0.0807721,1.06171,0.288333,1.52663,0.379963,0.10033,1.07683
8.35375,-0.0807721,1.06171,0.288333,1.52663,0.379963,0.10033,1.07683
8.3688,-0.0807722,1.06171,0.288333,1.52663,0.379963,0.10033,1.07683
8.38385,-0.0807722,1.06171,0.288333,1.52663,0.379963,0.10033,1.07683
8.3989,-0.0676311,1.0617,0.273007,1.52703,0.38162,0.0999827,1.08319
8.41395,-0.0573511,1.06174,0.262062,1.52744,0.383791,0.0993935,1.08922
8.429,-0.0550836,1.06177,0.260625,1.52761,0.385378,0.0991478,1.0915
8.44406,-0.051989,1.06172,0.257252,1.52768,0.387372,0.0990321,1.09377
8.45911,-0.050838,1.06172,0.255439,1.52764,0.387557,0.0990458,1.094
8.47416,-0.0501349,1.06174,0.254126,1.52762,0.387438,0.0991898,1.09402
8.48921,-0.0489025,1.06174,0.250876,1.52769,0.386412,0.0994521,1.09353
8.50426,-0.047108,1.0617,0.246695,1.52778,0.384349,0.0999416,1.09232
8.51932,-0.0463091,1.06167,0.245139,1.52782,0.383475,0.100036,1.09192
8.53437,-0.0458773,1.06165,0.244447,1.52784,0.383088,0.0999804,1.09186
8.54942,-0.0440274,1.06167,0.243093,1.52792,0.382796,0.0996882,1.09261
8.56447,-0.0410317,1.06171,0.241847,1.52816,0.383476,0.0987571,1.09463
8.57952,-0.0401823,1.06172,0.241561,1.52825,0.383762,0.0984486,1.09527
8.59457,-0.0401824,1.06172,0.241562,1.52825,0.383762,0.0984486,1.09527
8.60963,-0.0401824,1.06172,0.241561,1.52825,0.383762,0.0984486,1.09527
8.62468,-0.0401823,1.06172,0.241561,1.52825,0.383762,0.0984486,1.09527
8.63973,-0.0401824,1.06172,0.241562,1.52825,0.383762,0.0984486,1.09527
8.65478,-0.0401823,1.06172,0.241561,1.52825,0.383762,0.0984486,1.09527
8.66983,-0.0401822,1.06172,0.241562,1.52825,0.383762,0.0984486,1.09527
8.68489,-0.0401824,1.06172,0.241561,1.52825,0.383762,0.0984486,1.09527
8.69994,-0.0401823,1.06172,0.241561,1.52825,0.383762,0.0984486,1.09527
8.71499,-0.0243856,1.06162,0.224414,1.53002,0.38496,0.0951111,1.10077
8.73004,-0.0201818,1.06165,0.220981,1.5305,0.38629,0.093821,1.10353
8.74509,-0.0169556,1.06165,0.21916,1.53124,0.389165,0.0929533,1.10733
8.76014,-0.0156398,1.06166,0.217736,1.53159,0.390403,0.0928316,1.10867
8.7752,-0.0148818,1.06168,0.21659,1.53173,0.391051,0.09285,1.10921
8.79025,-0.0134568,1.06165,0.213309,1.53192,0.391248,0.0930482,1.1094
8.8053,-0.0127751,1.06166,0.210839,1.53199,0.390833,0.093249,1.10918
8.82035,-0.0122809,1.06166,0.20928,1.53202,0.390259,0.0933335,1.10868
8.8354,-0.0117833,1.06167,0.20786,1.53204,0.389681,0.0933942,1.10814
8.85046,-0.0112856,1.06167,0.20644,1.53207,0.389102,0.0934549,1.1076
8.86551,-0.00663751,1.06165,0.201643,1.53237,0.387314,0.0920335,1.10629
8.88056,-0.00786636,1.06168,0.202006,1.53231,0.387071,0.092687,1.10576
8.89561,-0.0078854,1.06168,0.202014,1.53231,0.38707,0.0926962,1.10575
8.91066,-0.00788554,1.06168,0.202014,1.53231,0.387069,0.0926962,1.10575
8.92571,-0.00788545,1.06168,0.202014,1.53231,0.38707,0.0926962,1.10575
8.94077,-0.00788541,1.06168,0.202014,1.53231,0.38707,0.0926962,1.10575
8.95582,-0.0078855,1.06169,0.202014,1.53231,0.38707,0.0926962,1.10575
8.97087,-0.0078855,1.06168,0.202014,1.53231,0.38707,0.0926962,1.10575
8.98592,-0.00788555,1.06168,0.202014,1.53231,0.387069,0.0926962,1.10575
9.00097,0.0015951,1.06168,0.191952,1.53346,0.386844,0.0905662,1.10895
9.01602,0.0129723,1.06169,0.180291,1.53478,0.386492,0.0879767,1.11266
9.03108,0.0160177,1.06165,0.179077,1.53498,0.386784,0.0868659,1.11363
9.04613,0.0186271,1.06162,0.178173,1.53512,0.387528,0.0857691,1.11504
9.06118,0.020691,1.06163,0.177474,1.53517,0.38852,0.0850956,1.11679
9.07623,0.0237629,1.0616,0.175662,1.53521,0.390273,0.0845737,1.12005
9.09128,0.0253903,1.06161,0.174007,1.53524,0.391043,0.0844369,1.12173
9.10634,0.0273722,1.06168,0.17037,1.53526,0.390762,0.0846882,1.12236
9.12139,0.0277804,1.06166,0.169334,1.53528,0.390514,0.0848277,1.12238
9.13644,0.0280301,1.06164,0.168577,1.5353,0.390284,0.0849505,1.12235
9.15149,0.0282798,1.06162,0.16782,1.53533,0.390054,0.0850734,1.12233
9.16654,0.0298818,1.06166,0.163118,1.53538,0.388244,0.0854365,1.12156
9.18159,0.0320811,1.06167,0.159723,1.53542,0.386554,0.0852662,1.121
9.19665,0.0320812,1.06167,0.159723,1.53542,0.386554,0.0852662,1.121
9.2117,0.0320812,1.06167,0.159723,1.53542,0.386554,0.0852662,1.121
9.22675,0.0320811,1.06167,0.159723,1.53542,0.386554,0.0852662,1.121
9.2418,0.0320812,1.06167,0.159723,1.53542,0.386554,0.0852662,1.121
9.25685,0.0320812,1.06167,0.159723,1.53542,0.386554,0.0852662,1.121
9.2719,0.0320812,1.06167,0.159723,1.53542,0.386554,0.0852662,1.121
9.28696,0.0320811,1.06167,0.159723,1.53542,0.386554,0.0852662,1.121
9.30201,0.0329726,1.06168,0.158689,1.53542,0.386709,0.0851708,1.12142
9.31706,0.0516725,1.06172,0.137099,1.53538,0.38988,0.083159,1.1303
9.33211,0.0531402,1.06172,0.136137,1.53539,0.389746,0.0828879,1.13079
9.34716,0.0554809,1.06165,0.135154,1.53544,0.390139,0.0822869,1.13249
9.36222,0.0583459,1.06159,0.13411,1.53546,0.391148,0.081453,1.13518
9.37727,0.0603408,1.06159,0.133257,1.53542,0.392347,0.0809275,1.13719
9.39232,0.0628091,1.06161,0.131297,1.5353,0.393985,0.080938,1.13957
9.40737,0.0646282,1.06165,0.129063,1.53521,0.394839,0.0811156,1.14083
9.42242,0.0651778,1.06166,0.128073,1.53521,0.394847,0.0811988,1.1409
9.43748,0.0655289,1.06166,0.127361,1.53521,0.394784,0.08127,1.14089
9.45253,0.0659888,1.06166,0.126298,1.53522,0.394603,0.081361,1.14082
9.46758,0.0677591,1.06166,0.121412,1.53533,0.392876,0.081602,1.13992
9.48263,0.0690399,1.06168,0.118797,1.53536,0.391371,0.0815751,1.13885
9.49768,0.0690399,1.06168,0.118797,1.53536,0.391372,0.0815751,1.13885
9.51273,0.0690398,1.06168,0.118797,1.53536,0.391372,0.0815751,1.13885
9.52779,0.0690398,1.06168,0.118797,1.53536,0.391372,0.0815751,1.13885
9.54284,0.0690398,1.06168,0.118797,1.53536,0.391372,0.0815751,1.13885
9.55789,0.0690399,1.06168,0.118798,1.53536,0.391372,0.0815751,1.13885
9.57294,0.0690398,1.06168,0.118797,1.53536,0.391372,0.0815751,1.13885
9.58799,0.0690398,1.06168,0.118797,1.53536,0.391371,0.0815751,1.13885
9.60304,0.0701148,1.06168,0.117635,1.53536,0.391383,0.0815377,1.13926
9.6181,0.0856274,1.06167,0.100862,1.53534,0.391513,0.0809954,1.14507
9.63315,0.0869343,1.06166,0.0995849,1.53536,0.39041,0.0808104,1.14495
9.6482,0.0894222,1.06159,0.0984635,1.5354,0.389852,0.0803268,1.14606
9.66325,0.0910835,1.06153,0.0980879,1.53543,0.390171,0.0800472,1.14743
9.6783,0.0925579,1.06154,0.0977111,1.53539,0.39086,0.079578,1.1492
9.69336,0.0945005,1.06159,0.0970328,1.53526,0.392092,0.0792181,1.15158
9.70841,0.0963821,1.06164,0.0960756,1.53515,0.393216,0.0791537,1.15358
9.72346,0.0972432,1.06167,0.0951046,1.53512,0.393445,0.0792119,1.15396
9.73851,0.0978775,1.06172,0.0940309,1.53508,0.39342,0.0793068,1.15391
9.75356,0.0985165,1.06175,0.0928882,1.53505,0.393347,0.0794187,1.15383
9.76861,0.0993439,1.06169,0.0905255,1.53509,0.392397,0.0796942,1.15325
9.78367,0.100354,1.06164,0.0874951,1.53512,0.390701,0.0797895,1.15206
9.79872,0.100354,1.06164,0.0874952,1.53512,0.390701,0.0797895,1.15206
9.81377,0.100354,1.06164,0.0874952,1.53512,0.390701,0.0797895,1.15206
9.82882,0.100354,1.06164,0.0874952,1.53512,0.390701,0.0797895,1.15206
9.84387,0.100354,1.06164,0.0874952,1.53512,0.390701,0.0797895,1.15206
9.85892,0.100354,1.06164,0.0874951,1.53512,0.390701,0.0797895,1.15206
9.87398,0.100354,1.06164,0.0874952,1.53512,0.390701,0.0797895,1.15206
9.88903,0.100354,1.06164,0.0874952,1.53512,0.390701,0.0797895,1.15206
9.90408,0.107564,1.06165,0.0808516,1.53519,0.389854,0.0795936,1.15499
9.91913,0.117562,1.0616,0.0704359,1.53529,0.387425,0.0791399,1.15785
9.93418,0.119146,1.06152,0.0674363,1.53533,0.385347,0.0788674,1.15668
9.94923,0.120677,1.06152,0.0660086,1.53535,0.384355,0.0785785,1.15637
9.96429,0.124204,1.06149,0.0646111,1.53545,0.383896,0.0776567,1.15718
9.97934,0.12638,1.06152,0.0640453,1.5355,0.384211,0.0767338,1.15852
9.99439,0.128256,1.06154,0.0634569,1.53545,0.384942,0.0760288,1.16022
10.0094,0.130291,1.06157,0.0624098,1.53534,0.38612,0.0753437,1.16223
10.0245,0.132588,1.06159,0.0606427,1.53523,0.387493,0.074988,1.1644
10.0395,0.133061,1.06162,0.0600513,1.53518,0.387683,0.0749983,1.1647
10.0546,0.133622,1.06165,0.0592638,1.53513,0.387848,0.075024,1.16497
10.0696,0.13525,1.0617,0.0559536,1.5351,0.387623,0.0752456,1.1649
10.0847,0.135755,1.06166,0.0541078,1.53512,0.387129,0.0753314,1.16459
10.0998,0.135755,1.06166,0.0541077,1.53512,0.387129,0.0753314,1.16459
10.1148,0.135755,1.06166,0.0541078,1.53512,0.387129,0.0753314,1.16459
10.1299,0.135755,1.06166,0.0541077,1.53512,0.387129,0.0753314,1.16459
10.1449,0.135755,1.06166,0.0541077,1.53512,0.387129,0.0753314,1.16459
10.16,0.135755,1.06166,0.0541078,1.53512,0.387129,0.0753314,1.16459
10.175,0.135755,1.06166,0.0541077,1.53512,0.387129,0.0753314,1.16459
10.1901,0.135755,1.06166,0.0541078,1.53512,0.387129,0.0753314,1.16459
10.2051,0.152114,1.06166,0.0367098,1.53492,0.388189,0.0726719,1.17163
10.2202,0.15483,1.06162,0.032591,1.53494,0.387848,0.0722928,1.17237
10.2352,0.156218,1.06154,0.0284974,1.53494,0.386076,0.0720078,1.17128
10.2503,0.157329,1.06147,0.0261166,1.53492,0.384802,0.0717975,1.17048
10.2653,0.160399,1.06143,0.0233655,1.53492,0.383219,0.0711395,1.17036
10.2804,0.162348,1.06143,0.0225535,1.53497,0.383183,0.0703143,1.17097
10.2954,0.164466,1.06145,0.0217854,1.53502,0.383545,0.0692661,1.17206
10.3105,0.168039,1.06147,0.0203984,1.53494,0.384784,0.0673094,1.17481
10.3255,0.169626,1.06149,0.019598,1.53488,0.385643,0.0666818,1.17628
10.3406,0.170654,1.06149,0.0188923,1.5348,0.386366,0.0664522,1.17725
10.3556,0.172978,1.06161,0.015865,1.53469,0.387304,0.0658347,1.17827
10.3707,0.174116,1.06162,0.0136737,1.53466,0.387177,0.0657442,1.17811
10.3857,0.174116,1.06162,0.0136738,1.53466,0.387177,0.0657442,1.17811
10.4008,0.174116,1.06162,0.0136737,1.53466,0.387177,0.0657442,1.17811
10.4158,0.174116,1.06162,0.0136738,1.53466,0.387177,0.0657442,1.17811
10.4309,0.174115,1.06162,0.0136738,1.53466,0.387177,0.0657442,1.17811
10.4459,0.174116,1.06162,0.0136737,1.53466,0.387177,0.0657442,1.17811
10.461,0.174116,1.06162,0.0136737,1.53466,0.387177,0.0657442,1.17811
10.476,0.174115,1.06162,0.0136737,1.53466,0.387177,0.0657442,1.17811
10.4911,0.174116,1.06162,0.0136737,1.53466,0.387177,0.0657442,1.17811
10.5062,0.174116,1.06162,0.0136738,1.53466,0.387177,0.0657442,1.17811
10.5212,0.179117,1.06158,0.00684394,1.53461,0.387932,0.0645703,1.17968
10.5363,0.194544,1.06145,-0.0146569,1.53441,0.389982,0.0609537,1.1842
10.5513,0.195494,1.06142,-0.0171154,1.53424,0.389143,0.0607819,1.18345
10.5664,0.197434,1.06139,-0.0198179,1.53392,0.388076,0.0604769,1.18314
10.5814,0.1996,1.06136,-0.0217362,1.53354,0.387524,0.0600548,1.18364
10.5965,0.201321,1.06131,-0.0226086,1.53331,0.387574,0.0594166,1.18467
10.6115,0.204387,1.06128,-0.0239053,1.5332,0.388225,0.0578951,1.18729
10.6266,0.205891,1.06128,-0.0245971,1.53313,0.388736,0.0571472,1.18881
10.6416,0.206709,1.06129,-0.0250261,1.53306,0.389142,0.0567525,1.18979
10.6567,0.208063,1.06127,-0.0259762,1.53289,0.389956,0.0563465,1.19154
10.6717,0.210622,1.06128,-0.0290409,1.53265,0.391294,0.0557294,1.19403
10.6868,0.211038,1.06128,-0.0295764,1.53261,0.391504,0.0556297,1.19441
10.7018,0.211038,1.06128,-0.0295766,1.53261,0.391504,0.0556297,1.19441
10.7169,0.211038,1.06128,-0.0295765,1.53261,0.391504,0.0556297,1.19441
10.7319,0.211038,1.06128,-0.0295766,1.53261,0.391504,0.0556297,1.19441
10.747,0.211038,1.06128,-0.0295765,1.53261,0.391504,0.0556297,1.19441
10.762,0.211038,1.06128,-0.0295765,1.53261,0.391504,0.0556297,1.19441
10.7771,0.211038,1.06128,-0.0295766,1.53261,0.391504,0.0556297,1.19441
10.7921,0.211038,1.06128,-0.0295765,1.53261,0.391504,0.0556297,1.19441
10.8072,0.2138,1.06115,-0.0326297,1.53208,0.391204,0.0552731,1.19547
10.8222,0.232754,1.06027,-0.0538213,1.52847,0.388962,0.0529186,1.20274
10.8373,0.234236,1.06026,-0.0566693,1.52816,0.387416,0.0531131,1.20295
10.8523,0.236253,1.06025,-0.0602276,1.52752,0.384699,0.0531619,1.20261
10.8674,0.237759,1.06018,-0.0621595,1.52696,0.382849,0.0530998,1.20209
10.8824,0.239449,1.06006,-0.0638184,1.52634,0.381399,0.0530425,1.2017
10.8975,0.24253,1.05974,-0.0659644,1.5253,0.380428,0.0530462,1.2023
10.9126,0.244868,1.05948,-0.0673588,1.52465,0.380285,0.0530453,1.20326
10.9276,0.246447,1.05929,-0.0681719,1.52427,0.380667,0.0530563,1.20436
10.9427,0.247899,1.05911,-0.0688932,1.52392,0.381167,0.0530799,1.20552
10.9577,0.249704,1.05887,-0.069988,1.5235,0.381795,0.0531351,1.20725
10.9728,0.253761,1.05823,-0.0736177,1.52259,0.383247,0.0534127,1.21289
10.9878,0.253761,1.05823,-0.0736178,1.52259,0.383247,0.0534127,1.21289
11.0029,0.253761,1.05823,-0.0736177,1.52259,0.383247,0.0534127,1.21289
11.0179,0.253761,1.05823,-0.0736177,1.52259,0.383247,0.0534127,1.21289
11.033,0.253761,1.05823,-0.0736177,1.52259,0.383247,0.0534127,1.21289
11.048,0.253761,1.05823,-0.0736176,1.52259,0.383247,0.0534127,1.21289
11.0631,0.253761,1.05823,-0.0736177,1.52259,0.383247,0.0534127,1.21289
11.0781,0.253761,1.05823,-0.0736177,1.52259,0.383247,0.0534127,1.21289
11.0932,0.253761,1.05823,-0.0736177,1.52259,0.383247,0.0534127,1.21289
11.1082,0.254719,1.05814,-0.0746058,1.52231,0.383059,0.0535048,1.21326
11.1233,0.274822,1.05609,-0.0953393,1.51643,0.379123,0.055439,1.22109
11.1383,0.277321,1.05609,-0.0990372,1.51608,0.378659,0.0560119,1.223
11.1534,0.27849,1.05606,-0.101497,1.5157,0.377707,0.0565063,1.22301
11.1684,0.279923,1.05598,-0.104691,1.51485,0.375912,0.0571265,1.2226
11.1835,0.281845,1.05579,-0.108434,1.51358,0.373629,0.0573691,1.22186
11.1985,0.283168,1.05563,-0.110223,1.51275,0.372555,0.0573098,1.22153
11.2136,0.285818,1.05529,-0.112131,1.51109,0.371814,0.0572699,1.22225
11.2286,0.287177,1.0551,-0.112861,1.5103,0.371708,0.0572463,1.22291
11.2437,0.287831,1.05501,-0.113124,1.50998,0.371774,0.0572287,1.22335
11.2587,0.28851,1.05491,-0.113398,1.50965,0.37185,0.0572119,1.22381
11.2738,0.290131,1.05469,-0.114063,1.50898,0.372317,0.0572236,1.22503
11.2888,0.293124,1.05424,-0.115553,1.50793,0.373945,0.057407,1.22898
11.3039,0.293261,1.05422,-0.115622,1.50788,0.374019,0.0574153,1.22916
11.3189,0.29326,1.05422,-0.115622,1.50788,0.374019,0.0574153,1.22916
11.334,0.293261,1.05422,-0.115622,1.50788,0.374019,0.0574153,1.22916
11.3491,0.29326,1.05422,-0.115622,1.50788,0.374019,0.0574153,1.22916
11.3641,0.29326,1.05422,-0.115622,1.50788,0.374019,0.0574153,1.22916
11.3792,0.293261,1.05422,-0.115622,1.50788,0.374019,0.0574153,1.22916
11.3942,0.29326,1.05422,-0.115622,1.50788,0.374019,0.0574153,1.22916
11.4093,0.308301,1.05164,-0.136981,1.49758,0.370126,0.0583975,1.24208
11.4243,0.310231,1.05159,-0.13803,1.49716,0.371517,0.058385,1.24461
11.4394,0.312641,1.05161,-0.140432,1.49676,0.373312,0.0584297,1.24829
11.4544,0.313792,1.05161,-0.14247,1.4966,0.373618,0.0584699,1.24961
11.4695,0.314762,1.05157,-0.144979,1.49642,0.373469,0.0586963,1.2501
11.4845,0.316367,1.05149,-0.149414,1.49578,0.372302,0.0587017,1.2499
11.4996,0.317508,1.05137,-0.152248,1.49525,0.371332,0.0586344,1.24959
11.5146,0.319634,1.05116,-0.155323,1.49408,0.370035,0.0584532,1.24853
11.5297,0.320939,1.05103,-0.156839,1.49336,0.369482,0.058318,1.24791
11.5447,0.321548,1.05095,-0.157353,1.49303,0.369417,0.058233,1.24767
11.5598,0.322854,1.05081,-0.158198,1.49244,0.369505,0.0578356,1.24757
11.5748,0.32572,1.05057,-0.159726,1.49132,0.370077,0.0567665,1.24791
11.5899,0.326983,1.0505,-0.160322,1.49089,0.370627,0.0564326,1.24833
11.6049,0.326983,1.0505,-0.160322,1.49089,0.370627,0.0564327,1.24833
11.62,0.326983,1.0505,-0.160322,1.49089,0.370627,0.0564327,1.24833
11.635,0.326983,1.0505,-0.160322,1.49089,0.370627,0.0564327,1.24833
11.6501,0.326983,1.0505,-0.160322,1.49089,0.370627,0.0564327,1.24833
11.6651,0.326983,1.0505,-0.160322,1.49089,0.370627,0.0564327,1.24833
11.6802,0.326983,1.0505,-0.160322,1.49089,0.370627,0.0564327,1.24833
11.6952,0.33013,1.0503,-0.164247,1.48974,0.370135,0.0560263,1.24985
11.7103,0.34373,1.04934,-0.180871,1.48475,0.368227,0.0542611,1.25632
11.7253,0.345344,1.04892,-0.181606,1.48407,0.369009,0.054081,1.2568
11.7404,0.347496,1.04815,-0.18304,1.48332,0.370651,0.0540328,1.25861
11.7555,0.349114,1.04749,-0.184611,1.48289,0.371677,0.0540337,1.26073
11.7705,0.350196,1.04693,-0.186303,1.48269,0.371731,0.0541165,1.26262
11.7856,0.351575,1.04598,-0.190215,1.48215,0.370424,0.0545378,1.26424
11.8006,0.352321,1.04551,-0.192259,1.48163,0.369071,0.0546542,1.26411
11.8157,0.352971,1.04509,-0.193658,1.48118,0.367936,0.0547669,1.26386
11.8307,0.353251,1.04488,-0.194189,1.48098,0.36743,0.0547669,1.26371
11.8458,0.35353,1.04467,-0.19472,1.48079,0.366924,0.0547669,1.26355
11.8608,0.354799,1.04393,-0.195945,1.47998,0.365914,0.05482,1.26305
11.8759,0.358693,1.04179,-0.198922,1.47753,0.363665,0.0550185,1.26165
11.8909,0.358693,1.04179,-0.198922,1.47753,0.363665,0.0550185,1.26165
11.906,0.358693,1.04179,-0.198922,1.47753,0.363665,0.0550185,1.26165
11.921,0.358693,1.04179,-0.198922,1.47753,0.363665,0.0550185,1.26165
11.9361,0.358693,1.04179,-0.198922,1.47753,0.363665,0.0550185,1.26165
11.9511,0.358693,1.04179,-0.198922,1.47753,0.363665,0.0550185,1.26165
11.9662,0.358693,1.04179,-0.198922,1.47753,0.363665,0.0550185,1.26165
11.9812,0.358693,1.04179,-0.198922,1.47753,0.363665,0.0550185,1.26165
11.9963,0.360517,1.04017,-0.201591,1.47649,0.363168,0.0557729,1.26266
12.0113,0.369989,1.0318,-0.215141,1.47101,0.360738,0.0595809,1.2679
12.0264,0.371488,1.03106,-0.215457,1.46967,0.361618,0.059615,1.26899
12.0414,0.372966,1.03036,-0.215862,1.46834,0.363061,0.0597323,1.27082
12.0565,0.373655,1.02998,-0.216332,1.46761,0.364071,0.0598262,1.27281
12.0715,0.37447,1.02946,-0.217643,1.4665,0.364816,0.060076,1.27622
12.0866,0.374884,1.02913,-0.219175,1.46562,0.364639,0.0606457,1.2783
12.1016,0.375011,1.02897,-0.220497,1.46504,0.364109,0.0613212,1.27888
12.1167,0.375606,1.02875,-0.223538,1.46376,0.361864,0.0620294,1.27892
12.1317,0.375912,1.02865,-0.224673,1.46328,0.36092,0.0622395,1.27878
12.1468,0.376124,1.02859,-0.225301,1.46301,0.36036,0.062348,1.27863
12.1618,0.376613,1.02844,-0.226318,1.46247,0.359415,0.062513,1.27832
12.1769,0.378142,1.02797,-0.228519,1.46097,0.357339,0.062837,1.2776
12.192,0.378814,1.02776,-0.228966,1.46038,0.357037,0.06288,1.27764
12.207,0.378814,1.02776,-0.228966,1.46038,0.357037,0.06288,1.27764
12.2221,0.378814,1.02776,-0.228966,1.46038,0.357037,0.06288,1.27764
12.2371,0.378814,1.02776,-0.228966,1.46038,0.357037,0.06288,1.27764
12.2522,0.378814,1.02776,-0.228966,1.46038,0.357037,0.06288,1.27764
12.2672,0.378814,1.02776,-0.228966,1.46038,0.357037,0.06288,1.27764
12.2823,0.378814,1.02776,-0.228966,1.46038,0.357037,0.06288,1.27764
12.2973,0.378814,1.02776,-0.228966,1.46038,0.357037,0.06288,1.27764
12.3124,0.389833,1.02564,-0.243853,1.45391,0.356498,0.0630013,1.28261
12.3274,0.393364,1.02483,-0.246803,1.4512,0.356945,0.0631383,1.28237
12.3425,0.39493,1.02454,-0.247383,1.45008,0.357963,0.0630953,1.28288
12.3575,0.396396,1.02433,-0.247897,1.44912,0.359354,0.0631894,1.28361
12.3726,0.398219,1.02419,-0.249075,1.44794,0.361581,0.0632995,1.28581
12.3876,0.399431,1.02411,-0.250591,1.44716,0.363,0.0633193,1.2885
12.4027,0.400062,1.02406,-0.252147,1.44659,0.363149,0.0633937,1.29093
12.4177,0.400399,1.02397,-0.253758,1.4461,0.362732,0.0633489,1.2928
12.4328,0.400661,1.02389,-0.255284,1.4455,0.362091,0.0633474,1.29372
12.4478,0.400921,1.02381,-0.256808,1.4449,0.361444,0.0633474,1.2946
12.4629,0.401283,1.02364,-0.258695,1.44407,0.360342,0.0632882,1.29519
12.4779,0.402285,1.0231,-0.262136,1.44216,0.3581,0.0632834,1.29544
12.493,0.402471,1.023,-0.262737,1.44182,0.357709,0.0632875,1.29547
12.508,0.402471,1.023,-0.262737,1.44182,0.357709,0.0632875,1.29547
12.5231,0.402471,1.023,-0.262737,1.44182,0.357709,0.0632875,1.29547
12.5381,0.402471,1.023,-0.262737,1.44182,0.357709,0.0632875,1.29547
12.5532,0.402471,1.023,-0.262737,1.44182,0.357709,0.0632875,1.29547
12.5682,0.402471,1.023,-0.262737,1.44182,0.357709,0.0632875,1.29547
12.5833,0.402471,1.023,-0.262737,1.44182,0.357709,0.0632875,1.29547
12.5984,0.403854,1.02196,-0.266066,1.43916,0.358556,0.0632475,1.29842
12.6134,0.410083,1.01729,-0.281264,1.42688,0.36195,0.0630426,1.31143
12.6285,0.410834,1.01688,-0.28364,1.42399,0.360981,0.0629374,1.3115
12.6435,0.411759,1.01643,-0.285637,1.42088,0.360678,0.0628167,1.31161
12.6586,0.412447,1.01612,-0.286359,1.41917,0.361082,0.062765,1.31195
12.6736,0.413447,1.01566,-0.287147,1.41699,0.362773,0.0627294,1.31344
12.6887,0.414238,1.01527,-0.287806,1.41547,0.364659,0.0626849,1.31531
12.7037,0.414811,1.01493,-0.289115,1.41376,0.366833,0.062696,1.31943
12.7188,0.414852,1.01474,-0.2905,1.41273,0.36749,0.0626193,1.32249
12.7338,0.414855,1.01471,-0.291014,1.41237,0.367428,0.0626164,1.32333
12.7489,0.41486,1.01469,-0.291503,1.41202,0.367355,0.0626164,1.32411
12.7639,0.414978,1.0146,-0.293186,1.41088,0.366614,0.0625556,1.32558
12.779,0.415181,1.0145,-0.295309,1.40938,0.365365,0.0624852,1.32686
12.794,0.415282,1.01447,-0.296101,1.40875,0.364743,0.0624726,1.3271
12.8091,0.415282,1.01447,-0.296101,1.40875,0.364743,0.0624726,1.3271
12.8241,0.415282,1.01447,-0.296101,1.40875,0.364743,0.0624726,1.3271
12.8392,0.415282,1.01447,-0.296101,1.40875,0.364743,0.0624726,1.3271
12.8542,0.415282,1.01447,-0.296101,1.40875,0.364743,0.0624726,1.3271
12.8693,0.415282,1.01447,-0.296101,1.40875,0.364743,0.0624726,1.3271
12.8843,0.415282,1.01447,-0.296101,1.40875,0.364743,0.0624726,1.3271
12.8994,0.415602,1.01424,-0.297211,1.40741,0.364982,0.0623283,1.32837
12.9144,0.419413,1.01151,-0.310611,1.39108,0.367283,0.0606481,1.34332
12.9295,0.419763,1.0113,-0.312454,1.38795,0.365495,0.0605841,1.34383
12.9445,0.4199,1.01117,-0.313211,1.38599,0.364956,0.0604339,1.34397
12.9596,0.42001,1.01106,-0.313803,1.3835,0.36515,0.0600305,1.34417
12.9746,0.420106,1.01095,-0.314201,1.38084,0.365865,0.0594439,1.34464
12.9897,0.420101,1.01088,-0.314391,1.37897,0.366609,0.0591724,1.34586
13.0047,0.420052,1.0108,-0.314665,1.3771,0.367178,0.0590289,1.34804
13.0198,0.420075,1.01078,-0.314855,1.37639,0.367009,0.0590182,1.3496
13.0349,0.420075,1.01078,-0.315116,1.37576,0.366539,0.0590052,1.35127
13.0499,0.420075,1.01078,-0.315377,1.37513,0.366069,0.0589921,1.35293
13.065,0.420344,1.01067,-0.316454,1.37346,0.363314,0.0589425,1.35677
13.08,0.420602,1.01056,-0.31736,1.37217,0.360896,0.0589014,1.35962
13.0951,0.420602,1.01056,-0.31736,1.37217,0.360896,0.0589014,1.35962
13.1101,0.420603,1.01056,-0.31736,1.37217,0.360896,0.0589014,1.35962
13.1252,0.420602,1.01056,-0.31736,1.37217,0.360896,0.0589014,1.35962
13.1402,0.420602,1.01056,-0.31736,1.37217,0.360896,0.0589014,1.35962
13.1553,0.420602,1.01056,-0.31736,1.37217,0.360896,0.0589014,1.35962
13.1703,0.420602,1.01056,-0.31736,1.37217,0.360896,0.0589014,1.35962
13.1854,0.420603,1.01056,-0.31736,1.37217,0.360896,0.0589014,1.35962
13.2004,0.420602,1.01056,-0.31736,1.37217,0.360896,0.0589014,1.35962
13.2155,0.422134,1.00692,-0.324862,1.36063,0.359455,0.0589014,1.36636
13.2305,0.423163,1.00492,-0.329338,1.35449,0.357612,0.0589323,1.36938
13.2456,0.423724,1.00408,-0.330974,1.35196,0.356138,0.0590086,1.36842
13.2606,0.423986,1.00353,-0.331471,1.35039,0.356176,0.0589943,1.36761
13.2757,0.424306,1.00289,-0.331827,1.34878,0.356701,0.0590113,1.36716
13.2907,0.424501,1.00193,-0.332217,1.34676,0.358177,0.0590242,1.3675
13.3058,0.424498,1.00106,-0.332614,1.34513,0.359658,0.0590811,1.36846
13.3208,0.424432,1.00069,-0.332821,1.34455,0.360202,0.0590899,1.36937
13.3359,0.42438,1.00046,-0.333001,1.34421,0.360414,0.0591156,1.37021
13.3509,0.424278,0.999968,-0.333693,1.34358,0.360273,0.0591479,1.37276
13.366,0.424443,0.99932,-0.33516,1.34263,0.358513,0.0592117,1.37705
13.381,0.424569,0.999152,-0.33566,1.34234,0.357685,0.0592369,1.37834
13.3961,0.424569,0.999152,-0.33566,1.34234,0.357685,0.0592369,1.37834
13.4111,0.424569,0.999152,-0.33566,1.34234,0.357685,0.0592369,1.37834
13.4262,0.424569,0.999152,-0.33566,1.34234,0.357685,0.0592369,1.37834
13.4413,0.424569,0.999152,-0.33566,1.34234,0.357685,0.0592369,1.37834
13.4563,0.424569,0.999152,-0.33566,1.34234,0.357685,0.0592369,1.37834
13.4714,0.424569,0.999152,-0.33566,1.34234,0.357685,0.0592369,1.37834
13.4864,0.424569,0.999152,-0.33566,1.34234,0.357685,0.0592369,1.37834
13.5015,0.424569,0.999152,-0.33566,1.34234,0.357685,0.0592369,1.37834
13.5165,0.426689,0.994654,-0.342367,1.33493,0.35784,0.059274,1.38197
13.5316,0.427865,0.991595,-0.348229,1.32922,0.35641,0.0592121,1.38497
13.5466,0.428048,0.991368,-0.349691,1.32827,0.354714,0.0591544,1.38501
13.5617,0.428393,0.991146,-0.350606,1.32741,0.353464,0.0592131,1.38444
13.5767,0.429009,0.990459,-0.351713,1.3256,0.352083,0.0592995,1.38254
13.5918,0.429217,0.989973,-0.35198,1.32484,0.352138,0.059255,1.38171
13.6068,0.429383,0.989337,-0.352149,1.32414,0.352738,0.0592704,1.38137
13.6219,0.429502,0.988333,-0.352433,1.32338,0.354142,0.0592609,1.38177
13.6369,0.429449,0.988072,-0.352529,1.32324,0.354627,0.0592609,1.38204
13.652,0.429396,0.987811,-0.352625,1.32309,0.355111,0.0592609,1.38231
13.667,0.429209,0.987244,-0.352875,1.32291,0.356017,0.0592609,1.38333
13.6821,0.428979,0.986102,-0.353636,1.32276,0.356534,0.0593088,1.38626
13.6971,0.428979,0.986101,-0.353636,1.32276,0.356534,0.0593088,1.38626
13.7122,0.428979,0.986101,-0.353636,1.32276,0.356534,0.0593088,1.38626
13.7272,0.428979,0.986101,-0.353636,1.32276,0.356534,0.0593088,1.38626
13.7423,0.428979,0.986102,-0.353636,1.32276,0.356534,0.0593088,1.38626
13.7573,0.428979,0.986101,-0.353636,1.32276,0.356534,0.0593088,1.38626
13.7724,0.428979,0.986102,-0.353636,1.32276,0.356534,0.0593088,1.38626
13.7874,0.428979,0.986102,-0.353636,1.32276,0.356534,0.0593088,1.38626
13.8025,0.428979,0.986101,-0.353636,1.32276,0.356534,0.0593088,1.38626
13.8175,0.429829,0.981967,-0.356978,1.32142,0.3566,0.0592761,1.3874
13.8326,0.431416,0.973711,-0.363952,1.31879,0.356745,0.0592192,1.38986
13.8477,0.431305,0.972994,-0.365877,1.31869,0.356064,0.0591568,1.38974
13.8627,0.431387,0.972576,-0.367302,1.31865,0.355097,0.0591077,1.38891
13.8778,0.431692,0.972231,-0.368157,1.31874,0.354446,0.0591405,1.38753
13.8928,0.432041,0.971851,-0.368735,1.31881,0.354282,0.0591117,1.38557
13.9079,0.432443,0.971499,-0.369057,1.31892,0.354775,0.0592023,1.38322
13.9229,0.432537,0.971382,-0.369124,1.31895,0.355096,0.0592272,1.38271
13.938,0.432589,0.971298,-0.369156,1.31896,0.355394,0.0592433,1.38244
13.953,0.432642,0.971213,-0.369188,1.31898,0.355693,0.0592594,1.38217
13.9681,0.432474,0.970674,-0.369494,1.31897,0.358656,0.0592007,1.38219
13.9831,0.432071,0.97033,-0.369838,1.31873,0.360968,0.059177,1.38374
13.9982,0.432071,0.97033,-0.369838,1.31873,0.360968,0.059177,1.38374
14.0132,0.432071,0.970331,-0.369838,1.31873,0.360968,0.059177,1.38374
14.0283,0.432071,0.970331,-0.369838,1.31873,0.360968,0.059177,1.38374
14.0433,0.432071,0.970331,-0.369838,1.31873,0.360968,0.059177,1.38374
14.0584,0.432071,0.970331,-0.369838,1.31873,0.360969,0.059177,1.38374
14.0734,0.432071,0.97033,-0.369838,1.31873,0.360968,0.059177,1.38374
14.0885,0.432071,0.970331,-0.369838,1.31873,0.360968,0.059177,1.38374
14.1035,0.432977,0.970131,-0.371058,1.31845,0.360868,0.0591722,1.38283
14.1186,0.434308,0.969913,-0.373009,1.31785,0.360934,0.0591364,1.38282
14.1336,0.434264,0.970015,-0.373239,1.31755,0.361001,0.0590973,1.38498
14.1487,0.434383,0.96995,-0.37352,1.31745,0.360531,0.059113,1.38602
14.1637,0.434567,0.969814,-0.374218,1.31734,0.359642,0.0591357,1.38594
14.1788,0.434648,0.969743,-0.37471,1.31723,0.35905,0.059096,1.38545
14.1938,0.434791,0.96958,-0.375571,1.31711,0.35884,0.0591317,1.38325
14.2089,0.434838,0.969585,-0.376035,1.31707,0.359069,0.0591074,1.38172
14.2239,0.434847,0.969603,-0.376127,1.31707,0.359229,0.0591166,1.38135
14.239,0.434855,0.96962,-0.376201,1.31708,0.35938,0.0591289,1.38105
14.254,0.434863,0.969636,-0.376275,1.31709,0.359541,0.0591408,1.38075
14.2691,0.434864,0.969659,-0.3764,1.31712,0.360824,0.0591181,1.38057
14.2842,0.434796,0.969693,-0.376506,1.3171,0.361972,0.0590946,1.38092
14.2992,0.434791,0.969695,-0.376513,1.3171,0.362047,0.0590931,1.38094
14.3143,0.434792,0.969695,-0.376513,1.3171,0.362047,0.0590931,1.38094
14.3293,0.434792,0.969695,-0.376513,1.3171,0.362047,0.0590931,1.38094
14.3444,0.434792,0.969695,-0.376513,1.3171,0.362047,0.0590931,1.38094
14.3594,0.434792,0.969695,-0.376513,1.3171,0.362047,0.0590931,1.38094
14.3745,0.434791,0.969695,-0.376513,1.3171,0.362047,0.0590931,1.38094
14.3895,0.434792,0.969695,-0.376513,1.3171,0.362047,0.0590931,1.38094
14.4046,0.435006,0.969684,-0.376852,1.31702,0.362339,0.059063,1.38075
14.4196,0.438573,0.969512,-0.382386,1.31568,0.367132,0.0585681,1.37775
14.4347,0.439254,0.969569,-0.382809,1.31553,0.367501,0.0585095,1.37876
14.4497,0.440212,0.969634,-0.383716,1.31524,0.366868,0.0584427,1.38057
14.4648,0.441261,0.969601,-0.384918,1.3149,0.365396,0.0582986,1.38195
14.4798,0.442015,0.969476,-0.385906,1.31471,0.36386,0.0580552,1.38188
14.4949,0.443472,0.969253,-0.387839,1.31432,0.361327,0.0570445,1.38053
14.5099,0.444406,0.969046,-0.388781,1.31413,0.36056,0.0567421,1.37908
14.525,0.444828,0.968977,-0.38912,1.31406,0.360488,0.05669,1.37832
14.54,0.445197,0.968923,-0.389401,1.314,0.360473,0.056656,1.37764
14.5551,0.446293,0.968807,-0.390008,1.31371,0.360784,0.0565965,1.37594
14.5701,0.447868,0.968655,-0.390694,1.31333,0.361346,0.0565959,1.37412
14.5852,0.448261,0.968617,-0.390822,1.31326,0.361483,0.0566244,1.37387
14.6002,0.448261,0.968617,-0.390822,1.31326,0.361483,0.0566244,1.37387
14.6153,0.448262,0.968617,-0.390822,1.31326,0.361483,0.0566244,1.37387
14.6303,0.448261,0.968617,-0.390822,1.31326,0.361483,0.0566244,1.37387
14.6454,0.448262,0.968617,-0.390822,1.31326,0.361483,0.0566244,1.37387
14.6604,0.448262,0.968617,-0.390822,1.31326,0.361483,0.0566244,1.37387
14.6755,0.448262,0.968617,-0.390822,1.31326,0.361483,0.0566244,1.37387
14.6906,0.448261,0.968617,-0.390822,1.31326,0.361483,0.0566244,1.37387
14.7056,0.453796,0.967873,-0.395039,1.31269,0.359438,0.0561209,1.3711
14.7207,0.465933,0.966217,-0.40443,1.31142,0.355508,0.0550904,1.36558
14.7357,0.467656,0.965951,-0.406294,1.31122,0.355765,0.0550846,1.36593
14.7508,0.468475,0.965881,-0.407649,1.31117,0.355173,0.0550439,1.36611
14.7658,0.46981,0.965766,-0.409905,1.31095,0.353229,0.0549793,1.366
14.7809,0.470934,0.965645,-0.411795,1.31065,0.351182,0.0548594,1.36552
14.7959,0.47273,0.965312,-0.413711,1.31031,0.349231,0.0546675,1.36358
14.811,0.474041,0.965043,-0.414756,1.31007,0.348683,0.0546465,1.36187
14.826,0.474426,0.964968,-0.415019,1.30999,0.348722,0.0545939,1.36132
14.8411,0.474779,0.9649,-0.415257,1.30992,0.348773,0.0545386,1.36083
14.8561,0.475414,0.964755,-0.415642,1.30975,0.349014,0.0544647,1.36005
14.8712,0.477671,0.964143,-0.416953,1.3091,0.35041,0.0543114,1.35788
14.8862,0.479132,0.963703,-0.418002,1.30873,0.351441,0.0542755,1.35692
14.9013,0.479132,0.963703,-0.418002,1.30873,0.351441,0.0542755,1.35692
14.9163,0.479132,0.963703,-0.418002,1.30873,0.351441,0.0542755,1.35692
14.9314,0.479132,0.963703,-0.418002,1.30873,0.351441,0.0542755,1.35692
14.9464,0.479132,0.963703,-0.418002,1.30873,0.351441,0.0542755,1.35692
14.9615,0.479132,0.963703,-0.418002,1.30873,0.351441,0.0542755,1.35692
14.9765,0.479132,0.963703,-0.418002,1.30873,0.351441,0.0542755,1.35692
14.9916,0.479132,0.963703,-0.418002,1.30873,0.351441,0.0542755,1.35692
15.0066,0.480688,0.963172,-0.419698,1.30809,0.351015,0.0540449,1.3561
15.0217,0.492574,0.959145,-0.432722,1.30318,0.347667,0.0522982,1.34978
15.0367,0.493071,0.959111,-0.433749,1.30294,0.346943,0.0522733,1.34954
15.0518,0.493663,0.95903,-0.435426,1.30285,0.345273,0.0521837,1.3492
15.0668,0.494373,0.958895,-0.43734,1.30266,0.343036,0.0520884,1.34872
15.0819,0.495184,0.958667,-0.438875,1.30246,0.341595,0.0520052,1.34791
15.0969,0.496475,0.958293,-0.440585,1.30218,0.340457,0.0518943,1.34665
15.112,0.497848,0.957951,-0.441542,1.30172,0.340644,0.0516556,1.34562
15.1271,0.499496,0.957627,-0.442418,1.30115,0.341401,0.0514199,1.34459
15.1421,0.500407,0.957476,-0.442816,1.30088,0.342239,0.051284,1.34416
15.1572,0.501958,0.957295,-0.443838,1.30055,0.344289,0.0511766,1.34358
15.1722,0.502885,0.957196,-0.444714,1.30038,0.345689,0.0511837,1.34323
15.1873,0.502885,0.957196,-0.444714,1.30038,0.345689,0.0511837,1.34323
15.2023,0.502885,0.957196,-0.444714,1.30038,0.345689,0.0511837,1.34323
15.2174,0.502885,0.957196,-0.444714,1.30038,0.345689,0.0511837,1.34323
15.2324,0.502885,0.957196,-0.444714,1.30038,0.345689,0.0511837,1.34323
15.2475,0.502885,0.957196,-0.444714,1.30038,0.345689,0.0511837,1.34323
15.2625,0.502885,0.957196,-0.444714,1.30038,0.345689,0.0511837,1.34323
15.2776,0.502885,0.957196,-0.444714,1.30038,0.345689,0.0511837,1.34323
15.2926,0.502885,0.957196,-0.444714,1.30038,0.345689,0.0511837,1.34323
15.3077,0.51063,0.954923,-0.455592,1.29781,0.346352,0.0507252,1.33571
15.3227,0.513088,0.954277,-0.458997,1.29717,0.346631,0.0506204,1.33386
15.3378,0.514241,0.954206,-0.461597,1.29707,0.34595,0.0504702,1.33319
15.3528,0.514898,0.954141,-0.462885,1.29704,0.3452,0.0504442,1.3326
15.3679,0.516216,0.953976,-0.464918,1.29689,0.343407,0.0502386,1.33091
15.3829,0.517394,0.953811,-0.466362,1.29664,0.341984,0.0499586,1.3293
15.398,0.519202,0.953467,-0.467411,1.29606,0.341368,0.0494654,1.3275
15.413,0.520481,0.953252,-0.467843,1.29547,0.341569,0.0492473,1.32655
15.4281,0.521554,0.953193,-0.468083,1.29482,0.342121,0.0491808,1.32635
15.4431,0.522636,0.95316,-0.468378,1.2941,0.342712,0.049132,1.32618
15.4582,0.52356,0.953176,-0.468864,1.29322,0.343174,0.0491247,1.32582
15.4732,0.523773,0.953205,-0.469174,1.29287,0.34298,0.0491344,1.32566
15.4883,0.523773,0.953205,-0.469174,1.29287,0.34298,0.0491344,1.32566
15.5033,0.523773,0.953205,-0.469173,1.29287,0.34298,0.0491344,1.32566
15.5184,0.523773,0.953205,-0.469174,1.29287,0.34298,0.0491344,1.32566
15.5335,0.523773,0.953205,-0.469174,1.29287,0.34298,0.0491344,1.32566
15.5485,0.523773,0.953205,-0.469174,1.29287,0.34298,0.0491344,1.32566
15.5636,0.523773,0.953205,-0.469174,1.29287,0.34298,0.0491344,1.32566
15.5786,0.523773,0.953205,-0.469174,1.29287,0.34298,0.0491344,1.32566
15.5937,0.523773,0.953205,-0.469174,1.29287,0.34298,0.0491344,1.32566
15.6087,0.527708,0.952188,-0.472914,1.28928,0.338033,0.0491409,1.32362
15.6238,0.531538,0.951304,-0.47707,1.28605,0.333104,0.0490792,1.32147
15.6388,0.532194,0.951246,-0.478394,1.2858,0.331944,0.0490084,1.32071
15.6539,0.53312,0.95102,-0.480112,1.28532,0.330159,0.0489779,1.3186
15.6689,0.534029,0.950745,-0.481631,1.28484,0.328672,0.0489798,1.31616
15.684,0.535155,0.950316,-0.482551,1.28436,0.328236,0.0490408,1.31393
15.699,0.536154,0.949949,-0.483063,1.28401,0.328503,0.0490979,1.31265
15.7141,0.536818,0.9498,-0.483288,1.28391,0.329188,0.0491104,1.31247
15.7291,0.537419,0.949683,-0.483498,1.28385,0.33016,0.0491142,1.31264
15.7442,0.537971,0.949565,-0.483703,1.2838,0.331258,0.0491204,1.31294
15.7592,0.538603,0.949571,-0.484724,1.28337,0.332349,0.0491134,1.31352
15.7743,0.538753,0.949586,-0.48504,1.28323,0.33259,0.0491104,1.31369
15.7893,0.538753,0.949586,-0.48504,1.28323,0.33259,0.0491104,1.31369
15.8044,0.538753,0.949586,-0.48504,1.28323,0.33259,0.0491104,1.31369
15.8194,0.538753,0.949586,-0.48504,1.28323,0.33259,0.0491104,1.31369
15.8345,0.538753,0.949586,-0.48504,1.28323,0.33259,0.0491104,1.31369
15.8495,0.538753,0.949586,-0.48504,1.28323,0.33259,0.0491104,1.31369
