timestamp,ArmR1_Cla1,ArmR2_Sho1,ArmR3_Sho2,ArmR4_Sho3,ArmR5_Elb1,ArmR6_Elb2,ArmR7_Wri1,ArmR8_Wri2
0,0.00126087,0.57415,0.893438,-0.502918,1.5781,-0.580178,0.153241,0.39019
0.0131274,0.00107524,0.575361,0.893439,-0.502926,1.57801,-0.580173,0.151261,0.388061
0.0262547,0.000859686,0.576792,0.893441,-0.502934,1.57791,-0.580167,0.148912,0.385595
0.0393821,0.000614823,0.578449,0.893444,-0.502941,1.57782,-0.580159,0.146184,0.382808
0.0525095,0.000342153,0.580331,0.893448,-0.502947,1.57772,-0.58015,0.14308,0.379729
0.0656368,4.38836E-005,0.582432,0.893454,-0.502952,1.57763,-0.580139,0.139613,0.3764
0.0787642,-0.00027732,0.584741,0.893462,-0.502954,1.57755,-0.580126,0.135809,0.372875
0.0918916,-0.000618631,0.587244,0.893471,-0.502955,1.57747,-0.58011,0.131701,0.369214
0.105019,-0.000977367,0.589924,0.893483,-0.502954,1.57741,-0.580092,0.127333,0.365479
0.118146,-0.00135131,0.592765,0.893498,-0.50295,1.57735,-0.58007,0.12275,0.361734
0.131274,-0.00173903,0.595753,0.893516,-0.502944,1.57731,-0.580044,0.118,0.358035
0.144401,-0.00214014,0.598876,0.893538,-0.502937,1.57727,-0.580013,0.113126,0.354429
0.157528,-0.00255552,0.60213,0.893566,-0.502926,1.57725,-0.579975,0.108165,0.350953
0.170656,-0.00298746,0.605516,0.893602,-0.502913,1.57723,-0.57993,0.103147,0.347631
0.183783,-0.00343961,0.609042,0.893646,-0.502896,1.57721,-0.579875,0.0980928,0.344474
0.19691,-0.00391687,0.612721,0.893702,-0.502876,1.5772,-0.579809,0.0930154,0.341482
0.210038,-0.00442503,0.616568,0.893768,-0.502852,1.57719,-0.579727,0.0879241,0.338645
0.223165,-0.00497037,0.620598,0.893848,-0.502823,1.57719,-0.579627,0.0828272,0.335947
0.236293,-0.00555921,0.624825,0.89394,-0.502787,1.57718,-0.579503,0.0777366,0.333369
0.24942,-0.00619747,0.629255,0.894044,-0.502743,1.57718,-0.579351,0.0726707,0.330892
0.262547,-0.00689025,0.633891,0.894157,-0.502689,1.57717,-0.579162,0.0676558,0.328496
0.275675,-0.00764166,0.638727,0.894279,-0.502622,1.57717,-0.57893,0.0627263,0.326166
0.288802,-0.00845465,0.643755,0.894405,-0.502538,1.57717,-0.578645,0.0579222,0.32389
0.301929,-0.00933111,0.648961,0.894533,-0.502432,1.57717,-0.578297,0.0532868,0.321657
0.315057,-0.0102719,0.654334,0.894659,-0.502299,1.57717,-0.577875,0.0488621,0.319457
0.328184,-0.0112769,0.65986,0.89478,-0.502133,1.57716,-0.577368,0.0446865,0.31728
0.341312,-0.0123454,0.66553,0.894894,-0.501926,1.57716,-0.576764,0.0407921,0.315117
0.354439,-0.0134758,0.671337,0.895,-0.501672,1.57716,-0.576052,0.037203,0.312957
0.367566,-0.0146658,0.677273,0.895096,-0.501366,1.57716,-0.575219,0.0339355,0.310787
0.380694,-0.0159128,0.683333,0.895183,-0.501,1.57716,-0.574257,0.0309984,0.308594
0.393821,-0.0172134,0.68951,0.89526,-0.500571,1.57716,-0.573156,0.0283933,0.306364
0.406948,-0.0185637,0.695797,0.895328,-0.500076,1.57716,-0.571907,0.0261154,0.304085
0.420076,-0.0199598,0.702184,0.895388,-0.499511,1.57716,-0.570504,0.0241545,0.301742
0.433203,-0.0213978,0.708662,0.89544,-0.498877,1.57716,-0.568941,0.0224948,0.299322
0.44633,-0.0228737,0.715223,0.895486,-0.498173,1.57715,-0.56721,0.0211161,0.296814
0.459458,-0.0243841,0.721858,0.895527,-0.4974,1.57715,-0.565307,0.0199938,0.294206
0.472585,-0.0259261,0.728562,0.895562,-0.496559,1.57715,-0.563225,0.0191001,0.291484
0.485713,-0.0274972,0.735332,0.895593,-0.49565,1.57715,-0.56096,0.0184055,0.288636
0.49884,-0.029095,0.742163,0.895621,-0.494673,1.57715,-0.558506,0.0178793,0.285652
0.511967,-0.0307173,0.749053,0.895645,-0.493628,1.57715,-0.555858,0.0174921,0.282519
0.525095,-0.0323614,0.755997,0.895667,-0.492511,1.57714,-0.553014,0.0172162,0.27923
0.538222,-0.0340241,0.762986,0.895686,-0.491318,1.57714,-0.549973,0.0170273,0.275779
0.551349,-0.0357018,0.770006,0.895703,-0.490046,1.57714,-0.546737,0.0169046,0.272164
0.564477,-0.0373902,0.777041,0.895719,-0.488688,1.57714,-0.543311,0.0168319,0.268387
0.577604,-0.0390848,0.784071,0.895733,-0.487239,1.57714,-0.539702,0.016797,0.264455
0.590731,-0.0407815,0.791075,0.895746,-0.485694,1.57713,-0.53592,0.0167918,0.260376
0.603859,-0.0424765,0.798035,0.895757,-0.484046,1.57713,-0.531975,0.016812,0.256161
0.616986,-0.0441668,0.804933,0.895768,-0.482293,1.57713,-0.527878,0.0168566,0.251822
0.630114,-0.0458506,0.811757,0.895778,-0.48043,1.57713,-0.523642,0.0169277,0.247371
0.643241,-0.0475269,0.818499,0.895787,-0.478458,1.57712,-0.519276,0.0170302,0.24282
0.656368,-0.0491955,0.825156,0.895796,-0.476378,1.57712,-0.51479,0.0171714,0.238178
0.669496,-0.0508564,0.831729,0.895805,-0.474192,1.57711,-0.510193,0.0173605,0.233457
0.682623,-0.05251,0.838219,0.895814,-0.471907,1.5771,-0.505496,0.0176088,0.228666
0.69575,-0.0541565,0.844632,0.895824,-0.469528,1.57709,-0.500706,0.0179284,0.223815
0.708878,-0.0557956,0.850972,0.895834,-0.467064,1.57708,-0.495834,0.018332,0.218916
0.722005,-0.0574267,0.857243,0.895846,-0.464523,1.57708,-0.49089,0.0188321,0.213979
0.735133,-0.0590489,0.863451,0.89586,-0.461914,1.57707,-0.485885,0.0194402,0.209016
0.74826,-0.0606612,0.869599,0.895876,-0.459244,1.57706,-0.480828,0.0201662,0.204039
0.761387,-0.0622628,0.875692,0.895895,-0.456519,1.57705,-0.475731,0.0210177,0.199061
0.774515,-0.0638528,0.881736,0.895917,-0.453745,1.57704,-0.470604,0.0219999,0.194091
0.787642,-0.065431,0.887737,0.895944,-0.450925,1.57703,-0.465456,0.0231157,0.189139
0.800769,-0.0669969,0.893702,0.895975,-0.448063,1.57701,-0.4603,0.0243658,0.184216
0.813897,-0.0685503,0.899635,0.896012,-0.445159,1.577,-0.455148,0.0257493,0.179329
0.827024,-0.0700904,0.905541,0.896055,-0.442217,1.57698,-0.450014,0.0272645,0.17449
0.840151,-0.071616,0.911423,0.896104,-0.439237,1.57696,-0.444916,0.0289099,0.169707
0.853279,-0.0731252,0.91728,0.89616,-0.436224,1.57694,-0.439875,0.0306844,0.164992
0.866406,-0.0746155,0.923109,0.896222,-0.43318,1.57691,-0.434914,0.0325881,0.160356
0.879534,-0.0760844,0.928908,0.896293,-0.43011,1.57687,-0.430059,0.0346224,0.155808
0.892661,-0.0775289,0.93467,0.896372,-0.427018,1.57681,-0.425336,0.0367899,0.151358
0.905788,-0.0789469,0.940391,0.89646,-0.423905,1.57674,-0.420767,0.0390935,0.147008
0.918916,-0.0803369,0.94607,0.896557,-0.420774,1.57665,-0.416376,0.0415363,0.142761
0.932043,-0.0816982,0.951706,0.896664,-0.417626,1.57654,-0.412182,0.0441209,0.138615
0.94517,-0.0830313,0.957299,0.896782,-0.414461,1.57638,-0.408201,0.0468483,0.134564
0.958298,-0.0843372,0.96285,0.89691,-0.411278,1.57619,-0.404446,0.0497175,0.1306
0.971425,-0.0856177,0.968365,0.897051,-0.408076,1.57593,-0.400925,0.0527257,0.126714
0.984552,-0.0868747,0.973845,0.897203,-0.404854,1.57561,-0.397645,0.0558674,0.1229
0.99768,-0.08811,0.979293,0.897367,-0.40161,1.57521,-0.394613,0.0591355,0.11915
1.01081,-0.0893254,0.984711,0.897542,-0.398345,1.57471,-0.391831,0.0625211,0.11546
1.02393,-0.0905219,0.990103,0.897726,-0.395056,1.57409,-0.3893,0.0660146,0.111826
1.03706,-0.0917004,0.995471,0.897919,-0.391743,1.57335,-0.387022,0.0696064,0.108247
1.05019,-0.0928617,1.00082,0.898119,-0.388402,1.57246,-0.384992,0.0732874,0.104722
1.06332,-0.0940062,1.00615,0.898323,-0.385027,1.5714,-0.383207,0.0770495,0.101253
1.07644,-0.0951343,1.01147,0.89853,-0.381612,1.57017,-0.381657,0.0808855,0.0978393
1.08957,-0.0962462,1.0168,0.898737,-0.37815,1.56875,-0.380331,0.0847883,0.0944821
1.1027,-0.0973419,1.02213,0.898944,-0.374632,1.56712,-0.379214,0.0887501,0.0911836
1.11583,-0.0984209,1.02746,0.899148,-0.371051,1.56529,-0.378289,0.0927613,0.0879471
1.12895,-0.0994819,1.03281,0.899349,-0.367402,1.56324,-0.377536,0.0968096,0.0847779
1.14208,-0.100523,1.03817,0.899546,-0.363682,1.56098,-0.376934,0.100879,0.0816832
1.15521,-0.101543,1.04354,0.899738,-0.359889,1.55851,-0.376462,0.104952,0.0786723
1.16834,-0.102537,1.04889,0.899927,-0.356024,1.55582,-0.376099,0.109006,0.0757551
1.18146,-0.103504,1.05423,0.90011,-0.352086,1.55293,-0.375825,0.11302,0.0729417
1.19459,-0.104442,1.05955,0.900287,-0.348074,1.54983,-0.375622,0.116971,0.0702413
1.20772,-0.105347,1.06482,0.900459,-0.343988,1.54653,-0.375476,0.120838,0.0676608
1.22084,-0.10622,1.07005,0.900624,-0.339822,1.54304,-0.375373,0.124601,0.0652043
1.23397,-0.107059,1.07523,0.900783,-0.335572,1.53936,-0.375303,0.128243,0.0628729
1.2471,-0.107865,1.08035,0.900935,-0.331231,1.53548,-0.375256,0.131747,0.0606644
1.26023,-0.108638,1.08541,0.901079,-0.326792,1.53143,-0.375227,0.135097,0.0585741
1.27335,-0.109379,1.09042,0.901216,-0.322251,1.52719,-0.375209,0.13828,0.0565945
1.28648,-0.11009,1.09535,0.901345,-0.317602,1.52279,-0.3752,0.141283,0.0547164
1.29961,-0.11077,1.10022,0.901468,-0.312841,1.51822,-0.375197,0.144092,0.0529296
1.31274,-0.111421,1.10501,0.901583,-0.307967,1.51351,-0.375198,0.146699,0.0512233
1.32586,-0.112044,1.10971,0.901692,-0.302972,1.50864,-0.375203,0.149095,0.0495866
1.33899,-0.11264,1.11434,0.901793,-0.297852,1.50364,-0.375211,0.151275,0.0480094
1.35212,-0.11321,1.11888,0.901889,-0.292595,1.49848,-0.375223,0.153239,0.0464826
1.36525,-0.113757,1.12333,0.901977,-0.287187,1.49317,-0.375241,0.154987,0.0449977
1.37837,-0.114282,1.12771,0.902058,-0.281612,1.48769,-0.375265,0.156524,0.0435473
1.3915,-0.114789,1.13202,0.902133,-0.275852,1.48203,-0.375298,0.157858,0.0421244
1.40463,-0.11528,1.13625,0.9022,-0.269894,1.47618,-0.375345,0.159001,0.0407222
1.41776,-0.115757,1.14042,0.90226,-0.263727,1.47013,-0.375408,0.159965,0.0393332
1.43088,-0.116222,1.14452,0.902313,-0.257349,1.46387,-0.375494,0.160765,0.0379497
1.44401,-0.116676,1.14854,0.90236,-0.250767,1.45741,-0.375609,0.161418,0.036563
1.45714,-0.117121,1.15248,0.902401,-0.243997,1.45076,-0.375762,0.161941,0.0351636
1.47027,-0.117554,1.15631,0.902437,-0.237063,1.44395,-0.375962,0.162352,0.0337416
1.48339,-0.117977,1.16002,0.902467,-0.229993,1.43698,-0.376221,0.162669,0.0322875
1.49652,-0.118386,1.1636,0.902494,-0.222816,1.4299,-0.376553,0.162907,0.0307922
1.50965,-0.118781,1.16702,0.902517,-0.21556,1.42271,-0.376971,0.163083,0.0292489
1.52277,-0.11916,1.17028,0.902537,-0.208249,1.41543,-0.377494,0.163209,0.0276529
1.5359,-0.119521,1.17338,0.902556,-0.200904,1.40808,-0.378138,0.163297,0.0260032
1.54903,-0.119862,1.17631,0.902573,-0.193541,1.40065,-0.378924,0.163357,0.024302
1.56216,-0.120182,1.17908,0.902591,-0.186173,1.39316,-0.37987,0.163396,0.0225555
1.57528,-0.120479,1.18169,0.90261,-0.178816,1.3856,-0.380995,0.16342,0.0207731
1.58841,-0.120754,1.18416,0.902631,-0.171484,1.37799,-0.382318,0.163434,0.0189666
1.60154,-0.121005,1.18648,0.902655,-0.164194,1.37033,-0.383856,0.163441,0.0171496
1.61467,-0.121232,1.18867,0.902683,-0.156963,1.36263,-0.385625,0.163442,0.0153357
1.62779,-0.121437,1.19072,0.902715,-0.149808,1.35489,-0.387643,0.163438,0.0135385
1.64092,-0.121622,1.19265,0.902753,-0.142742,1.34713,-0.389924,0.163431,0.01177
1.65405,-0.12179,1.19446,0.902796,-0.135773,1.33934,-0.392486,0.16342,0.0100404
1.66718,-0.121945,1.19615,0.902846,-0.128901,1.33153,-0.395348,0.163405,0.00835773
1.6803,-0.122092,1.19772,0.902903,-0.12212,1.32368,-0.398526,0.163385,0.006728
1.69343,-0.122238,1.19919,0.902968,-0.115415,1.31577,-0.40204,0.163358,0.00515497
1.70656,-0.12239,1.20055,0.903041,-0.10877,1.3078,-0.405904,0.163325,0.00364046
1.71968,-0.122557,1.20181,0.903125,-0.102167,1.29975,-0.41013,0.163284,0.00218436
1.73281,-0.122747,1.20298,0.90322,-0.095592,1.29161,-0.414724,0.163233,0.000784755
1.74594,-0.12297,1.20405,0.903329,-0.0890357,1.28339,-0.419684,0.163172,-0.000562224
1.75907,-0.123233,1.20504,0.903456,-0.0824961,1.27509,-0.425003,0.1631,-0.00186237
1.77219,-0.123545,1.20593,0.903604,-0.0759778,1.26674,-0.430666,0.163018,-0.00312344
1.78532,-0.123914,1.20674,0.903778,-0.0694902,1.25836,-0.436657,0.162928,-0.00435487
1.79845,-0.124347,1.20746,0.903983,-0.0630456,1.24999,-0.442954,0.16283,-0.00556727
1.81158,-0.124847,1.20809,0.904226,-0.0566567,1.24164,-0.449538,0.162727,-0.00677154
1.8247,-0.12542,1.20864,0.904511,-0.0503352,1.23335,-0.456387,0.162623,-0.00797759
1.83783,-0.126067,1.20912,0.904844,-0.0440909,1.22514,-0.463482,0.162519,-0.00919297
1.85096,-0.126789,1.20952,0.90523,-0.0379322,1.21703,-0.470803,0.16242,-0.0104215
1.86409,-0.127586,1.20986,0.905672,-0.0318666,1.20903,-0.478328,0.162326,-0.0116621
1.87721,-0.128454,1.21013,0.906172,-0.0259016,1.20116,-0.486033,0.162237,-0.0129084
1.89034,-0.129392,1.21035,0.906732,-0.020045,1.19343,-0.493894,0.162153,-0.0141489
1.90347,-0.130396,1.21052,0.907352,-0.014305,1.18585,-0.501883,0.162072,-0.0153675
1.9166,-0.131462,1.21065,0.908032,-0.00868899,1.17843,-0.509975,0.161988,-0.0165458
1.92972,-0.132588,1.21074,0.908773,-0.00320253,1.17117,-0.518144,0.161896,-0.017664
1.94285,-0.133772,1.21082,0.909574,0.00215218,1.16408,-0.526373,0.161788,-0.0187037
1.95598,-0.135015,1.21087,0.910436,0.00737721,1.15713,-0.534647,0.161656,-0.0196495
1.9691,-0.136316,1.2109,0.91136,0.0124792,1.15034,-0.54296,0.161489,-0.0204901
1.98223,-0.137678,1.21093,0.912348,0.0174689,1.14366,-0.551311,0.161276,-0.0212197
1.99536,-0.1391,1.21094,0.9134,0.0223597,1.13709,-0.559701,0.161008,-0.0218375
2.00849,-0.140585,1.21095,0.914518,0.0271655,1.1306,-0.568134,0.160672,-0.0223477
2.02161,-0.14213,1.21096,0.9157,0.0318994,1.12418,-0.576609,0.16026,-0.0227586
2.03474,-0.143733,1.21096,0.916946,0.0365713,1.11782,-0.585122,0.159763,-0.0230814
2.04787,-0.145389,1.21096,0.918252,0.0411879,1.1115,-0.593659,0.159175,-0.0233288
2.061,-0.147093,1.21097,0.919615,0.0457522,1.10524,-0.602202,0.158488,-0.0235143
2.07412,-0.148835,1.21097,0.921029,0.0502646,1.09904,-0.610727,0.157697,-0.0236508
2.08725,-0.150609,1.21097,0.922489,0.0547247,1.0929,-0.619208,0.156798,-0.0237505
2.10038,-0.152407,1.21097,0.923991,0.0591325,1.08684,-0.627621,0.155783,-0.0238244
2.11351,-0.154224,1.21097,0.92553,0.0634896,1.08088,-0.635942,0.154646,-0.0238821
2.12663,-0.156055,1.21097,0.927101,0.0678,1.07501,-0.644153,0.153378,-0.0239324
2.13976,-0.157898,1.21097,0.9287,0.0720697,1.06925,-0.652241,0.151967,-0.0239837
2.15289,-0.159751,1.21097,0.930323,0.0763066,1.0636,-0.660196,0.150402,-0.0240445
2.16602,-0.161616,1.21097,0.931965,0.0805186,1.05806,-0.668014,0.148669,-0.0241244
2.17914,-0.163494,1.21096,0.93362,0.0847135,1.05262,-0.675691,0.146755,-0.0242342
2.19227,-0.165385,1.21096,0.935282,0.0888978,1.04728,-0.683227,0.144648,-0.0243871
2.2054,-0.167293,1.21096,0.936944,0.0930764,1.04204,-0.690621,0.142336,-0.0245988
2.21852,-0.16922,1.21095,0.938598,0.0972528,1.03689,-0.697876,0.139812,-0.0248879
2.23165,-0.171171,1.21095,0.940237,0.101429,1.03181,-0.704997,0.137067,-0.025276
2.24478,-0.173148,1.21095,0.941857,0.105608,1.0268,-0.711993,0.134097,-0.0257873
2.25791,-0.175159,1.21094,0.943453,0.10979,1.02184,-0.718875,0.130898,-0.0264481
2.27103,-0.177209,1.21094,0.945022,0.113978,1.01691,-0.725662,0.127468,-0.0272857
2.28416,-0.179306,1.21094,0.946568,0.118174,1.01199,-0.732373,0.123805,-0.0283271
2.29729,-0.181457,1.21094,0.948092,0.12238,1.00707,-0.739031,0.119907,-0.0295974
2.31042,-0.183672,1.21093,0.949599,0.126595,1.00212,-0.745659,0.115777,-0.0311182
2.32354,-0.185955,1.21093,0.951096,0.130815,0.997118,-0.752278,0.111419,-0.0329066
2.33667,-0.188311,1.21093,0.952588,0.135034,0.992059,-0.758903,0.106843,-0.0349734
2.3498,-0.190743,1.21092,0.954081,0.139239,0.98693,-0.765547,0.102062,-0.0373234
2.36293,-0.193251,1.21092,0.95558,0.143414,0.981724,-0.772212,0.0970952,-0.039955
2.37605,-0.195832,1.21091,0.957088,0.147539,0.976443,-0.778898,0.0919647,-0.0428611
2.38918,-0.198482,1.2109,0.958609,0.151592,0.971087,-0.7856,0.0866957,-0.0460304
2.40231,-0.201196,1.21089,0.960144,0.155551,0.96566,-0.79231,0.081314,-0.0494482
2.41544,-0.203968,1.21088,0.961692,0.159394,0.960165,-0.799022,0.0758447,-0.0530977
2.42856,-0.206794,1.21087,0.963255,0.163103,0.954606,-0.805727,0.0703111,-0.0569608
2.44169,-0.209667,1.21085,0.964832,0.166662,0.948984,-0.812424,0.0647339,-0.0610182
2.45482,-0.212585,1.21083,0.966422,0.170058,0.943298,-0.819108,0.0591312,-0.0652497
2.46794,-0.215542,1.21081,0.968023,0.173284,0.937549,-0.825781,0.0535191,-0.0696334
2.48107,-0.218534,1.21078,0.969635,0.176332,0.931736,-0.832441,0.0479122,-0.0741463
2.4942,-0.221557,1.21075,0.971254,0.179198,0.925857,-0.839088,0.0423241,-0.0787631
2.50733,-0.224607,1.21071,0.972879,0.181879,0.919913,-0.845723,0.036767,-0.0834577
2.52045,-0.22768,1.21067,0.974507,0.184372,0.913901,-0.852348,0.0312523,-0.0882033
2.53358,-0.230777,1.21062,0.976137,0.186677,0.907819,-0.858965,0.0257889,-0.0929734
2.54671,-0.233899,1.21057,0.977769,0.188793,0.901658,-0.86558,0.0203832,-0.0977429
2.55984,-0.237051,1.21051,0.979403,0.190721,0.89541,-0.872203,0.0150383,-0.102489
2.57296,-0.240242,1.21045,0.981042,0.192462,0.889059,-0.878848,0.00975407,-0.107191
2.58609,-0.243483,1.21038,0.982691,0.194022,0.882588,-0.885531,0.00452813,-0.11183
2.59922,-0.246786,1.21031,0.984354,0.195404,0.875979,-0.892271,-0.000642714,-0.116389
2.61235,-0.250164,1.21022,0.986039,0.196616,0.869214,-0.899082,-0.00576038,-0.120848
2.62547,-0.253625,1.21013,0.987749,0.197666,0.862281,-0.905976,-0.0108234,-0.125186
2.6386,-0.257174,1.21003,0.989487,0.198564,0.855175,-0.912958,-0.0158252,-0.129379
2.65173,-0.260811,1.20991,0.991254,0.199322,0.847897,-0.920026,-0.0207538,-0.133398
2.66486,-0.264529,1.20977,0.993049,0.199951,0.840458,-0.927167,-0.0255915,-0.137213
2.67798,-0.268319,1.20962,0.994868,0.200464,0.832873,-0.934367,-0.0303172,-0.140791
2.69111,-0.272167,1.20944,0.996706,0.200874,0.825161,-0.941604,-0.0349084,-0.144103
2.70424,-0.276061,1.20924,0.998558,0.201196,0.817342,-0.948859,-0.039344,-0.147122
2.71736,-0.279985,1.209,1.00042,0.201443,0.809432,-0.956112,-0.0436067,-0.149831
2.73049,-0.28393,1.20872,1.00228,0.201628,0.801445,-0.96335,-0.047685,-0.152221
2.74362,-0.287886,1.2084,1.00414,0.201764,0.793392,-0.970561,-0.0515742,-0.15429
2.75675,-0.291848,1.20803,1.006,0.20186,0.785277,-0.977739,-0.0552761,-0.156051
2.76987,-0.295813,1.2076,1.00785,0.201928,0.777103,-0.984881,-0.0587991,-0.157521
2.783,-0.299778,1.20711,1.00969,0.201975,0.768873,-0.991984,-0.0621565,-0.158727
2.79613,-0.303743,1.20656,1.01152,0.202007,0.760589,-0.999046,-0.0653657,-0.159699
2.80926,-0.307707,1.20594,1.01332,0.202029,0.752255,-1.00606,-0.0684468,-0.160472
2.82238,-0.311669,1.20526,1.0151,0.202045,0.743876,-1.01303,-0.0714215,-0.16108
2.83551,-0.315629,1.2045,1.01685,0.202057,0.735457,-1.01995,-0.0743126,-0.161559
2.84864,-0.319585,1.20369,1.01855,0.202066,0.727004,-1.02681,-0.0771435,-0.161942
2.86177,-0.323538,1.2028,1.02021,0.202074,0.718521,-1.03361,-0.0799378,-0.162264
2.87489,-0.327487,1.20185,1.02181,0.202082,0.710009,-1.04035,-0.0827187,-0.162555
2.88802,-0.331432,1.20084,1.02336,0.202088,0.701471,-1.04702,-0.0855091,-0.162848
2.90115,-0.335374,1.19976,1.02483,0.202094,0.692903,-1.05362,-0.0883308,-0.163173
2.91428,-0.339313,1.19862,1.02624,0.2021,0.684302,-1.06016,-0.0912044,-0.163563
2.9274,-0.343248,1.19743,1.02758,0.202105,0.675665,-1.06664,-0.0941482,-0.164051
2.94053,-0.347178,1.19618,1.02884,0.20211,0.666989,-1.07306,-0.0971783,-0.16467
2.95366,-0.3511,1.19488,1.03002,0.202115,0.658273,-1.07943,-0.100308,-0.165454
2.96678,-0.355011,1.19353,1.03113,0.202119,0.649518,-1.08574,-0.103547,-0.166435
2.97991,-0.358908,1.19213,1.03216,0.202123,0.640727,-1.09198,-0.106904,-0.167643
2.99304,-0.362787,1.19069,1.03311,0.202127,0.631906,-1.09817,-0.110383,-0.169105
3.00617,-0.366645,1.18921,1.03397,0.202131,0.623063,-1.10429,-0.113989,-0.170842
3.01929,-0.370476,1.18769,1.03476,0.202134,0.614204,-1.11034,-0.117721,-0.172869
3.03242,-0.374278,1.18614,1.03547,0.202137,0.605337,-1.11632,-0.12158,-0.175197
3.04555,-0.378049,1.18454,1.0361,0.20214,0.596471,-1.12223,-0.125565,-0.177828
3.05868,-0.381785,1.18292,1.03665,0.202142,0.587611,-1.12806,-0.129672,-0.180759
3.0718,-0.385485,1.18126,1.03713,0.202145,0.578765,-1.13382,-0.133899,-0.183984
3.08493,-0.389147,1.17956,1.03753,0.202147,0.569938,-1.1395,-0.138241,-0.187491
3.09806,-0.392769,1.17783,1.03786,0.202149,0.561135,-1.14511,-0.142692,-0.191265
3.11119,-0.396348,1.17607,1.03813,0.202151,0.552362,-1.15065,-0.147248,-0.19529
3.12431,-0.399883,1.17426,1.03835,0.202152,0.543628,-1.15611,-0.151902,-0.19955
3.13744,-0.403371,1.17243,1.03852,0.202153,0.534937,-1.16149,-0.156651,-0.204027
3.15057,-0.406812,1.17055,1.03864,0.202154,0.526299,-1.16681,-0.161491,-0.208706
3.1637,-0.410204,1.16863,1.03874,0.202154,0.51772,-1.17206,-0.166421,-0.213572
3.17682,-0.413546,1.16667,1.0388,0.202155,0.509207,-1.17724,-0.171442,-0.218614
3.18995,-0.416839,1.16465,1.03885,0.202156,0.500769,-1.18235,-0.176555,-0.223822
3.20308,-0.420083,1.16257,1.03887,0.202157,0.492415,-1.1874,-0.181766,-0.229189
3.2162,-0.423279,1.16043,1.03889,0.202159,0.484156,-1.19238,-0.187077,-0.234707
3.22933,-0.426429,1.15822,1.0389,0.202161,0.476006,-1.1973,-0.19249,-0.24037
3.24246,-0.429532,1.15592,1.0389,0.202163,0.467986,-1.20214,-0.198003,-0.246168
3.25559,-0.432588,1.15353,1.0389,0.202166,0.460121,-1.20689,-0.203612,-0.252091
3.26871,-0.435596,1.15105,1.0389,0.202169,0.452441,-1.21154,-0.209307,-0.258127
3.28184,-0.438554,1.14846,1.03889,0.202171,0.444981,-1.21607,-0.215077,-0.264257
3.29497,-0.441462,1.14575,1.03888,0.202174,0.437776,-1.22046,-0.220905,-0.270464
3.3081,-0.444318,1.14294,1.03888,0.202175,0.430863,-1.22467,-0.226774,-0.276727
3.32122,-0.44712,1.13999,1.03887,0.202176,0.424275,-1.2287,-0.232667,-0.283024
3.33435,-0.449867,1.13692,1.03886,0.202176,0.418043,-1.23252,-0.238568,-0.28933
3.34748,-0.45256,1.1337,1.03885,0.202175,0.412192,-1.23611,-0.24446,-0.295621
3.36061,-0.455197,1.13034,1.03885,0.202174,0.406743,-1.23945,-0.250328,-0.30187
3.37373,-0.457777,1.12682,1.03884,0.202171,0.401711,-1.24254,-0.25616,-0.30805
3.38686,-0.4603,1.12314,1.03883,0.202168,0.397105,-1.24537,-0.261943,-0.314132
3.39999,-0.462764,1.1193,1.03882,0.202164,0.39293,-1.24793,-0.267668,-0.320085
3.41312,-0.465168,1.11528,1.03881,0.20216,0.389184,-1.25022,-0.273322,-0.325876
3.42624,-0.467511,1.11109,1.0388,0.202156,0.385864,-1.25225,-0.278896,-0.331472
3.43937,-0.469793,1.10673,1.03879,0.202151,0.382956,-1.25402,-0.28438,-0.336839
3.4525,-0.472015,1.10219,1.03878,0.202147,0.380445,-1.25555,-0.289763,-0.341944
3.46562,-0.474179,1.09748,1.03878,0.202143,0.378309,-1.25684,-0.295035,-0.346756
3.47875,-0.476288,1.0926,1.03877,0.202139,0.376523,-1.25792,-0.300187,-0.351246
3.49188,-0.478346,1.08757,1.03876,0.202135,0.375056,-1.2588,-0.305208,-0.355388
3.50501,-0.480356,1.08238,1.03875,0.202132,0.373874,-1.25951,-0.310088,-0.359165
3.51813,-0.482322,1.07705,1.03874,0.202128,0.372944,-1.26006,-0.314814,-0.362562
3.53126,-0.484248,1.0716,1.03873,0.202124,0.372228,-1.26049,-0.319375,-0.365573
3.54439,-0.486132,1.06605,1.03873,0.202121,0.371692,-1.26081,-0.323756,-0.368197
3.55752,-0.487975,1.06042,1.03872,0.202117,0.371302,-1.26104,-0.327944,-0.370445
3.57064,-0.489772,1.05473,1.03871,0.202113,0.371028,-1.26121,-0.331924,-0.372333
3.58377,-0.491519,1.04901,1.03869,0.202109,0.370843,-1.26132,-0.335681,-0.373885
3.5969,-0.49321,1.04327,1.03868,0.202105,0.370725,-1.2614,-0.339201,-0.375132
3.61003,-0.494839,1.03753,1.03867,0.202102,0.370656,-1.26145,-0.342473,-0.376109
3.62315,-0.496398,1.0318,1.03866,0.202099,0.370621,-1.26147,-0.345487,-0.376855
3.63628,-0.497882,1.0261,1.03864,0.202096,0.370608,-1.26149,-0.348236,-0.377409
3.64941,-0.499289,1.02044,1.03863,0.202094,0.370609,-1.2615,-0.350717,-0.377808
3.66253,-0.500615,1.01481,1.03862,0.202093,0.370618,-1.2615,-0.352928,-0.378088
3.67566,-0.501862,1.00923,1.03861,0.202092,0.37063,-1.2615,-0.354875,-0.378277
3.68879,-0.503033,1.00369,1.0386,0.202091,0.370644,-1.2615,-0.356565,-0.378401
3.70192,-0.504133,0.998198,1.03859,0.202091,0.370655,-1.26149,-0.358011,-0.378479
3.71504,-0.505168,0.992749,1.03859,0.202092,0.370666,-1.26148,-0.359228,-0.378526
3.72817,-0.506146,0.987342,1.03858,0.202092,0.370673,-1.26147,-0.360236,-0.378552
3.7413,-0.507075,0.981977,1.03857,0.202093,0.370679,-1.26145,-0.361056,-0.378565
3.75443,-0.507964,0.97665,1.03856,0.202094,0.370683,-1.26142,-0.361712,-0.37857
3.76755,-0.508818,0.97136,1.03855,0.202095,0.370686,-1.26139,-0.362226,-0.37857
3.78068,-0.509644,0.966101,1.03855,0.202096,0.370687,-1.26134,-0.362622,-0.378566
3.79381,-0.510444,0.960873,1.03854,0.202097,0.370689,-1.26127,-0.362922,-0.37856
3.80694,-0.511222,0.955675,1.03853,0.202099,0.370689,-1.26119,-0.363144,-0.378553
3.82006,-0.511977,0.950509,1.03852,0.202101,0.37069,-1.26108,-0.363305,-0.378545
3.83319,-0.512709,0.945378,1.03851,0.202103,0.370691,-1.26094,-0.363421,-0.378536
3.84632,-0.513416,0.94029,1.0385,0.202106,0.370692,-1.26075,-0.363502,-0.378528
3.85945,-0.514096,0.935253,1.03848,0.20211,0.370693,-1.26052,-0.363558,-0.378519
3.87257,-0.51475,0.930275,1.03847,0.202116,0.370693,-1.26023,-0.363596,-0.378511
3.8857,-0.515378,0.925366,1.03846,0.202123,0.370693,-1.25987,-0.363622,-0.378504
3.89883,-0.515981,0.920532,1.03844,0.202134,0.370692,-1.25942,-0.36364,-0.378498
3.91195,-0.516563,0.915776,1.03842,0.202149,0.370691,-1.25888,-0.363651,-0.378493
3.92508,-0.51713,0.911103,1.0384,0.20217,0.370689,-1.25823,-0.363659,-0.378489
3.93821,-0.517685,0.90651,1.03838,0.202201,0.370687,-1.25745,-0.363663,-0.378487
3.95134,-0.518235,0.901996,1.03836,0.202245,0.370684,-1.25654,-0.363667,-0.378484
3.96446,-0.518783,0.89756,1.03833,0.202307,0.370682,-1.25548,-0.363669,-0.378483
3.97759,-0.519333,0.893198,1.0383,0.202394,0.370679,-1.25425,-0.36367,-0.378482
3.99072,-0.519886,0.888909,1.03827,0.202512,0.370677,-1.25285,-0.36367,-0.378481
4.00385,-0.520443,0.884692,1.03824,0.20267,0.370674,-1.25127,-0.36367,-0.37848
4.01697,-0.521001,0.880544,1.03821,0.202878,0.370671,-1.2495,-0.36367,-0.37848
4.0301,-0.521556,0.876464,1.03816,0.203147,0.370668,-1.24753,-0.36367,-0.37848
4.04323,-0.522106,0.872447,1.03812,0.203487,0.370664,-1.24536,-0.36367,-0.378481
4.05636,-0.522644,0.868488,1.03806,0.203909,0.370658,-1.24298,-0.36367,-0.378482
4.06948,-0.523167,0.864581,1.038,0.204425,0.370652,-1.24038,-0.36367,-0.378483
4.08261,-0.523667,0.860718,1.03792,0.205042,0.370643,-1.23755,-0.36367,-0.378486
4.09574,-0.524141,0.85689,1.03783,0.205769,0.370633,-1.2345,-0.36367,-0.378489
4.10887,-0.524584,0.853094,1.03771,0.206611,0.370621,-1.23122,-0.36367,-0.378494
4.12199,-0.524992,0.849325,1.03758,0.207569,0.370606,-1.22771,-0.363669,-0.3785
4.13512,-0.525361,0.845583,1.03741,0.208644,0.37059,-1.22398,-0.363668,-0.378506
4.14825,-0.525688,0.841872,1.0372,0.20983,0.370571,-1.22002,-0.363667,-0.378513
4.16138,-0.525971,0.838199,1.03695,0.211122,0.370549,-1.21586,-0.363665,-0.37852
4.1745,-0.526209,0.834571,1.03665,0.21251,0.370526,-1.2115,-0.363664,-0.378528
4.18763,-0.526403,0.830998,1.03627,0.213984,0.3705,-1.20695,-0.363662,-0.378536
4.20076,-0.526554,0.827491,1.03581,0.215533,0.370472,-1.20223,-0.363661,-0.378544
4.21388,-0.526665,0.824055,1.03526,0.217147,0.370443,-1.19734,-0.36366,-0.378553
4.22701,-0.52674,0.820696,1.03459,0.218818,0.370412,-1.19228,-0.363659,-0.378563
4.24014,-0.526783,0.817418,1.0338,0.220537,0.37038,-1.18707,-0.363658,-0.378574
4.25327,-0.526802,0.814224,1.03285,0.222298,0.370347,-1.18171,-0.363657,-0.378587
4.26639,-0.526801,0.811112,1.03174,0.224096,0.370313,-1.1762,-0.363657,-0.378604
4.27952,-0.526787,0.808085,1.03045,0.225925,0.370279,-1.17054,-0.363656,-0.378627
4.29265,-0.526767,0.805141,1.02897,0.227782,0.370243,-1.16475,-0.363655,-0.378656
4.30578,-0.526745,0.802281,1.02729,0.229661,0.370205,-1.15885,-0.363655,-0.378697
4.3189,-0.526728,0.799504,1.02542,0.231558,0.370164,-1.15283,-0.363653,-0.378751
4.33203,-0.526719,0.796806,1.02336,0.233469,0.370116,-1.14672,-0.363652,-0.378825
4.34516,-0.526723,0.79418,1.02111,0.235391,0.370058,-1.14054,-0.36365,-0.378925
4.35829,-0.526741,0.791618,1.01868,0.237323,0.369987,-1.13428,-0.363648,-0.379057
4.37141,-0.526777,0.789104,1.0161,0.239265,0.369896,-1.12796,-0.363646,-0.37923
4.38454,-0.52683,0.786621,1.01337,0.241219,0.369782,-1.12158,-0.363643,-0.379452
4.39767,-0.5269,0.784148,1.01052,0.243189,0.369636,-1.11514,-0.363641,-0.379731
4.41079,-0.526987,0.781665,1.00756,0.245178,0.369454,-1.10863,-0.363639,-0.380076
4.42392,-0.527087,0.779152,1.00452,0.247186,0.36923,-1.10207,-0.363638,-0.380493
4.43705,-0.527197,0.776593,1.00141,0.249213,0.36896,-1.09544,-0.363637,-0.380984
4.45018,-0.527313,0.773975,0.998281,0.251253,0.368639,-1.08878,-0.363636,-0.381549
4.4633,-0.52743,0.771294,0.995141,0.253298,0.368268,-1.08211,-0.363636,-0.382184
4.47643,-0.527542,0.768549,0.992023,0.255334,0.367846,-1.07545,-0.363636,-0.382879
4.48956,-0.527643,0.765744,0.988951,0.257348,0.367377,-1.06883,-0.363636,-0.383622
4.50269,-0.527729,0.762887,0.985946,0.259321,0.366863,-1.06231,-0.363636,-0.384397
4.51581,-0.527794,0.75999,0.983025,0.261237,0.366311,-1.05591,-0.363636,-0.385184
4.52894,-0.527836,0.757063,0.980198,0.263079,0.365728,-1.04967,-0.363636,-0.385963
4.54207,-0.527853,0.754119,0.977468,0.26483,0.365121,-1.04363,-0.363635,-0.386715
4.5552,-0.527843,0.751168,0.97483,0.266478,0.364499,-1.0378,-0.363634,-0.387421
4.56832,-0.527807,0.748221,0.972277,0.26801,0.36387,-1.03221,-0.363634,-0.388068
4.58145,-0.527747,0.745288,0.969794,0.269415,0.363244,-1.02688,-0.363635,-0.388644
4.59458,-0.527665,0.742378,0.967365,0.270685,0.36263,-1.02183,-0.363636,-0.389143
4.60771,-0.527565,0.739496,0.964972,0.271816,0.362037,-1.01708,-0.363638,-0.389564
4.62083,-0.52745,0.736649,0.962597,0.272806,0.361474,-1.01263,-0.363641,-0.389909
4.63396,-0.527325,0.73384,0.960222,0.273656,0.360948,-1.0085,-0.363645,-0.390184
4.64709,-0.527193,0.731072,0.957828,0.274371,0.360466,-1.00471,-0.36365,-0.390397
4.66021,-0.527059,0.728341,0.955398,0.274959,0.360034,-1.00126,-0.363655,-0.390559
4.67334,-0.526926,0.725645,0.95292,0.275433,0.359655,-0.998154,-0.363661,-0.390679
4.68647,-0.526798,0.722978,0.950378,0.275805,0.359331,-0.995395,-0.363667,-0.390766
4.6996,-0.526679,0.72033,0.947765,0.27609,0.359061,-0.992976,-0.363672,-0.39083
4.71272,-0.52657,0.717694,0.945075,0.276303,0.358843,-0.990886,-0.363678,-0.390876
4.72585,-0.526472,0.71506,0.942306,0.276458,0.358673,-0.989109,-0.363684,-0.390911
4.73898,-0.526388,0.71242,0.939463,0.276567,0.358545,-0.987624,-0.363689,-0.390939
4.75211,-0.526316,0.709767,0.936551,0.276642,0.358453,-0.986409,-0.363695,-0.390963
4.76523,-0.526256,0.707095,0.933582,0.276692,0.358391,-0.985436,-0.363702,-0.390985
4.77836,-0.526208,0.704396,0.930566,0.276724,0.358353,-0.984678,-0.36371,-0.391006
4.79149,-0.526169,0.701666,0.927518,0.276744,0.358333,-0.98411,-0.363719,-0.391028
4.80462,-0.526139,0.698898,0.924447,0.276755,0.358327,-0.983705,-0.363731,-0.391048
4.81774,-0.526114,0.696085,0.921364,0.27676,0.358332,-0.983441,-0.363748,-0.391068
4.83087,-0.526094,0.693222,0.918276,0.276761,0.358344,-0.983301,-0.363772,-0.391087
4.844,-0.526077,0.690303,0.915187,0.27676,0.358361,-0.98327,-0.363807,-0.391104
4.85713,-0.52606,0.687322,0.9121,0.276756,0.358383,-0.983339,-0.363858,-0.391118
4.87025,-0.526045,0.684277,0.909019,0.276752,0.358409,-0.983504,-0.363933,-0.391128
4.88338,-0.526029,0.681166,0.905944,0.276747,0.35844,-0.983767,-0.364043,-0.391135
4.89651,-0.526012,0.677989,0.902874,0.276742,0.358475,-0.984134,-0.364202,-0.391138
4.90963,-0.525993,0.674748,0.89981,0.276736,0.358516,-0.984613,-0.364428,-0.391136
4.92276,-0.525975,0.671443,0.89675,0.276731,0.358564,-0.985217,-0.364743,-0.391129
4.93589,-0.525955,0.668077,0.893689,0.276726,0.358624,-0.985961,-0.365173,-0.391118
4.94902,-0.525936,0.664649,0.890625,0.276722,0.358697,-0.986861,-0.365749,-0.391102
4.96214,-0.525917,0.661159,0.88755,0.276719,0.358788,-0.987933,-0.366504,-0.39108
4.97527,-0.5259,0.657603,0.884456,0.276717,0.358904,-0.989193,-0.36747,-0.391052
4.9884,-0.525885,0.653977,0.881337,0.276716,0.359052,-0.990656,-0.368681,-0.391017
5.00153,-0.525873,0.650277,0.878185,0.276716,0.35924,-0.992335,-0.370167,-0.390974
5.01465,-0.525865,0.646497,0.874995,0.276717,0.35948,-0.994239,-0.371954,-0.390923
5.02778,-0.52586,0.642636,0.871765,0.276719,0.359783,-0.996375,-0.374062,-0.390863
5.04091,-0.52586,0.638692,0.868499,0.276722,0.360162,-0.998745,-0.376507,-0.390794
5.05404,-0.525864,0.634668,0.865203,0.276727,0.360629,-1.00135,-0.379296,-0.390717
5.06716,-0.525871,0.630566,0.861887,0.276732,0.361196,-1.00418,-0.382431,-0.390633
5.08029,-0.525882,0.626393,0.858566,0.276738,0.361875,-1.00723,-0.385911,-0.390544
5.09342,-0.525896,0.622154,0.855255,0.276745,0.362674,-1.01049,-0.389729,-0.39045
5.10654,-0.525911,0.617854,0.85197,0.276752,0.363601,-1.01395,-0.393874,-0.390352
5.11967,-0.525928,0.613499,0.848727,0.276759,0.36466,-1.01761,-0.398333,-0.390251
5.1328,-0.525945,0.609095,0.84554,0.276767,0.365852,-1.02145,-0.403089,-0.390146
5.14593,-0.525962,0.604646,0.84242,0.276775,0.367178,-1.02545,-0.408119,-0.390034
5.15905,-0.525978,0.60016,0.83938,0.276782,0.368635,-1.02962,-0.413398,-0.389913
5.17218,-0.525993,0.595643,0.836428,0.276789,0.370219,-1.03393,-0.418894,-0.389779
5.18531,-0.526005,0.591104,0.833572,0.276796,0.371925,-1.03837,-0.424572,-0.389629
5.19844,-0.526016,0.586554,0.830819,0.276802,0.373747,-1.04293,-0.430392,-0.389459
5.21156,-0.526026,0.582002,0.828173,0.276808,0.375681,-1.0476,-0.436312,-0.389267
5.22469,-0.526033,0.577461,0.825637,0.276816,0.377721,-1.05236,-0.442291,-0.389053
5.23782,-0.526038,0.572939,0.823214,0.276824,0.379863,-1.05719,-0.448285,-0.38882
5.25095,-0.526042,0.568446,0.820901,0.276836,0.382103,-1.06209,-0.454256,-0.388571
5.26407,-0.526046,0.563989,0.818695,0.276852,0.384439,-1.06704,-0.460166,-0.388312
5.2772,-0.526048,0.559574,0.816591,0.276876,0.386867,-1.07203,-0.465982,-0.388051
5.29033,-0.52605,0.555208,0.81458,0.27691,0.389384,-1.07705,-0.471672,-0.387795
5.30346,-0.526052,0.550895,0.812654,0.27696,0.391986,-1.08208,-0.477207,-0.387552
5.31658,-0.526054,0.546641,0.810803,0.27703,0.394668,-1.08711,-0.482558,-0.387328
5.32971,-0.526056,0.542457,0.809018,0.277126,0.39742,-1.0921,-0.487697,-0.387127
5.34284,-0.526058,0.538353,0.807288,0.277258,0.400232,-1.09704,-0.492593,-0.386953
5.35597,-0.526062,0.534343,0.805607,0.277433,0.40309,-1.10189,-0.497216,-0.386806
5.36909,-0.526066,0.530441,0.803968,0.277664,0.405978,-1.1066,-0.501538,-0.386686
5.38222,-0.526071,0.526662,0.802365,0.277962,0.408878,-1.11115,-0.505533,-0.38659
5.39535,-0.526077,0.523021,0.800793,0.278342,0.411772,-1.11549,-0.509179,-0.386517
5.40847,-0.526084,0.519528,0.799247,0.27882,0.414641,-1.11958,-0.512462,-0.386461
5.4216,-0.526093,0.516191,0.797723,0.279412,0.417468,-1.12338,-0.515374,-0.38642
5.43473,-0.526103,0.513015,0.796213,0.280134,0.420238,-1.12687,-0.517919,-0.38639
5.44786,-0.526115,0.51,0.794713,0.281005,0.422939,-1.13003,-0.520106,-0.386368
5.46098,-0.526127,0.507143,0.793214,0.282041,0.425558,-1.13284,-0.521954,-0.386351
5.47411,-0.526141,0.504439,0.79171,0.283258,0.428087,-1.1353,-0.523486,-0.386339
5.48724,-0.526154,0.501882,0.790194,0.284668,0.43052,-1.13742,-0.524731,-0.38633
5.50037,-0.526168,0.499465,0.788658,0.286283,0.432848,-1.13921,-0.525719,-0.386322
5.51349,-0.526181,0.49718,0.787097,0.288111,0.435065,-1.14068,-0.526479,-0.386315
5.52662,-0.526192,0.49502,0.785505,0.290159,0.437167,-1.14188,-0.527042,-0.386309
5.53975,-0.526201,0.492979,0.783877,0.292429,0.439145,-1.14282,-0.527431,-0.386303
5.55288,-0.526209,0.491049,0.78221,0.294924,0.440994,-1.14354,-0.527667,-0.386298
5.566,-0.526213,0.489226,0.7805,0.297643,0.442708,-1.14408,-0.527765,-0.386294
5.57913,-0.526215,0.487503,0.778744,0.300583,0.444281,-1.14446,-0.527736,-0.38629
5.59226,-0.526215,0.485876,0.776938,0.303742,0.445709,-1.14471,-0.527584,-0.386285
5.60539,-0.526214,0.484341,0.775081,0.307112,0.44699,-1.14487,-0.527307,-0.386281
5.61851,-0.52621,0.482895,0.773172,0.310685,0.448123,-1.14494,-0.526901,-0.386276
