timestamp,ArmR1_Cla1,ArmR2_Sho1,ArmR3_Sho2,ArmR4_Sho3,ArmR5_Elb1,ArmR6_Elb2,ArmR7_Wri1,ArmR8_Wri2
0,-0.844001,0.287246,0.613827,-0.583153,2.1497,0.657208,-0.216664,-0.207295
0.0130368,-0.842865,0.28927,0.613829,-0.582134,2.14964,0.657225,-0.216736,-0.207176
0.0260737,-0.841562,0.291596,0.613832,-0.58096,2.14955,0.657247,-0.216834,-0.207056
0.0391105,-0.840101,0.29421,0.613835,-0.579638,2.14944,0.657275,-0.216965,-0.206938
0.0521473,-0.838492,0.297089,0.613839,-0.578179,2.1493,0.657309,-0.217138,-0.206828
0.0651841,-0.836753,0.300206,0.613845,-0.576599,2.14912,0.65735,-0.217365,-0.206728
0.078221,-0.8349,0.303527,0.613852,-0.574917,2.1489,0.657399,-0.217658,-0.206642
0.0912578,-0.83295,0.307019,0.61386,-0.573151,2.14863,0.657456,-0.218029,-0.20657
0.104295,-0.830919,0.310651,0.613871,-0.571321,2.1483,0.65752,-0.218489,-0.206512
0.117331,-0.82882,0.314394,0.613884,-0.569442,2.14791,0.657589,-0.219047,-0.206468
0.130368,-0.826665,0.318221,0.613899,-0.567531,2.14745,0.657664,-0.219712,-0.206436
0.143405,-0.824463,0.322113,0.613917,-0.565598,2.14693,0.657742,-0.220488,-0.206414
0.156442,-0.822221,0.326052,0.613937,-0.563653,2.14633,0.657821,-0.221375,-0.206399
0.169479,-0.819945,0.330024,0.61396,-0.561705,2.14566,0.657898,-0.222374,-0.20639
0.182516,-0.81764,0.334018,0.613987,-0.559759,2.14491,0.657973,-0.223481,-0.206386
0.195552,-0.815308,0.338026,0.614016,-0.557821,2.14408,0.658042,-0.224692,-0.206384
0.208589,-0.812954,0.342044,0.614049,-0.555895,2.14317,0.658106,-0.226006,-0.206384
0.221626,-0.810579,0.346068,0.614085,-0.553985,2.14218,0.658165,-0.227418,-0.206385
0.234663,-0.808186,0.350099,0.614123,-0.552097,2.1411,0.658218,-0.22893,-0.206387
0.2477,-0.805776,0.354138,0.614165,-0.550232,2.13993,0.658267,-0.230543,-0.206389
0.260737,-0.803347,0.358188,0.614207,-0.548397,2.13867,0.658315,-0.232258,-0.206393
0.273773,-0.800901,0.36225,0.614251,-0.546594,2.13731,0.658364,-0.23408,-0.206397
0.28681,-0.798435,0.366328,0.614295,-0.544828,2.13585,0.658416,-0.23601,-0.206402
0.299847,-0.795947,0.370425,0.614337,-0.543102,2.13429,0.658477,-0.238052,-0.206408
0.312884,-0.793433,0.374542,0.614377,-0.541421,2.13264,0.65855,-0.240206,-0.206415
0.325921,-0.79089,0.378682,0.614413,-0.539788,2.13089,0.658639,-0.242474,-0.206423
0.338957,-0.788312,0.382847,0.614445,-0.538207,2.12905,0.658748,-0.244854,-0.206432
0.351994,-0.785695,0.387041,0.614473,-0.536682,2.12711,0.658882,-0.247346,-0.206443
0.365031,-0.783032,0.391268,0.614494,-0.535215,2.12507,0.659045,-0.249951,-0.206454
0.378068,-0.780317,0.395534,0.614511,-0.533809,2.12294,0.659242,-0.252667,-0.206467
0.391105,-0.777546,0.399844,0.614523,-0.532466,2.12071,0.659477,-0.255493,-0.20648
0.404142,-0.774716,0.404202,0.614531,-0.531184,2.11839,0.659753,-0.258428,-0.206493
0.417178,-0.771824,0.408611,0.614534,-0.529965,2.11596,0.660074,-0.261467,-0.206506
0.430215,-0.768873,0.413072,0.614535,-0.528806,2.11344,0.660442,-0.264605,-0.20652
0.443252,-0.765865,0.417581,0.614534,-0.527705,2.11082,0.660858,-0.267831,-0.206532
0.456289,-0.762805,0.422134,0.61453,-0.526657,2.10811,0.661324,-0.271137,-0.206544
0.469326,-0.759698,0.426724,0.614526,-0.525658,2.10532,0.661841,-0.274508,-0.206555
0.482363,-0.756551,0.431344,0.614521,-0.524703,2.10244,0.662409,-0.277931,-0.206566
0.495399,-0.753369,0.435983,0.614517,-0.523786,2.0995,0.663031,-0.281392,-0.206575
0.508436,-0.750157,0.440635,0.614513,-0.522902,2.09649,0.663707,-0.284878,-0.206583
0.521473,-0.746922,0.445293,0.61451,-0.522046,2.09342,0.664438,-0.288376,-0.20659
0.53451,-0.743667,0.44995,0.614508,-0.521213,2.09031,0.665226,-0.291875,-0.206597
0.547547,-0.740398,0.454603,0.614508,-0.520402,2.08715,0.666072,-0.295366,-0.206604
0.560584,-0.737118,0.459251,0.614508,-0.519608,2.08394,0.666977,-0.298843,-0.206611
0.57362,-0.733833,0.463891,0.614509,-0.518833,2.0807,0.667943,-0.302299,-0.206617
0.586657,-0.730544,0.468526,0.614511,-0.518076,2.07743,0.66897,-0.305732,-0.206624
0.599694,-0.727257,0.473161,0.614513,-0.517338,2.07412,0.670057,-0.309143,-0.206631
0.612731,-0.723971,0.477801,0.614516,-0.516623,2.07077,0.671206,-0.312533,-0.206638
0.625768,-0.720685,0.482456,0.614518,-0.515933,2.06738,0.672414,-0.315908,-0.206645
0.638804,-0.717396,0.487137,0.614521,-0.515271,2.06394,0.673682,-0.319276,-0.206653
0.651841,-0.714098,0.491857,0.614523,-0.514639,2.06045,0.675008,-0.322645,-0.20666
0.664878,-0.710786,0.496631,0.614525,-0.514043,2.05689,0.676392,-0.326026,-0.206669
0.677915,-0.707451,0.501471,0.614527,-0.513483,2.05326,0.677834,-0.329431,-0.206678
0.690952,-0.704086,0.506393,0.614529,-0.512962,2.04954,0.679333,-0.332871,-0.206688
0.703989,-0.700683,0.511405,0.61453,-0.512483,2.04573,0.680888,-0.336356,-0.206699
0.717025,-0.697238,0.516517,0.614532,-0.512046,2.04183,0.682498,-0.339895,-0.206712
0.730062,-0.69375,0.521732,0.614533,-0.511653,2.03783,0.684162,-0.343493,-0.206727
0.743099,-0.690219,0.527047,0.614534,-0.511302,2.03373,0.685878,-0.347152,-0.206743
0.756136,-0.686649,0.532457,0.614534,-0.510995,2.02954,0.68764,-0.350873,-0.206762
0.769173,-0.683048,0.53795,0.614535,-0.51073,2.02527,0.689446,-0.35465,-0.206782
0.78221,-0.679425,0.543509,0.614535,-0.510505,2.02092,0.691287,-0.358477,-0.206803
0.795246,-0.675789,0.549117,0.614535,-0.510317,2.01652,0.693157,-0.362344,-0.206826
0.808283,-0.672151,0.554755,0.614535,-0.510164,2.01208,0.695051,-0.366242,-0.206849
0.82132,-0.668518,0.560404,0.614535,-0.510041,2.00762,0.696961,-0.370159,-0.206872
0.834357,-0.664896,0.56605,0.614535,-0.509945,2.00313,0.698884,-0.374086,-0.206896
0.847394,-0.661288,0.57168,0.614534,-0.509872,1.99864,0.700817,-0.378015,-0.206919
0.860431,-0.657695,0.577289,0.614533,-0.509818,1.99415,0.70276,-0.38194,-0.206942
0.873467,-0.654114,0.582873,0.614531,-0.509779,1.98965,0.704712,-0.385856,-0.206964
0.886504,-0.650542,0.588431,0.614529,-0.509751,1.98515,0.706677,-0.38976,-0.206985
0.899541,-0.646972,0.593966,0.614527,-0.509733,1.98064,0.708656,-0.393647,-0.207007
0.912578,-0.643398,0.599483,0.614524,-0.509721,1.97613,0.710653,-0.397517,-0.207028
0.925615,-0.639814,0.604984,0.614521,-0.509714,1.97159,0.712668,-0.401364,-0.207051
0.938652,-0.636216,0.610472,0.614518,-0.50971,1.96704,0.714704,-0.405186,-0.207076
0.951688,-0.632597,0.615952,0.614516,-0.509707,1.96246,0.716762,-0.408977,-0.207106
0.964725,-0.628955,0.621423,0.614513,-0.509706,1.95785,0.718842,-0.412733,-0.207142
0.977762,-0.625286,0.626885,0.614512,-0.509706,1.95321,0.720944,-0.416447,-0.207187
0.990799,-0.621591,0.632338,0.61451,-0.509706,1.94853,0.723064,-0.420112,-0.207246
1.00384,-0.617872,0.637777,0.61451,-0.509707,1.94383,0.725203,-0.42372,-0.207325
1.01687,-0.61413,0.643199,0.614509,-0.509707,1.93909,0.727356,-0.427264,-0.20743
1.02991,-0.610372,0.648597,0.61451,-0.509708,1.93433,0.72952,-0.430735,-0.207568
1.04295,-0.606603,0.653967,0.61451,-0.509708,1.92954,0.731693,-0.434126,-0.207747
1.05598,-0.602828,0.659304,0.614512,-0.509708,1.92474,0.733872,-0.437429,-0.207976
1.06902,-0.599052,0.664602,0.614514,-0.509708,1.91991,0.736053,-0.440639,-0.208262
1.08206,-0.595281,0.669859,0.614518,-0.509708,1.91507,0.738233,-0.443754,-0.208609
1.09509,-0.591518,0.675071,0.614523,-0.509707,1.91022,0.740411,-0.44677,-0.209022
1.10813,-0.587767,0.680238,0.614528,-0.509707,1.90535,0.742586,-0.449689,-0.209499
1.12117,-0.584031,0.685358,0.614535,-0.509706,1.90047,0.744753,-0.45251,-0.210037
1.1342,-0.580311,0.690432,0.614543,-0.509705,1.89557,0.746912,-0.455238,-0.210629
1.14724,-0.576611,0.695459,0.614552,-0.509705,1.89065,0.74906,-0.457875,-0.211263
1.16028,-0.572931,0.700443,0.614562,-0.509704,1.88571,0.751194,-0.460427,-0.211928
1.17331,-0.569271,0.705388,0.614572,-0.509703,1.88074,0.753314,-0.462899,-0.212609
1.18635,-0.565628,0.710302,0.614582,-0.509702,1.87574,0.755417,-0.465299,-0.213293
1.19939,-0.561998,0.715194,0.614593,-0.5097,1.87069,0.757503,-0.467634,-0.21397
1.21242,-0.558376,0.720077,0.614604,-0.509698,1.86558,0.759572,-0.469913,-0.21463
1.22546,-0.554754,0.724963,0.614616,-0.509695,1.86041,0.761622,-0.472141,-0.215268
1.2385,-0.551124,0.729864,0.614628,-0.50969,1.85515,0.763655,-0.474325,-0.215882
1.25154,-0.547481,0.734793,0.61464,-0.509683,1.84981,0.76567,-0.47647,-0.216474
1.26457,-0.543818,0.739761,0.614653,-0.509674,1.84437,0.767667,-0.478578,-0.217049
1.27761,-0.540132,0.744774,0.614667,-0.509663,1.83882,0.769644,-0.48065,-0.217615
1.29065,-0.536423,0.74984,0.614682,-0.509649,1.83317,0.771601,-0.482685,-0.218184
1.30368,-0.532691,0.754959,0.614697,-0.509632,1.82742,0.773533,-0.484682,-0.218769
1.31672,-0.528941,0.760132,0.614714,-0.50961,1.82156,0.77544,-0.486639,-0.219384
1.32976,-0.525178,0.765358,0.614731,-0.509584,1.81561,0.777317,-0.48855,-0.220046
1.34279,-0.521411,0.770631,0.61475,-0.509552,1.80957,0.779163,-0.490412,-0.220771
1.35583,-0.517647,0.775945,0.61477,-0.509512,1.80345,0.780974,-0.492216,-0.221576
1.36887,-0.513896,0.781291,0.614792,-0.509463,1.79726,0.782748,-0.493952,-0.222476
1.3819,-0.510166,0.786663,0.614816,-0.509403,1.79102,0.784483,-0.49561,-0.223484
1.39494,-0.506467,0.792051,0.614841,-0.509329,1.78472,0.786175,-0.497176,-0.224613
1.40798,-0.502806,0.797447,0.614867,-0.509238,1.77838,0.787822,-0.498637,-0.225869
1.42101,-0.49919,0.802843,0.614894,-0.509128,1.772,0.789421,-0.49998,-0.227256
1.43405,-0.495623,0.808236,0.61492,-0.508995,1.76559,0.790969,-0.501196,-0.228776
1.44709,-0.49211,0.81362,0.614947,-0.508838,1.75914,0.792464,-0.502276,-0.230426
1.46012,-0.48865,0.818994,0.614971,-0.508653,1.75265,0.793903,-0.503218,-0.232199
1.47316,-0.485246,0.824354,0.614994,-0.508439,1.74612,0.795284,-0.504022,-0.234088
1.4862,-0.481895,0.829702,0.615015,-0.508195,1.73955,0.796606,-0.504693,-0.236083
1.49924,-0.478596,0.835035,0.615033,-0.507918,1.73293,0.797869,-0.505241,-0.238174
1.51227,-0.475347,0.840352,0.615048,-0.507609,1.72627,0.799073,-0.505677,-0.240352
1.52531,-0.472143,0.845653,0.615061,-0.507266,1.71957,0.80022,-0.506015,-0.242608
1.53835,-0.468981,0.850935,0.615071,-0.506888,1.71282,0.801313,-0.506271,-0.244933
1.55138,-0.465858,0.856199,0.61508,-0.506473,1.70604,0.802354,-0.50646,-0.24732
1.56442,-0.462768,0.861444,0.615086,-0.506022,1.69921,0.803347,-0.506594,-0.249764
1.57746,-0.459708,0.866672,0.615091,-0.505532,1.69234,0.804296,-0.506687,-0.252261
1.59049,-0.456673,0.871887,0.615095,-0.505002,1.68544,0.805205,-0.506748,-0.254807
1.60353,-0.453656,0.877091,0.615098,-0.504433,1.67849,0.806077,-0.506788,-0.257401
1.61657,-0.450654,0.88229,0.615101,-0.503825,1.67149,0.806915,-0.506811,-0.260043
1.6296,-0.44766,0.887488,0.615103,-0.503179,1.66445,0.80772,-0.506824,-0.26273
1.64264,-0.444671,0.892688,0.615104,-0.502498,1.65736,0.808493,-0.50683,-0.265463
1.65568,-0.441681,0.897894,0.615106,-0.501786,1.65021,0.809234,-0.506831,-0.268239
1.66871,-0.438687,0.903104,0.615108,-0.501049,1.64303,0.809941,-0.506828,-0.271057
1.68175,-0.435688,0.908319,0.61511,-0.500294,1.6358,0.810613,-0.506823,-0.273913
1.69479,-0.43268,0.913536,0.615112,-0.49953,1.62853,0.811246,-0.506814,-0.276802
1.70782,-0.429666,0.91875,0.615115,-0.498767,1.62124,0.811838,-0.506803,-0.279718
1.72086,-0.426646,0.923957,0.615118,-0.498013,1.61393,0.812386,-0.506787,-0.282655
1.7339,-0.423623,0.929152,0.61512,-0.497281,1.60661,0.812888,-0.506767,-0.285604
1.74693,-0.420603,0.934328,0.615123,-0.49658,1.5993,0.813342,-0.506741,-0.288557
1.75997,-0.417592,0.939481,0.615125,-0.495919,1.59199,0.813748,-0.506708,-0.291506
1.77301,-0.414595,0.944604,0.615128,-0.495306,1.58469,0.814105,-0.506667,-0.294442
1.78605,-0.41162,0.949693,0.61513,-0.494748,1.57742,0.814414,-0.506617,-0.297356
1.79908,-0.408671,0.954742,0.615132,-0.49425,1.57017,0.814677,-0.506557,-0.300243
1.81212,-0.405754,0.959747,0.615133,-0.493814,1.56296,0.814897,-0.506486,-0.303096
1.82516,-0.402871,0.964704,0.615135,-0.49344,1.55578,0.815078,-0.506403,-0.305911
1.83819,-0.400022,0.969612,0.615136,-0.493127,1.54863,0.815224,-0.506306,-0.308687
1.85123,-0.397204,0.97447,0.615137,-0.492872,1.5415,0.815339,-0.506193,-0.311423
1.86427,-0.394414,0.979278,0.615138,-0.492669,1.5344,0.815428,-0.506057,-0.31412
1.8773,-0.391647,0.984035,0.615138,-0.492512,1.5273,0.815496,-0.505893,-0.31678
1.89034,-0.388899,0.988744,0.615139,-0.492393,1.52021,0.815547,-0.505691,-0.319403
1.90338,-0.386165,0.993404,0.615139,-0.492306,1.51312,0.815584,-0.505437,-0.321989
1.91641,-0.383446,0.998014,0.615139,-0.492244,1.50603,0.815612,-0.505117,-0.324536
1.92945,-0.38074,1.00257,0.61514,-0.492201,1.49892,0.815632,-0.504712,-0.32704
1.94249,-0.378049,1.00708,0.61514,-0.492172,1.49181,0.815647,-0.504198,-0.329493
1.95552,-0.375376,1.01153,0.61514,-0.492153,1.48468,0.815658,-0.503554,-0.331887
1.96856,-0.37272,1.01593,0.61514,-0.49214,1.47754,0.815667,-0.502752,-0.334212
1.9816,-0.370084,1.02028,0.615141,-0.492132,1.47038,0.815674,-0.50177,-0.336456
1.99463,-0.367465,1.02458,0.615142,-0.492126,1.4632,0.815679,-0.500582,-0.33861
2.00767,-0.364861,1.02884,0.615143,-0.492122,1.45597,0.815684,-0.499169,-0.340661
2.02071,-0.362266,1.03308,0.615145,-0.49212,1.4487,0.815688,-0.497513,-0.342599
2.03375,-0.359674,1.03729,0.615148,-0.492117,1.44137,0.815691,-0.495604,-0.344414
2.04678,-0.357081,1.04148,0.615153,-0.492115,1.43398,0.815693,-0.493436,-0.346094
2.05982,-0.354481,1.04566,0.615158,-0.492112,1.42652,0.815695,-0.491009,-0.347631
2.07286,-0.351874,1.04982,0.615164,-0.49211,1.419,0.815697,-0.488329,-0.349015
2.08589,-0.34926,1.05396,0.615171,-0.492107,1.41144,0.815699,-0.485406,-0.350241
2.09893,-0.346643,1.05807,0.615178,-0.492105,1.40386,0.8157,-0.482252,-0.351306
2.11197,-0.344028,1.06214,0.615186,-0.492102,1.39627,0.815701,-0.47888,-0.352212
2.125,-0.34142,1.06618,0.615194,-0.4921,1.38868,0.815703,-0.4753,-0.352964
2.13804,-0.338823,1.07017,0.615202,-0.492097,1.38112,0.815704,-0.471522,-0.353573
2.15108,-0.336243,1.07411,0.615209,-0.492095,1.37357,0.815705,-0.467552,-0.354053
2.16411,-0.333678,1.07802,0.615215,-0.492092,1.36604,0.815705,-0.463393,-0.35442
2.17715,-0.33113,1.08189,0.61522,-0.49209,1.35853,0.815707,-0.459046,-0.354694
2.19019,-0.328595,1.08574,0.615224,-0.492087,1.35101,0.815707,-0.454513,-0.354892
2.20322,-0.32607,1.08956,0.615228,-0.492084,1.34348,0.815707,-0.449798,-0.355031
2.21626,-0.323552,1.09336,0.615231,-0.492081,1.33593,0.815707,-0.444907,-0.355125
2.2293,-0.321039,1.09715,0.615233,-0.492077,1.32836,0.815707,-0.439852,-0.355188
2.24233,-0.318529,1.10091,0.615235,-0.492072,1.32077,0.815707,-0.434648,-0.355228
2.25537,-0.316023,1.10465,0.615236,-0.492067,1.31316,0.815706,-0.429314,-0.355253
2.26841,-0.313523,1.10836,0.615238,-0.492061,1.30555,0.815705,-0.423873,-0.355268
2.28144,-0.311035,1.11204,0.615239,-0.492054,1.29794,0.815704,-0.418347,-0.355278
2.29448,-0.308562,1.11567,0.61524,-0.492047,1.29035,0.815703,-0.41276,-0.355283
2.30752,-0.30611,1.11924,0.615241,-0.49204,1.28278,0.815702,-0.407132,-0.355286
2.32056,-0.303683,1.12277,0.615241,-0.492032,1.27523,0.8157,-0.401481,-0.355288
2.33359,-0.301287,1.12625,0.615241,-0.492024,1.26771,0.815698,-0.395824,-0.355288
2.34663,-0.298923,1.12968,0.61524,-0.492016,1.26019,0.815696,-0.390174,-0.355286
2.35967,-0.296594,1.13306,0.615239,-0.492009,1.25268,0.815695,-0.384543,-0.355283
2.3727,-0.294301,1.1364,0.615236,-0.492002,1.24518,0.815693,-0.378946,-0.355277
2.38574,-0.292043,1.1397,0.615233,-0.491995,1.23767,0.815692,-0.373396,-0.355268
2.39878,-0.28982,1.14296,0.615229,-0.491988,1.23015,0.815691,-0.367911,-0.355252
2.41181,-0.287629,1.14619,0.615224,-0.491981,1.22263,0.815691,-0.362512,-0.355229
2.42485,-0.285466,1.14937,0.615219,-0.491973,1.21511,0.815691,-0.357216,-0.355195
2.43789,-0.283326,1.15251,0.615215,-0.491963,1.20759,0.815692,-0.352046,-0.355144
2.45092,-0.281204,1.15561,0.61521,-0.491952,1.20009,0.815692,-0.347019,-0.355071
2.46396,-0.279092,1.15866,0.615206,-0.491938,1.1926,0.815693,-0.342151,-0.354968
2.477,-0.276982,1.16166,0.615203,-0.491919,1.18512,0.815694,-0.337451,-0.354827
2.49003,-0.274867,1.16462,0.615201,-0.491897,1.17765,0.815695,-0.332927,-0.354638
2.50307,-0.272739,1.16754,0.615199,-0.491868,1.17018,0.815696,-0.32858,-0.354391
2.51611,-0.270593,1.17041,0.615198,-0.491832,1.1627,0.815696,-0.324411,-0.354077
2.52914,-0.268426,1.17326,0.615197,-0.491787,1.15521,0.815696,-0.320417,-0.353687
2.54218,-0.266236,1.17606,0.615196,-0.491732,1.1477,0.815696,-0.316598,-0.353214
2.55522,-0.264027,1.17884,0.615194,-0.491667,1.14018,0.815694,-0.312954,-0.352652
2.56825,-0.261802,1.18159,0.615192,-0.491589,1.13265,0.815693,-0.309488,-0.352
2.58129,-0.259565,1.1843,0.61519,-0.491498,1.12511,0.815692,-0.306204,-0.351256
2.59433,-0.257322,1.18697,0.615187,-0.491394,1.11759,0.81569,-0.303105,-0.350422
2.60737,-0.255077,1.18961,0.615184,-0.491276,1.11008,0.815687,-0.300192,-0.349501
2.6204,-0.25283,1.1922,0.61518,-0.491146,1.10259,0.815685,-0.297464,-0.348496
2.63344,-0.250581,1.19476,0.615176,-0.491003,1.09512,0.815684,-0.294915,-0.347413
2.64648,-0.248327,1.19727,0.615173,-0.490849,1.08767,0.815682,-0.292537,-0.346254
2.65951,-0.246063,1.19974,0.61517,-0.490685,1.08024,0.815681,-0.290317,-0.345024
2.67255,-0.243786,1.20217,0.615166,-0.490512,1.07282,0.81568,-0.288239,-0.343723
2.68559,-0.241492,1.20456,0.615164,-0.49033,1.06541,0.815679,-0.286289,-0.342353
2.69862,-0.239182,1.20691,0.615161,-0.490141,1.05801,0.815679,-0.284453,-0.340913
2.71166,-0.236856,1.20921,0.615159,-0.489945,1.05064,0.815679,-0.282722,-0.339402
2.7247,-0.23452,1.21145,0.615157,-0.489742,1.0433,0.815679,-0.281088,-0.337818
2.73773,-0.232179,1.21364,0.615154,-0.489532,1.03601,0.81568,-0.279547,-0.336158
2.75077,-0.229841,1.21577,0.615152,-0.489314,1.02879,0.81568,-0.278098,-0.334422
2.76381,-0.227509,1.21783,0.61515,-0.489087,1.02163,0.81568,-0.276741,-0.332604
2.77684,-0.225188,1.21983,0.615147,-0.488849,1.01454,0.81568,-0.275473,-0.330703
2.78988,-0.222877,1.22178,0.615145,-0.488599,1.0075,0.815679,-0.274291,-0.328715
2.80292,-0.220573,1.22366,0.615142,-0.488336,1.00048,0.815679,-0.273187,-0.326635
2.81595,-0.218267,1.2255,0.615138,-0.488056,0.993456,0.815679,-0.27215,-0.324461
2.82899,-0.215953,1.2273,0.615135,-0.487759,0.986398,0.815678,-0.271165,-0.32219
2.84203,-0.213621,1.22908,0.615131,-0.487441,0.979274,0.815678,-0.270213,-0.31982
2.85507,-0.211266,1.23082,0.615127,-0.4871,0.972066,0.815678,-0.269276,-0.317353
2.8681,-0.208881,1.23254,0.615124,-0.486735,0.964764,0.815677,-0.268332,-0.314792
2.88114,-0.206467,1.23424,0.615121,-0.486342,0.957373,0.815677,-0.267362,-0.312143
2.89418,-0.204024,1.23591,0.615119,-0.48592,0.949908,0.815677,-0.266348,-0.309412
2.90721,-0.201557,1.23754,0.615117,-0.485466,0.942392,0.815677,-0.265277,-0.306609
2.92025,-0.199072,1.23913,0.615116,-0.484978,0.934852,0.815677,-0.264136,-0.303744
2.93329,-0.196574,1.24068,0.615115,-0.484452,0.927315,0.815677,-0.26292,-0.300824
2.94632,-0.194071,1.24217,0.615115,-0.483887,0.919804,0.815677,-0.261624,-0.297858
2.95936,-0.191568,1.2436,0.615115,-0.483281,0.912338,0.815676,-0.26025,-0.294853
2.9724,-0.189069,1.24497,0.615115,-0.482633,0.904928,0.815675,-0.258799,-0.291815
2.98543,-0.186581,1.24629,0.615116,-0.481942,0.897582,0.815675,-0.257274,-0.288748
2.99847,-0.184106,1.24755,0.615116,-0.481211,0.890302,0.815674,-0.255679,-0.285658
3.01151,-0.181648,1.24875,0.615116,-0.480442,0.883084,0.815673,-0.254015,-0.282545
3.02454,-0.179209,1.24991,0.615117,-0.479639,0.875921,0.815673,-0.252279,-0.27941
3.03758,-0.176788,1.25101,0.615117,-0.478808,0.8688,0.815673,-0.250466,-0.276252
3.05062,-0.174386,1.25208,0.615117,-0.477956,0.861705,0.815672,-0.248567,-0.273065
3.06365,-0.171999,1.25312,0.615117,-0.477089,0.854616,0.815672,-0.24657,-0.269843
3.07669,-0.169625,1.25413,0.615117,-0.476216,0.847511,0.815671,-0.244461,-0.266577
3.08973,-0.167259,1.25513,0.615118,-0.475345,0.840371,0.815671,-0.242228,-0.26326
3.10276,-0.164899,1.25612,0.615119,-0.474485,0.833178,0.815671,-0.239861,-0.259885
3.1158,-0.162544,1.25712,0.615121,-0.473642,0.825922,0.815671,-0.237353,-0.256452
3.12884,-0.160196,1.25812,0.615122,-0.472825,0.818602,0.815671,-0.234703,-0.252963
3.14188,-0.157861,1.25914,0.615124,-0.472039,0.811224,0.81567,-0.231916,-0.249428
3.15491,-0.155546,1.26017,0.615125,-0.471291,0.803802,0.81567,-0.228999,-0.24586
3.16795,-0.153261,1.26124,0.615126,-0.470583,0.796354,0.815669,-0.225964,-0.242278
3.18099,-0.151015,1.26233,0.615127,-0.469917,0.788902,0.815668,-0.222821,-0.238702
3.19402,-0.148819,1.26346,0.615127,-0.469294,0.781462,0.815666,-0.219582,-0.235152
3.20706,-0.146681,1.26462,0.615126,-0.468709,0.774052,0.815665,-0.216257,-0.231648
3.2201,-0.144606,1.26582,0.615125,-0.46816,0.76668,0.815664,-0.212854,-0.22821
3.23313,-0.142598,1.26706,0.615122,-0.46764,0.759355,0.815662,-0.209377,-0.224853
3.24617,-0.140658,1.26834,0.61512,-0.467142,0.752078,0.815661,-0.205829,-0.221594
3.25921,-0.138786,1.26965,0.615117,-0.466658,0.744853,0.815659,-0.202214,-0.218446
3.27224,-0.13698,1.27101,0.615113,-0.466183,0.737682,0.815657,-0.198533,-0.215425
3.28528,-0.135237,1.2724,0.615109,-0.465707,0.73057,0.815656,-0.194789,-0.212545
3.29832,-0.133555,1.27383,0.615105,-0.465224,0.723525,0.815654,-0.190988,-0.209818
3.31135,-0.13193,1.27529,0.615101,-0.464729,0.716556,0.815653,-0.187132,-0.207259
3.32439,-0.130359,1.27677,0.615098,-0.464215,0.709674,0.815652,-0.183228,-0.204878
3.33743,-0.12884,1.27827,0.615094,-0.463679,0.702891,0.815651,-0.179281,-0.202683
3.35046,-0.12737,1.2798,0.615091,-0.463118,0.69622,0.81565,-0.175298,-0.200679
3.3635,-0.125946,1.28133,0.615088,-0.462529,0.689672,0.81565,-0.171285,-0.198869
3.37654,-0.124567,1.28287,0.615085,-0.461913,0.683259,0.81565,-0.167246,-0.197249
3.38958,-0.12323,1.28442,0.615083,-0.461269,0.676991,0.81565,-0.163189,-0.195818
3.40261,-0.121935,1.28596,0.615081,-0.4606,0.670877,0.81565,-0.159117,-0.194566
3.41565,-0.120682,1.28749,0.61508,-0.45991,0.664923,0.81565,-0.155036,-0.193486
3.42869,-0.119469,1.28902,0.615079,-0.459202,0.659135,0.815649,-0.150949,-0.192567
3.44172,-0.118298,1.29053,0.615079,-0.458484,0.653518,0.815649,-0.14686,-0.191798
3.45476,-0.117169,1.29203,0.615079,-0.457762,0.648072,0.815649,-0.142772,-0.191165
3.4678,-0.116083,1.29351,0.615079,-0.457045,0.6428,0.815648,-0.138691,-0.190655
3.48083,-0.115043,1.29498,0.615079,-0.456343,0.637703,0.815647,-0.134621,-0.190254
3.49387,-0.114052,1.29643,0.615079,-0.455664,0.632783,0.815646,-0.130569,-0.189946
3.50691,-0.11311,1.29787,0.61508,-0.455019,0.628042,0.815645,-0.126544,-0.189718
3.51994,-0.112223,1.29928,0.615079,-0.454415,0.623484,0.815645,-0.122557,-0.189556
3.53298,-0.111393,1.30068,0.615079,-0.453861,0.619113,0.815644,-0.118617,-0.189447
3.54602,-0.110624,1.30205,0.615078,-0.453362,0.614932,0.815644,-0.114739,-0.189382
3.55905,-0.109919,1.30341,0.615076,-0.452922,0.610945,0.815643,-0.110934,-0.189351
3.57209,-0.109279,1.30474,0.615074,-0.452541,0.607154,0.815643,-0.107214,-0.189349
3.58513,-0.108707,1.30606,0.615071,-0.452218,0.603561,0.815643,-0.103592,-0.18937
3.59816,-0.108203,1.30735,0.615067,-0.451951,0.600169,0.815643,-0.100078,-0.189414
3.6112,-0.107766,1.30861,0.615063,-0.451734,0.596978,0.815643,-0.096683,-0.189479
3.62424,-0.107394,1.30985,0.615059,-0.451562,0.593991,0.815642,-0.0934173,-0.189567
3.63727,-0.107083,1.31105,0.615056,-0.45143,0.591209,0.815642,-0.090291,-0.189682
3.65031,-0.10683,1.31222,0.615053,-0.451329,0.588636,0.815641,-0.0873133,-0.189826
3.66335,-0.106628,1.31335,0.61505,-0.451254,0.586273,0.81564,-0.0844926,-0.190005
3.67639,-0.106471,1.31444,0.615049,-0.4512,0.584123,0.815639,-0.0818363,-0.190223
3.68942,-0.106354,1.31547,0.615048,-0.451161,0.582188,0.815637,-0.0793494,-0.190486
3.70246,-0.10627,1.31644,0.615049,-0.451134,0.580466,0.815635,-0.0770354,-0.190797
3.7155,-0.106212,1.31736,0.61505,-0.451116,0.578954,0.815633,-0.0748953,-0.191159
3.72853,-0.106174,1.31822,0.615052,-0.451103,0.577647,0.815631,-0.0729282,-0.191574
3.74157,-0.106152,1.31901,0.615054,-0.451094,0.576536,0.815629,-0.0711315,-0.192039
3.75461,-0.10614,1.31973,0.615056,-0.451088,0.575607,0.815627,-0.0695018,-0.192552
3.76764,-0.106136,1.32039,0.615058,-0.451083,0.574848,0.815625,-0.0680346,-0.19311
3.78068,-0.106137,1.32098,0.615058,-0.45108,0.574239,0.815623,-0.0667251,-0.193706
3.79372,-0.106139,1.32151,0.615058,-0.451078,0.573762,0.815622,-0.0655682,-0.194336
3.80675,-0.106143,1.32198,0.615057,-0.451076,0.573399,0.815621,-0.0645582,-0.194993
3.81979,-0.106146,1.32239,0.615055,-0.451075,0.573129,0.81562,-0.0636887,-0.195676
3.83283,-0.106149,1.32274,0.615052,-0.451074,0.572934,0.815619,-0.0629521,-0.196384
3.84586,-0.10615,1.32305,0.615049,-0.451074,0.572798,0.815619,-0.0623393,-0.19712
3.8589,-0.10615,1.3233,0.615045,-0.451075,0.572706,0.81562,-0.0618397,-0.197889
3.87194,-0.106149,1.32352,0.61504,-0.451075,0.572647,0.81562,-0.0614414,-0.198701
3.88497,-0.106146,1.32369,0.615035,-0.451076,0.572611,0.815621,-0.0611314,-0.199568
3.89801,-0.106142,1.32384,0.61503,-0.451077,0.572591,0.815622,-0.0608961,-0.200503
3.91105,-0.106138,1.32395,0.615025,-0.451078,0.572582,0.815623,-0.0607222,-0.20152
3.92408,-0.106132,1.32404,0.615021,-0.451078,0.572579,0.815624,-0.0605972,-0.202632
3.93712,-0.106126,1.32412,0.615016,-0.451079,0.572583,0.815625,-0.0605098,-0.203851
3.95016,-0.10612,1.32418,0.615012,-0.451079,0.57259,0.815627,-0.0604505,-0.205183
3.9632,-0.106115,1.32423,0.615008,-0.451078,0.572601,0.815628,-0.0604112,-0.206632
3.97623,-0.10611,1.32427,0.615005,-0.451077,0.572615,0.815629,-0.0603859,-0.2082
3.98927,-0.106106,1.3243,0.615003,-0.451076,0.572632,0.815631,-0.0603698,-0.20988
4.00231,-0.106103,1.32433,0.615001,-0.451075,0.572652,0.815632,-0.0603598,-0.211666
4.01534,-0.106101,1.32435,0.615,-0.451073,0.572676,0.815633,-0.0603533,-0.213545
4.02838,-0.1061,1.32437,0.614999,-0.451071,0.572704,0.815634,-0.060349,-0.215503
4.04142,-0.1061,1.32439,0.614999,-0.451069,0.572737,0.815635,-0.0603457,-0.217522
4.05445,-0.106101,1.32441,0.614999,-0.451068,0.572774,0.815635,-0.060343,-0.21958
4.06749,-0.106103,1.32442,0.614999,-0.451066,0.572818,0.815634,-0.0603402,-0.221651
4.08053,-0.106107,1.32444,0.614999,-0.451065,0.572869,0.815633,-0.0603375,-0.223707
4.09356,-0.106112,1.32445,0.614999,-0.451065,0.57293,0.815631,-0.0603345,-0.225715
4.1066,-0.106118,1.32446,0.614999,-0.451064,0.573003,0.81563,-0.0603316,-0.227644
4.11964,-0.106125,1.32446,0.614998,-0.451064,0.573092,0.815628,-0.0603287,-0.229459
4.13267,-0.106134,1.32447,0.614997,-0.451063,0.573201,0.815626,-0.0603263,-0.231134
4.14571,-0.106145,1.32447,0.614996,-0.451063,0.573337,0.815625,-0.0603245,-0.232643
4.15875,-0.106158,1.32447,0.614994,-0.451062,0.573506,0.815623,-0.0603238,-0.233971
4.17178,-0.106173,1.32447,0.614993,-0.451061,0.573716,0.815622,-0.0603244,-0.23511
4.18482,-0.10619,1.32447,0.614991,-0.451061,0.573977,0.815622,-0.0603265,-0.236062
4.19786,-0.10621,1.32446,0.614991,-0.45106,0.574298,0.815621,-0.0603304,-0.236837
4.2109,-0.106233,1.32445,0.614991,-0.45106,0.57469,0.815621,-0.0603359,-0.237449
4.22393,-0.106259,1.32444,0.614992,-0.451059,0.57516,0.81562,-0.0603429,-0.23792
4.23697,-0.106288,1.32443,0.614994,-0.451058,0.575718,0.81562,-0.0603514,-0.238272
4.25001,-0.10632,1.32442,0.614997,-0.451058,0.576368,0.81562,-0.0603609,-0.238527
4.26304,-0.106356,1.32441,0.615001,-0.451058,0.577114,0.815619,-0.0603713,-0.238706
4.27608,-0.106395,1.3244,0.615005,-0.451057,0.577957,0.815619,-0.0603823,-0.238829
4.28912,-0.106437,1.32439,0.615009,-0.451057,0.578893,0.815619,-0.0603938,-0.23891
4.30215,-0.106481,1.32438,0.615014,-0.451057,0.579918,0.815618,-0.0604056,-0.238963
4.31519,-0.106528,1.32437,0.615019,-0.451056,0.581026,0.815617,-0.060418,-0.238996
4.32823,-0.106577,1.32436,0.615023,-0.451056,0.582208,0.815616,-0.0604309,-0.239016
4.34126,-0.106629,1.32435,0.615028,-0.451056,0.583455,0.815616,-0.0604447,-0.239028
4.3543,-0.106682,1.32434,0.615032,-0.451055,0.584761,0.815615,-0.0604594,-0.239036
4.36734,-0.106738,1.32433,0.615036,-0.451055,0.586116,0.815614,-0.0604753,-0.23904
4.38037,-0.106796,1.32432,0.61504,-0.451054,0.587514,0.815613,-0.0604926,-0.239043
4.39341,-0.106856,1.3243,0.615044,-0.451054,0.58895,0.815613,-0.0605113,-0.239046
4.40645,-0.106918,1.32428,0.615047,-0.451053,0.590416,0.815613,-0.0605315,-0.239047
4.41948,-0.106982,1.32424,0.615051,-0.451053,0.591907,0.815612,-0.0605533,-0.239047
4.43252,-0.107047,1.3242,0.615054,-0.451052,0.593415,0.815612,-0.0605768,-0.239047
4.44556,-0.107113,1.32414,0.615057,-0.451052,0.594933,0.815613,-0.0606019,-0.239046
4.45859,-0.107178,1.32407,0.61506,-0.451051,0.596453,0.815613,-0.060629,-0.239043
4.47163,-0.107242,1.32397,0.615063,-0.451051,0.597964,0.815614,-0.0606584,-0.239039
4.48467,-0.107303,1.32385,0.615065,-0.45105,0.599456,0.815614,-0.0606906,-0.239034
4.4977,-0.10736,1.32369,0.615066,-0.45105,0.600922,0.815615,-0.0607266,-0.239027
4.51074,-0.107413,1.32351,0.615068,-0.451049,0.602353,0.815615,-0.0607674,-0.239017
4.52378,-0.107461,1.32328,0.615069,-0.451048,0.603741,0.815615,-0.0608146,-0.239005
4.53682,-0.107504,1.32301,0.615069,-0.451048,0.605084,0.815615,-0.0608702,-0.23899
4.54985,-0.107542,1.3227,0.61507,-0.451047,0.60638,0.815615,-0.0609365,-0.238972
4.56289,-0.107576,1.32234,0.61507,-0.451047,0.607628,0.815614,-0.0610165,-0.23895
4.57593,-0.107604,1.32193,0.61507,-0.451047,0.608835,0.815613,-0.0611139,-0.238924
4.58896,-0.107629,1.32147,0.61507,-0.451047,0.610004,0.815613,-0.0612325,-0.238891
4.602,-0.10765,1.32095,0.61507,-0.451046,0.611146,0.815612,-0.0613769,-0.238851
4.61504,-0.107667,1.32038,0.61507,-0.451046,0.61227,0.815612,-0.0615515,-0.2388
4.62807,-0.107682,1.31975,0.61507,-0.451046,0.613386,0.815611,-0.061761,-0.238737
4.64111,-0.107695,1.31906,0.61507,-0.451046,0.614506,0.815611,-0.0620091,-0.238658
4.65415,-0.107707,1.31831,0.61507,-0.451045,0.615642,0.815611,-0.0622993,-0.238557
4.66718,-0.107719,1.31751,0.61507,-0.451045,0.616805,0.815611,-0.0626334,-0.238427
4.68022,-0.107732,1.31665,0.61507,-0.451045,0.618004,0.81561,-0.0630119,-0.238262
4.69326,-0.107748,1.31573,0.61507,-0.451045,0.619249,0.81561,-0.0634338,-0.238051
4.70629,-0.10777,1.31476,0.61507,-0.451045,0.620551,0.815609,-0.0638963,-0.237784
4.71933,-0.107799,1.31374,0.61507,-0.451046,0.621916,0.815609,-0.0643954,-0.237447
4.73237,-0.107839,1.31266,0.61507,-0.451047,0.623354,0.815608,-0.0649261,-0.237026
4.7454,-0.107893,1.31154,0.615069,-0.451048,0.624872,0.815607,-0.0654826,-0.236506
4.75844,-0.107967,1.31036,0.615069,-0.451049,0.626476,0.815606,-0.0660596,-0.235874
4.77148,-0.108065,1.30914,0.615069,-0.45105,0.628173,0.815604,-0.0666522,-0.235115
4.78452,-0.108192,1.30787,0.615069,-0.451051,0.629969,0.815603,-0.0672574,-0.234216
4.79755,-0.108354,1.30657,0.615068,-0.451052,0.631869,0.815601,-0.0678741,-0.233167
4.81059,-0.108555,1.30522,0.615068,-0.451052,0.633877,0.8156,-0.0685041,-0.231961
4.82363,-0.108801,1.30385,0.615068,-0.451052,0.635998,0.815599,-0.0691524,-0.230589
4.83666,-0.109097,1.30243,0.615068,-0.451052,0.638237,0.815598,-0.0698273,-0.229048
4.8497,-0.109449,1.30099,0.615067,-0.451051,0.6406,0.815597,-0.0705404,-0.227333
4.86274,-0.109859,1.29952,0.615066,-0.451049,0.643093,0.815596,-0.0713066,-0.22544
4.87577,-0.110332,1.29801,0.615064,-0.451047,0.64572,0.815596,-0.0721426,-0.223368
4.88881,-0.110872,1.29647,0.615062,-0.451044,0.64849,0.815595,-0.0730671,-0.221112
4.90185,-0.11148,1.2949,0.615059,-0.451041,0.651408,0.815595,-0.0740989,-0.21867
4.91488,-0.112159,1.29329,0.615055,-0.451037,0.654481,0.815594,-0.0752562,-0.21604
4.92792,-0.112911,1.29165,0.615052,-0.451032,0.657713,0.815593,-0.0765551,-0.213222
4.94096,-0.113735,1.28997,0.615048,-0.451025,0.661108,0.815592,-0.078009,-0.21022
4.95399,-0.114632,1.28826,0.615044,-0.451017,0.664667,0.815591,-0.0796274,-0.207038
4.96703,-0.1156,1.28651,0.61504,-0.451006,0.66839,0.81559,-0.0814157,-0.203687
4.98007,-0.116637,1.28473,0.615037,-0.450992,0.672274,0.815589,-0.0833746,-0.200181
4.9931,-0.11774,1.28292,0.615034,-0.450974,0.676312,0.815588,-0.0855011,-0.196538
5.00614,-0.118904,1.28108,0.615031,-0.450953,0.680497,0.815587,-0.0877885,-0.192777
5.01918,-0.120126,1.27922,0.615029,-0.450927,0.68482,0.815587,-0.0902276,-0.188924
5.03222,-0.1214,1.27735,0.615026,-0.450897,0.689273,0.815587,-0.0928074,-0.185004
5.04525,-0.122722,1.27545,0.615023,-0.450864,0.693844,0.815587,-0.0955164,-0.181047
5.05829,-0.124088,1.27356,0.61502,-0.450827,0.698527,0.815587,-0.0983433,-0.177082
5.07133,-0.125494,1.27165,0.615016,-0.450787,0.703313,0.815588,-0.101278,-0.173139
5.08436,-0.126937,1.26974,0.615012,-0.450747,0.7082,0.815589,-0.10431,-0.16925
5.0974,-0.128416,1.26783,0.615007,-0.450707,0.713183,0.81559,-0.107431,-0.165443
5.11044,-0.12993,1.26591,0.615001,-0.450668,0.718263,0.81559,-0.110633,-0.161749
5.12347,-0.131477,1.26399,0.614996,-0.450632,0.723439,0.815591,-0.11391,-0.158196
5.13651,-0.133058,1.26207,0.61499,-0.450599,0.728713,0.815591,-0.117253,-0.154811
5.14955,-0.134672,1.26014,0.614985,-0.450571,0.734086,0.815591,-0.120656,-0.15162
5.16258,-0.136318,1.25821,0.614979,-0.450547,0.739561,0.81559,-0.124112,-0.148645
5.17562,-0.137996,1.25626,0.614974,-0.450528,0.745143,0.815588,-0.127614,-0.145908
5.18866,-0.139707,1.25429,0.61497,-0.450513,0.750839,0.815585,-0.131158,-0.143424
5.20169,-0.141452,1.2523,0.614966,-0.450502,0.756658,0.815582,-0.13474,-0.141204
5.21473,-0.143234,1.25028,0.614963,-0.450494,0.762616,0.815576,-0.138359,-0.139256
5.22777,-0.145053,1.24823,0.614961,-0.450488,0.768726,0.815569,-0.142013,-0.137579
5.2408,-0.146915,1.24613,0.614961,-0.450483,0.774998,0.815561,-0.145701,-0.136169
5.25384,-0.148819,1.24398,0.614961,-0.45048,0.781443,0.81555,-0.149418,-0.135018
5.26688,-0.150768,1.24178,0.614963,-0.450476,0.788061,0.815538,-0.153157,-0.134112
5.27991,-0.152761,1.23954,0.614966,-0.450473,0.794844,0.815524,-0.156906,-0.133437
5.29295,-0.154797,1.23725,0.61497,-0.450469,0.801777,0.815509,-0.160651,-0.132978
5.30599,-0.156872,1.23492,0.614973,-0.450466,0.80884,0.81549,-0.164374,-0.132721
5.31903,-0.158983,1.23256,0.614978,-0.450463,0.816008,0.81547,-0.168056,-0.132652
5.33206,-0.161128,1.23017,0.614982,-0.45046,0.823256,0.815447,-0.171678,-0.132761
5.3451,-0.163305,1.22777,0.614986,-0.450458,0.830563,0.815419,-0.175224,-0.133037
5.35814,-0.165513,1.22536,0.61499,-0.450457,0.837913,0.815388,-0.178679,-0.133471
5.37117,-0.16775,1.22294,0.614993,-0.450457,0.845294,0.815351,-0.18203,-0.134057
5.38421,-0.170017,1.22052,0.614995,-0.450457,0.852698,0.815308,-0.185265,-0.134787
5.39725,-0.172312,1.2181,0.614997,-0.450458,0.860119,0.815259,-0.188374,-0.135656
5.41028,-0.174635,1.21568,0.614998,-0.45046,0.867557,0.815204,-0.191345,-0.13666
5.42332,-0.176982,1.21326,0.614999,-0.450462,0.875007,0.815144,-0.194169,-0.137796
5.43636,-0.179351,1.21083,0.614999,-0.450463,0.88247,0.815078,-0.196834,-0.139064
5.44939,-0.181739,1.20842,0.614999,-0.450464,0.889947,0.81501,-0.19933,-0.140466
5.46243,-0.184144,1.206,0.614999,-0.450465,0.897441,0.814939,-0.201651,-0.14201
5.47547,-0.186565,1.20358,0.614999,-0.450464,0.90496,0.81487,-0.203791,-0.143704
5.4885,-0.189006,1.20116,0.614999,-0.450462,0.912518,0.814802,-0.205751,-0.145563
5.50154,-0.19147,1.19873,0.614999,-0.450459,0.920135,0.814737,-0.207535,-0.1476
5.51458,-0.193965,1.19627,0.614999,-0.450455,0.927834,0.814678,-0.209154,-0.149833
5.52761,-0.1965,1.1938,0.614999,-0.450449,0.935639,0.814624,-0.210622,-0.152275
5.54065,-0.199085,1.19128,0.614999,-0.450441,0.943573,0.814575,-0.211955,-0.154936
5.55369,-0.201727,1.18873,0.614999,-0.450431,0.95165,0.81453,-0.213172,-0.157819
5.56672,-0.204431,1.18613,0.614999,-0.450419,0.959875,0.814487,-0.214293,-0.160923
5.57976,-0.2072,1.18349,0.614999,-0.450403,0.968238,0.814444,-0.215332,-0.164235
5.5928,-0.210029,1.18081,0.614998,-0.450383,0.976719,0.814397,-0.216303,-0.167737
5.60584,-0.212912,1.1781,0.614997,-0.450357,0.985284,0.814342,-0.217217,-0.171404
5.61887,-0.215839,1.17537,0.614996,-0.450325,0.993896,0.814275,-0.21808,-0.175206
5.63191,-0.218797,1.17262,0.614995,-0.450285,1.00251,0.814191,-0.218895,-0.179113
5.64495,-0.221774,1.16987,0.614994,-0.450237,1.0111,0.814086,-0.219662,-0.183093
5.65798,-0.224757,1.16712,0.614993,-0.450178,1.01962,0.813953,-0.220382,-0.187117
5.67102,-0.227735,1.16439,0.614992,-0.450108,1.02806,0.81379,-0.22105,-0.19116
5.68406,-0.230702,1.16166,0.61499,-0.450025,1.03641,0.813591,-0.221666,-0.1952
5.69709,-0.233651,1.15895,0.614989,-0.449929,1.04466,0.813352,-0.222227,-0.199218
5.71013,-0.236581,1.15625,0.614987,-0.449816,1.05283,0.813071,-0.222732,-0.2032
5.72317,-0.239492,1.15356,0.614985,-0.449687,1.06093,0.812745,-0.223181,-0.207133
5.7362,-0.242389,1.15086,0.614983,-0.44954,1.06899,0.812374,-0.223575,-0.211009
5.74924,-0.245277,1.14816,0.614981,-0.449372,1.07703,0.811956,-0.223918,-0.214819
5.76228,-0.248165,1.14544,0.614978,-0.449181,1.08508,0.811493,-0.224215,-0.218557
5.77531,-0.251062,1.1427,0.614975,-0.448964,1.09317,0.810987,-0.224475,-0.222216
5.78835,-0.253975,1.13992,0.614971,-0.448718,1.10131,0.810439,-0.224706,-0.225787
5.80139,-0.256912,1.1371,0.614967,-0.448438,1.10954,0.809854,-0.224923,-0.229261
5.81442,-0.259878,1.13424,0.614961,-0.448118,1.11785,0.809236,-0.225138,-0.232625
5.82746,-0.262874,1.13132,0.614956,-0.447753,1.12625,0.80859,-0.225368,-0.235867
5.8405,-0.2659,1.12835,0.614949,-0.447337,1.13473,0.80792,-0.225631,-0.238972
5.85354,-0.268953,1.12533,0.614943,-0.446863,1.14328,0.807235,-0.225945,-0.241926
5.86657,-0.272028,1.12225,0.614935,-0.446326,1.15189,0.806539,-0.226327,-0.244715
5.87961,-0.275118,1.11912,0.614928,-0.445719,1.16053,0.805838,-0.226797,-0.247328
5.89265,-0.278217,1.11594,0.61492,-0.445038,1.16918,0.805137,-0.227373,-0.249758
5.90568,-0.28132,1.11272,0.614913,-0.44428,1.17782,0.804442,-0.228071,-0.252002
5.91872,-0.28442,1.10946,0.614905,-0.443442,1.18643,0.803756,-0.22891,-0.254063
5.93176,-0.287515,1.10616,0.614898,-0.442524,1.19502,0.80308,-0.229906,-0.255951
5.94479,-0.290603,1.10282,0.614891,-0.441526,1.20356,0.802417,-0.231074,-0.257679
5.95783,-0.293683,1.09943,0.614883,-0.440451,1.21207,0.801765,-0.23243,-0.259266
5.97087,-0.296758,1.096,0.614876,-0.439303,1.22055,0.801122,-0.233987,-0.260732
5.9839,-0.299829,1.09253,0.614869,-0.438088,1.22901,0.800486,-0.235756,-0.262101
5.99694,-0.302898,1.089,0.614861,-0.436812,1.23746,0.799851,-0.237747,-0.263394
6.00998,-0.305966,1.08541,0.614853,-0.435482,1.24591,0.799214,-0.239964,-0.264628
6.02301,-0.309033,1.08177,0.614844,-0.434107,1.25438,0.798568,-0.242408,-0.26582
6.03605,-0.312097,1.07807,0.614835,-0.432696,1.26286,0.79791,-0.245076,-0.266978
6.04909,-0.315154,1.07431,0.614826,-0.431256,1.27135,0.797234,-0.247958,-0.268106
6.06212,-0.318202,1.07051,0.614816,-0.429797,1.27985,0.796534,-0.251044,-0.269203
6.07516,-0.321234,1.06665,0.614807,-0.428326,1.28833,0.795809,-0.254317,-0.270263
6.0882,-0.324246,1.06275,0.614798,-0.426852,1.29679,0.795053,-0.257763,-0.271278
6.10123,-0.327236,1.05881,0.614789,-0.425382,1.30522,0.794264,-0.261363,-0.272239
6.11427,-0.330202,1.05484,0.614782,-0.423925,1.3136,0.79344,-0.265102,-0.273135
6.12731,-0.333145,1.05085,0.614775,-0.422487,1.32194,0.792579,-0.268965,-0.273958
6.14035,-0.336065,1.04683,0.614769,-0.421078,1.33022,0.791679,-0.272939,-0.274703
6.15338,-0.338967,1.04278,0.614765,-0.419704,1.33846,0.790742,-0.277012,-0.275366
6.16642,-0.341854,1.03872,0.614761,-0.418376,1.34665,0.789768,-0.281171,-0.275947
6.17946,-0.34473,1.03464,0.614759,-0.4171,1.3548,0.78876,-0.285403,-0.276448
6.19249,-0.347597,1.03054,0.614757,-0.415887,1.36292,0.787721,-0.289694,-0.276876
6.20553,-0.350456,1.02643,0.614755,-0.414743,1.37098,0.786655,-0.294027,-0.277238
6.21857,-0.35331,1.02232,0.614754,-0.413674,1.379,0.785567,-0.298383,-0.277544
6.2316,-0.356156,1.01822,0.614753,-0.412686,1.38696,0.784463,-0.30274,-0.277806
6.24464,-0.358994,1.01413,0.614751,-0.41178,1.39486,0.783346,-0.307077,-0.278036
6.25768,-0.361823,1.01005,0.614749,-0.410958,1.40267,0.782221,-0.311369,-0.278249
6.27071,-0.364641,1.006,0.614746,-0.410216,1.4104,0.78109,-0.315595,-0.278459
6.28375,-0.367448,1.00198,0.614743,-0.40955,1.41803,0.779954,-0.319733,-0.278683
6.29679,-0.370244,0.997993,0.614739,-0.408956,1.42556,0.778815,-0.323762,-0.278937
6.30982,-0.373029,0.99404,0.614734,-0.408424,1.43298,0.777669,-0.327665,-0.279237
6.32286,-0.375804,0.990121,0.614729,-0.407949,1.4403,0.776514,-0.331424,-0.279599
6.3359,-0.37857,0.986234,0.614723,-0.407522,1.44752,0.775348,-0.335028,-0.280038
6.34893,-0.381331,0.982372,0.614717,-0.407135,1.45464,0.774165,-0.338464,-0.28057
6.36197,-0.384089,0.97853,0.614711,-0.406781,1.46169,0.77296,-0.341723,-0.281206
6.37501,-0.386851,0.974698,0.614704,-0.406453,1.46867,0.77173,-0.344799,-0.281958
6.38804,-0.389621,0.970868,0.614698,-0.406145,1.47561,0.77047,-0.347685,-0.282831
6.40108,-0.392405,0.967031,0.614692,-0.405853,1.48251,0.769178,-0.350376,-0.283827
6.41412,-0.395206,0.963183,0.614687,-0.405573,1.48939,0.767853,-0.352868,-0.284943
6.42716,-0.398026,0.959322,0.614682,-0.405301,1.49625,0.766496,-0.355155,-0.286168
6.44019,-0.400867,0.955451,0.614678,-0.405035,1.50309,0.76511,-0.357231,-0.287488
6.45323,-0.403724,0.951576,0.614674,-0.404776,1.5099,0.763699,-0.359094,-0.288883
6.46627,-0.406594,0.947708,0.614671,-0.404524,1.51666,0.762269,-0.36074,-0.29033
6.4793,-0.409472,0.943857,0.614669,-0.40428,1.52337,0.760825,-0.362169,-0.291804
6.49234,-0.412349,0.940034,0.614666,-0.404045,1.53,0.759374,-0.363387,-0.293283
6.50538,-0.41522,0.93625,0.614664,-0.403821,1.53653,0.757919,-0.364403,-0.294746
6.51841,-0.41808,0.93251,0.614663,-0.403611,1.54295,0.756464,-0.365232,-0.296177
6.53145,-0.420922,0.92882,0.614662,-0.403416,1.54927,0.755013,-0.365891,-0.297567
6.54449,-0.423744,0.925179,0.614661,-0.403238,1.55547,0.753566,-0.366402,-0.29891
6.55752,-0.426542,0.921589,0.61466,-0.403078,1.56157,0.752127,-0.366788,-0.300203
6.57056,-0.429314,0.918047,0.614658,-0.402938,1.56756,0.750697,-0.367072,-0.301447
6.5836,-0.432059,0.914552,0.614657,-0.402818,1.57346,0.74928,-0.367275,-0.302644
6.59663,-0.434775,0.911103,0.614656,-0.402717,1.57928,0.74788,-0.367416,-0.303794
6.60967,-0.437462,0.907699,0.614654,-0.402633,1.58502,0.746501,-0.367511,-0.304896
6.62271,-0.44012,0.904339,0.614652,-0.402567,1.59069,0.745149,-0.367572,-0.305948
6.63574,-0.442751,0.90102,0.61465,-0.402516,1.5963,0.743826,-0.367611,-0.306943
6.64878,-0.445358,0.897739,0.614648,-0.402476,1.60186,0.742537,-0.367633,-0.307873
6.66182,-0.447947,0.894489,0.614646,-0.402448,1.60738,0.741282,-0.367645,-0.308731
6.67486,-0.450525,0.891263,0.614644,-0.402427,1.61288,0.740062,-0.36765,-0.309509
6.68789,-0.453099,0.888051,0.614643,-0.402412,1.61839,0.738876,-0.367651,-0.310201
6.70093,-0.455677,0.884844,0.614642,-0.402401,1.62391,0.737719,-0.367648,-0.310804
6.71397,-0.458266,0.881634,0.614642,-0.402393,1.62946,0.736589,-0.367644,-0.311316
6.727,-0.460869,0.878416,0.614642,-0.402387,1.63506,0.735485,-0.367637,-0.311742
6.74004,-0.463486,0.875188,0.614643,-0.402382,1.6407,0.734403,-0.367628,-0.312088
6.75308,-0.466115,0.871953,0.614644,-0.402378,1.64639,0.733346,-0.367618,-0.31236
6.76611,-0.468751,0.868719,0.614646,-0.402375,1.6521,0.732313,-0.367606,-0.312569
6.77915,-0.471387,0.865493,0.614648,-0.402372,1.65783,0.731311,-0.367592,-0.312726
6.79219,-0.474019,0.862285,0.614651,-0.402369,1.66355,0.730343,-0.367573,-0.31284
6.80522,-0.476641,0.859102,0.614653,-0.402368,1.66925,0.729414,-0.367548,-0.312921
6.81826,-0.479252,0.855951,0.614655,-0.402367,1.67491,0.728529,-0.367516,-0.312976
6.8313,-0.481854,0.852834,0.614657,-0.402366,1.68053,0.727693,-0.36747,-0.313013
6.84433,-0.484452,0.849749,0.614658,-0.402367,1.68612,0.72691,-0.367407,-0.313038
6.85737,-0.487051,0.846693,0.614659,-0.402368,1.69167,0.726183,-0.367318,-0.313053
6.87041,-0.48966,0.843659,0.61466,-0.40237,1.69719,0.725513,-0.367195,-0.313062
6.88344,-0.492286,0.840642,0.61466,-0.402373,1.7027,0.724901,-0.367025,-0.313067
6.89648,-0.494935,0.837632,0.614661,-0.402376,1.7082,0.724349,-0.366796,-0.31307
6.90952,-0.497613,0.834622,0.614661,-0.402379,1.71371,0.723855,-0.366491,-0.313071
6.92255,-0.500324,0.831605,0.614662,-0.402382,1.71923,0.723418,-0.366094,-0.31307
6.93559,-0.503071,0.828574,0.614664,-0.402384,1.72478,0.723038,-0.365588,-0.313067
6.94863,-0.505854,0.825523,0.614666,-0.402386,1.73036,0.722711,-0.364958,-0.313063
6.96167,-0.508675,0.822451,0.614668,-0.402388,1.73596,0.722435,-0.36419,-0.313058
6.9747,-0.511532,0.819354,0.614671,-0.402389,1.74159,0.722205,-0.363275,-0.313051
6.98774,-0.514425,0.816233,0.614674,-0.40239,1.74725,0.722018,-0.362206,-0.313043
7.00078,-0.51735,0.813091,0.614677,-0.402391,1.75291,0.721868,-0.360983,-0.313034
7.01381,-0.520307,0.809932,0.61468,-0.402392,1.75858,0.721751,-0.35961,-0.313024
7.02685,-0.523292,0.80676,0.614683,-0.402394,1.76423,0.721662,-0.358094,-0.313014
7.03989,-0.526304,0.80358,0.614686,-0.402396,1.76987,0.721595,-0.356445,-0.313004
7.05292,-0.529343,0.800395,0.614688,-0.402398,1.77547,0.721547,-0.354676,-0.312993
7.06596,-0.53241,0.797208,0.61469,-0.402401,1.78104,0.721512,-0.352797,-0.312982
7.079,-0.535505,0.794015,0.614692,-0.402404,1.78657,0.721489,-0.35082,-0.31297
7.09203,-0.538632,0.790815,0.614693,-0.402407,1.79207,0.721473,-0.348752,-0.312957
7.10507,-0.541796,0.7876,0.614694,-0.40241,1.79753,0.721463,-0.3466,-0.312943
7.11811,-0.544998,0.784366,0.614695,-0.402412,1.80297,0.721457,-0.344368,-0.312926
7.13114,-0.548244,0.781104,0.614695,-0.402414,1.8084,0.721453,-0.342061,-0.312905
7.14418,-0.551535,0.77781,0.614695,-0.402416,1.81381,0.721452,-0.339681,-0.31288
7.15722,-0.554871,0.774481,0.614694,-0.402416,1.81921,0.721451,-0.337235,-0.312848
7.17025,-0.558249,0.771116,0.614693,-0.402417,1.8246,0.721452,-0.33473,-0.312807
7.18329,-0.561665,0.767718,0.614692,-0.402417,1.82996,0.721453,-0.332174,-0.312755
7.19633,-0.565112,0.764292,0.614691,-0.402417,1.83529,0.721454,-0.329577,-0.31269
7.20936,-0.568581,0.760846,0.614689,-0.402417,1.84058,0.721455,-0.326953,-0.312606
7.2224,-0.572065,0.757386,0.614688,-0.402418,1.84581,0.721456,-0.324312,-0.312502
7.23544,-0.575554,0.753919,0.614686,-0.402419,1.85096,0.721457,-0.321666,-0.312371
7.24848,-0.579043,0.75045,0.614685,-0.402421,1.85603,0.721457,-0.319026,-0.31221
7.26151,-0.582527,0.746981,0.614683,-0.402424,1.86101,0.721458,-0.316402,-0.312014
7.27455,-0.586004,0.743511,0.614681,-0.402427,1.8659,0.721458,-0.3138,-0.311778
7.28759,-0.589475,0.740036,0.614679,-0.402431,1.87069,0.721458,-0.311227,-0.311499
7.30062,-0.592943,0.736551,0.614676,-0.402435,1.87541,0.721458,-0.308686,-0.311175
7.31366,-0.596415,0.733047,0.614672,-0.40244,1.88004,0.721459,-0.306183,-0.310805
7.3267,-0.599896,0.729517,0.614666,-0.402447,1.8846,0.721459,-0.30372,-0.31039
7.33973,-0.603391,0.725954,0.61466,-0.402454,1.8891,0.721459,-0.3013,-0.309933
7.35277,-0.606904,0.722353,0.614651,-0.402462,1.89355,0.721459,-0.298929,-0.309438
7.36581,-0.610438,0.718713,0.614641,-0.402471,1.89795,0.72146,-0.296609,-0.308912
7.37884,-0.613991,0.715034,0.61463,-0.402482,1.9023,0.72146,-0.294346,-0.308362
7.39188,-0.61756,0.711319,0.614617,-0.402494,1.90659,0.72146,-0.292145,-0.307796
7.40492,-0.62114,0.707573,0.614603,-0.402507,1.91084,0.721461,-0.290009,-0.307223
7.41795,-0.624726,0.703799,0.614587,-0.402522,1.91502,0.721461,-0.287941,-0.306648
7.43099,-0.628313,0.7,0.614571,-0.402539,1.91915,0.721462,-0.285942,-0.306078
7.44403,-0.631898,0.696177,0.614554,-0.402558,1.92322,0.721463,-0.28401,-0.305517
7.45706,-0.635478,0.692328,0.614536,-0.40258,1.92723,0.721463,-0.282142,-0.304966
7.4701,-0.639054,0.688453,0.614517,-0.402604,1.93118,0.721464,-0.280335,-0.304426
7.48314,-0.642622,0.684549,0.614498,-0.402633,1.93509,0.721465,-0.278584,-0.303896
7.49618,-0.646181,0.680615,0.61448,-0.402664,1.93894,0.721466,-0.276883,-0.303375
7.50921,-0.649728,0.67665,0.614461,-0.4027,1.94274,0.721467,-0.275226,-0.302858
7.52225,-0.653257,0.672657,0.614444,-0.402739,1.9465,0.721469,-0.273606,-0.302343
7.53529,-0.656762,0.668637,0.614427,-0.402781,1.95021,0.721471,-0.272015,-0.301825
7.54832,-0.660237,0.664592,0.614411,-0.402827,1.95387,0.721473,-0.270444,-0.301297
7.56136,-0.663677,0.660524,0.614397,-0.402875,1.95747,0.721475,-0.268882,-0.300753
7.5744,-0.667078,0.656431,0.614385,-0.402928,1.96102,0.721478,-0.267319,-0.300185
7.58743,-0.670441,0.65231,0.614375,-0.402985,1.96451,0.721482,-0.265744,-0.299583
7.60047,-0.673765,0.648158,0.614367,-0.40305,1.96795,0.721486,-0.264148,-0.298937
7.61351,-0.677054,0.643968,0.61436,-0.403125,1.97133,0.721491,-0.262523,-0.298236
7.62654,-0.680314,0.639735,0.614356,-0.403214,1.97467,0.721496,-0.260864,-0.297468
7.63958,-0.683549,0.635455,0.614353,-0.403322,1.97795,0.721502,-0.259168,-0.296626
7.65262,-0.686762,0.631123,0.614352,-0.403455,1.98119,0.721509,-0.257435,-0.295701
7.66565,-0.689956,0.626741,0.614352,-0.403618,1.98437,0.721516,-0.255665,-0.29469
7.67869,-0.693133,0.622311,0.614353,-0.403818,1.9875,0.721524,-0.253861,-0.293593
7.69173,-0.696288,0.617837,0.614354,-0.404061,1.99057,0.721532,-0.252021,-0.292414
7.70476,-0.699421,0.613327,0.614356,-0.404351,1.99358,0.721543,-0.250147,-0.291162
7.7178,-0.702526,0.60879,0.614358,-0.404694,1.99651,0.721555,-0.248236,-0.289851
7.73084,-0.705599,0.604234,0.61436,-0.405095,1.99937,0.721568,-0.246285,-0.288497
7.74388,-0.708636,0.599668,0.614363,-0.405557,2.00214,0.721585,-0.244289,-0.287118
7.75691,-0.711633,0.5951,0.614365,-0.406085,2.00483,0.721604,-0.242245,-0.285733
7.76995,-0.714589,0.590539,0.614368,-0.406683,2.00742,0.721626,-0.240147,-0.284358
7.78299,-0.717503,0.58599,0.614371,-0.407354,2.00992,0.721652,-0.237992,-0.283008
7.79602,-0.720376,0.58146,0.614374,-0.408102,2.01232,0.72168,-0.23578,-0.281692
7.80906,-0.723207,0.576953,0.614378,-0.408932,2.01462,0.721711,-0.233509,-0.280416
7.8221,-0.726,0.572474,0.614381,-0.409848,2.01681,0.721743,-0.231182,-0.279183
7.83513,-0.728755,0.568026,0.614386,-0.410854,2.01889,0.721777,-0.2288,-0.27799
7.84817,-0.731473,0.563613,0.61439,-0.411952,2.02087,0.721811,-0.226368,-0.276835
7.86121,-0.734155,0.559238,0.614395,-0.413143,2.02273,0.721845,-0.22389,-0.275711
7.87424,-0.7368,0.554902,0.6144,-0.414428,2.02448,0.721877,-0.22137,-0.274616
7.88728,-0.739408,0.550607,0.614405,-0.415804,2.02611,0.721906,-0.218815,-0.273545
7.90032,-0.741978,0.546353,0.61441,-0.417268,2.02764,0.721933,-0.216227,-0.272498
7.91335,-0.74451,0.542138,0.614415,-0.418817,2.02905,0.721956,-0.21361,-0.271476
7.92639,-0.747005,0.537964,0.614419,-0.420446,2.03035,0.721977,-0.210966,-0.270482
7.93943,-0.749465,0.533826,0.614423,-0.42215,2.03154,0.721994,-0.208295,-0.269522
7.95246,-0.751893,0.529724,0.614426,-0.423928,2.03262,0.722008,-0.205597,-0.268602
7.9655,-0.754291,0.525657,0.61443,-0.425775,2.0336,0.72202,-0.20287,-0.267728
7.97854,-0.756663,0.521625,0.614433,-0.427689,2.03447,0.72203,-0.200113,-0.266906
7.99157,-0.759011,0.51763,0.614436,-0.429666,2.03525,0.722039,-0.197327,-0.266142
8.00461,-0.761337,0.513678,0.61444,-0.431703,2.03593,0.722046,-0.194511,-0.26544
8.01765,-0.763639,0.509774,0.614443,-0.433795,2.03651,0.722053,-0.19167,-0.264802
8.03069,-0.765915,0.505928,0.614446,-0.435936,2.03701,0.722059,-0.188809,-0.264231
8.04372,-0.76816,0.502147,0.614449,-0.438118,2.03743,0.722065,-0.185934,-0.263726
8.05676,-0.770368,0.498443,0.614452,-0.440333,2.03778,0.722071,-0.183055,-0.263286
8.0698,-0.772532,0.494823,0.614455,-0.442573,2.03806,0.722075,-0.180179,-0.262908
8.08283,-0.774644,0.491294,0.614458,-0.44483,2.03828,0.72208,-0.177317,-0.262589
8.09587,-0.776698,0.487861,0.614461,-0.447097,2.03844,0.722084,-0.174477,-0.262326
8.10891,-0.77869,0.484525,0.614464,-0.449369,2.03857,0.722088,-0.171667,-0.262111
8.12194,-0.780615,0.481285,0.614466,-0.45164,2.03865,0.722091,-0.168893,-0.261941
8.13498,-0.782472,0.478138,0.614469,-0.453909,2.03871,0.722094,-0.166161,-0.261809
8.14802,-0.784261,0.475078,0.614471,-0.456172,2.03875,0.722097,-0.163478,-0.261709
8.16105,-0.785983,0.472099,0.614474,-0.458428,2.03878,0.722099,-0.160849,-0.261635
8.17409,-0.787642,0.469194,0.614476,-0.460674,2.03879,0.722101,-0.158281,-0.261581
8.18713,-0.789239,0.466358,0.614478,-0.46291,2.0388,0.722103,-0.155782,-0.261544
8.20016,-0.790776,0.463586,0.61448,-0.46513,2.0388,0.722104,-0.153362,-0.261519
8.2132,-0.792254,0.460875,0.614482,-0.467332,2.0388,0.722105,-0.151034,-0.261503
8.22624,-0.793673,0.458227,0.614484,-0.469511,2.03879,0.722106,-0.148812,-0.261492
8.23927,-0.795034,0.455641,0.614487,-0.471662,2.03879,0.722107,-0.146712,-0.261487
8.25231,-0.796335,0.453122,0.614489,-0.473778,2.03878,0.722108,-0.144749,-0.261483
8.26535,-0.797574,0.450673,0.614491,-0.475854,2.03878,0.722109,-0.142939,-0.261482
8.27839,-0.798751,0.448299,0.614493,-0.477886,2.03877,0.72211,-0.141293,-0.261481
8.29142,-0.799865,0.446005,0.614494,-0.479869,2.03877,0.722111,-0.139822,-0.261481
8.30446,-0.800917,0.443793,0.614496,-0.481801,2.03877,0.722113,-0.138529,-0.261481
8.3175,-0.801907,0.441668,0.614497,-0.483681,2.03877,0.722114,-0.137414,-0.261481
8.33053,-0.80284,0.439631,0.614499,-0.485507,2.03876,0.722115,-0.136472,-0.261481
8.34357,-0.80372,0.437682,0.6145,-0.487281,2.03876,0.722116,-0.135693,-0.261481
8.35661,-0.804554,0.435819,0.614501,-0.489003,2.03876,0.722117,-0.135063,-0.261481
8.36964,-0.80535,0.434038,0.614502,-0.490672,2.03875,0.722117,-0.134566,-0.261482
8.38268,-0.806118,0.432334,0.614504,-0.492289,2.03875,0.722118,-0.134182,-0.261484
8.39572,-0.806868,0.430697,0.614505,-0.493851,2.03875,0.722119,-0.133893,-0.261485
8.40875,-0.807613,0.429119,0.614507,-0.495358,2.03874,0.722119,-0.13368,-0.261487
8.42179,-0.808363,0.427587,0.614509,-0.496805,2.03874,0.72212,-0.133528,-0.261489
8.43483,-0.809131,0.426089,0.614511,-0.498192,2.03873,0.722121,-0.133422,-0.261491
8.44786,-0.809927,0.424613,0.614514,-0.499517,2.03873,0.722122,-0.133349,-0.261492
8.4609,-0.810761,0.423146,0.614516,-0.500779,2.03873,0.722124,-0.1333,-0.261493
8.47394,-0.811642,0.421676,0.614519,-0.501979,2.03873,0.722126,-0.133267,-0.261493
8.48697,-0.812578,0.420193,0.614521,-0.503121,2.03873,0.722129,-0.133245,-0.261492
8.50001,-0.813575,0.418689,0.614524,-0.504209,2.03873,0.722132,-0.133229,-0.261491
8.51305,-0.814637,0.417156,0.614527,-0.50525,2.03873,0.722135,-0.133218,-0.261489
8.52608,-0.815769,0.415589,0.614531,-0.506253,2.03873,0.722139,-0.133209,-0.261487
8.53912,-0.816972,0.413986,0.614534,-0.507225,2.03873,0.722143,-0.133202,-0.261486
8.55216,-0.818251,0.412344,0.614538,-0.508177,2.03874,0.722147,-0.133195,-0.261484
8.5652,-0.819604,0.410664,0.614542,-0.509119,2.03874,0.722153,-0.133189,-0.261482
8.57823,-0.821034,0.408946,0.614547,-0.510058,2.03874,0.722159,-0.133184,-0.261481
8.59127,-0.822542,0.407191,0.614551,-0.511002,2.03874,0.722167,-0.133179,-0.26148
8.60431,-0.824129,0.405401,0.614555,-0.511956,2.03874,0.722176,-0.133173,-0.26148
8.61734,-0.825794,0.403577,0.614559,-0.512924,2.03874,0.722188,-0.133167,-0.26148
8.63038,-0.827539,0.401721,0.614562,-0.513904,2.03875,0.722202,-0.13316,-0.26148
8.64342,-0.829362,0.399833,0.614564,-0.514897,2.03875,0.72222,-0.13315,-0.26148
8.65645,-0.831261,0.397915,0.614566,-0.515898,2.03875,0.722241,-0.133139,-0.261479
8.66949,-0.833236,0.395969,0.614567,-0.516902,2.03875,0.722266,-0.133122,-0.261479
8.68253,-0.835282,0.393995,0.614568,-0.517904,2.03875,0.722296,-0.133098,-0.261478
8.69556,-0.837397,0.391995,0.614568,-0.518898,2.03875,0.722328,-0.133064,-0.261477
8.7086,-0.839575,0.389972,0.614568,-0.51988,2.03875,0.722365,-0.133014,-0.261475
8.72164,-0.841813,0.387929,0.614568,-0.520845,2.03875,0.722404,-0.132941,-0.261473
8.73467,-0.844106,0.385868,0.614568,-0.521793,2.03875,0.722447,-0.132835,-0.26147
8.74771,-0.846448,0.383793,0.614568,-0.522724,2.03875,0.722491,-0.132683,-0.261467
8.76075,-0.848837,0.381704,0.614569,-0.52364,2.03875,0.722538,-0.132471,-0.261463
8.77378,-0.851268,0.379606,0.61457,-0.524547,2.03875,0.722588,-0.132179,-0.26146
8.78682,-0.85374,0.377498,0.614571,-0.525451,2.03875,0.722641,-0.131785,-0.261457
8.79986,-0.856252,0.375382,0.614573,-0.526358,2.03875,0.722698,-0.131265,-0.261454
8.81289,-0.858804,0.373257,0.614575,-0.527277,2.03876,0.722762,-0.130595,-0.261451
8.82593,-0.861396,0.371124,0.614577,-0.528214,2.03876,0.722834,-0.129747,-0.261448
8.83897,-0.86403,0.368984,0.61458,-0.529176,2.03876,0.722918,-0.128699,-0.261446
8.85201,-0.866704,0.366838,0.614583,-0.530167,2.03876,0.723016,-0.127427,-0.261444
8.86504,-0.869419,0.364688,0.614587,-0.531188,2.03877,0.723131,-0.125913,-0.261443
8.87808,-0.87217,0.362537,0.61459,-0.532239,2.03877,0.723268,-0.124143,-0.261441
8.89112,-0.874956,0.36039,0.614593,-0.533315,2.03877,0.72343,-0.122107,-0.261439
8.90415,-0.877771,0.358251,0.614596,-0.534413,2.03878,0.723621,-0.119802,-0.261437
8.91719,-0.880608,0.356124,0.6146,-0.535525,2.03879,0.723843,-0.117227,-0.261435
8.93023,-0.883463,0.354011,0.614602,-0.536643,2.03879,0.724099,-0.114387,-0.261432
8.94326,-0.886328,0.351916,0.614605,-0.53776,2.03881,0.724391,-0.111288,-0.261428
8.9563,-0.8892,0.349837,0.614607,-0.53887,2.03882,0.724721,-0.107942,-0.261422
8.96934,-0.892073,0.347777,0.61461,-0.539968,2.03884,0.725089,-0.104361,-0.261414
8.98237,-0.894943,0.345733,0.614612,-0.541049,2.03887,0.725493,-0.100562,-0.261403
8.99541,-0.897807,0.343706,0.614615,-0.542112,2.03891,0.725934,-0.096559,-0.261387
9.00845,-0.900662,0.341693,0.614617,-0.543157,2.03896,0.726407,-0.0923717,-0.261363
9.02148,-0.903507,0.339697,0.614621,-0.544185,2.03902,0.72691,-0.088018,-0.261329
9.03452,-0.906341,0.337716,0.614624,-0.5452,2.03909,0.727439,-0.0835156,-0.26128
9.04756,-0.909167,0.335751,0.614627,-0.546204,2.03917,0.72799,-0.0788808,-0.26121
9.06059,-0.911986,0.333804,0.614631,-0.547202,2.03927,0.728558,-0.0741273,-0.26111
9.07363,-0.914805,0.331876,0.614635,-0.548198,2.03938,0.729139,-0.0692657,-0.260973
9.08667,-0.917627,0.329965,0.614639,-0.549196,2.0395,0.72973,-0.064303,-0.260786
9.0997,-0.92046,0.328073,0.614643,-0.550198,2.03962,0.730328,-0.0592436,-0.260538
9.11274,-0.923309,0.326197,0.614646,-0.551206,2.03974,0.730929,-0.0540899,-0.260214
9.12578,-0.926179,0.324337,0.614648,-0.552218,2.03986,0.731531,-0.0488442,-0.259803
9.13882,-0.929071,0.322492,0.614651,-0.553231,2.03997,0.732132,-0.0435105,-0.259291
9.15185,-0.931985,0.32066,0.614653,-0.554239,2.04007,0.732727,-0.0380956,-0.258668
9.16489,-0.934914,0.318843,0.614654,-0.555234,2.04016,0.733317,-0.0326106,-0.257926
9.17793,-0.937854,0.317041,0.614655,-0.556208,2.04023,0.733897,-0.0270707,-0.257061
9.19096,-0.940794,0.315255,0.614655,-0.557149,2.0403,0.734466,-0.0214952,-0.256072
9.204,-0.943724,0.313486,0.614655,-0.558048,2.04034,0.735022,-0.015906,-0.254964
9.21704,-0.946637,0.311737,0.614655,-0.558896,2.04038,0.735564,-0.0103266,-0.253747
9.23007,-0.949525,0.31001,0.614654,-0.559685,2.04041,0.736091,-0.00478047,-0.252434
9.24311,-0.952381,0.308303,0.614653,-0.56041,2.04043,0.736603,0.000710072,-0.251042
9.25615,-0.955202,0.306618,0.614652,-0.561068,2.04044,0.737101,0.00612496,-0.249591
9.26918,-0.957988,0.304954,0.61465,-0.56166,2.04045,0.737587,0.0114468,-0.2481
9.28222,-0.960737,0.303308,0.614648,-0.562188,2.04045,0.738062,0.0166605,-0.246591
9.29526,-0.963452,0.301677,0.614646,-0.562655,2.04045,0.73853,0.0217536,-0.24508
9.30829,-0.966133,0.300059,0.614644,-0.563068,2.04045,0.738992,0.0267146,-0.243584
9.32133,-0.96878,0.298452,0.614642,-0.563434,2.04045,0.739452,0.0315326,-0.242114
9.33437,-0.971393,0.296851,0.614641,-0.563761,2.04045,0.739912,0.036196,-0.240679
9.3474,-0.973969,0.295256,0.614641,-0.564059,2.04044,0.740375,0.0406921,-0.239284
9.36044,-0.976505,0.293666,0.614641,-0.564334,2.04044,0.740843,0.0450068,-0.237933
9.37348,-0.978998,0.292082,0.614641,-0.564596,2.04044,0.741318,0.0491244,-0.236627
9.38652,-0.981443,0.290504,0.614642,-0.564852,2.04044,0.741804,0.0530283,-0.235368
9.39955,-0.983835,0.288936,0.614644,-0.565107,2.04044,0.742302,0.0567019,-0.234159
9.41259,-0.986173,0.287381,0.614645,-0.565369,2.04044,0.742817,0.0601295,-0.233002
9.42563,-0.988454,0.28584,0.614646,-0.565639,2.04044,0.743349,0.0632972,-0.231904
9.43866,-0.990677,0.284318,0.614648,-0.565924,2.04044,0.743904,0.0661942,-0.230868
9.4517,-0.992843,0.282817,0.614648,-0.566226,2.04044,0.744483,0.0688129,-0.229903
9.46474,-0.994954,0.281339,0.614648,-0.566548,2.04044,0.74509,0.07115,-0.229012
9.47777,-0.997012,0.279884,0.614648,-0.566894,2.04044,0.745726,0.0732066,-0.228202
9.49081,-0.999017,0.278455,0.614647,-0.567267,2.04045,0.746393,0.0749887,-0.227476
9.50385,-1.00097,0.277052,0.614645,-0.567669,2.04045,0.747093,0.076507,-0.226834
9.51688,-1.00288,0.275675,0.614642,-0.568106,2.04045,0.747824,0.0777768,-0.226277
9.52992,-1.00473,0.274325,0.61464,-0.568578,2.04045,0.748584,0.0788176,-0.2258
9.54296,-1.00653,0.273002,0.614637,-0.569089,2.04045,0.749372,0.0796525,-0.2254
9.55599,-1.00827,0.271708,0.614633,-0.569639,2.04045,0.750183,0.0803068,-0.225069
9.56903,-1.00995,0.270445,0.61463,-0.570227,2.04046,0.751011,0.0808071,-0.2248
9.58207,-1.01157,0.269213,0.614627,-0.570851,2.04046,0.751851,0.0811797,-0.224586
9.5951,-1.01312,0.268015,0.614623,-0.571507,2.04046,0.752694,0.0814496,-0.224419
9.60814,-1.01459,0.266852,0.61462,-0.572188,2.04046,0.753534,0.0816393,-0.224291
9.62118,-1.01598,0.265726,0.614616,-0.572886,2.04047,0.754364,0.0817684,-0.224195
9.63421,-1.0173,0.264637,0.614613,-0.573592,2.04048,0.755176,0.0818531,-0.224124
9.64725,-1.01853,0.263584,0.614609,-0.574296,2.04048,0.755964,0.0819063,-0.224074
9.66029,-1.01968,0.262568,0.614605,-0.574988,2.04049,0.756723,0.0819378,-0.224038
9.67333,-1.02075,0.261586,0.614601,-0.575657,2.04051,0.757448,0.0819544,-0.224014
9.68636,-1.02173,0.260637,0.614596,-0.576294,2.04052,0.758136,0.0819608,-0.223998
9.6994,-1.02264,0.259719,0.614592,-0.576889,2.04054,0.758783,0.0819601,-0.223987
9.71244,-1.02346,0.258829,0.614587,-0.577438,2.04057,0.759387,0.0819536,-0.223981
9.72547,-1.02421,0.257966,0.614583,-0.577933,2.04062,0.759948,0.0819416,-0.223976
9.73851,-1.02487,0.25713,0.614578,-0.578372,2.04067,0.760464,0.0819236,-0.223974
9.75155,-1.02546,0.25632,0.614575,-0.578754,2.04075,0.760935,0.0818986,-0.223973
9.76458,-1.02597,0.255536,0.614571,-0.579079,2.04085,0.761361,0.0818651,-0.223972
9.77762,-1.02641,0.254779,0.614568,-0.57935,2.04099,0.761743,0.0818214,-0.223973
9.79066,-1.02678,0.254048,0.614566,-0.57957,2.04117,0.762082,0.081766,-0.223974
9.80369,-1.02709,0.253345,0.614565,-0.579744,2.0414,0.762379,0.0816971,-0.223975
9.81673,-1.02734,0.252668,0.614564,-0.579879,2.04169,0.762636,0.0816133,-0.223977
9.82977,-1.02754,0.252019,0.614563,-0.579981,2.04204,0.762856,0.0815129,-0.223979
9.8428,-1.02769,0.251395,0.614563,-0.580056,2.04246,0.763042,0.0813939,-0.223982
9.85584,-1.02781,0.250796,0.614563,-0.580109,2.04296,0.763195,0.0812536,-0.223985
9.86888,-1.0279,0.25022,0.614563,-0.580146,2.04353,0.763321,0.0810882,-0.223988
9.88191,-1.02796,0.249666,0.614563,-0.58017,2.04419,0.763421,0.0808919,-0.223992
9.89495,-1.028,0.249131,0.614563,-0.580186,2.04494,0.763499,0.0806566,-0.223995
9.90799,-1.02804,0.248615,0.614564,-0.580196,2.04576,0.76356,0.0803721,-0.223998
9.92103,-1.02806,0.248114,0.614564,-0.580203,2.04667,0.763605,0.0800256,-0.224001
9.93406,-1.02808,0.247628,0.614564,-0.580207,2.04765,0.763638,0.0796025,-0.224004
9.9471,-1.02809,0.247155,0.614565,-0.580209,2.04871,0.763661,0.0790872,-0.224006
9.96014,-1.0281,0.246693,0.614565,-0.58021,2.04985,0.763678,0.0784644,-0.224008
9.97317,-1.02812,0.246239,0.614565,-0.580211,2.05104,0.763689,0.0777204,-0.22401
9.98621,-1.02813,0.245791,0.614565,-0.580212,2.0523,0.763697,0.076844,-0.224011
9.99925,-1.02815,0.245349,0.614565,-0.580212,2.05361,0.763702,0.0758276,-0.224012
10.0123,-1.02817,0.244908,0.614565,-0.580213,2.05496,0.763706,0.0746675,-0.224013
10.0253,-1.0282,0.244468,0.614564,-0.580213,2.05636,0.763709,0.0733638,-0.224014
10.0384,-1.02823,0.244026,0.614563,-0.580214,2.05778,0.763711,0.0719194,-0.224015
10.0514,-1.02827,0.243582,0.61456,-0.580215,2.05924,0.763713,0.0703392,-0.224015
10.0644,-1.02831,0.243133,0.614558,-0.580216,2.06071,0.763714,0.068629,-0.224015
10.0775,-1.02836,0.242679,0.614555,-0.580217,2.06219,0.763716,0.0667946,-0.224016
10.0905,-1.02842,0.242218,0.61455,-0.580219,2.06369,0.763718,0.064841,-0.224016
10.1035,-1.02849,0.24175,0.614546,-0.580222,2.06519,0.76372,0.0627724,-0.224016
10.1166,-1.02857,0.241275,0.61454,-0.580225,2.06671,0.763722,0.0605927,-0.224016
10.1296,-1.02866,0.240791,0.614535,-0.580229,2.06824,0.763723,0.0583062,-0.224017
10.1427,-1.02875,0.240299,0.614529,-0.580233,2.06978,0.763725,0.055918,-0.224017
10.1557,-1.02885,0.239798,0.614523,-0.580237,2.07133,0.763727,0.0534348,-0.224018
10.1687,-1.02895,0.239289,0.614517,-0.580242,2.07291,0.763729,0.0508655,-0.22402
10.1818,-1.02906,0.23877,0.614512,-0.580246,2.07451,0.763731,0.0482206,-0.224021
10.1948,-1.02916,0.238242,0.614507,-0.58025,2.07613,0.763732,0.0455131,-0.224023
10.2078,-1.02927,0.237705,0.614502,-0.580254,2.07779,0.763734,0.0427569,-0.224025
10.2209,-1.02937,0.237159,0.614498,-0.580256,2.07947,0.763735,0.0399671,-0.224027
10.2339,-1.02947,0.236605,0.614495,-0.580258,2.08118,0.763736,0.0371589,-0.224029
10.2469,-1.02956,0.236042,0.614492,-0.580259,2.08292,0.763736,0.0343477,-0.224031
10.26,-1.02965,0.235472,0.61449,-0.580258,2.0847,0.763736,0.031548,-0.224034
10.273,-1.02972,0.234894,0.614488,-0.580257,2.0865,0.763736,0.0287739,-0.224036
10.2861,-1.02979,0.23431,0.614487,-0.580255,2.08834,0.763735,0.0260382,-0.224039
10.2991,-1.02985,0.233722,0.614486,-0.580252,2.09019,0.763733,0.0233534,-0.224043
10.3121,-1.0299,0.23313,0.614486,-0.580248,2.09207,0.763732,0.0207307,-0.224047
10.3252,-1.02994,0.232536,0.614486,-0.580245,2.09395,0.76373,0.0181806,-0.224051
10.3382,-1.02997,0.231944,0.614486,-0.580242,2.09583,0.763728,0.0157126,-0.224057
10.3512,-1.03,0.231357,0.614487,-0.580239,2.0977,0.763726,0.0133344,-0.224064
10.3643,-1.03002,0.230777,0.614487,-0.580237,2.09955,0.763724,0.011052,-0.224073
10.3773,-1.03004,0.230208,0.614488,-0.580235,2.10137,0.763723,0.00886951,-0.224083
10.3904,-1.03005,0.229654,0.614488,-0.580233,2.10314,0.763722,0.00678879,-0.224095
10.4034,-1.03006,0.229117,0.614488,-0.580231,2.10485,0.763721,0.00480997,-0.224108
10.4164,-1.03007,0.2286,0.614488,-0.580229,2.1065,0.76372,0.00293205,-0.224122
10.4295,-1.03008,0.228105,0.614488,-0.580227,2.10808,0.76372,0.00115368,-0.224138
10.4425,-1.03008,0.227635,0.614487,-0.580224,2.10957,0.763719,-0.000526023,-0.224156
10.4555,-1.03009,0.227191,0.614486,-0.580221,2.11098,0.763719,-0.00210683,-0.224174
10.4686,-1.03009,0.226773,0.614484,-0.580218,2.1123,0.763719,-0.00358714,-0.224194
10.4816,-1.03009,0.226382,0.614482,-0.580213,2.11352,0.76372,-0.00496418,-0.224215
10.4946,-1.03009,0.22602,0.61448,-0.580209,2.11464,0.76372,-0.00623447,-0.224238
10.5077,-1.03009,0.225686,0.614478,-0.580204,2.11566,0.76372,-0.00739463,-0.224261
10.5207,-1.03009,0.22538,0.614475,-0.5802,2.11657,0.763721,-0.00844219,-0.224287
10.5338,-1.03009,0.225102,0.614473,-0.580195,2.11737,0.763722,-0.00937625,-0.224313
10.5468,-1.03009,0.224852,0.61447,-0.580191,2.11807,0.763722,-0.010198,-0.224341
10.5598,-1.03009,0.224627,0.614466,-0.580187,2.11867,0.763723,-0.0109107,-0.22437
10.5729,-1.03009,0.224428,0.614462,-0.580183,2.11917,0.763724,-0.0115197,-0.224399
10.5859,-1.03008,0.224252,0.614458,-0.58018,2.11958,0.763724,-0.0120322,-0.224429
10.5989,-1.03008,0.224098,0.614454,-0.580177,2.11991,0.763725,-0.0124566,-0.224458
10.612,-1.03007,0.223962,0.61445,-0.580175,2.12017,0.763725,-0.0128021,-0.224486
10.625,-1.03007,0.223843,0.614446,-0.580174,2.12037,0.763725,-0.0130783,-0.224513
10.6381,-1.03006,0.223737,0.614442,-0.580173,2.12052,0.763725,-0.0132949,-0.224538
10.6511,-1.03006,0.223643,0.614438,-0.580172,2.12063,0.763725,-0.0134613,-0.224562
10.6641,-1.03006,0.223559,0.614434,-0.580173,2.12071,0.763725,-0.0135862,-0.224584
10.6772,-1.03005,0.223482,0.614431,-0.580173,2.12076,0.763725,-0.0136779,-0.224605
10.6902,-1.03005,0.223411,0.614427,-0.580175,2.1208,0.763725,-0.0137435,-0.224626
10.7032,-1.03005,0.223345,0.614424,-0.580176,2.12082,0.763725,-0.013789,-0.224646
10.7163,-1.03005,0.223283,0.614421,-0.580177,2.12084,0.763725,-0.0138198,-0.224668
10.7293,-1.03005,0.223224,0.614417,-0.580179,2.12085,0.763725,-0.01384,-0.224691
10.7423,-1.03005,0.223168,0.614413,-0.58018,2.12085,0.763726,-0.0138527,-0.224717
10.7554,-1.03004,0.223115,0.61441,-0.580181,2.12086,0.763726,-0.0138604,-0.224749
10.7684,-1.03004,0.223066,0.614406,-0.580182,2.12086,0.763726,-0.013865,-0.22479
10.7815,-1.03004,0.223021,0.614402,-0.580182,2.12086,0.763727,-0.0138675,-0.224844
10.7945,-1.03004,0.22298,0.614398,-0.580182,2.12086,0.763727,-0.0138691,-0.224916
10.8075,-1.03004,0.222944,0.614394,-0.580182,2.12086,0.763727,-0.01387,-0.225015
10.8206,-1.03004,0.222912,0.61439,-0.580182,2.12087,0.763727,-0.0138708,-0.225151
10.8336,-1.03004,0.222886,0.614386,-0.580182,2.12087,0.763728,-0.0138717,-0.225334
10.8466,-1.03004,0.222863,0.614383,-0.580181,2.12087,0.763728,-0.0138726,-0.225577
10.8597,-1.03004,0.222846,0.61438,-0.58018,2.12087,0.763728,-0.0138737,-0.225895
10.8727,-1.03004,0.222832,0.614377,-0.58018,2.12087,0.763729,-0.0138749,-0.226301
10.8857,-1.03004,0.222821,0.614375,-0.580178,2.12087,0.763729,-0.0138763,-0.226806
10.8988,-1.03005,0.222813,0.614373,-0.580177,2.12088,0.763729,-0.0138777,-0.22742
10.9118,-1.03005,0.222807,0.614371,-0.580176,2.12088,0.76373,-0.0138792,-0.228146
10.9249,-1.03005,0.222803,0.614369,-0.580174,2.12088,0.76373,-0.0138808,-0.228984
10.9379,-1.03005,0.2228,0.614368,-0.580172,2.12088,0.76373,-0.0138824,-0.22993
