timestamp,ArmR1_Cla1,ArmR2_Sho1,ArmR3_Sho2,ArmR4_Sho3,ArmR5_Elb1,ArmR6_Elb2,ArmR7_Wri1,ArmR8_Wri2
0,-0.215901,0.00912115,0.170892,-0.343302,0.973899,0.203024,-0.111597,0.10894
0.0122988,-0.216206,0.00855353,0.170891,-0.343309,0.97395,0.203015,-0.112333,0.108964
0.0245976,-0.216569,0.00788943,0.17089,-0.343317,0.974016,0.203003,-0.113154,0.108995
0.0368964,-0.216991,0.00713053,0.170891,-0.343325,0.974103,0.202989,-0.114042,0.109034
0.0491952,-0.217471,0.00628107,0.170893,-0.343334,0.974215,0.202971,-0.114973,0.109085
0.0614939,-0.218008,0.00534638,0.170897,-0.343344,0.974361,0.20295,-0.115918,0.109154
0.0737927,-0.218601,0.00433093,0.170904,-0.343354,0.974549,0.202925,-0.116848,0.109248
0.0860915,-0.219251,0.00323594,0.170915,-0.343367,0.974793,0.202897,-0.117738,0.109378
0.0983903,-0.219961,0.00205739,0.17093,-0.343385,0.975108,0.202865,-0.118563,0.109561
0.110689,-0.220737,0.000784528,0.170951,-0.343409,0.975514,0.202829,-0.119308,0.109816
0.122988,-0.221592,-0.000600336,0.170979,-0.343443,0.976032,0.202788,-0.119961,0.110166
0.135287,-0.222539,-0.00212065,0.171018,-0.343493,0.976688,0.202743,-0.12052,0.11064
0.147585,-0.223592,-0.00380299,0.17107,-0.343565,0.977504,0.202691,-0.120986,0.111265
0.159884,-0.224767,-0.00567327,0.171138,-0.343666,0.978504,0.202633,-0.121367,0.112073
0.172183,-0.226074,-0.0077527,0.171227,-0.343803,0.979707,0.202568,-0.121673,0.113091
0.184482,-0.227517,-0.0100541,0.171341,-0.343988,0.981124,0.202493,-0.121914,0.114343
0.196781,-0.229094,-0.0125795,0.171486,-0.344229,0.982762,0.202408,-0.122102,0.115847
0.209079,-0.230796,-0.01532,0.171667,-0.344537,0.984616,0.20231,-0.122248,0.117614
0.221378,-0.232607,-0.0182572,0.171889,-0.344924,0.986677,0.202198,-0.12236,0.11965
0.233677,-0.234508,-0.0213667,0.172159,-0.345402,0.988932,0.202068,-0.122447,0.121954
0.245976,-0.236479,-0.0246217,0.172482,-0.34598,0.991362,0.201918,-0.122513,0.124518
0.258275,-0.238501,-0.0279972,0.172862,-0.346671,0.993952,0.201743,-0.122564,0.127333
0.270573,-0.24056,-0.0314727,0.173305,-0.347483,0.996684,0.20154,-0.122603,0.130387
0.282872,-0.242645,-0.0350334,0.173814,-0.348425,0.999544,0.201305,-0.122631,0.133665
0.295171,-0.24475,-0.0386692,0.174393,-0.349502,1.00252,0.201032,-0.122652,0.137151
0.30747,-0.246873,-0.0423737,0.175042,-0.350717,1.0056,0.200719,-0.122667,0.140824
0.319769,-0.249013,-0.0461411,0.175763,-0.35207,1.00877,0.200364,-0.122677,0.144662
0.332067,-0.251167,-0.0499643,0.176553,-0.353555,1.01201,0.199965,-0.122682,0.148638
0.344366,-0.253334,-0.0538338,0.17741,-0.355164,1.01532,0.199523,-0.122685,0.152721
0.356665,-0.255511,-0.0577386,0.178332,-0.356887,1.01867,0.19904,-0.122685,0.15688
0.368964,-0.257695,-0.0616677,0.179318,-0.358714,1.02205,0.198517,-0.122683,0.161084
0.381262,-0.259884,-0.0656143,0.180366,-0.360636,1.02544,0.197958,-0.12268,0.165311
0.393561,-0.262083,-0.0695797,0.181483,-0.362652,1.02886,0.197363,-0.122675,0.169545
0.40586,-0.264302,-0.0735767,0.182678,-0.364764,1.03229,0.196731,-0.122671,0.173789
0.418159,-0.266557,-0.0776318,0.183965,-0.366988,1.03577,0.196058,-0.122667,0.178059
0.430458,-0.268876,-0.0817841,0.185365,-0.369343,1.03933,0.195339,-0.122663,0.182386
0.442756,-0.271287,-0.0860811,0.1869,-0.371855,1.043,0.194565,-0.122661,0.186813
0.455055,-0.273824,-0.0905724,0.188594,-0.374551,1.04683,0.193725,-0.122661,0.191385
0.467354,-0.276517,-0.0953004,0.190467,-0.377452,1.05086,0.192811,-0.122662,0.196143
0.479653,-0.279389,-0.100293,0.192533,-0.380568,1.05511,0.191813,-0.122665,0.201114
0.491952,-0.282452,-0.105557,0.194796,-0.383897,1.05959,0.190727,-0.122669,0.206306
0.50425,-0.285705,-0.111076,0.197253,-0.38742,1.06429,0.189552,-0.122675,0.211702
0.516549,-0.289136,-0.116811,0.199889,-0.391104,1.06919,0.188291,-0.12268,0.217267
0.528848,-0.292726,-0.122708,0.202686,-0.394904,1.07422,0.186949,-0.122686,0.222947
0.541147,-0.296448,-0.128704,0.20562,-0.398774,1.07936,0.185533,-0.122691,0.228684
0.553446,-0.300276,-0.13474,0.208668,-0.402665,1.08455,0.184052,-0.122695,0.234416
0.565744,-0.304189,-0.14076,0.211809,-0.406537,1.08974,0.182514,-0.122698,0.240092
0.578043,-0.308169,-0.146725,0.215028,-0.410354,1.0949,0.180925,-0.1227,0.24567
0.590342,-0.312205,-0.152608,0.218313,-0.414095,1.10002,0.179293,-0.1227,0.251123
0.602641,-0.31629,-0.158393,0.221656,-0.417743,1.10508,0.177622,-0.1227,0.256435
0.614939,-0.32042,-0.164072,0.225048,-0.421289,1.11007,0.175917,-0.122698,0.261595
0.627238,-0.324588,-0.169639,0.228482,-0.424725,1.11498,0.174186,-0.122695,0.266596
0.639537,-0.328783,-0.175088,0.231944,-0.428045,1.11981,0.172435,-0.122692,0.271431
0.651836,-0.332991,-0.180407,0.235418,-0.43124,1.12454,0.170676,-0.122688,0.276088
0.664135,-0.337193,-0.185582,0.238886,-0.4343,1.12916,0.168918,-0.122685,0.280552
0.676433,-0.341372,-0.190598,0.242331,-0.437213,1.13365,0.167173,-0.12268,0.284807
0.688732,-0.345518,-0.195445,0.245741,-0.439972,1.13801,0.165448,-0.122676,0.28884
0.701031,-0.349633,-0.200126,0.249116,-0.442574,1.14224,0.163747,-0.122671,0.292645
0.71333,-0.353739,-0.204662,0.252471,-0.445025,1.14635,0.162065,-0.122666,0.296229
0.725628,-0.357881,-0.209095,0.255839,-0.447344,1.15038,0.160387,-0.122661,0.299613
0.737927,-0.362124,-0.213488,0.259272,-0.449558,1.15441,0.158693,-0.122656,0.302834
0.750226,-0.36655,-0.217918,0.262835,-0.451702,1.15849,0.156955,-0.122649,0.305941
0.762525,-0.371246,-0.222467,0.266597,-0.453815,1.1627,0.155139,-0.122642,0.308985
0.774824,-0.376289,-0.227209,0.27062,-0.455935,1.16713,0.153218,-0.122633,0.312019
0.787122,-0.381738,-0.232198,0.27495,-0.45809,1.17183,0.151169,-0.122622,0.31508
0.799421,-0.387617,-0.237457,0.27961,-0.460296,1.17682,0.148981,-0.122608,0.318192
0.81172,-0.393912,-0.242975,0.284591,-0.462554,1.1821,0.146654,-0.122591,0.321356
0.824019,-0.400576,-0.248705,0.289856,-0.464848,1.18764,0.144205,-0.12257,0.324551
0.836318,-0.407527,-0.254574,0.295344,-0.467152,1.19338,0.141657,-0.122544,0.327745
0.848616,-0.414669,-0.260493,0.300981,-0.469434,1.19925,0.139042,-0.122511,0.330891
0.860915,-0.421899,-0.26637,0.30669,-0.471657,1.20516,0.136394,-0.12247,0.333946
0.873214,-0.429122,-0.272122,0.312397,-0.473792,1.21105,0.133743,-0.122419,0.336872
0.885513,-0.436258,-0.277682,0.318044,-0.475814,1.21686,0.131113,-0.122355,0.339639
0.897812,-0.443246,-0.283002,0.323584,-0.477709,1.22254,0.128524,-0.122276,0.342235
0.91011,-0.450045,-0.288056,0.32899,-0.479471,1.22808,0.125988,-0.122178,0.344658
0.922409,-0.456629,-0.292831,0.334243,-0.481103,1.23346,0.123514,-0.122056,0.346918
0.934708,-0.462984,-0.297328,0.339336,-0.482612,1.23868,0.121104,-0.121905,0.349031
0.947007,-0.469104,-0.301553,0.344267,-0.484009,1.24374,0.118762,-0.121718,0.351019
0.959306,-0.474991,-0.305518,0.349039,-0.485304,1.24866,0.116488,-0.121488,0.352903
0.971604,-0.480654,-0.309238,0.353662,-0.48651,1.25343,0.114277,-0.121205,0.354707
0.983903,-0.48611,-0.31273,0.358155,-0.48764,1.25809,0.112124,-0.120857,0.356457
0.996202,-0.491392,-0.31602,0.362548,-0.488706,1.26268,0.110014,-0.120431,0.358178
1.0085,-0.49655,-0.319136,0.366882,-0.489721,1.26725,0.107928,-0.119912,0.3599
1.0208,-0.501645,-0.322118,0.371213,-0.490698,1.27185,0.105839,-0.119283,0.361656
1.0331,-0.506752,-0.325006,0.375606,-0.491653,1.27657,0.103715,-0.118526,0.363481
1.0454,-0.511948,-0.327844,0.380129,-0.492597,1.28148,0.101523,-0.117627,0.365412
1.0577,-0.517303,-0.330672,0.38484,-0.493539,1.28665,0.099234,-0.116573,0.367481
1.06999,-0.52287,-0.333518,0.389786,-0.494484,1.29214,0.0968256,-0.115356,0.369716
1.08229,-0.528674,-0.336399,0.394988,-0.495432,1.29797,0.094288,-0.113975,0.372135
1.09459,-0.53471,-0.339315,0.400441,-0.496377,1.30414,0.0916252,-0.112432,0.374743
1.10689,-0.540944,-0.342252,0.406112,-0.497307,1.31061,0.0888544,-0.110739,0.377537
1.11919,-0.547316,-0.345181,0.411947,-0.498206,1.31733,0.0860039,-0.108909,0.3805
1.13149,-0.55375,-0.348068,0.417881,-0.499059,1.32423,0.0831088,-0.106957,0.38361
1.14379,-0.560167,-0.350877,0.423843,-0.49985,1.33123,0.0802059,-0.104897,0.386841
1.15609,-0.566497,-0.353576,0.42977,-0.500565,1.33825,0.0773291,-0.102743,0.390166
1.16838,-0.572678,-0.356142,0.435609,-0.501198,1.34525,0.0745063,-0.100504,0.393561
1.18068,-0.578672,-0.35856,0.441326,-0.501744,1.35217,0.0717573,-0.0981879,0.397005
1.19298,-0.584455,-0.360827,0.446898,-0.502205,1.359,0.069094,-0.0957992,0.400483
1.20528,-0.590019,-0.362945,0.452319,-0.502585,1.36571,0.0665215,-0.0933422,0.40398
1.21758,-0.595366,-0.364924,0.457589,-0.502893,1.37231,0.0640405,-0.090822,0.407487
1.22988,-0.600505,-0.366774,0.462713,-0.503136,1.37879,0.0616492,-0.0882449,0.410994
1.24218,-0.605445,-0.368506,0.467697,-0.503326,1.38516,0.0593449,-0.0856197,0.41449
1.25448,-0.610195,-0.370131,0.472547,-0.50347,1.39141,0.0571255,-0.0829565,0.417967
1.26678,-0.614765,-0.371656,0.477267,-0.503577,1.39754,0.0549892,-0.0802659,0.421416
1.27907,-0.619166,-0.373086,0.481867,-0.503654,1.40356,0.0529339,-0.0775569,0.424834
1.29137,-0.623412,-0.374426,0.486359,-0.503708,1.40949,0.0509563,-0.0748344,0.428223
1.30367,-0.627526,-0.375682,0.490766,-0.503745,1.41534,0.0490503,-0.0720972,0.431594
1.31597,-0.631536,-0.376858,0.495121,-0.503768,1.42115,0.0472063,-0.0693369,0.434967
1.32827,-0.635482,-0.377964,0.499467,-0.503783,1.42699,0.045411,-0.0665385,0.438375
1.34057,-0.639408,-0.379006,0.503855,-0.503791,1.43292,0.0436486,-0.0636826,0.441853
1.35287,-0.643361,-0.379994,0.508339,-0.503795,1.43902,0.0419024,-0.0607497,0.445442
1.36517,-0.647379,-0.380936,0.512965,-0.503797,1.44533,0.0401578,-0.0577252,0.449179
1.37746,-0.651493,-0.381838,0.517767,-0.503799,1.45191,0.0384044,-0.0546047,0.453088
1.38976,-0.655714,-0.382702,0.522762,-0.503799,1.45878,0.0366389,-0.0513975,0.457182
1.40206,-0.660034,-0.383527,0.527942,-0.503799,1.46593,0.0348654,-0.0481279,0.461456
1.41436,-0.66443,-0.384308,0.533283,-0.503799,1.47332,0.0330955,-0.0448339,0.465887
1.42666,-0.668863,-0.385039,0.53874,-0.503797,1.4809,0.0313467,-0.0415634,0.470441
1.43896,-0.673285,-0.385711,0.544265,-0.503794,1.4886,0.0296395,-0.0383681,0.475076
1.45126,-0.677651,-0.386317,0.549802,-0.503788,1.49633,0.0279955,-0.0352983,0.479746
1.46356,-0.681917,-0.386851,0.555306,-0.503778,1.50405,0.026434,-0.0323973,0.484411
1.47585,-0.686048,-0.38731,0.560735,-0.503764,1.51169,0.0249712,-0.0296983,0.489035
1.48815,-0.690018,-0.387695,0.566063,-0.503745,1.51921,0.0236183,-0.0272228,0.493591
1.50045,-0.693814,-0.388009,0.57127,-0.50372,1.52659,0.0223826,-0.0249817,0.49806
1.51275,-0.697424,-0.388258,0.576343,-0.503688,1.53381,0.021267,-0.0229764,0.502424
1.52505,-0.700845,-0.38845,0.581275,-0.503647,1.54086,0.0202713,-0.0212019,0.506671
1.53735,-0.704073,-0.388593,0.586057,-0.503597,1.54773,0.0193928,-0.0196487,0.510786
1.54965,-0.707108,-0.388696,0.59068,-0.503535,1.55439,0.0186272,-0.0183046,0.514755
1.56195,-0.709945,-0.388766,0.595136,-0.503458,1.56084,0.0179687,-0.0171562,0.518563
1.57424,-0.712586,-0.388811,0.599417,-0.50336,1.56707,0.0174105,-0.016189,0.522196
1.58654,-0.715031,-0.388835,0.603524,-0.503233,1.57307,0.0169449,-0.0153877,0.525646
1.59884,-0.717287,-0.388844,0.607469,-0.503069,1.57887,0.0165633,-0.0147359,0.528911
1.61114,-0.719366,-0.38884,0.611277,-0.502851,1.58451,0.0162566,-0.0142166,0.532001
1.62344,-0.721286,-0.388824,0.614992,-0.502566,1.59005,0.016015,-0.0138121,0.534937
1.63574,-0.723074,-0.388795,0.618671,-0.502192,1.59558,0.015829,-0.0135045,0.537751
1.64804,-0.724758,-0.388754,0.622384,-0.50171,1.60121,0.0156889,-0.0132765,0.540484
1.66034,-0.726367,-0.388696,0.626199,-0.501099,1.60705,0.015586,-0.0131118,0.543174
1.67264,-0.727927,-0.388621,0.630181,-0.500343,1.61319,0.0155122,-0.0129959,0.545858
1.68493,-0.729456,-0.388523,0.634373,-0.499427,1.6197,0.0154606,-0.0129164,0.548557
1.69723,-0.73096,-0.388399,0.638796,-0.498345,1.62662,0.0154252,-0.0128631,0.551276
1.70953,-0.732438,-0.388245,0.643442,-0.497094,1.63392,0.0154016,-0.0128282,0.554003
1.72183,-0.733874,-0.388057,0.648277,-0.495679,1.64155,0.0153861,-0.0128055,0.556705
1.73413,-0.735247,-0.38783,0.653244,-0.494109,1.64944,0.015376,-0.0127909,0.559339
1.74643,-0.736533,-0.387561,0.658276,-0.492398,1.65747,0.0153696,-0.0127813,0.561855
1.75873,-0.737708,-0.387245,0.663305,-0.490559,1.66553,0.0153655,-0.0127747,0.564205
1.77103,-0.738753,-0.386879,0.668268,-0.488606,1.67353,0.015363,-0.0127699,0.566349
1.78332,-0.739658,-0.386459,0.673117,-0.486553,1.68139,0.0153615,-0.012766,0.568259
1.79562,-0.740418,-0.385984,0.677819,-0.48441,1.68905,0.0153607,-0.0127626,0.569921
1.80792,-0.741039,-0.385452,0.682354,-0.482188,1.69649,0.0153604,-0.0127595,0.571334
1.82022,-0.741532,-0.384861,0.686717,-0.479897,1.70369,0.0153605,-0.0127565,0.57251
1.83252,-0.741912,-0.38421,0.69091,-0.477544,1.71065,0.0153609,-0.0127537,0.573469
1.84482,-0.742198,-0.383501,0.694939,-0.47514,1.71738,0.0153617,-0.0127511,0.574233
1.85712,-0.742405,-0.38273,0.698816,-0.472692,1.72388,0.0153627,-0.0127488,0.574831
1.86942,-0.742552,-0.381897,0.702554,-0.470203,1.73018,0.015364,-0.0127468,0.57529
1.88171,-0.742652,-0.380997,0.706169,-0.467676,1.7363,0.0153654,-0.0127452,0.575633
1.89401,-0.742719,-0.380022,0.709684,-0.465105,1.74227,0.0153671,-0.0127438,0.575884
1.90631,-0.742761,-0.378963,0.713127,-0.462477,1.74814,0.015369,-0.0127425,0.576063
1.91861,-0.742787,-0.377804,0.716535,-0.459772,1.75395,0.0153711,-0.0127413,0.576187
1.93091,-0.742801,-0.37653,0.719947,-0.456964,1.75977,0.0153733,-0.0127399,0.576269
1.94321,-0.74281,-0.375125,0.723407,-0.454024,1.76567,0.0153757,-0.0127384,0.576321
1.95551,-0.742814,-0.373575,0.726953,-0.450928,1.77172,0.0153783,-0.0127365,0.576351
1.96781,-0.742816,-0.371871,0.730616,-0.447656,1.77795,0.015381,-0.0127344,0.576365
1.98011,-0.742817,-0.37001,0.734413,-0.444201,1.78439,0.0153838,-0.0127321,0.576368
1.9924,-0.742818,-0.368,0.738345,-0.440568,1.79105,0.0153866,-0.0127298,0.576365
2.0047,-0.74282,-0.365852,0.7424,-0.436778,1.7979,0.0153894,-0.0127276,0.576355
2.017,-0.742821,-0.363587,0.746549,-0.43286,1.80488,0.0153923,-0.0127259,0.576342
2.0293,-0.742822,-0.361226,0.750759,-0.428852,1.81194,0.0153951,-0.0127248,0.576326
2.0416,-0.742823,-0.358793,0.754994,-0.424789,1.81902,0.015398,-0.0127245,0.576307
2.0539,-0.742823,-0.356309,0.759219,-0.420708,1.82605,0.0154008,-0.0127252,0.576286
2.0662,-0.742823,-0.35379,0.76341,-0.416638,1.833,0.0154036,-0.0127269,0.576262
2.0785,-0.742821,-0.351249,0.767546,-0.412598,1.83982,0.0154064,-0.0127295,0.576236
2.09079,-0.742819,-0.348696,0.771617,-0.408606,1.8465,0.0154093,-0.012733,0.576207
2.10309,-0.742814,-0.346137,0.775617,-0.404672,1.85303,0.015412,-0.0127372,0.576176
2.11539,-0.742809,-0.34358,0.779542,-0.400806,1.8594,0.0154146,-0.0127419,0.576142
2.12769,-0.742801,-0.341033,0.783385,-0.39702,1.8656,0.015417,-0.0127468,0.576108
2.13999,-0.74279,-0.338507,0.787139,-0.39333,1.87162,0.0154189,-0.0127517,0.576072
2.15229,-0.742777,-0.336015,0.790796,-0.389751,1.87745,0.0154204,-0.0127563,0.576037
2.16459,-0.742761,-0.333571,0.794343,-0.386304,1.88306,0.0154212,-0.0127604,0.576003
2.17689,-0.74274,-0.331187,0.797775,-0.383006,1.88846,0.0154213,-0.0127639,0.57597
2.18918,-0.742714,-0.328869,0.801091,-0.379871,1.89363,0.0154209,-0.0127668,0.575939
2.20148,-0.742682,-0.326616,0.804304,-0.376903,1.89861,0.0154198,-0.0127693,0.575912
2.21378,-0.742642,-0.324414,0.807442,-0.374096,1.90342,0.0154184,-0.0127718,0.575888
2.22608,-0.742592,-0.322238,0.810552,-0.371428,1.90815,0.0154168,-0.0127749,0.575867
2.23838,-0.742531,-0.320049,0.813694,-0.368869,1.91287,0.0154155,-0.0127798,0.57585
2.25068,-0.742455,-0.317801,0.816942,-0.366375,1.91771,0.0154148,-0.0127879,0.575837
2.26298,-0.742365,-0.315443,0.820368,-0.363904,1.92278,0.015415,-0.0128014,0.575827
2.27528,-0.742258,-0.312932,0.824039,-0.361415,1.92816,0.0154168,-0.0128235,0.575819
2.28757,-0.742135,-0.310231,0.828,-0.358879,1.93394,0.0154205,-0.0128581,0.575813
2.29987,-0.741996,-0.307323,0.832272,-0.356282,1.94015,0.0154267,-0.0129104,0.575809
2.31217,-0.741844,-0.304213,0.83684,-0.353632,1.94677,0.0154359,-0.0129871,0.575806
2.32447,-0.741681,-0.30092,0.841664,-0.350952,1.95374,0.0154486,-0.013096,0.575803
2.33677,-0.741512,-0.297483,0.846677,-0.348278,1.96098,0.0154651,-0.0132462,0.5758
2.34907,-0.74134,-0.293948,0.851799,-0.345654,1.96837,0.0154859,-0.0134479,0.575797
2.36137,-0.741168,-0.290363,0.856949,-0.343122,1.97579,0.0155113,-0.0137118,0.575793
2.37367,-0.740996,-0.286772,0.862053,-0.340715,1.98314,0.0155411,-0.014048,0.575788
2.38596,-0.740827,-0.283206,0.867053,-0.338455,1.99033,0.0155755,-0.014466,0.575782
2.39826,-0.740659,-0.279687,0.871909,-0.336349,1.9973,0.0156141,-0.0149731,0.575773
2.41056,-0.74049,-0.276226,0.876599,-0.334393,2.00403,0.0156565,-0.0155741,0.575762
2.42286,-0.740316,-0.272825,0.881116,-0.332573,2.01049,0.0157024,-0.0162708,0.575746
2.43516,-0.740133,-0.269478,0.885462,-0.33087,2.0167,0.0157512,-0.0170624,0.575725
2.44746,-0.739935,-0.26618,0.889645,-0.329264,2.02267,0.0158029,-0.0179457,0.575695
2.45976,-0.739716,-0.262924,0.893674,-0.327736,2.0284,0.0158575,-0.018917,0.575653
2.47206,-0.73947,-0.259702,0.897558,-0.326274,2.03392,0.015916,-0.0199742,0.575592
2.48436,-0.739186,-0.256503,0.901309,-0.324867,2.03925,0.0159798,-0.0211186,0.575506
2.49665,-0.738856,-0.253312,0.904944,-0.323507,2.04439,0.0160516,-0.0223575,0.575386
2.50895,-0.738466,-0.250107,0.908483,-0.32219,2.0494,0.0161351,-0.0237055,0.575218
2.52125,-0.738,-0.246856,0.911957,-0.320911,2.0543,0.0162352,-0.0251844,0.574989
2.53355,-0.737441,-0.243523,0.915401,-0.319667,2.05915,0.0163578,-0.0268222,0.574684
2.54585,-0.736772,-0.240066,0.918856,-0.318453,2.064,0.0165101,-0.0286498,0.574283
2.55815,-0.735974,-0.236443,0.922358,-0.317266,2.0689,0.0166996,-0.0306971,0.573768
2.57045,-0.735031,-0.232624,0.925939,-0.316107,2.07389,0.0169345,-0.032988,0.573122
2.58275,-0.73393,-0.228588,0.929616,-0.314978,2.079,0.0172224,-0.0355363,0.572324
2.59504,-0.732661,-0.224337,0.933387,-0.313886,2.08423,0.0175709,-0.0383433,0.571359
2.60734,-0.731221,-0.219888,0.937236,-0.312844,2.08955,0.0179865,-0.0413967,0.57021
2.61964,-0.72961,-0.215275,0.941128,-0.311865,2.09491,0.0184746,-0.0446724,0.56886
2.63194,-0.727831,-0.210545,0.945022,-0.310964,2.10026,0.0190392,-0.0481382,0.567294
2.64424,-0.725889,-0.205745,0.94887,-0.310154,2.10554,0.0196829,-0.0517573,0.565496
2.65654,-0.72379,-0.200925,0.952629,-0.309447,2.11068,0.0204064,-0.0554932,0.563451
2.66884,-0.721541,-0.196124,0.956263,-0.308845,2.11565,0.0212087,-0.0593123,0.561145
2.68114,-0.719149,-0.191375,0.959746,-0.308349,2.12041,0.0220867,-0.0631855,0.558569
2.69343,-0.716622,-0.186699,0.963064,-0.307951,2.12494,0.023035,-0.0670883,0.555717
2.70573,-0.713971,-0.182114,0.966208,-0.307643,2.12925,0.0240459,-0.0709988,0.552593
2.71803,-0.711212,-0.177632,0.969177,-0.307411,2.13333,0.0251092,-0.0748959,0.549211
2.73033,-0.708363,-0.173266,0.971972,-0.307241,2.13719,0.0262128,-0.0787573,0.545596
2.74263,-0.705448,-0.169032,0.974593,-0.307121,2.14083,0.0273428,-0.0825582,0.541788
2.75493,-0.702496,-0.164949,0.97704,-0.307037,2.14426,0.028485,-0.0862718,0.537832
2.76723,-0.699535,-0.161034,0.979312,-0.306981,2.14748,0.0296257,-0.0898712,0.53378
2.77953,-0.696593,-0.157304,0.981408,-0.306943,2.15049,0.0307542,-0.093333,0.529682
2.79183,-0.693688,-0.153768,0.98333,-0.30692,2.15328,0.0318646,-0.0966425,0.525577
2.80412,-0.690821,-0.150418,0.985085,-0.306905,2.15588,0.0329584,-0.0997991,0.521482
2.81642,-0.687977,-0.147231,0.986686,-0.306896,2.15829,0.0340463,-0.102821,0.517384
2.82872,-0.685113,-0.144158,0.988157,-0.306892,2.16057,0.0351491,-0.105748,0.513234
2.84102,-0.682163,-0.141132,0.989529,-0.30689,2.16274,0.0362979,-0.108642,0.508948
2.85332,-0.679041,-0.138066,0.990839,-0.306891,2.16487,0.0375317,-0.111584,0.50441
2.86562,-0.675648,-0.134863,0.992128,-0.306894,2.16703,0.0388937,-0.11466,0.499486
2.87792,-0.671887,-0.13143,0.993435,-0.306897,2.16926,0.0404259,-0.117959,0.494043
2.89022,-0.667676,-0.127688,0.994795,-0.306902,2.17163,0.0421631,-0.12155,0.487973
2.90251,-0.662961,-0.123588,0.99623,-0.306908,2.17416,0.0441271,-0.125479,0.481208
2.91481,-0.657729,-0.119114,0.997749,-0.306915,2.17685,0.0463233,-0.129751,0.473737
2.92711,-0.652008,-0.114293,0.999347,-0.306922,2.17968,0.0487387,-0.134336,0.465613
2.93941,-0.645866,-0.109184,1.001,-0.30693,2.1826,0.0513434,-0.139168,0.456945
2.95171,-0.639402,-0.103876,1.00269,-0.306938,2.18557,0.0540952,-0.14415,0.447885
2.96401,-0.632731,-0.0984682,1.00438,-0.306946,2.1885,0.0569448,-0.149177,0.438607
2.97631,-0.62597,-0.0930636,1.00603,-0.306955,2.19134,0.0598425,-0.154139,0.429287
2.98861,-0.619223,-0.0877515,1.00762,-0.306965,2.19401,0.0627432,-0.158939,0.420081
3.0009,-0.612578,-0.0826023,1.00912,-0.306974,2.19648,0.0656106,-0.163501,0.411111
3.0132,-0.606094,-0.0776634,1.01052,-0.306985,2.19873,0.0684182,-0.167772,0.402466
3.0255,-0.599813,-0.072961,1.01181,-0.306996,2.20074,0.0711485,-0.171722,0.394195
3.0378,-0.593755,-0.0685035,1.01299,-0.307007,2.20251,0.0737919,-0.17534,0.386321
3.0501,-0.587929,-0.0642874,1.01406,-0.307019,2.20407,0.0763434,-0.178631,0.378846
3.0624,-0.582334,-0.0603009,1.01504,-0.307032,2.20542,0.0788016,-0.181606,0.371758
3.0747,-0.576959,-0.0565269,1.01593,-0.307045,2.20658,0.0811677,-0.184282,0.365035
3.087,-0.571787,-0.0529427,1.01673,-0.307059,2.20758,0.0834462,-0.186677,0.358644
3.09929,-0.566787,-0.0495191,1.01746,-0.307075,2.20843,0.0856461,-0.18881,0.35254
3.11159,-0.561913,-0.0462178,1.01811,-0.307092,2.20915,0.0877825,-0.1907,0.346663
3.12389,-0.557101,-0.0429914,1.0187,-0.307113,2.20974,0.0898775,-0.192368,0.340933
3.13619,-0.552273,-0.0397832,1.01924,-0.307139,2.21024,0.0919593,-0.193839,0.335255
3.14849,-0.547342,-0.036532,1.01972,-0.30717,2.21064,0.0940601,-0.195135,0.329525
3.16079,-0.542223,-0.0331772,1.02017,-0.30721,2.21097,0.096212,-0.196281,0.323639
3.17309,-0.536841,-0.029667,1.02059,-0.30726,2.21123,0.098442,-0.1973,0.317508
3.18539,-0.531147,-0.025965,1.02099,-0.307322,2.21143,0.100768,-0.198214,0.311069
3.19769,-0.525121,-0.0220553,1.02137,-0.307396,2.2116,0.103193,-0.199036,0.304293
3.20998,-0.518782,-0.017945,1.02174,-0.307484,2.21173,0.105709,-0.199778,0.297192
3.22228,-0.512178,-0.0136616,1.02209,-0.307586,2.21182,0.108291,-0.200447,0.289812
3.23458,-0.505381,-0.00924845,1.02243,-0.307699,2.2119,0.110907,-0.201043,0.282228
3.24688,-0.498477,-0.00475757,1.02276,-0.307822,2.21195,0.113518,-0.201567,0.274528
3.25918,-0.491551,-0.000241953,1.02307,-0.307952,2.21199,0.116086,-0.20202,0.266801
3.27148,-0.484682,0.00425062,1.02336,-0.308086,2.212,0.118577,-0.202402,0.259127
3.28378,-0.477929,0.00868169,1.02363,-0.30822,2.212,0.120962,-0.202719,0.251572
3.29608,-0.471338,0.0130235,1.02388,-0.30835,2.21197,0.123222,-0.202976,0.244177
3.30837,-0.464935,0.017258,1.02411,-0.308476,2.21193,0.125346,-0.203183,0.236972
3.32067,-0.458734,0.0213746,1.02433,-0.308594,2.21186,0.127327,-0.203349,0.229969
3.33297,-0.452741,0.0253672,1.02453,-0.308706,2.21176,0.129166,-0.203485,0.223174
3.34527,-0.446959,0.0292321,1.02472,-0.308813,2.21164,0.130862,-0.203603,0.216589
3.35757,-0.441387,0.0329672,1.02489,-0.308919,2.21149,0.132419,-0.203712,0.210213
3.36987,-0.43602,0.0365723,1.02506,-0.30903,2.21129,0.13384,-0.203822,0.204044
3.38217,-0.43085,0.0400523,1.02522,-0.309154,2.21106,0.135129,-0.203942,0.19807
3.39447,-0.425854,0.043419,1.02537,-0.309303,2.21076,0.136291,-0.20408,0.192268
3.40676,-0.420999,0.0466946,1.02551,-0.309491,2.2104,0.137332,-0.204245,0.186598
3.41906,-0.416235,0.0499132,1.02564,-0.309733,2.20996,0.138257,-0.204443,0.181
3.43136,-0.411496,0.0531198,1.02576,-0.310049,2.20942,0.139077,-0.204685,0.175394
3.44366,-0.406703,0.056367,1.02588,-0.310457,2.20876,0.139802,-0.20498,0.169688
3.45596,-0.401779,0.0597097,1.02599,-0.310976,2.20796,0.140442,-0.205333,0.163784
3.46826,-0.396652,0.063197,1.0261,-0.311623,2.20701,0.141009,-0.205753,0.157599
3.48056,-0.391271,0.0668652,1.0262,-0.31241,2.20587,0.141514,-0.206242,0.151071
3.49286,-0.385614,0.0707316,1.0263,-0.313345,2.20455,0.141963,-0.2068,0.144174
3.50515,-0.379689,0.0747918,1.0264,-0.31443,2.20304,0.142363,-0.207424,0.13692
3.51745,-0.37354,0.07902,1.02648,-0.315661,2.20133,0.142718,-0.208103,0.129365
3.52975,-0.367231,0.0833742,1.02657,-0.317026,2.19943,0.143028,-0.208825,0.121591
3.54205,-0.360844,0.0878026,1.02664,-0.318513,2.19735,0.143295,-0.209574,0.113701
3.55435,-0.354462,0.092252,1.02671,-0.320103,2.1951,0.143519,-0.210332,0.105803
3.56665,-0.348161,0.0966748,1.02677,-0.32178,2.19269,0.143701,-0.211081,0.097994
3.57895,-0.342003,0.101034,1.02682,-0.323526,2.19013,0.143842,-0.211805,0.0903566
3.59125,-0.336028,0.105305,1.02686,-0.325323,2.18744,0.143946,-0.212486,0.0829501
3.60355,-0.33026,0.109476,1.0269,-0.327158,2.18464,0.144016,-0.213115,0.0758138
3.61584,-0.324708,0.113544,1.02693,-0.329017,2.18172,0.144056,-0.213682,0.0689711
3.62814,-0.319373,0.117511,1.02696,-0.330886,2.17872,0.144072,-0.214183,0.0624352
3.64044,-0.314252,0.121383,1.02699,-0.332752,2.17565,0.144066,-0.214617,0.0562154
3.65274,-0.309337,0.125164,1.02701,-0.334604,2.17254,0.144043,-0.214986,0.050321
3.66504,-0.304625,0.128861,1.02704,-0.336428,2.16939,0.144005,-0.215296,0.0447623
3.67734,-0.300108,0.132481,1.02707,-0.338218,2.16622,0.143954,-0.215553,0.0395503
3.68964,-0.295776,0.136037,1.0271,-0.339966,2.16305,0.14389,-0.215764,0.0346933
3.70194,-0.291606,0.139552,1.02714,-0.341673,2.15987,0.143812,-0.21594,0.0301933
3.71423,-0.287568,0.143059,1.02719,-0.343346,2.15664,0.143718,-0.216088,0.0260431
3.72653,-0.283617,0.146604,1.02724,-0.344999,2.15335,0.143603,-0.216215,0.0222246
3.73883,-0.279699,0.150244,1.02732,-0.346651,2.14995,0.143463,-0.216329,0.0187096
3.75113,-0.275752,0.154038,1.0274,-0.348325,2.14638,0.143291,-0.216434,0.0154634
3.76343,-0.271719,0.158044,1.02752,-0.350043,2.14259,0.14308,-0.216535,0.0124498
3.77573,-0.267555,0.162308,1.02765,-0.351825,2.13854,0.142821,-0.216633,0.00963733
3.78803,-0.263231,0.166855,1.02782,-0.353681,2.13422,0.142505,-0.21673,0.00700394
3.80033,-0.258742,0.171688,1.02803,-0.355613,2.12961,0.142125,-0.216823,0.00454048
3.81262,-0.254107,0.176784,1.02827,-0.357615,2.12473,0.141674,-0.216913,0.00225074
3.82492,-0.249364,0.1821,1.02856,-0.359672,2.11964,0.141143,-0.216998,0.000148595
3.83722,-0.244564,0.187579,1.02889,-0.361764,2.11438,0.140527,-0.217074,-0.00174689
3.84952,-0.239761,0.193158,1.02926,-0.363873,2.10902,0.139823,-0.21714,-0.0034174
3.86182,-0.235005,0.198777,1.02969,-0.365982,2.1036,0.139024,-0.217196,-0.00485072
3.87412,-0.230336,0.204386,1.03016,-0.368081,2.09818,0.13813,-0.21724,-0.00604445
3.88642,-0.225781,0.209944,1.03067,-0.370164,2.09279,0.137139,-0.217273,-0.00700733
3.89872,-0.221355,0.215425,1.03124,-0.372234,2.08746,0.136051,-0.217296,-0.00775837
3.91101,-0.217062,0.220808,1.03185,-0.374293,2.0822,0.134867,-0.217311,-0.00832423
3.92331,-0.2129,0.226081,1.03249,-0.37635,2.07703,0.133591,-0.217319,-0.00873578
3.93561,-0.208863,0.231232,1.03318,-0.37841,2.07195,0.132226,-0.217322,-0.00902455
3.94791,-0.204946,0.236253,1.0339,-0.38048,2.06697,0.130776,-0.217322,-0.00921994
3.96021,-0.201141,0.241137,1.03464,-0.382567,2.06209,0.129245,-0.21732,-0.00934732
3.97251,-0.197439,0.245879,1.0354,-0.384679,2.05731,0.127632,-0.217318,-0.00942715
3.98481,-0.193826,0.250486,1.03619,-0.386827,2.05262,0.125933,-0.217316,-0.00947502
3.99711,-0.190281,0.254973,1.037,-0.389031,2.048,0.124136,-0.217315,-0.00950211
4.00941,-0.186773,0.259368,1.03783,-0.391316,2.04341,0.12222,-0.217315,-0.00951613
4.0217,-0.183261,0.263715,1.0387,-0.393715,2.0388,0.120161,-0.217315,-0.0095221
4.034,-0.1797,0.268065,1.03961,-0.396266,2.03412,0.117924,-0.217316,-0.00952323
4.0463,-0.176039,0.272473,1.04057,-0.399008,2.0293,0.115476,-0.217317,-0.00952145
4.0586,-0.172236,0.276991,1.0416,-0.401975,2.02428,0.112787,-0.217318,-0.00951798
4.0709,-0.168258,0.281656,1.04269,-0.405192,2.01901,0.109832,-0.217319,-0.00951352
4.0832,-0.164089,0.286488,1.04386,-0.408666,2.01348,0.106601,-0.21732,-0.00950855
4.0955,-0.159735,0.291482,1.0451,-0.412391,2.00768,0.103096,-0.217319,-0.00950337
4.1078,-0.155221,0.296611,1.0464,-0.416344,2.00166,0.0993359,-0.217319,-0.00949825
4.12009,-0.150587,0.301831,1.04774,-0.420489,1.99545,0.0953471,-0.217318,-0.00949337
4.13239,-0.145883,0.307089,1.04911,-0.424781,1.98911,0.0911649,-0.217317,-0.00948895
4.14469,-0.141161,0.31233,1.05048,-0.429177,1.98272,0.0868262,-0.217317,-0.00948515
4.15699,-0.136468,0.317504,1.05185,-0.433632,1.97632,0.0823652,-0.217318,-0.00948213
4.16929,-0.131843,0.322574,1.05318,-0.438114,1.96995,0.0778105,-0.21732,-0.00948002
4.18159,-0.127314,0.327518,1.05447,-0.442593,1.96365,0.0731843,-0.217323,-0.00947888
4.19389,-0.122897,0.332323,1.0557,-0.447052,1.95742,0.0685031,-0.217328,-0.00947872
4.20619,-0.118602,0.336989,1.05687,-0.451474,1.95128,0.06378,-0.217335,-0.00947946
4.21848,-0.114434,0.341517,1.05797,-0.455848,1.94523,0.0590274,-0.217343,-0.00948096
4.23078,-0.110397,0.345912,1.05899,-0.460162,1.93926,0.0542597,-0.217352,-0.00948303
4.24308,-0.106495,0.350175,1.05994,-0.464401,1.93339,0.0494942,-0.217362,-0.00948543
4.25538,-0.102735,0.354307,1.06081,-0.46855,1.92762,0.0447506,-0.217372,-0.00948794
4.26768,-0.0991217,0.358306,1.06161,-0.472595,1.92197,0.0400477,-0.217383,-0.00949031
4.27998,-0.0956584,0.362172,1.06234,-0.476527,1.91645,0.035399,-0.217395,-0.00949235
4.29228,-0.0923408,0.365914,1.06299,-0.480343,1.91104,0.0308069,-0.217407,-0.00949389
4.30458,-0.0891548,0.36955,1.06358,-0.484055,1.90574,0.026257,-0.217419,-0.00949485
4.31687,-0.0860732,0.373114,1.06411,-0.48769,1.9005,0.0217149,-0.217431,-0.00949516
4.32917,-0.0830567,0.376651,1.06458,-0.491292,1.89526,0.0171254,-0.217445,-0.00949481
4.34147,-0.0800557,0.380222,1.06501,-0.494914,1.88995,0.0124167,-0.217459,-0.00949383
4.35377,-0.0770156,0.38389,1.0654,-0.498618,1.88446,0.00750865,-0.217476,-0.00949229
4.36607,-0.0738844,0.387718,1.06577,-0.502463,1.87872,0.00232424,-0.217498,-0.00949032
4.37837,-0.0706195,0.391756,1.06611,-0.506498,1.87265,-0.00319828,-0.217527,-0.00948808
4.39067,-0.0671947,0.396035,1.06644,-0.510751,1.86622,-0.00909436,-0.217567,-0.00948581
4.40297,-0.063604,0.400561,1.06676,-0.515226,1.85943,-0.0153664,-0.217623,-0.00948379
4.41527,-0.059862,0.405316,1.06706,-0.519903,1.85229,-0.0219828,-0.217701,-0.00948236
4.42756,-0.056001,0.410258,1.06735,-0.524739,1.84489,-0.0288822,-0.217809,-0.00948193
4.43986,-0.052065,0.415332,1.06762,-0.529678,1.83731,-0.0359833,-0.217954,-0.00948298
4.45216,-0.0481031,0.420474,1.06787,-0.534658,1.82963,-0.0431965,-0.218148,-0.00948612
4.46446,-0.0441622,0.425622,1.06809,-0.539617,1.82196,-0.0504351,-0.218399,-0.00949209
4.47676,-0.0402817,0.430726,1.06829,-0.544506,1.81437,-0.0576248,-0.218719,-0.00950183
4.48906,-0.0364912,0.435742,1.06847,-0.549287,1.80691,-0.0647086,-0.219119,-0.00951652
4.50136,-0.0328093,0.440643,1.06862,-0.553936,1.79963,-0.0716475,-0.219607,-0.00953765
4.51366,-0.0292457,0.445413,1.06874,-0.558441,1.79255,-0.0784185,-0.220193,-0.00956701
4.52595,-0.0258033,0.450042,1.06884,-0.5628,1.78567,-0.0850098,-0.220883,-0.00960672
4.53825,-0.0224815,0.454526,1.06892,-0.567014,1.779,-0.0914162,-0.221682,-0.00965921
4.55055,-0.0192773,0.458865,1.06899,-0.571091,1.77254,-0.0976361,-0.222594,-0.00972718
4.56285,-0.0161864,0.463058,1.06904,-0.575036,1.76628,-0.103671,-0.223623,-0.0098136
4.57515,-0.0132022,0.467109,1.06908,-0.578863,1.76022,-0.109525,-0.224774,-0.00992166
4.58745,-0.0103135,0.471027,1.06911,-0.582586,1.75435,-0.115212,-0.226054,-0.0100548
4.59975,-0.00750275,0.474829,1.06914,-0.58623,1.74864,-0.12076,-0.227475,-0.0102165
4.61205,-0.00474374,0.478544,1.06916,-0.589832,1.74304,-0.126209,-0.229055,-0.0104103
4.62434,-0.00200183,0.482211,1.06917,-0.593437,1.73751,-0.131621,-0.230817,-0.0106391
4.63664,0.000764418,0.485878,1.06918,-0.5971,1.73196,-0.137069,-0.232788,-0.010905
4.64894,0.00359918,0.4896,1.06919,-0.600882,1.72631,-0.142631,-0.234991,-0.0112083
4.66124,0.00654378,0.493424,1.06919,-0.604838,1.7205,-0.148383,-0.237448,-0.0115473
4.67354,0.00963064,0.49739,1.06919,-0.609015,1.71446,-0.154384,-0.240167,-0.0119171
4.68584,0.0128781,0.501519,1.06919,-0.613438,1.70816,-0.160665,-0.243143,-0.0123099
4.69814,0.0162874,0.505812,1.06919,-0.618115,1.70159,-0.167226,-0.246352,-0.0127152
4.71044,0.0198429,0.510245,1.06918,-0.623028,1.69479,-0.174034,-0.249757,-0.0131205
4.72273,0.0235148,0.514778,1.06918,-0.628143,1.68782,-0.181028,-0.253306,-0.0135127
4.73503,0.0272645,0.519362,1.06918,-0.633412,1.68074,-0.188133,-0.256942,-0.0138794
4.74733,0.0310506,0.523941,1.06917,-0.638786,1.67363,-0.195268,-0.260606,-0.0142101
4.75963,0.0348347,0.528466,1.06917,-0.644217,1.66657,-0.202357,-0.264247,-0.0144978
4.77193,0.0385849,0.532897,1.06917,-0.649666,1.6596,-0.209341,-0.26782,-0.0147387
4.78423,0.0422771,0.537205,1.06917,-0.655102,1.65277,-0.216176,-0.271295,-0.0149328
4.79653,0.0458946,0.541376,1.06918,-0.660505,1.6461,-0.222835,-0.27465,-0.0150831
4.80883,0.0494254,0.5454,1.06918,-0.665859,1.6396,-0.229302,-0.277872,-0.0151948
4.82113,0.0528597,0.549277,1.06918,-0.671147,1.63328,-0.235564,-0.280954,-0.0152742
4.83342,0.0561872,0.553003,1.06918,-0.676353,1.62715,-0.241612,-0.283889,-0.0153278
4.84572,0.0593959,0.556576,1.06918,-0.681455,1.62121,-0.24743,-0.286673,-0.0153619
4.85802,0.062473,0.559992,1.06919,-0.68643,1.61549,-0.253002,-0.289299,-0.0153818
4.87032,0.0654067,0.563246,1.06919,-0.691254,1.61,-0.258309,-0.291762,-0.0153919
4.88262,0.0681894,0.566337,1.06919,-0.695913,1.60475,-0.263337,-0.294059,-0.0153952
4.89492,0.0708213,0.569268,1.06919,-0.700407,1.59974,-0.268083,-0.296196,-0.0153941
4.90722,0.0733134,0.572056,1.06919,-0.704752,1.59494,-0.272562,-0.298181,-0.0153898
4.91952,0.0756899,0.57473,1.06919,-0.708994,1.59031,-0.276806,-0.300036,-0.015383
4.93181,0.0779873,0.577331,1.06919,-0.713198,1.58578,-0.28087,-0.30179,-0.015374
4.94411,0.0802523,0.579914,1.06919,-0.717452,1.58126,-0.284824,-0.303481,-0.0153625
4.95641,0.0825366,0.582539,1.06919,-0.721854,1.57664,-0.288747,-0.30515,-0.0153482
4.96871,0.0848904,0.585263,1.06919,-0.726502,1.57183,-0.292715,-0.306838,-0.0153306
4.98101,0.0873547,0.588138,1.06918,-0.731476,1.56675,-0.296791,-0.30858,-0.0153089
4.99331,0.0899558,0.591197,1.06917,-0.736829,1.56135,-0.30101,-0.310401,-0.0152828
5.00561,0.0927004,0.594449,1.06917,-0.742579,1.55561,-0.305374,-0.312311,-0.0152516
5.01791,0.0955752,0.597885,1.06916,-0.748701,1.54958,-0.309853,-0.314308,-0.0152149
5.0302,0.0985493,0.60147,1.06915,-0.755138,1.54332,-0.314384,-0.316377,-0.0151721
5.0425,0.10158,0.605156,1.06914,-0.761803,1.53693,-0.318885,-0.318497,-0.015123
5.0548,0.104617,0.608887,1.06914,-0.768599,1.53052,-0.323264,-0.320638,-0.0150671
5.0671,0.107616,0.612606,1.06913,-0.775426,1.5242,-0.327434,-0.322774,-0.0150043
5.0794,0.110535,0.616265,1.06913,-0.782197,1.51805,-0.331319,-0.324881,-0.0149342
5.0917,0.113346,0.619824,1.06912,-0.788841,1.51216,-0.334866,-0.326943,-0.014857
5.104,0.11603,0.623259,1.06912,-0.795307,1.50657,-0.338043,-0.328946,-0.0147729
5.1163,0.118581,0.626555,1.06911,-0.801565,1.50131,-0.34084,-0.330887,-0.0146823
5.12859,0.120997,0.629709,1.06911,-0.807597,1.49639,-0.343266,-0.332762,-0.0145854
5.14089,0.123283,0.632724,1.06911,-0.813398,1.49181,-0.34534,-0.334575,-0.0144824
5.15319,0.125447,0.635607,1.06911,-0.818969,1.48755,-0.347091,-0.33633,-0.0143727
5.16549,0.127496,0.638368,1.0691,-0.824319,1.4836,-0.34855,-0.338036,-0.0142549
5.17779,0.129438,0.641023,1.0691,-0.829461,1.47994,-0.34975,-0.339706,-0.0141262
5.19009,0.131284,0.643589,1.0691,-0.834418,1.47655,-0.350723,-0.341355,-0.0139824
5.20239,0.133046,0.646088,1.0691,-0.839225,1.4734,-0.3515,-0.343008,-0.0138179
5.21469,0.13474,0.648551,1.0691,-0.843928,1.47046,-0.352109,-0.344694,-0.0136261
5.22698,0.136384,0.651011,1.0691,-0.848582,1.46769,-0.352577,-0.346446,-0.0134002
5.23928,0.138,0.653504,1.06909,-0.853251,1.46507,-0.352929,-0.348299,-0.0131344
5.25158,0.139607,0.656066,1.06909,-0.857994,1.46254,-0.353187,-0.350288,-0.0128245
5.26388,0.141224,0.658727,1.06909,-0.86286,1.46009,-0.353372,-0.352441,-0.0124698
5.27618,0.142862,0.661506,1.06909,-0.867881,1.45768,-0.3535,-0.35478,-0.0120731
5.28848,0.144526,0.664413,1.06909,-0.873064,1.45531,-0.353586,-0.357312,-0.0116414
5.30078,0.146212,0.66744,1.0691,-0.87839,1.45297,-0.353642,-0.360034,-0.0111856
5.31308,0.147908,0.670568,1.0691,-0.883817,1.45068,-0.353676,-0.362931,-0.0107192
5.32538,0.149594,0.673769,1.0691,-0.889284,1.44846,-0.353695,-0.365981,-0.0102572
5.33767,0.151251,0.677011,1.0691,-0.894726,1.44632,-0.353704,-0.369155,-0.00981447
5.34997,0.152857,0.680258,1.06911,-0.900077,1.44429,-0.353706,-0.372423,-0.00940386
5.36227,0.154393,0.68348,1.06911,-0.905278,1.44239,-0.353704,-0.375756,-0.00903537
5.37457,0.155845,0.686652,1.06911,-0.910287,1.44062,-0.3537,-0.379126,-0.00871524
5.38687,0.157203,0.689756,1.06911,-0.915076,1.43897,-0.353693,-0.382512,-0.00844591
5.39917,0.158464,0.69278,1.06912,-0.919635,1.43744,-0.353685,-0.38589,-0.00822631
5.41147,0.159629,0.695715,1.06912,-0.923962,1.43602,-0.353675,-0.389241,-0.00805271
5.42377,0.160702,0.698557,1.06912,-0.928067,1.43468,-0.353663,-0.392545,-0.00791952
5.43606,0.161691,0.701305,1.06912,-0.931961,1.43342,-0.353649,-0.395779,-0.0078203
5.44836,0.162602,0.703957,1.06912,-0.935662,1.43222,-0.353633,-0.39892,-0.00774851
5.46066,0.163444,0.706513,1.06912,-0.939184,1.43105,-0.353612,-0.401944,-0.00769804
5.47296,0.164224,0.708977,1.06912,-0.942546,1.42992,-0.353586,-0.404825,-0.00766363
5.48526,0.16495,0.711353,1.06912,-0.945766,1.42882,-0.353555,-0.407542,-0.00764094
5.49756,0.165628,0.713651,1.06912,-0.948867,1.42773,-0.353516,-0.410078,-0.00762659
5.50986,0.166266,0.715885,1.06912,-0.951876,1.42664,-0.35347,-0.41242,-0.00761803
5.52216,0.166871,0.718076,1.06912,-0.954823,1.42554,-0.353413,-0.414565,-0.0076134
5.53445,0.167448,0.720246,1.06911,-0.957743,1.42443,-0.353347,-0.416513,-0.00761142
5.54675,0.168005,0.722417,1.06911,-0.960668,1.4233,-0.353271,-0.418274,-0.00761116
5.55905,0.168548,0.724611,1.06911,-0.963629,1.42213,-0.353184,-0.419859,-0.00761203
5.57135,0.169079,0.726844,1.06911,-0.966645,1.42091,-0.353088,-0.421283,-0.00761361
5.58365,0.1696,0.729123,1.06911,-0.969728,1.41965,-0.352985,-0.42256,-0.00761561
5.59595,0.170112,0.731448,1.06911,-0.972874,1.41834,-0.352877,-0.4237,-0.00761783
5.60825,0.170612,0.733809,1.0691,-0.976068,1.41699,-0.352767,-0.424712,-0.00762008
5.62055,0.171095,0.73619,1.0691,-0.979284,1.4156,-0.352658,-0.425603,-0.00762218
5.63285,0.171557,0.738572,1.0691,-0.982491,1.41419,-0.352551,-0.426375,-0.00762395
5.64514,0.171992,0.740934,1.0691,-0.985656,1.41276,-0.352448,-0.427035,-0.0076252
5.65744,0.172396,0.743259,1.0691,-0.988747,1.41133,-0.352349,-0.427587,-0.00762573
5.66974,0.172763,0.745532,1.0691,-0.991737,1.40991,-0.352253,-0.428039,-0.00762538
5.68204,0.173091,0.747741,1.06909,-0.994605,1.40851,-0.352156,-0.428399,-0.00762404
5.69434,0.173379,0.749881,1.06909,-0.997332,1.40714,-0.352056,-0.428679,-0.00762163
5.70664,0.173627,0.751948,1.06909,-0.99991,1.40582,-0.351946,-0.42889,-0.00761816
5.71894,0.173836,0.753937,1.06909,-1.00233,1.40456,-0.351822,-0.429044,-0.00761373
5.73124,0.174008,0.755847,1.06908,-1.00459,1.40336,-0.351678,-0.429154,-0.00760853
5.74353,0.174147,0.757673,1.06908,-1.00668,1.40223,-0.351509,-0.429228,-0.00760279
5.75583,0.174256,0.75941,1.06908,-1.00861,1.40118,-0.35131,-0.429277,-0.00759682
5.76813,0.174339,0.761055,1.06908,-1.01037,1.40022,-0.351076,-0.429307,-0.00759092
5.78043,0.174401,0.7626,1.06908,-1.01198,1.39934,-0.350804,-0.429324,-0.0075854
5.79273,0.174445,0.764044,1.06908,-1.01344,1.39856,-0.350488,-0.429332,-0.00758049
5.80503,0.174476,0.765387,1.06907,-1.01476,1.39785,-0.350122,-0.429335,-0.00757635
5.81733,0.174497,0.766633,1.06907,-1.01596,1.39723,-0.349698,-0.429334,-0.00757302
5.82963,0.17451,0.767792,1.06907,-1.01706,1.39668,-0.349204,-0.429331,-0.00757044
5.84192,0.174518,0.768878,1.06907,-1.0181,1.39619,-0.348626,-0.429328,-0.00756847
5.85422,0.174521,0.769908,1.06907,-1.01909,1.39575,-0.347949,-0.429324,-0.00756691
5.86652,0.174521,0.7709,1.06907,-1.02007,1.39535,-0.347157,-0.42932,-0.00756551
5.87882,0.174519,0.771872,1.06906,-1.02105,1.39498,-0.346234,-0.429316,-0.00756406
5.89112,0.174516,0.772835,1.06906,-1.02206,1.39463,-0.345172,-0.429311,-0.00756237
5.90342,0.174511,0.773793,1.06905,-1.02309,1.3943,-0.343967,-0.429306,-0.0075603
5.91572,0.174505,0.774744,1.06905,-1.02414,1.39397,-0.342623,-0.429299,-0.00755779
5.92802,0.174499,0.775676,1.06904,-1.02521,1.39367,-0.341149,-0.42929,-0.00755481
5.94032,0.174492,0.776575,1.06903,-1.02626,1.39338,-0.339563,-0.429279,-0.00755142
5.95261,0.174486,0.777421,1.06902,-1.02727,1.39311,-0.337886,-0.429263,-0.00754769
5.96491,0.174481,0.778196,1.06901,-1.02822,1.39288,-0.33614,-0.429242,-0.0075437
5.97721,0.174476,0.778887,1.069,-1.0291,1.39267,-0.334347,-0.429214,-0.00753952
5.98951,0.174473,0.779482,1.06899,-1.02987,1.3925,-0.332523,-0.429177,-0.00753517
6.00181,0.17447,0.779979,1.06898,-1.03053,1.39236,-0.330685,-0.429127,-0.00753059
6.01411,0.174469,0.780382,1.06897,-1.03109,1.39225,-0.328843,-0.429061,-0.00752558
6.02641,0.174469,0.780698,1.06896,-1.03154,1.39217,-0.327004,-0.428976,-0.00751977
6.0387,0.174469,0.78094,1.06895,-1.0319,1.39211,-0.325175,-0.428867,-0.00751249
6.051,0.174471,0.781119,1.06894,-1.03217,1.39207,-0.32336,-0.428728,-0.00750268
6.0633,0.174474,0.781249,1.06893,-1.03238,1.39205,-0.321562,-0.428553,-0.00748869
6.0756,0.174477,0.781342,1.06892,-1.03253,1.39204,-0.319783,-0.428334,-0.00746814
6.0879,0.17448,0.781407,1.06891,-1.03263,1.39203,-0.318022,-0.428062,-0.00743758
6.1002,0.174484,0.781454,1.0689,-1.03271,1.39203,-0.316274,-0.427724,-0.0073923
6.1125,0.174489,0.781488,1.06889,-1.03276,1.39204,-0.31453,-0.427305,-0.00732609
6.1248,0.174493,0.781514,1.06888,-1.0328,1.39205,-0.312773,-0.426785,-0.00723101
6.1371,0.174497,0.781534,1.06888,-1.03284,1.39206,-0.310982,-0.426143,-0.0070974
6.14939,0.1745,0.781553,1.06887,-1.03286,1.39207,-0.309132,-0.425356,-0.00691397
6.16169,0.174503,0.78157,1.06886,-1.03289,1.39209,-0.3072,-0.4244,-0.00666808
6.17399,0.174505,0.781588,1.06885,-1.03292,1.39211,-0.305167,-0.423255,-0.00634615
6.18629,0.174505,0.781608,1.06885,-1.03295,1.39213,-0.303024,-0.421904,-0.00593427
6.19859,0.174504,0.781631,1.06884,-1.03298,1.39215,-0.300774,-0.420336,-0.00541881
6.21089,0.1745,0.781659,1.06883,-1.03302,1.39218,-0.298435,-0.41855,-0.00478711
6.22319,0.174494,0.78169,1.06883,-1.03307,1.3922,-0.296035,-0.416553,-0.00402807
6.23549,0.174483,0.781727,1.06882,-1.03311,1.39222,-0.29361,-0.414357,-0.00313278
6.24778,0.174469,0.781769,1.06882,-1.03317,1.39224,-0.291201,-0.411984,-0.00209499
6.26008,0.17445,0.781815,1.06882,-1.03323,1.39226,-0.288847,-0.409456,-0.00091156
6.27238,0.174425,0.781865,1.06882,-1.03329,1.39228,-0.286578,-0.4068,0.00041714
6.28468,0.174396,0.781918,1.06882,-1.03335,1.39229,-0.284419,-0.404041,0.00188696
6.29698,0.174361,0.781972,1.06883,-1.03341,1.3923,-0.282379,-0.401203,0.00348969
6.30928,0.174321,0.782027,1.06883,-1.03347,1.3923,-0.280463,-0.39831,0.0052129
6.32158,0.174276,0.782082,1.06884,-1.03352,1.3923,-0.278664,-0.395386,0.00703986
6.33388,0.174227,0.782137,1.06885,-1.03357,1.3923,-0.276973,-0.392453,0.0089495
6.34618,0.174174,0.78219,1.06886,-1.03362,1.3923,-0.27538,-0.389538,0.0109167
6.35847,0.174119,0.782242,1.06887,-1.03366,1.3923,-0.273874,-0.386668,0.0129127
6.37077,0.174062,0.782293,1.06887,-1.03369,1.39229,-0.272448,-0.383873,0.0149061
6.38307,0.174003,0.782343,1.06888,-1.03372,1.39229,-0.271095,-0.381187,0.0168641
6.39537,0.173943,0.782393,1.06889,-1.03374,1.39228,-0.269813,-0.378643,0.0187541
6.40767,0.173883,0.782441,1.0689,-1.03375,1.39228,-0.268597,-0.376271,0.0205462
6.41997,0.173821,0.782489,1.06891,-1.03377,1.39227,-0.267442,-0.374097,0.0222151
6.43227,0.173757,0.782536,1.06892,-1.03378,1.39226,-0.266339,-0.372141,0.0237419
6.44457,0.173689,0.782582,1.06892,-1.03378,1.39226,-0.265274,-0.370412,0.0251158
6.45686,0.173618,0.782628,1.06893,-1.03379,1.39225,-0.264228,-0.368909,0.026334
6.46916,0.17354,0.782675,1.06893,-1.0338,1.39225,-0.263181,-0.367622,0.0274016
6.48146,0.173456,0.782722,1.06893,-1.0338,1.39225,-0.262111,-0.366533,0.0283295
6.49376,0.173365,0.782772,1.06892,-1.03381,1.39225,-0.260999,-0.365619,0.0291328
6.50606,0.173268,0.782825,1.06892,-1.03381,1.39225,-0.259831,-0.364856,0.0298276
6.51836,0.173166,0.782882,1.06891,-1.03382,1.39226,-0.258602,-0.36422,0.0304298
6.53066,0.173062,0.782947,1.0689,-1.03383,1.39226,-0.257316,-0.363688,0.0309526
6.54296,0.17296,0.783019,1.06889,-1.03384,1.39227,-0.255986,-0.363242,0.0314065
6.55525,0.172861,0.783101,1.06888,-1.03384,1.39228,-0.254632,-0.362869,0.0317986
6.56755,0.172771,0.783194,1.06886,-1.03385,1.39228,-0.253279,-0.362559,0.0321343
6.57985,0.17269,0.783298,1.06885,-1.03386,1.39229,-0.251953,-0.362304,0.0324173
6.59215,0.172622,0.783415,1.06884,-1.03386,1.3923,-0.250675,-0.362096,0.0326511
6.60445,0.172565,0.783545,1.06883,-1.03387,1.3923,-0.249467,-0.361932,0.0328397
6.61675,0.17252,0.783687,1.06882,-1.03388,1.39231,-0.248343,-0.361805,0.0329876
6.62905,0.172486,0.78384,1.06882,-1.03388,1.39231,-0.247309,-0.361709,0.0331004
6.64135,0.172461,0.784001,1.06881,-1.03389,1.39231,-0.246371,-0.36164,0.0331838
6.65365,0.172443,0.78417,1.06881,-1.03389,1.39232,-0.245528,-0.361591,0.0332437
6.66594,0.172431,0.784343,1.06881,-1.03389,1.39232,-0.244775,-0.361557,0.0332857
6.67824,0.172422,0.784517,1.06881,-1.03389,1.39232,-0.244109,-0.361535,0.0333143
6.69054,0.172416,0.784691,1.06881,-1.03389,1.39232,-0.243524,-0.361521,0.0333336
6.70284,0.172412,0.784863,1.0688,-1.03389,1.39232,-0.243013,-0.361512,0.0333464
6.71514,0.172408,0.785033,1.0688,-1.03389,1.39232,-0.242571,-0.361506,0.033355
6.72744,0.172405,0.785201,1.0688,-1.03389,1.39232,-0.242191,-0.361503,0.0333606
6.73974,0.172402,0.785369,1.0688,-1.03389,1.39232,-0.241867,-0.361501,0.0333641
6.75204,0.172399,0.785539,1.0688,-1.03389,1.39232,-0.241593,-0.3615,0.0333661
6.76433,0.172396,0.785715,1.0688,-1.03389,1.39231,-0.241362,-0.3615,0.0333668
6.77663,0.172393,0.785899,1.0688,-1.03389,1.39231,-0.241168,-0.361501,0.0333663
6.78893,0.172391,0.786091,1.0688,-1.03389,1.39231,-0.241005,-0.361501,0.0333648
6.80123,0.172388,0.786295,1.0688,-1.03389,1.39231,-0.240869,-0.361503,0.0333624
6.81353,0.172385,0.786508,1.0688,-1.03389,1.39231,-0.240754,-0.361504,0.0333593
6.82583,0.172383,0.786728,1.06881,-1.0339,1.39231,-0.240658,-0.361506,0.0333557
6.83813,0.17238,0.786953,1.06881,-1.0339,1.39231,-0.240578,-0.361507,0.0333519
6.85043,0.172378,0.787179,1.06881,-1.0339,1.39231,-0.240512,-0.361508,0.0333481
6.86272,0.172376,0.787402,1.06881,-1.0339,1.39231,-0.240457,-0.361509,0.0333443
6.87502,0.172374,0.787618,1.06882,-1.03391,1.39231,-0.240413,-0.361508,0.0333408
6.88732,0.172373,0.787823,1.06882,-1.03391,1.39231,-0.240378,-0.361507,0.0333375
6.89962,0.172372,0.788016,1.06882,-1.03391,1.3923,-0.240351,-0.361505,0.0333343
6.91192,0.172371,0.788194,1.06882,-1.03392,1.3923,-0.240332,-0.361502,0.0333314
6.92422,0.17237,0.788358,1.06882,-1.03392,1.3923,-0.240317,-0.3615,0.0333285
6.93652,0.17237,0.788507,1.06882,-1.03392,1.3923,-0.240307,-0.361497,0.0333256
6.94882,0.17237,0.788641,1.06882,-1.03393,1.3923,-0.240301,-0.361494,0.0333227
6.96111,0.17237,0.788762,1.06882,-1.03393,1.39231,-0.240296,-0.361492,0.0333197
6.97341,0.172371,0.788869,1.06881,-1.03393,1.39231,-0.240294,-0.361491,0.0333167
6.98571,0.172372,0.788964,1.06881,-1.03394,1.39231,-0.240292,-0.36149,0.0333136
6.99801,0.172373,0.789047,1.06881,-1.03394,1.39231,-0.240291,-0.361489,0.0333103
7.01031,0.172375,0.789121,1.06881,-1.03394,1.39231,-0.240291,-0.36149,0.0333067
7.02261,0.172376,0.789184,1.0688,-1.03394,1.39231,-0.240291,-0.36149,0.0333027
7.03491,0.172377,0.789239,1.0688,-1.03395,1.39231,-0.240291,-0.361492,0.0332979
7.04721,0.172378,0.789287,1.0688,-1.03395,1.39231,-0.24029,-0.361493,0.033292
7.0595,0.172378,0.789327,1.0688,-1.03395,1.39231,-0.24029,-0.361495,0.0332846
7.0718,0.172378,0.789362,1.0688,-1.03395,1.39231,-0.24029,-0.361497,0.0332749
7.0841,0.172377,0.789391,1.0688,-1.03395,1.39231,-0.24029,-0.361499,0.0332627
7.0964,0.172376,0.789416,1.0688,-1.03395,1.39231,-0.240289,-0.361501,0.0332474
7.1087,0.172375,0.789438,1.0688,-1.03395,1.39231,-0.240289,-0.361503,0.0332286
7.121,0.172374,0.789457,1.06881,-1.03395,1.39231,-0.240289,-0.361505,0.0332063
7.1333,0.172372,0.789474,1.06881,-1.03395,1.39231,-0.240288,-0.361507,0.0331806
7.1456,0.172371,0.789488,1.06881,-1.03395,1.39231,-0.240288,-0.361509,0.033152
7.1579,0.17237,0.789501,1.06881,-1.03395,1.3923,-0.240288,-0.36151,0.033121
7.17019,0.172369,0.789511,1.06882,-1.03395,1.3923,-0.240287,-0.361511,0.0330887
7.18249,0.172369,0.78952,1.06882,-1.03395,1.3923,-0.240287,-0.361512,0.0330561
7.19479,0.172369,0.789528,1.06882,-1.03395,1.3923,-0.240287,-0.361512,0.0330244
7.20709,0.17237,0.789533,1.06882,-1.03395,1.3923,-0.240287,-0.361512,0.0329946
7.21939,0.172371,0.789537,1.06882,-1.03395,1.3923,-0.240287,-0.361512,0.0329676
7.23169,0.172373,0.789539,1.06882,-1.03395,1.3923,-0.240287,-0.361511,0.032944
7.24399,0.172374,0.78954,1.06881,-1.03396,1.3923,-0.240287,-0.36151,0.032924
7.25629,0.172376,0.78954,1.06881,-1.03396,1.3923,-0.240287,-0.361508,0.0329076
7.26858,0.172377,0.789539,1.06881,-1.03396,1.3923,-0.240287,-0.361507,0.0328945
7.28088,0.172378,0.789538,1.06881,-1.03396,1.3923,-0.240287,-0.361505,0.0328843
7.29318,0.172378,0.789537,1.0688,-1.03397,1.39231,-0.240286,-0.361504,0.0328764
7.30548,0.172378,0.789536,1.0688,-1.03397,1.39231,-0.240285,-0.361503,0.0328703
7.31778,0.172378,0.789536,1.0688,-1.03397,1.39231,-0.240285,-0.361502,0.0328654
7.33008,0.172377,0.789536,1.0688,-1.03397,1.39231,-0.240284,-0.361502,0.0328614
7.34238,0.172376,0.789536,1.0688,-1.03396,1.39231,-0.240284,-0.361501,0.0328582
7.35468,0.172375,0.789537,1.0688,-1.03396,1.39231,-0.240284,-0.361502,0.0328555
7.36697,0.172373,0.789539,1.06879,-1.03396,1.39231,-0.240284,-0.361502,0.0328534
7.37927,0.172371,0.78954,1.06879,-1.03396,1.39231,-0.240284,-0.361502,0.0328519
7.39157,0.172369,0.789542,1.0688,-1.03395,1.39231,-0.240284,-0.361503,0.0328511
7.40387,0.172367,0.789543,1.0688,-1.03395,1.39231,-0.240285,-0.361503,0.032851
7.41617,0.172365,0.789544,1.0688,-1.03395,1.3923,-0.240286,-0.361504,0.0328515
7.42847,0.172363,0.789546,1.0688,-1.03395,1.3923,-0.240287,-0.361505,0.0328525
7.44077,0.172362,0.789546,1.0688,-1.03395,1.3923,-0.240288,-0.361506,0.032854
7.45307,0.172361,0.789547,1.06881,-1.03395,1.3923,-0.24029,-0.361507,0.0328557
7.46536,0.17236,0.789547,1.06881,-1.03395,1.3923,-0.240291,-0.361507,0.0328575
7.47766,0.172361,0.789547,1.06881,-1.03395,1.3923,-0.240292,-0.361508,0.0328593
7.48996,0.172362,0.789547,1.06881,-1.03396,1.3923,-0.240293,-0.361508,0.0328609
7.50226,0.172364,0.789546,1.06881,-1.03396,1.39229,-0.240294,-0.361509,0.0328624
7.51456,0.172366,0.789545,1.06881,-1.03396,1.39229,-0.240295,-0.361509,0.0328637
7.52686,0.172369,0.789545,1.06881,-1.03397,1.39229,-0.240295,-0.361509,0.0328648
7.53916,0.172372,0.789544,1.06881,-1.03397,1.39229,-0.240295,-0.361508,0.0328659
7.55146,0.172375,0.789544,1.06881,-1.03397,1.39229,-0.240295,-0.361508,0.0328669
7.56376,0.172378,0.789544,1.06881,-1.03398,1.39229,-0.240294,-0.361508,0.0328681
7.57605,0.172381,0.789544,1.06881,-1.03398,1.39229,-0.240294,-0.361507,0.0328694
7.58835,0.172383,0.789545,1.06881,-1.03398,1.39229,-0.240293,-0.361507,0.0328709
7.60065,0.172384,0.789546,1.0688,-1.03399,1.39229,-0.240292,-0.361506,0.0328724
7.61295,0.172386,0.789548,1.0688,-1.03399,1.39229,-0.240291,-0.361506,0.0328741
7.62525,0.172387,0.78955,1.0688,-1.03399,1.39229,-0.240289,-0.361506,0.0328758
7.63755,0.172387,0.789551,1.0688,-1.03399,1.39229,-0.240288,-0.361506,0.0328776
7.64985,0.172388,0.789553,1.0688,-1.03399,1.39229,-0.240287,-0.361505,0.0328793
7.66215,0.172388,0.789554,1.0688,-1.034,1.39229,-0.240287,-0.361505,0.0328809
7.67444,0.172389,0.789555,1.06879,-1.034,1.39229,-0.240286,-0.361506,0.0328826
7.68674,0.172389,0.789555,1.06879,-1.034,1.39229,-0.240286,-0.361506,0.0328843
7.69904,0.172389,0.789555,1.06879,-1.034,1.39229,-0.240286,-0.361507,0.0328862
7.71134,0.172389,0.789554,1.06879,-1.034,1.39229,-0.240287,-0.361508,0.0328881
7.72364,0.172389,0.789553,1.06879,-1.03399,1.39229,-0.240287,-0.361509,0.0328903
7.73594,0.17239,0.789551,1.06879,-1.03399,1.39229,-0.240288,-0.361511,0.0328926
7.74824,0.17239,0.78955,1.0688,-1.03399,1.39229,-0.240289,-0.361512,0.032895
7.76054,0.17239,0.789548,1.0688,-1.03399,1.39229,-0.24029,-0.361514,0.0328976
7.77283,0.172389,0.789546,1.0688,-1.03399,1.39229,-0.24029,-0.361515,0.0329001
7.78513,0.172389,0.789545,1.0688,-1.03399,1.39229,-0.240291,-0.361516,0.0329026
7.79743,0.172389,0.789543,1.0688,-1.03399,1.39229,-0.240291,-0.361517,0.0329049
7.80973,0.172388,0.789542,1.06881,-1.03399,1.39229,-0.240291,-0.361519,0.0329072
7.82203,0.172388,0.789541,1.06881,-1.03399,1.39229,-0.24029,-0.36152,0.0329093
7.83433,0.172388,0.78954,1.06881,-1.03399,1.39228,-0.24029,-0.361521,0.0329116
7.84663,0.172387,0.789539,1.06881,-1.03399,1.39228,-0.240289,-0.361523,0.032914
7.85893,0.172386,0.789539,1.06881,-1.03399,1.39228,-0.240288,-0.361525,0.0329167
7.87122,0.172386,0.789538,1.06881,-1.03399,1.39228,-0.240288,-0.361527,0.03292
7.88352,0.172385,0.789538,1.0688,-1.034,1.39228,-0.240287,-0.36153,0.0329237
7.89582,0.172384,0.789538,1.0688,-1.034,1.39228,-0.240287,-0.361533,0.032928
7.90812,0.172383,0.789537,1.0688,-1.034,1.39227,-0.240287,-0.361537,0.0329329
7.92042,0.172382,0.789537,1.0688,-1.03401,1.39227,-0.240287,-0.361541,0.0329382
7.93272,0.172381,0.789536,1.0688,-1.03401,1.39227,-0.240288,-0.361544,0.0329438
7.94502,0.17238,0.789536,1.06879,-1.03401,1.39227,-0.240288,-0.361547,0.0329496
7.95732,0.17238,0.789536,1.06879,-1.03402,1.39227,-0.240289,-0.36155,0.0329556
7.96962,0.172379,0.789536,1.06879,-1.03402,1.39226,-0.24029,-0.361552,0.0329617
7.98191,0.172379,0.789536,1.06879,-1.03402,1.39226,-0.240291,-0.361554,0.0329678
7.99421,0.172379,0.789536,1.06879,-1.03403,1.39227,-0.240291,-0.361555,0.0329741
8.00651,0.172379,0.789537,1.06879,-1.03403,1.39227,-0.240292,-0.361555,0.0329805
8.01881,0.17238,0.789538,1.0688,-1.03404,1.39227,-0.240293,-0.361555,0.0329872
8.03111,0.17238,0.789539,1.0688,-1.03404,1.39227,-0.240294,-0.361554,0.0329943
8.04341,0.172381,0.78954,1.0688,-1.03405,1.39227,-0.240294,-0.361552,0.0330019
8.05571,0.172382,0.789541,1.0688,-1.03405,1.39227,-0.240294,-0.361551,0.03301
8.06801,0.172383,0.789542,1.0688,-1.03406,1.39228,-0.240294,-0.36155,0.0330188
8.0803,0.172383,0.789544,1.06881,-1.03407,1.39228,-0.240294,-0.361548,0.0330283
8.0926,0.172384,0.789545,1.06881,-1.03408,1.39228,-0.240294,-0.361547,0.0330385
8.1049,0.172384,0.789545,1.06881,-1.03409,1.39228,-0.240293,-0.361546,0.0330497
8.1172,0.172384,0.789546,1.06881,-1.0341,1.39228,-0.240293,-0.361545,0.033062
8.1295,0.172384,0.789546,1.06881,-1.03411,1.39228,-0.240292,-0.361544,0.0330759
8.1418,0.172384,0.789546,1.06882,-1.03413,1.39228,-0.240291,-0.361544,0.0330919
8.1541,0.172384,0.789546,1.06882,-1.03414,1.39228,-0.24029,-0.361543,0.033111
8.1664,0.172383,0.789545,1.06882,-1.03416,1.39228,-0.24029,-0.361543,0.0331342
8.17869,0.172383,0.789543,1.06882,-1.03418,1.39228,-0.240289,-0.361543,0.0331634
8.19099,0.172383,0.789542,1.06882,-1.03419,1.39228,-0.240289,-0.361543,0.0332006
8.20329,0.172383,0.78954,1.06882,-1.03421,1.39227,-0.240289,-0.361543,0.0332487
8.21559,0.172383,0.789539,1.06882,-1.03423,1.39227,-0.240289,-0.361544,0.0333106
8.22789,0.172383,0.789537,1.06882,-1.03425,1.39227,-0.24029,-0.361545,0.0333899
8.24019,0.172384,0.789535,1.06882,-1.03427,1.39227,-0.240291,-0.361547,0.0334899
8.25249,0.172384,0.789534,1.06882,-1.03429,1.39226,-0.240291,-0.36155,0.0336138
8.26479,0.172384,0.789533,1.06882,-1.03432,1.39226,-0.240292,-0.361553,0.0337634
8.27708,0.172385,0.789532,1.06882,-1.03434,1.39226,-0.240293,-0.361558,0.0339396
8.28938,0.172385,0.789531,1.06882,-1.03437,1.39225,-0.240294,-0.361564,0.0341412
8.30168,0.172385,0.789531,1.06881,-1.0344,1.39225,-0.240295,-0.36157,0.034365
8.31398,0.172385,0.789531,1.06881,-1.03444,1.39224,-0.240295,-0.361578,0.0346059
8.32628,0.172386,0.789531,1.06881,-1.03447,1.39223,-0.240295,-0.361586,0.0348572
8.33858,0.172386,0.789531,1.06881,-1.03451,1.39223,-0.240295,-0.361595,0.0351111
8.35088,0.172386,0.789532,1.06881,-1.03454,1.39222,-0.240295,-0.361604,0.0353598
8.36318,0.172386,0.789532,1.06882,-1.03458,1.39221,-0.240295,-0.361613,0.0355955
8.37548,0.172385,0.789532,1.06882,-1.03462,1.3922,-0.240295,-0.361621,0.0358122
8.38777,0.172385,0.789533,1.06882,-1.03465,1.3922,-0.240295,-0.361629,0.0360051
8.40007,0.172385,0.789533,1.06882,-1.03469,1.39219,-0.240296,-0.361635,0.0361716
8.41237,0.172385,0.789533,1.06882,-1.03472,1.39219,-0.240296,-0.361641,0.0363109
8.42467,0.172385,0.789532,1.06882,-1.03476,1.39218,-0.240296,-0.361645,0.0364239
8.43697,0.172385,0.789532,1.06883,-1.03479,1.39218,-0.240297,-0.361649,0.0365126
8.44927,0.172385,0.789532,1.06883,-1.03482,1.39218,-0.240297,-0.361651,0.03658
8.46157,0.172385,0.789533,1.06883,-1.03486,1.39218,-0.240298,-0.361653,0.0366295
8.47387,0.172385,0.789533,1.06884,-1.03489,1.39217,-0.240299,-0.361654,0.0366645
8.48616,0.172385,0.789535,1.06884,-1.03493,1.39217,-0.2403,-0.361656,0.0366882
8.49846,0.172385,0.789536,1.06884,-1.03497,1.39217,-0.240301,-0.361657,0.0367034
8.51076,0.172385,0.789538,1.06885,-1.03501,1.39217,-0.240303,-0.361659,0.0367125
8.52306,0.172385,0.78954,1.06885,-1.03506,1.39217,-0.240304,-0.361661,0.0367173
8.53536,0.172385,0.789543,1.06886,-1.03512,1.39217,-0.240306,-0.361663,0.0367193
8.54766,0.172384,0.789545,1.06886,-1.03518,1.39217,-0.240307,-0.361666,0.0367195
8.55996,0.172384,0.789547,1.06886,-1.03525,1.39216,-0.240309,-0.361671,0.0367188
8.57226,0.172383,0.789548,1.06886,-1.03534,1.39216,-0.24031,-0.361677,0.0367177
8.58455,0.172382,0.789549,1.06886,-1.03545,1.39216,-0.24031,-0.361685,0.0367166
8.59685,0.172381,0.78955,1.06886,-1.03557,1.39216,-0.240311,-0.361696,0.0367157
8.60915,0.17238,0.78955,1.06886,-1.03571,1.39216,-0.24031,-0.361711,0.0367152
8.62145,0.172378,0.789549,1.06886,-1.03587,1.39215,-0.24031,-0.36173,0.036715
8.63375,0.172377,0.789548,1.06886,-1.03604,1.39215,-0.240309,-0.361755,0.0367152
8.64605,0.172375,0.789547,1.06886,-1.03623,1.39214,-0.240307,-0.361787,0.0367156
8.65835,0.172374,0.789546,1.06885,-1.03643,1.39213,-0.240306,-0.361827,0.0367162
8.67065,0.172372,0.789545,1.06885,-1.03664,1.39213,-0.240304,-0.361874,0.0367168
8.68294,0.172371,0.789544,1.06885,-1.03685,1.39212,-0.240302,-0.361928,0.0367172
8.69524,0.17237,0.789544,1.06885,-1.03706,1.39211,-0.240301,-0.36199,0.0367173
8.70754,0.172369,0.789543,1.06884,-1.03728,1.3921,-0.2403,-0.362057,0.0367171
8.71984,0.172369,0.789543,1.06884,-1.03749,1.39209,-0.240299,-0.362129,0.0367163
8.73214,0.172368,0.789542,1.06884,-1.0377,1.39208,-0.240299,-0.362203,0.036715
8.74444,0.172368,0.789542,1.06884,-1.0379,1.39207,-0.240299,-0.362277,0.0367131
8.75674,0.172367,0.789542,1.06883,-1.0381,1.39206,-0.2403,-0.362349,0.0367107
8.76904,0.172367,0.789543,1.06883,-1.0383,1.39206,-0.240302,-0.362419,0.0367077
8.78134,0.172366,0.789544,1.06883,-1.03849,1.39205,-0.240304,-0.362486,0.0367042
8.79363,0.172366,0.789546,1.06883,-1.03868,1.39204,-0.240306,-0.362549,0.0367001
8.80593,0.172365,0.789547,1.06883,-1.03887,1.39203,-0.240309,-0.362611,0.0366956
8.81823,0.172365,0.78955,1.06883,-1.03906,1.39203,-0.240311,-0.362675,0.0366907
8.83053,0.172364,0.789552,1.06883,-1.03925,1.39202,-0.240313,-0.362746,0.0366852
8.84283,0.172364,0.789554,1.06884,-1.03945,1.39202,-0.240315,-0.362829,0.0366792
8.85513,0.172363,0.789556,1.06884,-1.03966,1.39201,-0.240317,-0.362932,0.0366727
8.86743,0.172362,0.789558,1.06884,-1.03989,1.392,-0.240318,-0.363066,0.0366655
8.87973,0.172361,0.789559,1.06884,-1.04013,1.392,-0.240318,-0.36324,0.0366575
8.89202,0.172359,0.789559,1.06884,-1.04039,1.392,-0.240318,-0.363465,0.0366489
8.90432,0.172358,0.789559,1.06884,-1.04068,1.39199,-0.240318,-0.363754,0.0366393
8.91662,0.172357,0.789558,1.06884,-1.04097,1.39199,-0.240317,-0.364118,0.036629
8.92892,0.172356,0.789556,1.06885,-1.04128,1.39198,-0.240316,-0.364566,0.0366179
8.94122,0.172355,0.789555,1.06885,-1.0416,1.39198,-0.240315,-0.365104,0.0366061
8.95352,0.172354,0.789553,1.06885,-1.04193,1.39197,-0.240314,-0.365736,0.0365937
8.96582,0.172353,0.789551,1.06885,-1.04225,1.39197,-0.240314,-0.366459,0.0365808
8.97812,0.172353,0.78955,1.06885,-1.04257,1.39196,-0.240313,-0.367268,0.0365675
8.99041,0.172353,0.789548,1.06885,-1.04288,1.39196,-0.240313,-0.368151,0.0365539
9.00271,0.172353,0.789547,1.06885,-1.04317,1.39195,-0.240313,-0.369091,0.03654
9.01501,0.172354,0.789546,1.06885,-1.04345,1.39194,-0.240313,-0.370069,0.0365259
9.02731,0.172354,0.789546,1.06885,-1.04372,1.39193,-0.240314,-0.371061,0.0365116
9.03961,0.172354,0.789546,1.06885,-1.04396,1.39192,-0.240314,-0.372046,0.036497
9.05191,0.172354,0.789546,1.06885,-1.0442,1.39191,-0.240315,-0.372998,0.0364822
9.06421,0.172354,0.789546,1.06885,-1.04441,1.39189,-0.240315,-0.373898,0.0364672
9.07651,0.172354,0.789547,1.06885,-1.04461,1.39187,-0.240315,-0.374729,0.036452
9.08881,0.172353,0.789548,1.06885,-1.04479,1.39185,-0.240316,-0.375477,0.0364367
9.1011,0.172352,0.789549,1.06885,-1.04495,1.39183,-0.240316,-0.376134,0.0364213
9.1134,0.172351,0.78955,1.06885,-1.0451,1.3918,-0.240316,-0.376698,0.0364057
9.1257,0.17235,0.789552,1.06885,-1.04523,1.39176,-0.240316,-0.37717,0.0363899
9.138,0.172348,0.789553,1.06885,-1.04534,1.39171,-0.240316,-0.377555,0.0363738
9.1503,0.172346,0.789555,1.06885,-1.04543,1.39164,-0.240316,-0.377862,0.0363571
9.1626,0.172344,0.789556,1.06886,-1.04551,1.39156,-0.240316,-0.378099,0.0363396
9.1749,0.172342,0.789557,1.06886,-1.04558,1.39146,-0.240316,-0.378279,0.0363211
9.18719,0.17234,0.789559,1.06886,-1.04563,1.39134,-0.240317,-0.378411,0.0363016
9.19949,0.172338,0.78956,1.06886,-1.04568,1.39119,-0.240317,-0.378506,0.036281
9.21179,0.172336,0.789561,1.06886,-1.04571,1.39101,-0.240317,-0.378572,0.0362597
9.22409,0.172335,0.789561,1.06886,-1.04574,1.39081,-0.240318,-0.378617,0.036238
9.23639,0.172333,0.789562,1.06886,-1.04577,1.39059,-0.240319,-0.378646,0.0362164
9.24869,0.172332,0.789561,1.06886,-1.04579,1.39035,-0.24032,-0.378665,0.0361956
9.26099,0.172331,0.78956,1.06886,-1.04581,1.3901,-0.240321,-0.378676,0.0361761
9.27329,0.172331,0.789559,1.06886,-1.04582,1.38984,-0.240323,-0.378683,0.0361585
9.28559,0.17233,0.789557,1.06886,-1.04583,1.38958,-0.240324,-0.378687,0.0361432
9.29788,0.172331,0.789555,1.06886,-1.04584,1.38933,-0.240326,-0.378689,0.0361302
9.31018,0.172331,0.789554,1.06886,-1.04585,1.38909,-0.240327,-0.37869,0.0361198
9.32248,0.172332,0.789553,1.06885,-1.04586,1.38886,-0.240328,-0.37869,0.0361115
9.33478,0.172333,0.789552,1.06885,-1.04586,1.38866,-0.240329,-0.378691,0.0361054
9.34708,0.172334,0.789553,1.06885,-1.04587,1.38848,-0.24033,-0.378691,0.0361009
9.35938,0.172334,0.789555,1.06885,-1.04587,1.38832,-0.24033,-0.378692,0.0360977
9.37168,0.172334,0.789559,1.06886,-1.04586,1.38819,-0.24033,-0.378693,0.0360955
9.38398,0.172334,0.789563,1.06886,-1.04586,1.38809,-0.24033,-0.378694,0.0360941
9.39627,0.172332,0.789569,1.06886,-1.04586,1.388,-0.24033,-0.378695,0.0360932
9.40857,0.17233,0.789574,1.06886,-1.04585,1.38794,-0.24033,-0.378695,0.0360926
9.42087,0.172328,0.789579,1.06886,-1.04584,1.38789,-0.24033,-0.378696,0.0360924
9.43317,0.172325,0.789584,1.06887,-1.04584,1.38785,-0.24033,-0.378696,0.0360924
9.44547,0.172321,0.789588,1.06887,-1.04583,1.38783,-0.24033,-0.378697,0.0360928
9.45777,0.172318,0.789591,1.06887,-1.04582,1.38781,-0.240331,-0.378698,0.0360936
9.47007,0.172315,0.789594,1.06887,-1.04582,1.3878,-0.240332,-0.378698,0.0360947
9.48237,0.172312,0.789595,1.06887,-1.04581,1.38779,-0.240333,-0.3787,0.0360962
9.49467,0.17231,0.789596,1.06887,-1.0458,1.38779,-0.240334,-0.378701,0.036098
9.50696,0.172308,0.789596,1.06887,-1.0458,1.38779,-0.240336,-0.378703,0.0360999
9.51926,0.172307,0.789597,1.06887,-1.04579,1.38779,-0.240339,-0.378705,0.0361019
9.53156,0.172307,0.789597,1.06887,-1.04577,1.38779,-0.240341,-0.378707,0.0361038
9.54386,0.172307,0.789599,1.06887,-1.04576,1.38779,-0.240344,-0.378709,0.0361056
9.55616,0.172308,0.7896,1.06887,-1.04574,1.38779,-0.240346,-0.378711,0.0361071
9.56846,0.172309,0.789602,1.06886,-1.04572,1.38779,-0.240349,-0.378713,0.0361084
9.58076,0.17231,0.789604,1.06886,-1.04569,1.38779,-0.240352,-0.378714,0.0361096
9.59305,0.172312,0.789606,1.06886,-1.04566,1.38779,-0.240355,-0.378716,0.0361109
9.60535,0.172313,0.789608,1.06886,-1.04563,1.38779,-0.240358,-0.378717,0.0361124
9.61765,0.172313,0.78961,1.06886,-1.04559,1.38779,-0.24036,-0.378718,0.0361144
9.62995,0.172313,0.789612,1.06886,-1.04556,1.3878,-0.240362,-0.378719,0.0361172
9.64225,0.172312,0.789613,1.06886,-1.04552,1.3878,-0.240365,-0.378719,0.0361209
9.65455,0.172311,0.789614,1.06885,-1.04548,1.3878,-0.240366,-0.37872,0.0361257
9.66685,0.172309,0.789615,1.06885,-1.04543,1.3878,-0.240368,-0.378721,0.0361319
9.67915,0.172308,0.789616,1.06885,-1.04539,1.3878,-0.24037,-0.378722,0.0361393
9.69145,0.172306,0.789617,1.06885,-1.04534,1.3878,-0.240371,-0.378723,0.0361481
9.70374,0.172304,0.789617,1.06885,-1.04529,1.3878,-0.240372,-0.378724,0.0361582
9.71604,0.172302,0.789618,1.06885,-1.04523,1.3878,-0.240373,-0.378725,0.0361695
9.72834,0.172301,0.789619,1.06886,-1.04516,1.3878,-0.240374,-0.378726,0.036182
9.74064,0.1723,0.78962,1.06886,-1.04508,1.3878,-0.240374,-0.378727,0.0361957
9.75294,0.172299,0.789621,1.06886,-1.04497,1.3878,-0.240375,-0.378728,0.0362106
9.76524,0.172299,0.789622,1.06886,-1.04485,1.3878,-0.240376,-0.378728,0.0362269
9.77754,0.1723,0.789622,1.06886,-1.04469,1.3878,-0.240377,-0.378728,0.0362448
9.78984,0.172301,0.789623,1.06886,-1.04449,1.3878,-0.240377,-0.378728,0.0362647
9.80213,0.172302,0.789622,1.06886,-1.04426,1.3878,-0.240379,-0.378727,0.0362868
9.81443,0.172305,0.789622,1.06886,-1.04398,1.3878,-0.24038,-0.378726,0.0363114
9.82673,0.172307,0.78962,1.06886,-1.04366,1.3878,-0.240382,-0.378724,0.0363385
9.83903,0.17231,0.789618,1.06886,-1.0433,1.38781,-0.240383,-0.378722,0.036368
9.85133,0.172313,0.789615,1.06886,-1.0429,1.38781,-0.240386,-0.37872,0.0363996
9.86363,0.172316,0.789612,1.06886,-1.04246,1.38781,-0.240388,-0.378717,0.0364325
9.87593,0.17232,0.789607,1.06886,-1.04199,1.38782,-0.240391,-0.378714,0.036466
9.88823,0.172323,0.789602,1.06886,-1.0415,1.38782,-0.240394,-0.37871,0.0364993
9.90053,0.172327,0.789597,1.06886,-1.04099,1.38783,-0.240397,-0.378706,0.0365313
9.91282,0.172331,0.789591,1.06886,-1.04046,1.38783,-0.2404,-0.378702,0.0365613
9.92512,0.172334,0.789585,1.06886,-1.03993,1.38784,-0.240404,-0.378698,0.0365887
9.93742,0.172338,0.789579,1.06885,-1.03939,1.38784,-0.240407,-0.378694,0.036613
9.94972,0.172342,0.789573,1.06885,-1.03885,1.38785,-0.24041,-0.378689,0.0366341
9.96202,0.172347,0.789567,1.06884,-1.03832,1.38785,-0.240414,-0.378684,0.036652
9.97432,0.172351,0.789561,1.06884,-1.03778,1.38786,-0.240417,-0.378679,0.036667
9.98662,0.172356,0.789555,1.06884,-1.03726,1.38786,-0.240421,-0.378673,0.0366795
9.99891,0.17236,0.789551,1.06883,-1.03674,1.38787,-0.240424,-0.378665,0.0366901
10.0112,0.172365,0.789546,1.06883,-1.03623,1.38787,-0.240428,-0.378657,0.0366995
10.0235,0.172369,0.789542,1.06882,-1.03573,1.38788,-0.240432,-0.378647,0.0367083
10.0358,0.172374,0.789539,1.06882,-1.03524,1.38789,-0.240437,-0.378634,0.0367174
10.0481,0.172378,0.789536,1.06882,-1.03474,1.3879,-0.240443,-0.378619,0.0367277
10.0604,0.172382,0.789534,1.06881,-1.03425,1.38791,-0.240451,-0.378599,0.03674
10.0727,0.172386,0.789533,1.06881,-1.03376,1.38792,-0.24046,-0.378575,0.0367554
10.085,0.17239,0.789532,1.06881,-1.03328,1.38794,-0.240472,-0.378543,0.0367752
10.0973,0.172394,0.789531,1.06881,-1.03279,1.38796,-0.240487,-0.378504,0.0368008
10.1096,0.172397,0.789531,1.0688,-1.03232,1.38798,-0.240505,-0.378454,0.0368345
10.1219,0.1724,0.78953,1.0688,-1.03186,1.388,-0.240529,-0.37839,0.0368794
10.1342,0.172402,0.789529,1.0688,-1.03143,1.38803,-0.240558,-0.378308,0.0369395
10.1465,0.172403,0.789528,1.0688,-1.03103,1.38806,-0.240593,-0.378204,0.0370205
10.1588,0.172404,0.789526,1.0688,-1.03067,1.38808,-0.240637,-0.378071,0.0371297
10.1711,0.172405,0.789524,1.0688,-1.03036,1.38811,-0.24069,-0.377901,0.0372757
10.1834,0.172404,0.789521,1.0688,-1.0301,1.38813,-0.240754,-0.377687,0.0374688
10.1957,0.172402,0.789519,1.0688,-1.02989,1.38815,-0.24083,-0.377418,0.0377198
10.208,0.1724,0.789517,1.0688,-1.02972,1.38817,-0.240918,-0.377086,0.0380393
10.2203,0.172397,0.789515,1.0688,-1.02959,1.38818,-0.241019,-0.376681,0.0384368
10.2326,0.172393,0.789514,1.0688,-1.02949,1.38819,-0.241132,-0.376198,0.038919
10.2449,0.172388,0.789515,1.06881,-1.02941,1.3882,-0.241257,-0.375634,0.0394889
10.2572,0.172382,0.789517,1.06881,-1.02936,1.38821,-0.241391,-0.374989,0.040145
10.2695,0.172376,0.78952,1.06881,-1.02932,1.38821,-0.241532,-0.37427,0.0408809
10.2818,0.172369,0.789525,1.06881,-1.02928,1.38821,-0.241677,-0.373485,0.0416855
10.2941,0.172362,0.789531,1.06882,-1.02925,1.38821,-0.241823,-0.37265,0.0425446
10.3064,0.172355,0.789537,1.06882,-1.02922,1.38821,-0.241967,-0.371778,0.0434417
10.3187,0.172347,0.789544,1.06882,-1.02919,1.38821,-0.242107,-0.370886,0.0443604
10.331,0.17234,0.789549,1.06883,-1.02915,1.38821,-0.242241,-0.36999,0.0452852
10.3433,0.172334,0.789554,1.06883,-1.02912,1.38821,-0.242369,-0.369102,0.0462028
10.3556,0.172328,0.789557,1.06883,-1.02908,1.3882,-0.242491,-0.368234,0.0471023
10.3679,0.172323,0.789559,1.06883,-1.02904,1.3882,-0.242607,-0.367395,0.0479749
10.3802,0.172319,0.789558,1.06884,-1.029,1.3882,-0.242719,-0.366592,0.0488129
10.3925,0.172316,0.789556,1.06884,-1.02895,1.38819,-0.24283,-0.365831,0.0496087
10.4048,0.172314,0.789552,1.06884,-1.02891,1.38819,-0.24294,-0.36512,0.0503545
10.4171,0.172313,0.789547,1.06884,-1.02887,1.38818,-0.243051,-0.364464,0.0510424
10.4294,0.172313,0.789542,1.06883,-1.02883,1.38818,-0.243164,-0.363868,0.0516646
10.4417,0.172314,0.789536,1.06883,-1.02879,1.38818,-0.243281,-0.363338,0.0522145
10.454,0.172315,0.789531,1.06883,-1.02875,1.38817,-0.2434,-0.362874,0.0526879
10.4663,0.172318,0.789527,1.06883,-1.02872,1.38817,-0.243523,-0.362476,0.0530837
10.4786,0.17232,0.789524,1.06883,-1.0287,1.38817,-0.243648,-0.36214,0.0534043
10.4909,0.172322,0.789522,1.06883,-1.02868,1.38816,-0.243776,-0.361859,0.0536555
10.5032,0.172324,0.789521,1.06883,-1.02866,1.38816,-0.243903,-0.361625,0.0538457
10.5155,0.172326,0.789521,1.06883,-1.02864,1.38816,-0.244029,-0.361429,0.0539844
10.5278,0.172327,0.789522,1.06883,-1.02863,1.38816,-0.244152,-0.361261,0.054082
10.5401,0.172327,0.789522,1.06883,-1.02861,1.38815,-0.24427,-0.361116,0.0541481
10.5524,0.172327,0.789523,1.06883,-1.0286,1.38815,-0.24438,-0.360985,0.054191
10.5647,0.172326,0.789525,1.06883,-1.02859,1.38815,-0.244482,-0.360867,0.0542176
10.577,0.172324,0.789525,1.06883,-1.02858,1.38814,-0.244573,-0.360759,0.054233
10.5893,0.172322,0.789525,1.06883,-1.02857,1.38814,-0.244653,-0.360661,0.0542409
10.6016,0.17232,0.789525,1.06883,-1.02857,1.38813,-0.244722,-0.360572,0.0542438
10.6139,0.172317,0.789524,1.06884,-1.02856,1.38812,-0.24478,-0.360494,0.0542433
10.6262,0.172315,0.789523,1.06884,-1.02855,1.38811,-0.244827,-0.360427,0.0542403
10.6385,0.172312,0.789521,1.06884,-1.02855,1.3881,-0.244865,-0.360371,0.0542352
10.6508,0.172309,0.789519,1.06884,-1.02854,1.38809,-0.244896,-0.360325,0.0542285
10.663,0.172307,0.789517,1.06884,-1.02854,1.38807,-0.24492,-0.360289,0.0542203
10.6753,0.172304,0.789514,1.06884,-1.02853,1.38805,-0.244938,-0.360262,0.0542108
10.6876,0.172302,0.789512,1.06884,-1.02853,1.38803,-0.244953,-0.360241,0.0542002
10.6999,0.1723,0.789509,1.06884,-1.02853,1.388,-0.244964,-0.360227,0.0541886
10.7122,0.172299,0.789507,1.06884,-1.02852,1.38798,-0.244974,-0.360216,0.0541764
10.7245,0.172297,0.789506,1.06884,-1.02852,1.38795,-0.244981,-0.360209,0.0541639
10.7368,0.172296,0.789504,1.06884,-1.02852,1.38792,-0.244987,-0.360205,0.0541512
10.7491,0.172296,0.789503,1.06884,-1.02852,1.38789,-0.244992,-0.360202,0.0541387
10.7614,0.172295,0.789503,1.06884,-1.02852,1.38785,-0.244996,-0.3602,0.0541266
10.7737,0.172296,0.789503,1.06884,-1.02852,1.38781,-0.244999,-0.360199,0.054115
10.786,0.172297,0.789503,1.06884,-1.02852,1.38777,-0.245001,-0.360199,0.0541039
10.7983,0.172299,0.789504,1.06884,-1.02853,1.38772,-0.245003,-0.360199,0.0540932
10.8106,0.172301,0.789505,1.06884,-1.02853,1.38767,-0.245005,-0.360199,0.0540829
10.8229,0.172304,0.789505,1.06884,-1.02853,1.3876,-0.245006,-0.360199,0.0540728
10.8352,0.172306,0.789506,1.06883,-1.02853,1.38753,-0.245007,-0.360199,0.0540626
10.8475,0.172309,0.789507,1.06883,-1.02853,1.38744,-0.245008,-0.360199,0.054052
10.8598,0.172312,0.789507,1.06883,-1.02854,1.38734,-0.245008,-0.360199,0.0540405
10.8721,0.172315,0.789507,1.06883,-1.02854,1.38723,-0.245008,-0.360198,0.0540278
10.8844,0.172317,0.789508,1.06883,-1.02854,1.38711,-0.245008,-0.360196,0.054013
10.8967,0.172318,0.789508,1.06883,-1.02854,1.38698,-0.245008,-0.360194,0.0539955
10.909,0.172319,0.789508,1.06883,-1.02854,1.38685,-0.245008,-0.360192,0.0539741
10.9213,0.17232,0.789507,1.06883,-1.02854,1.38672,-0.245008,-0.360189,0.0539477
10.9336,0.172319,0.789507,1.06883,-1.02854,1.38659,-0.245007,-0.360187,0.0539145
10.9459,0.172318,0.789507,1.06883,-1.02854,1.38647,-0.245007,-0.360184,0.0538731
10.9582,0.172317,0.789506,1.06883,-1.02854,1.38636,-0.245006,-0.360183,0.0538213
10.9705,0.172315,0.789506,1.06883,-1.02854,1.38627,-0.245006,-0.360182,0.0537574
10.9828,0.172313,0.789505,1.06883,-1.02854,1.38619,-0.245006,-0.360181,0.0536794
10.9951,0.172311,0.789505,1.06883,-1.02854,1.38612,-0.245006,-0.360182,0.0535857
11.0074,0.172309,0.789505,1.06883,-1.02854,1.38606,-0.245005,-0.360183,0.0534747
11.0197,0.172307,0.789504,1.06883,-1.02854,1.38602,-0.245005,-0.360185,0.0533456
11.032,0.172305,0.789504,1.06883,-1.02854,1.38598,-0.245005,-0.360187,0.0531976
11.0443,0.172304,0.789504,1.06883,-1.02854,1.38596,-0.245006,-0.36019,0.0530309
11.0566,0.172303,0.789504,1.06883,-1.02854,1.38594,-0.245006,-0.360193,0.052846
11.0689,0.172303,0.789504,1.06883,-1.02854,1.38592,-0.245006,-0.360195,0.0526445
11.0812,0.172303,0.789504,1.06883,-1.02854,1.38592,-0.245007,-0.360198,0.0524287
11.0935,0.172304,0.789504,1.06883,-1.02854,1.38591,-0.245008,-0.3602,0.0522018
11.1058,0.172305,0.789504,1.06883,-1.02854,1.3859,-0.245009,-0.360202,0.0519679
11.1181,0.172307,0.789504,1.06883,-1.02854,1.3859,-0.245009,-0.360204,0.0517317
11.1304,0.17231,0.789505,1.06883,-1.02854,1.3859,-0.245011,-0.360205,0.0514984
11.1427,0.172312,0.789506,1.06882,-1.02854,1.3859,-0.245012,-0.360207,0.0512731
11.155,0.172315,0.789507,1.06882,-1.02854,1.3859,-0.245012,-0.360208,0.0510609
11.1673,0.172317,0.789508,1.06882,-1.02854,1.3859,-0.245013,-0.360209,0.050866
11.1796,0.172319,0.789509,1.06882,-1.02854,1.3859,-0.245014,-0.360209,0.0506918
11.1919,0.172321,0.78951,1.06881,-1.02854,1.38591,-0.245014,-0.360209,0.0505401
11.2042,0.172323,0.78951,1.06881,-1.02854,1.38591,-0.245014,-0.360209,0.0504118
11.2165,0.172324,0.78951,1.06881,-1.02854,1.38591,-0.245014,-0.360208,0.0503065
11.2288,0.172324,0.78951,1.06881,-1.02854,1.38591,-0.245013,-0.360207,0.0502226
11.2411,0.172324,0.789509,1.06881,-1.02854,1.38591,-0.245012,-0.360205,0.0501578
11.2534,0.172323,0.789508,1.06881,-1.02854,1.38591,-0.245011,-0.360204,0.0501094
11.2657,0.172322,0.789506,1.06881,-1.02854,1.38591,-0.245009,-0.360202,0.0500746
11.278,0.172321,0.789505,1.06881,-1.02854,1.38591,-0.245008,-0.360201,0.0500503
11.2903,0.172319,0.789504,1.06881,-1.02854,1.38591,-0.245006,-0.3602,0.0500341
11.3026,0.172317,0.789504,1.06881,-1.02854,1.38591,-0.245005,-0.3602,0.0500238
11.3149,0.172315,0.789504,1.06882,-1.02854,1.38591,-0.245003,-0.360201,0.0500176
11.3272,0.172313,0.789504,1.06882,-1.02854,1.38591,-0.245002,-0.360202,0.050014
11.3395,0.172311,0.789504,1.06882,-1.02854,1.38591,-0.245001,-0.360204,0.0500121
11.3518,0.172309,0.789505,1.06882,-1.02854,1.38591,-0.245,-0.360206,0.0500112
11.3641,0.172307,0.789507,1.06882,-1.02854,1.38591,-0.245,-0.360209,0.0500107
11.3764,0.172306,0.789508,1.06882,-1.02854,1.38591,-0.245,-0.360212,0.0500105
11.3887,0.172305,0.78951,1.06882,-1.02854,1.38592,-0.244999,-0.360215,0.0500103
