timestamp,ArmL1_Cla1,ArmL2_Sho1,ArmL3_Sho2,ArmL4_Sho3,ArmL5_Elb1,ArmL6_Elb2,ArmL7_Wri1,ArmL8_Wri2
0,0.0365599,0.539861,0.111372,0.178753,1.31976,-0.0942239,0.0584819,0.170786
0.0120816,0.0365605,0.539861,0.111372,0.178752,1.31976,-0.0942233,0.0584706,0.170785
0.0241631,0.0365969,0.539868,0.111406,0.178698,1.31975,-0.0941961,0.0577393,0.17074
0.0362447,0.0366036,0.539932,0.111501,0.178735,1.31975,-0.0941595,0.0569427,0.17077
0.0483262,0.0365863,0.53994,0.111548,0.178698,1.31973,-0.0941346,0.0565299,0.170799
0.0604078,0.0366019,0.539978,0.111579,0.17866,1.31973,-0.0941036,0.0560046,0.170765
0.0724894,0.03662,0.540015,0.111581,0.178648,1.31974,-0.0940469,0.055617,0.170784
0.0845709,0.0366156,0.540049,0.111568,0.178681,1.31972,-0.0939697,0.0553259,0.170819
0.0966525,0.036618,0.540084,0.111556,0.178697,1.3197,-0.0938991,0.0550841,0.170804
0.108734,0.0366484,0.540145,0.111539,0.178695,1.31967,-0.0937318,0.0546604,0.170773
0.120816,0.0366545,0.540224,0.111572,0.178676,1.31964,-0.0934906,0.0540927,0.170766
0.132897,0.0366438,0.540279,0.111596,0.178643,1.31961,-0.0933588,0.0536754,0.170789
0.144979,0.0366525,0.540319,0.111609,0.17863,1.31954,-0.0932284,0.0534567,0.170783
0.15706,0.036646,0.540348,0.111641,0.178653,1.31945,-0.093056,0.0533266,0.170803
0.169142,0.0366651,0.540363,0.111626,0.178593,1.31932,-0.0928863,0.0531229,0.170788
0.181223,0.0366908,0.540341,0.111681,0.178551,1.31909,-0.0927325,0.0527695,0.170854
0.193305,0.0366448,0.540305,0.111777,0.17855,1.31873,-0.092503,0.0525308,0.170881
0.205387,0.0366438,0.540282,0.111825,0.178538,1.31826,-0.0922396,0.0522561,0.170837
0.217468,0.0366321,0.54021,0.112085,0.178409,1.3171,-0.0915187,0.0518747,0.17081
0.22955,0.0366319,0.540245,0.112276,0.178405,1.31648,-0.0910483,0.0517336,0.170869
0.241631,0.0366319,0.540292,0.112459,0.178377,1.31583,-0.0906104,0.0516836,0.170845
0.253713,0.0366319,0.540292,0.112587,0.178307,1.31552,-0.090335,0.0516324,0.170832
0.265794,0.0366319,0.540292,0.11269,0.17825,1.31527,-0.0901134,0.0515911,0.170822
0.277876,0.0366376,0.540332,0.112938,0.178082,1.3147,-0.0895342,0.051497,0.170822
0.289957,0.036663,0.540489,0.113836,0.177425,1.31262,-0.0874379,0.0511001,0.170833
0.302039,0.0366937,0.540574,0.114255,0.177029,1.31178,-0.0865403,0.0507211,0.170834
0.314121,0.0367048,0.540664,0.114774,0.176697,1.31102,-0.0856043,0.0502604,0.170809
0.326202,0.0366791,0.540837,0.115375,0.176428,1.3103,-0.0846456,0.0498314,0.170853
0.338284,0.0366676,0.541057,0.116086,0.176255,1.30962,-0.0836004,0.0495099,0.170874
0.350365,0.0366839,0.54132,0.116855,0.176068,1.30894,-0.0824476,0.049145,0.170878
0.362447,0.0367085,0.541622,0.117656,0.175831,1.30824,-0.0813096,0.048766,0.17089
0.374528,0.0366709,0.542336,0.119184,0.175435,1.30718,-0.079286,0.0480909,0.170992
0.38661,0.0366754,0.542892,0.12039,0.175078,1.30637,-0.0777356,0.0476623,0.171055
0.398692,0.0367125,0.543421,0.121607,0.174754,1.3057,-0.0762359,0.047297,0.171094
0.410773,0.0366923,0.543929,0.122873,0.174561,1.30506,-0.0748274,0.0468985,0.171097
0.422855,0.0366668,0.544387,0.124209,0.174371,1.30438,-0.0732437,0.0463631,0.171175
0.434936,0.0366538,0.544872,0.125688,0.174264,1.30371,-0.0716696,0.0458056,0.171268
0.447018,0.0366438,0.545382,0.127221,0.174215,1.30307,-0.0700209,0.0454264,0.171494
0.459099,0.0366474,0.545906,0.128837,0.174187,1.30236,-0.0682718,0.0450525,0.171863
0.471181,0.0366467,0.546579,0.131207,0.174174,1.3014,-0.0655492,0.0442801,0.172456
0.483262,0.0366263,0.547309,0.134101,0.174163,1.30029,-0.0619913,0.0433041,0.173441
0.495344,0.03664,0.547754,0.136126,0.174162,1.29957,-0.0592988,0.0427714,0.174352
0.507426,0.0366634,0.548108,0.138125,0.17419,1.2988,-0.0564808,0.0420868,0.175304
0.519507,0.036659,0.548419,0.140076,0.174194,1.29806,-0.0536062,0.04144,0.176354
0.531589,0.0366366,0.548741,0.142017,0.174139,1.29741,-0.0506982,0.0409106,0.177421
0.54367,0.0366319,0.54907,0.143883,0.174187,1.29671,-0.0477719,0.0403681,0.178645
0.555752,0.0366388,0.549291,0.145271,0.174158,1.29624,-0.0454489,0.0398743,0.179561
0.567833,0.0366438,0.549412,0.146054,0.174128,1.29598,-0.0441187,0.0395832,0.180073
0.579915,0.0366385,0.549631,0.14892,0.174181,1.29514,-0.0387598,0.0389895,0.18194
0.591996,0.0366375,0.54992,0.153395,0.174236,1.29387,-0.0303751,0.0380514,0.184956
0.604078,0.0366553,0.549934,0.155371,0.174235,1.29338,-0.0265162,0.0376716,0.186561
0.61616,0.0366553,0.549884,0.158293,0.174216,1.29261,-0.0201872,0.0372426,0.189122
0.628241,0.0366368,0.549808,0.161092,0.174159,1.29187,-0.0137322,0.0368605,0.191835
0.640323,0.0366239,0.549751,0.163021,0.174099,1.29141,-0.00916163,0.036573,0.194079
0.652404,0.0366017,0.549745,0.164949,0.174098,1.29094,-0.00448612,0.0362277,0.196467
0.664486,0.0365956,0.549738,0.166854,0.174094,1.29055,0.000235839,0.0359913,0.198613
0.676567,0.0366168,0.549725,0.16898,0.174133,1.29019,0.00534802,0.0358686,0.201031
0.688649,0.03662,0.549712,0.170988,0.174095,1.2899,0.0100201,0.0358672,0.203211
0.700731,0.03662,0.5497,0.17291,0.174045,1.28964,0.0146794,0.0358097,0.205495
0.712812,0.0366319,0.549784,0.176784,0.174088,1.28899,0.0239949,0.0358089,0.210217
0.724894,0.0366319,0.5498,0.178686,0.174028,1.2886,0.0287204,0.0358233,0.212828
0.736975,0.0366277,0.549838,0.1806,0.174006,1.28825,0.0332866,0.0358399,0.215492
0.749057,0.0366084,0.549868,0.182087,0.173996,1.28798,0.0371075,0.0358205,0.217434
0.761138,0.0366173,0.549895,0.183397,0.174005,1.28781,0.0405164,0.0358295,0.219354
0.77322,0.0366409,0.549931,0.184936,0.173987,1.2876,0.0444439,0.035797,0.221351
0.785302,0.0366653,0.549918,0.187191,0.173981,1.28715,0.0500655,0.0358012,0.224031
0.797383,0.0366756,0.549867,0.189637,0.173998,1.28659,0.0561235,0.0358322,0.226856
0.809465,0.0366596,0.549867,0.190835,0.174006,1.28629,0.0591558,0.0357839,0.228199
0.821546,0.0366557,0.549932,0.192711,0.174008,1.28579,0.0639587,0.0357884,0.230664
0.833628,0.0366562,0.550015,0.194727,0.174006,1.28524,0.069139,0.0358077,0.233384
0.845709,0.0366629,0.550062,0.195695,0.173982,1.28495,0.0717349,0.035801,0.234697
0.857791,0.0366697,0.55011,0.196663,0.173959,1.28466,0.0743308,0.0357942,0.23601
0.869873,0.0366764,0.550157,0.197631,0.173935,1.28437,0.0769267,0.0357874,0.237323
0.881954,0.0366468,0.550786,0.202588,0.173818,1.28255,0.090744,0.0358238,0.243441
0.894036,0.0366339,0.551457,0.207252,0.173711,1.28075,0.103801,0.035814,0.2491
0.906117,0.0366511,0.551736,0.209021,0.173674,1.28002,0.108644,0.0358507,0.251235
0.918199,0.0366711,0.551987,0.210806,0.173645,1.27927,0.113567,0.0358921,0.253459
0.93028,0.0367043,0.552457,0.213947,0.173603,1.27796,0.122366,0.0359412,0.25718
0.942362,0.0366978,0.552934,0.216502,0.173552,1.27682,0.129285,0.0360364,0.259947
0.954443,0.0366817,0.553377,0.218414,0.173471,1.27585,0.134595,0.0361488,0.261934
0.966525,0.036658,0.55384,0.220349,0.17337,1.27486,0.139979,0.0363085,0.263927
0.978606,0.0366441,0.554395,0.222518,0.17329,1.27382,0.145642,0.036592,0.266276
0.990688,0.0366339,0.554975,0.224548,0.173211,1.27288,0.150944,0.0369038,0.26843
1.00277,0.0366699,0.55548,0.226567,0.173112,1.27208,0.156129,0.0374717,0.270457
1.01485,0.0366936,0.556155,0.228947,0.173008,1.2712,0.162066,0.0384194,0.273068
1.02693,0.0367013,0.557339,0.232907,0.172884,1.2698,0.17188,0.0402796,0.277279
1.03901,0.0366848,0.558173,0.235248,0.172785,1.26901,0.177893,0.0414946,0.279759
1.0511,0.0366631,0.55895,0.237396,0.172665,1.26829,0.183617,0.0427725,0.281973
1.06318,0.0366501,0.559742,0.239469,0.172473,1.26763,0.189422,0.0440872,0.284179
1.07526,0.0366371,0.560468,0.24153,0.172232,1.26697,0.195397,0.0454327,0.28632
1.08734,0.0366471,0.561214,0.243608,0.171966,1.26639,0.20144,0.046821,0.288545
1.09942,0.0366642,0.561983,0.245735,0.17167,1.26583,0.207419,0.0482478,0.29099
1.1115,0.0366587,0.562662,0.247845,0.171417,1.26526,0.213248,0.0496979,0.293512
1.12359,0.0366743,0.563428,0.250085,0.171257,1.26473,0.219604,0.0514453,0.296168
1.13567,0.0366899,0.564671,0.254136,0.171117,1.26391,0.23068,0.0547012,0.300727
1.14775,0.036692,0.565136,0.255673,0.171086,1.2636,0.235037,0.05607,0.302484
1.15983,0.036692,0.565434,0.256656,0.171074,1.26339,0.237921,0.0570179,0.303627
1.17191,0.036692,0.565507,0.256894,0.171072,1.26334,0.23862,0.0572476,0.303904
1.18399,0.0366625,0.567103,0.263134,0.170974,1.26221,0.2566,0.0646656,0.311205
1.19607,0.0366765,0.567858,0.266328,0.170973,1.26163,0.265771,0.0685279,0.315228
1.20816,0.0366913,0.568334,0.268592,0.170919,1.26126,0.27212,0.0712131,0.317908
1.22024,0.0366559,0.568653,0.270788,0.170831,1.26094,0.278353,0.0739462,0.320439
1.23232,0.0366688,0.569043,0.273189,0.170759,1.26073,0.285031,0.0770762,0.32309
1.2444,0.0366815,0.569324,0.275329,0.170607,1.26057,0.290874,0.0803121,0.325546
1.25648,0.0366776,0.569586,0.277788,0.17039,1.26026,0.297977,0.0844924,0.328559
1.26856,0.0366429,0.569938,0.280995,0.169957,1.25965,0.307677,0.0904148,0.332742
1.28065,0.0366586,0.570076,0.282899,0.169623,1.2593,0.313395,0.09352,0.335201
1.29273,0.0366276,0.570262,0.284767,0.16931,1.25907,0.318987,0.0965893,0.337554
1.30481,0.0366204,0.570428,0.286578,0.16906,1.25895,0.324274,0.0999234,0.339602
1.31689,0.0366319,0.57052,0.288397,0.168828,1.25885,0.329489,0.103614,0.341472
1.32897,0.0366399,0.570588,0.290187,0.168525,1.25877,0.334729,0.107378,0.343181
1.34105,0.0366785,0.570612,0.292017,0.168155,1.25871,0.340023,0.111059,0.344862
1.35313,0.036692,0.570593,0.293752,0.167794,1.25868,0.345118,0.114358,0.346484
1.36522,0.0366602,0.570525,0.296695,0.167245,1.2586,0.354284,0.120415,0.349547
1.3773,0.0366557,0.570504,0.29841,0.166887,1.25849,0.359813,0.124523,0.351524
1.38938,0.0366438,0.570503,0.299928,0.166514,1.25829,0.364483,0.128213,0.353229
1.40146,0.0366409,0.570479,0.301501,0.165983,1.25805,0.369161,0.13153,0.354769
1.41354,0.0366185,0.570468,0.303015,0.165421,1.25781,0.373647,0.134717,0.356085
1.42562,0.0366056,0.57048,0.304698,0.164758,1.25757,0.37868,0.138744,0.357413
1.43771,0.0366019,0.570546,0.306264,0.164112,1.25748,0.383142,0.14269,0.358601
1.44979,0.0366323,0.5706,0.307608,0.163481,1.25747,0.387223,0.146136,0.359613
1.46187,0.0366767,0.5706,0.308633,0.163036,1.25749,0.390539,0.148641,0.360371
1.47395,0.0366796,0.5706,0.308701,0.163006,1.25749,0.390757,0.148805,0.36042
1.48603,0.0366563,0.5706,0.312653,0.161276,1.25749,0.403244,0.157376,0.363005
1.49811,0.0366564,0.570563,0.315444,0.159961,1.25748,0.412686,0.164388,0.364644
1.5102,0.0366665,0.570549,0.316791,0.15924,1.25751,0.417371,0.167734,0.365438
1.52228,0.0366518,0.57052,0.318156,0.158538,1.2575,0.422197,0.171003,0.366093
1.53436,0.0366347,0.570483,0.319565,0.157848,1.25751,0.427242,0.174341,0.366907
1.54644,0.0366401,0.570492,0.321042,0.157159,1.25752,0.432664,0.178253,0.36778
1.55852,0.0366319,0.570509,0.322397,0.156579,1.25752,0.437516,0.182088,0.368594
1.5706,0.0366409,0.570553,0.324171,0.155815,1.2575,0.444149,0.187201,0.369726
1.58268,0.0366557,0.57057,0.326302,0.154996,1.25747,0.452414,0.193065,0.37109
1.59477,0.0366493,0.570551,0.327699,0.154586,1.25747,0.457853,0.196793,0.371947
1.60685,0.0366293,0.570554,0.329085,0.154251,1.25747,0.463203,0.200867,0.372767
1.61893,0.036628,0.57058,0.330499,0.153919,1.25748,0.468712,0.20507,0.373462
1.63101,0.0366588,0.57057,0.331933,0.153625,1.25751,0.474246,0.209092,0.374169
1.64309,0.0366536,0.570549,0.333023,0.15345,1.25752,0.478511,0.212125,0.374757
1.65517,0.0366355,0.570544,0.334055,0.1533,1.2575,0.48261,0.215016,0.375254
1.66726,0.0366213,0.570556,0.335243,0.153123,1.25747,0.487472,0.218535,0.375756
1.67934,0.0366303,0.570583,0.337045,0.152813,1.25749,0.495445,0.22487,0.376639
1.69142,0.0366651,0.570601,0.338658,0.152515,1.25748,0.502817,0.229982,0.377327
1.7035,0.0366899,0.570612,0.339925,0.152282,1.25746,0.508641,0.233857,0.377839
1.71558,0.0366835,0.570612,0.340563,0.152177,1.25744,0.511552,0.235722,0.378074
1.72766,0.036682,0.570628,0.341451,0.152075,1.25743,0.515607,0.23857,0.378418
1.73975,0.0366881,0.57067,0.342723,0.15198,1.25743,0.52142,0.242933,0.378929
1.75183,0.0366993,0.57071,0.343886,0.151914,1.25743,0.526776,0.246805,0.37936
1.76391,0.0367187,0.570749,0.344871,0.151894,1.25744,0.53138,0.249868,0.379657
1.77599,0.0367381,0.570788,0.345856,0.151875,1.25744,0.535984,0.25293,0.379955
1.78807,0.0366505,0.570981,0.348243,0.151951,1.25742,0.546831,0.260555,0.380882
1.80015,0.0367039,0.571366,0.353114,0.151861,1.25746,0.569488,0.277072,0.382627
1.81223,0.0366803,0.571394,0.354283,0.151846,1.25739,0.575177,0.281538,0.383079
1.82432,0.036699,0.57144,0.355445,0.151791,1.25739,0.580867,0.286315,0.383436
1.8364,0.036745,0.571442,0.356484,0.151777,1.25743,0.586569,0.290735,0.383757
1.84848,0.0367526,0.571415,0.357615,0.151701,1.25744,0.592272,0.295157,0.384119
1.86056,0.0367105,0.571428,0.358755,0.151717,1.25743,0.597624,0.299794,0.384494
1.87264,0.0366796,0.571484,0.360311,0.151645,1.25743,0.604696,0.306455,0.385017
1.88472,0.0366912,0.571557,0.362201,0.151475,1.25748,0.613119,0.314266,0.385666
1.89681,0.036677,0.571669,0.363454,0.151346,1.25748,0.618562,0.319591,0.386249
1.90889,0.0366481,0.571853,0.364639,0.151137,1.25746,0.623799,0.324839,0.386919
1.92097,0.0366438,0.572116,0.365813,0.150762,1.25748,0.629161,0.329714,0.387674
1.93305,0.0366438,0.572433,0.366978,0.150297,1.25751,0.634435,0.334606,0.388489
1.94513,0.0366438,0.572879,0.368298,0.149833,1.2575,0.639992,0.340412,0.389382
1.95721,0.0366328,0.573279,0.369514,0.149334,1.25744,0.645211,0.345633,0.390444
1.96929,0.0366669,0.573649,0.370801,0.148745,1.25743,0.650468,0.350686,0.391546
1.98138,0.0366325,0.574573,0.373231,0.147559,1.25743,0.660593,0.360919,0.393644
1.99346,0.036647,0.575171,0.374609,0.146828,1.25749,0.666479,0.366852,0.394908
2.00554,0.0366703,0.575625,0.375845,0.14604,1.25751,0.671977,0.372011,0.395964
2.01762,0.0366685,0.57618,0.377101,0.14525,1.25747,0.67736,0.37733,0.396977
2.0297,0.0366392,0.576776,0.378404,0.144472,1.25744,0.682761,0.383028,0.397993
2.04178,0.0366422,0.577398,0.379677,0.143644,1.25745,0.68815,0.388337,0.399166
2.05387,0.0366696,0.577977,0.380856,0.142886,1.25748,0.69304,0.392963,0.400202
2.06595,0.036692,0.578587,0.381971,0.142149,1.25749,0.697659,0.397626,0.401189
2.07803,0.036692,0.579713,0.383999,0.140878,1.25744,0.705891,0.405925,0.402893
2.09011,0.0366864,0.581112,0.386498,0.139357,1.25741,0.715868,0.41585,0.405036
2.10219,0.0366796,0.58203,0.387871,0.138587,1.25743,0.721245,0.421658,0.406396
2.11427,0.0366864,0.582946,0.389277,0.137862,1.25748,0.726778,0.427224,0.407893
2.12635,0.0366843,0.583871,0.390733,0.137137,1.2575,0.732353,0.432627,0.409447
2.13844,0.0366545,0.584902,0.392207,0.136436,1.25747,0.737976,0.438441,0.411046
2.15052,0.0366527,0.585936,0.39354,0.135738,1.25749,0.743515,0.444263,0.412617
2.1626,0.036675,0.586851,0.394926,0.135088,1.2575,0.749182,0.450034,0.414161
2.17468,0.036669,0.588823,0.397675,0.133924,1.2575,0.759662,0.461884,0.41676
2.18676,0.0367025,0.589976,0.399329,0.133202,1.25751,0.765866,0.468629,0.418185
2.19884,0.0366916,0.590939,0.4009,0.132528,1.25753,0.771492,0.47464,0.419391
2.21093,0.0366796,0.591928,0.402476,0.131972,1.25749,0.77701,0.481379,0.420619
2.22301,0.0366837,0.592927,0.404061,0.131362,1.2575,0.782606,0.487796,0.421844
2.23509,0.0367008,0.593834,0.405734,0.130714,1.25749,0.788438,0.49422,0.423192
2.24717,0.0366878,0.594675,0.407424,0.13012,1.25748,0.79423,0.500975,0.424509
2.25925,0.0366942,0.595563,0.409089,0.129448,1.2575,0.799956,0.507409,0.425838
2.27133,0.036692,0.596764,0.411703,0.128344,1.2575,0.808917,0.5171,0.428101
2.28342,0.0366819,0.597941,0.414331,0.127218,1.25751,0.818003,0.52713,0.430576
2.2955,0.0367081,0.598644,0.4161,0.126392,1.25752,0.824065,0.53371,0.432214
2.30758,0.0366884,0.599308,0.417919,0.125545,1.25748,0.830018,0.540542,0.433739
2.31966,0.0366796,0.599841,0.419702,0.124633,1.25751,0.835636,0.547,0.435139
2.33174,0.0367007,0.600322,0.421556,0.123766,1.25753,0.841574,0.553485,0.436468
2.34382,0.0366585,0.600798,0.423544,0.122771,1.25753,0.847497,0.56036,0.437564
2.3559,0.0366557,0.601076,0.424691,0.122196,1.25757,0.851087,0.56417,0.438351
2.36799,0.0366557,0.601243,0.425377,0.121853,1.2576,0.853243,0.566436,0.438832
2.38007,0.0366672,0.60149,0.428535,0.120294,1.2576,0.862735,0.57182,0.440862
2.39215,0.0366729,0.601758,0.432977,0.118048,1.2576,0.875845,0.578533,0.443774
2.40423,0.0366676,0.601743,0.434905,0.116875,1.25759,0.881297,0.580051,0.445053
2.41631,0.0366761,0.601726,0.436824,0.115691,1.25762,0.886611,0.581295,0.446355
2.42839,0.0366888,0.601695,0.438701,0.114447,1.2577,0.891629,0.582214,0.447679
2.44048,0.0366625,0.601637,0.44075,0.112963,1.25773,0.896736,0.582881,0.449192
2.45256,0.0366238,0.601562,0.444792,0.109831,1.25792,0.906434,0.583061,0.451986
2.46464,0.0366083,0.601496,0.447179,0.107799,1.25802,0.911841,0.583034,0.453696
2.47672,0.0366068,0.601507,0.44924,0.105895,1.25817,0.916704,0.583,0.45532
2.4888,0.036582,0.601512,0.451263,0.103748,1.2583,0.921806,0.583035,0.457015
2.50088,0.0365692,0.601465,0.453195,0.101548,1.25847,0.92704,0.582976,0.458704
2.51296,0.0365634,0.601446,0.455134,0.0992764,1.25871,0.932239,0.582982,0.460437
2.52505,0.0365804,0.601446,0.457109,0.0970497,1.25914,0.937467,0.582913,0.462102
2.53713,0.036601,0.601467,0.459212,0.0947859,1.25983,0.942828,0.582733,0.463702
2.54921,0.0366267,0.601563,0.462742,0.0912722,1.26139,0.950951,0.582395,0.466193
2.56129,0.0366511,0.601655,0.466282,0.0877374,1.26306,0.958658,0.581996,0.468688
2.57337,0.0366474,0.601691,0.468777,0.0851074,1.26429,0.963786,0.581683,0.470451
2.58545,0.0366438,0.601698,0.470838,0.0827114,1.26538,0.968102,0.581371,0.472025
2.59754,0.0366412,0.601704,0.472105,0.0811337,1.26612,0.970858,0.58111,0.473062
2.60962,0.0366364,0.601713,0.472897,0.0800957,1.26663,0.972649,0.580888,0.473749
2.6217,0.0366326,0.601722,0.473696,0.0790472,1.26715,0.974467,0.58066,0.474448
2.63378,0.0366518,0.601715,0.474706,0.077709,1.26786,0.977008,0.580286,0.475471
2.64586,0.0366701,0.601702,0.47613,0.0758821,1.26889,0.980594,0.579773,0.476862
2.65794,0.0366843,0.601652,0.479536,0.0717124,1.27147,0.989186,0.578589,0.480016
2.67003,0.0366843,0.601629,0.481795,0.0689505,1.27318,0.994843,0.577805,0.482092
2.68211,0.0366677,0.601634,0.482724,0.0678246,1.27388,0.997089,0.577486,0.482916
2.69419,0.0366492,0.60168,0.485575,0.064235,1.27605,1.00341,0.576538,0.485458
2.70627,0.0366319,0.601766,0.492923,0.0549585,1.2818,1.01931,0.574165,0.492187
2.71835,0.0366319,0.601671,0.497763,0.0490399,1.28602,1.02991,0.572706,0.496981
2.73043,0.0366273,0.601624,0.499872,0.0464696,1.28783,1.03438,0.572078,0.498823
2.74251,0.036603,0.601608,0.502166,0.0436675,1.28973,1.03918,0.571617,0.500761
2.7546,0.0365903,0.601627,0.504501,0.0407349,1.29174,1.0439,0.571306,0.502628
2.76668,0.0365956,0.601653,0.50674,0.0380037,1.29377,1.04815,0.571045,0.504391
2.77876,0.0365874,0.601671,0.508957,0.0353961,1.29589,1.05225,0.570688,0.506234
2.79084,0.0365927,0.601683,0.511037,0.0328936,1.29805,1.05633,0.57021,0.508155
2.80292,0.0365758,0.601666,0.513174,0.0301936,1.30054,1.06079,0.569841,0.510092
2.815,0.0366346,0.601704,0.516507,0.0255878,1.3049,1.06825,0.56954,0.513472
2.82709,0.036655,0.601778,0.518603,0.0226419,1.30766,1.07284,0.569357,0.515411
2.83917,0.0366321,0.601817,0.520526,0.0200067,1.31023,1.07698,0.569055,0.517015
2.85125,0.0366438,0.601776,0.522452,0.017455,1.31288,1.08114,0.568708,0.518455
2.86333,0.0366438,0.601717,0.524364,0.0150289,1.31567,1.08528,0.56826,0.5198
2.87541,0.0366438,0.601708,0.526211,0.0128465,1.31851,1.08929,0.56791,0.521057
2.88749,0.0366366,0.601738,0.527957,0.0107827,1.32126,1.09309,0.567692,0.522213
2.89957,0.0366168,0.601746,0.52995,0.00825799,1.32469,1.09773,0.567445,0.523616
2.91166,0.0366042,0.601743,0.532679,0.0045317,1.32978,1.10425,0.567061,0.525922
2.92374,0.0365999,0.601718,0.534083,0.00254332,1.3327,1.10767,0.566719,0.527297
2.93582,0.036608,0.601677,0.535488,0.000539855,1.33572,1.11116,0.566315,0.52875
2.9479,0.0366021,0.601662,0.536574,-0.000989802,1.33819,1.11394,0.566021,0.52986
2.95998,0.0365886,0.601662,0.537305,-0.00193329,1.33984,1.1158,0.565842,0.530564
2.97206,0.0365914,0.601693,0.53987,-0.00515312,1.3461,1.12247,0.5652,0.532759
2.98415,0.0365796,0.601734,0.54204,-0.00780636,1.35151,1.12784,0.56462,0.534405
2.99623,0.0365803,0.601729,0.543343,-0.00946057,1.35501,1.13098,0.564298,0.535243
3.00831,0.0365837,0.601704,0.544587,-0.0111845,1.35858,1.13414,0.563975,0.536102
3.02039,0.036575,0.601689,0.545717,-0.0128313,1.36203,1.13708,0.563798,0.536916
3.03247,0.0365718,0.601704,0.546787,-0.0145776,1.36571,1.14016,0.563637,0.537714
3.04455,0.0366006,0.601758,0.548478,-0.0178826,1.37295,1.14582,0.563052,0.539076
3.05664,0.0366381,0.6018,0.549462,-0.0199819,1.37781,1.14957,0.562671,0.539941
3.06872,0.0366655,0.601872,0.550256,-0.0216599,1.38187,1.15285,0.562396,0.540485
3.0808,0.0366914,0.601866,0.550976,-0.023399,1.38594,1.15593,0.562245,0.541077
3.09288,0.0367039,0.601842,0.551654,-0.0251659,1.39013,1.159,0.562201,0.541655
3.10496,0.0367024,0.60185,0.552248,-0.0271582,1.39434,1.16196,0.5621,0.542219
3.11704,0.0366873,0.601911,0.552804,-0.0293161,1.39851,1.16473,0.562021,0.542716
3.12912,0.0366611,0.60195,0.5533,-0.0323577,1.40385,1.16813,0.561869,0.543388
3.14121,0.0366481,0.601924,0.553687,-0.0368544,1.41131,1.17291,0.561581,0.54459
3.15329,0.0366557,0.601851,0.553747,-0.0397114,1.41608,1.17621,0.561431,0.54545
3.16537,0.0366557,0.601799,0.553838,-0.0423558,1.4206,1.17949,0.561237,0.546336
3.17745,0.0366632,0.601782,0.553908,-0.0449241,1.42509,1.18293,0.560928,0.547321
3.18953,0.0366592,0.601816,0.553951,-0.0475615,1.42967,1.18638,0.560722,0.548234
3.20161,0.036665,0.601877,0.553956,-0.0504058,1.4343,1.18984,0.560683,0.549001
3.2137,0.0366579,0.601949,0.553914,-0.0533931,1.43888,1.1934,0.560595,0.549655
3.22578,0.0366557,0.601972,0.55383,-0.0568022,1.44364,1.1971,0.560533,0.550198
3.23786,0.0366445,0.601872,0.553742,-0.0631078,1.45306,1.20429,0.560415,0.551355
3.24994,0.0366438,0.601819,0.553773,-0.066316,1.45817,1.20832,0.560384,0.552084
3.26202,0.0366438,0.601818,0.553773,-0.0663554,1.45824,1.20837,0.560384,0.552093
3.2741,0.0366438,0.601822,0.553795,-0.0674201,1.45987,1.20977,0.560336,0.552269
3.28618,0.0366388,0.60193,0.553874,-0.072883,1.4679,1.21681,0.560182,0.553247
3.29827,0.0366375,0.60207,0.553918,-0.0792859,1.47716,1.22502,0.560079,0.554375
3.31035,0.0366627,0.602013,0.553912,-0.0840014,1.48429,1.23182,0.560003,0.555097
3.32243,0.0366945,0.601947,0.553903,-0.0885379,1.49107,1.23882,0.55994,0.555752
3.33451,0.0366785,0.60203,0.553902,-0.092033,1.49593,1.24406,0.559873,0.556101
3.34659,0.0366399,0.602135,0.553905,-0.0954481,1.50038,1.24894,0.559854,0.556442
3.35867,0.0366624,0.602164,0.553905,-0.0986555,1.50462,1.25375,0.559693,0.556668
3.37076,0.0366901,0.602199,0.553883,-0.101703,1.50877,1.2585,0.559444,0.556993
3.38284,0.0367037,0.602131,0.553893,-0.104478,1.51276,1.26316,0.5592,0.557396
3.39492,0.0366676,0.602082,0.553905,-0.107112,1.51644,1.26764,0.558861,0.557894
3.407,0.0366685,0.602114,0.553952,-0.112613,1.52351,1.27685,0.558352,0.558452
3.41908,0.0366816,0.602223,0.553933,-0.115586,1.52702,1.28156,0.558269,0.558721
3.43116,0.036692,0.602267,0.553887,-0.118403,1.53035,1.28599,0.55823,0.558924
3.44325,0.036692,0.602231,0.553869,-0.120935,1.53356,1.29048,0.558206,0.559249
3.45533,0.036692,0.602171,0.553893,-0.12334,1.53661,1.29505,0.558201,0.559574
3.46741,0.0366862,0.602119,0.55394,-0.12565,1.53949,1.29955,0.55819,0.559861
3.47949,0.0366796,0.602141,0.553965,-0.128069,1.54226,1.30384,0.558191,0.56008
3.49157,0.0366796,0.602215,0.553977,-0.130512,1.54496,1.30798,0.558159,0.560234
3.50365,0.0366947,0.60226,0.553985,-0.13438,1.54905,1.31453,0.558076,0.560484
3.51573,0.0367039,0.602256,0.553998,-0.137575,1.55244,1.32013,0.558018,0.560694
3.52782,0.0367039,0.602212,0.553954,-0.139743,1.55487,1.32409,0.557964,0.56079
3.5399,0.0367139,0.602181,0.553971,-0.141712,1.5571,1.32786,0.558001,0.560905
3.55198,0.0367213,0.602183,0.553977,-0.14286,1.55839,1.3301,0.558,0.560963
3.56406,0.0367277,0.60219,0.553977,-0.143865,1.55951,1.33206,0.557987,0.561008
3.57614,0.036726,0.602195,0.553976,-0.144392,1.56002,1.33295,0.557987,0.561041
3.58822,0.0367051,0.602261,0.553964,-0.151479,1.56684,1.3448,0.557988,0.561467
3.60031,0.0367141,0.602253,0.553946,-0.154036,1.56887,1.34838,0.557996,0.561495
3.61239,0.0367091,0.602199,0.553908,-0.156332,1.57079,1.35193,0.557983,0.561539
3.62447,0.0367277,0.602196,0.553937,-0.15855,1.57265,1.35553,0.558014,0.561538
3.63655,0.0367318,0.602226,0.554006,-0.160722,1.57451,1.35913,0.558015,0.561516
3.64863,0.0367397,0.602254,0.554052,-0.162845,1.57635,1.36268,0.557974,0.561524
3.66071,0.0367515,0.602291,0.554127,-0.166197,1.57907,1.36796,0.557975,0.561554
3.67279,0.0367635,0.602314,0.554264,-0.169813,1.58182,1.37338,0.558025,0.561591
3.68488,0.036748,0.602309,0.554395,-0.172774,1.58386,1.37736,0.558043,0.561635
3.69696,0.036748,0.602309,0.554466,-0.175681,1.58582,1.38108,0.558005,0.561715
3.70904,0.0367424,0.602309,0.554499,-0.178366,1.58774,1.38472,0.558015,0.561813
3.72112,0.0367597,0.6023,0.554555,-0.180997,1.58975,1.38858,0.557993,0.561866
3.7332,0.0367746,0.602309,0.554609,-0.183613,1.59182,1.39264,0.558009,0.56205
3.74528,0.0367754,0.602298,0.554761,-0.186152,1.59379,1.39664,0.557965,0.562086
3.75737,0.0367522,0.602311,0.555012,-0.191745,1.59783,1.40494,0.557978,0.56221
3.76945,0.036767,0.60233,0.555106,-0.194968,1.59999,1.4094,0.558018,0.562288
3.78153,0.0367823,0.602309,0.555287,-0.198291,1.60228,1.41408,0.557998,0.562479
3.79361,0.0367564,0.602306,0.555422,-0.201179,1.60438,1.41827,0.558024,0.562792
3.80569,0.0367397,0.602293,0.55554,-0.203902,1.60644,1.42227,0.557995,0.563073
3.81777,0.0367397,0.602295,0.555612,-0.206697,1.60849,1.42616,0.558001,0.563329
3.82986,0.0367352,0.602301,0.55571,-0.20942,1.61042,1.42992,0.55801,0.563576
3.84194,0.0367236,0.602269,0.555829,-0.213101,1.61298,1.43497,0.557975,0.563969
3.85402,0.0367158,0.602237,0.555955,-0.216719,1.61549,1.43999,0.557951,0.5644
3.8661,0.0367158,0.602238,0.55598,-0.217151,1.61584,1.4406,0.557951,0.564442
3.87818,0.0367183,0.602237,0.556193,-0.220641,1.6187,1.44561,0.557951,0.564795
3.89026,0.0367247,0.602247,0.556603,-0.226684,1.62374,1.45442,0.557954,0.565462
3.90234,0.0367158,0.602273,0.556825,-0.229523,1.62615,1.45801,0.557956,0.565846
3.91443,0.0367158,0.602278,0.556983,-0.232304,1.62854,1.46116,0.55793,0.566275
3.92651,0.0367158,0.602296,0.557169,-0.235038,1.63099,1.46412,0.55791,0.566748
3.93859,0.0367221,0.602303,0.557361,-0.237552,1.63349,1.46705,0.557884,0.56726
3.95067,0.0367277,0.602276,0.557525,-0.239861,1.63596,1.46994,0.557895,0.56778
3.96275,0.0367436,0.602261,0.557816,-0.243606,1.64005,1.47448,0.557843,0.568633
3.97483,0.0367603,0.602279,0.558126,-0.246907,1.64355,1.47811,0.557878,0.569398
3.98692,0.0367537,0.602305,0.558363,-0.249566,1.64624,1.4805,0.557883,0.569928
3.999,0.0367408,0.602331,0.558626,-0.252316,1.64888,1.48265,0.557836,0.570354
4.01108,0.0367397,0.602333,0.558895,-0.255142,1.6516,1.48469,0.557854,0.570869
4.02316,0.0367391,0.602333,0.55919,-0.257671,1.65444,1.48657,0.557784,0.571554
4.03524,0.0367277,0.602321,0.559449,-0.260158,1.65739,1.48853,0.55779,0.572305
4.04732,0.0367277,0.602316,0.559677,-0.262814,1.66062,1.4905,0.557746,0.573026
4.0594,0.0367311,0.602287,0.559873,-0.265246,1.66356,1.49223,0.55772,0.573855
4.07149,0.0367221,0.602248,0.560126,-0.268781,1.66772,1.49432,0.557701,0.574911
4.08357,0.036692,0.602225,0.560422,-0.273076,1.67277,1.49655,0.557531,0.576135
4.09565,0.0366791,0.602232,0.56061,-0.275705,1.67608,1.49777,0.557364,0.576882
4.10773,0.0366676,0.60223,0.560816,-0.278159,1.67947,1.49886,0.557152,0.57761
4.11981,0.0366676,0.602225,0.561056,-0.280434,1.6829,1.49982,0.556904,0.578362
4.13189,0.0366585,0.602207,0.561343,-0.282783,1.68659,1.5008,0.556641,0.579156
4.14398,0.036627,0.602163,0.561571,-0.284996,1.69003,1.50167,0.556479,0.580007
4.15606,0.0366266,0.602154,0.561764,-0.286592,1.69251,1.50223,0.556413,0.58059
4.16814,0.0366319,0.602153,0.561887,-0.287542,1.69398,1.50256,0.556381,0.580926
4.18022,0.0366269,0.602134,0.562225,-0.290568,1.69901,1.50351,0.556361,0.582178
4.1923,0.03662,0.602094,0.562838,-0.295755,1.70795,1.50515,0.556357,0.584403
4.20438,0.0366268,0.602082,0.563202,-0.297703,1.71198,1.50581,0.556368,0.585429
4.21646,0.0366396,0.602105,0.563598,-0.299606,1.71606,1.50639,0.556357,0.586473
4.22855,0.0366607,0.602152,0.564025,-0.301585,1.72039,1.50698,0.556366,0.587539
4.24063,0.0366676,0.602201,0.564452,-0.303528,1.72451,1.50745,0.55636,0.588538
4.25271,0.0366771,0.602232,0.565155,-0.307059,1.73179,1.50823,0.556395,0.590056
4.26479,0.0366695,0.602227,0.565608,-0.309562,1.73679,1.50874,0.556365,0.591104
4.27687,0.0366676,0.602203,0.565917,-0.31168,1.7411,1.50914,0.556335,0.592021
4.28895,0.0366557,0.602226,0.566142,-0.31375,1.74547,1.50945,0.556261,0.592847
4.30104,0.0366557,0.602224,0.56624,-0.31569,1.75018,1.50973,0.55627,0.593602
4.31312,0.0366517,0.602216,0.566267,-0.317405,1.75434,1.51002,0.556246,0.594243
4.3252,0.036629,0.602205,0.566237,-0.319027,1.75842,1.51032,0.556265,0.594846
4.33728,0.03662,0.602142,0.566226,-0.32054,1.76238,1.51066,0.556212,0.595355
4.34936,0.0366158,0.60215,0.566184,-0.322082,1.76632,1.51096,0.556225,0.59577
4.36144,0.0366028,0.602165,0.566148,-0.324278,1.77169,1.51136,0.556196,0.596451
4.37353,0.0365957,0.602136,0.566159,-0.326522,1.77706,1.51174,0.556195,0.597229
4.38561,0.0365757,0.602126,0.566163,-0.327878,1.78036,1.51199,0.556188,0.5976
4.39769,0.0365524,0.602134,0.566168,-0.329172,1.78358,1.51235,0.556155,0.5979
4.40977,0.0365398,0.602138,0.566185,-0.33039,1.78686,1.51286,0.556125,0.598191
4.42185,0.036536,0.602097,0.566198,-0.33143,1.78995,1.51342,0.556118,0.59853
4.43393,0.0365067,0.602072,0.566201,-0.332326,1.79282,1.51405,0.556059,0.598926
4.44601,0.0364998,0.602049,0.566181,-0.33308,1.79549,1.51475,0.556137,0.599251
4.4581,0.036485,0.602038,0.566169,-0.333888,1.79884,1.51582,0.556109,0.599602
4.47018,0.036476,0.602034,0.566165,-0.334316,1.80065,1.51641,0.556082,0.599789
4.48226,0.036476,0.601998,0.566151,-0.334727,1.80393,1.51771,0.556117,0.599973
4.49434,0.0364837,0.601974,0.566149,-0.335019,1.80749,1.51918,0.556134,0.600209
4.50642,0.0364879,0.601974,0.566178,-0.335032,1.80955,1.52021,0.556095,0.600328
4.5185,0.0364786,0.601946,0.566198,-0.335063,1.81147,1.52134,0.556109,0.60052
4.53059,0.036476,0.601928,0.566211,-0.335081,1.81332,1.52248,0.556127,0.600666
4.54267,0.036476,0.601915,0.566181,-0.335018,1.81509,1.52373,0.556097,0.600634
4.55475,0.0364528,0.601856,0.566119,-0.335046,1.81819,1.52645,0.556152,0.60064
4.56683,0.0364511,0.601854,0.566128,-0.334999,1.81981,1.5281,0.556143,0.60064
4.57891,0.0364297,0.60185,0.566105,-0.334993,1.82142,1.52994,0.55616,0.600628
4.59099,0.0364379,0.601815,0.566112,-0.335042,1.82276,1.53166,0.556101,0.600619
4.60308,0.0364344,0.601803,0.566153,-0.335089,1.82406,1.53343,0.556046,0.600564
4.61516,0.0364521,0.601798,0.566205,-0.335175,1.82533,1.53517,0.556086,0.600448
4.62724,0.0364521,0.601797,0.566251,-0.335253,1.8265,1.53687,0.55608,0.600211
4.63932,0.036447,0.601756,0.566273,-0.33529,1.82806,1.53929,0.556099,0.599453
4.6514,0.0364341,0.601728,0.566248,-0.335274,1.82973,1.5421,0.556166,0.598142
4.66348,0.0364283,0.601763,0.566211,-0.335246,1.83071,1.54404,0.556135,0.597106
4.67556,0.0364283,0.601782,0.566152,-0.33521,1.83167,1.54614,0.55613,0.59612
4.68765,0.0364193,0.6018,0.566093,-0.335155,1.83264,1.54846,0.556105,0.595249
4.69973,0.0364164,0.601786,0.566091,-0.335113,1.8336,1.55088,0.556182,0.594328
4.71181,0.0363841,0.60175,0.566072,-0.335096,1.83456,1.55346,0.556169,0.593432
4.72389,0.0363689,0.601678,0.56608,-0.335106,1.83548,1.55618,0.556132,0.592586
4.73597,0.0363453,0.601628,0.566104,-0.335164,1.83632,1.55884,0.556187,0.591836
4.74805,0.0362724,0.601411,0.566189,-0.335143,1.8382,1.56494,0.556177,0.59007
4.76014,0.0362724,0.601411,0.566189,-0.335143,1.8382,1.56494,0.556177,0.59007
4.77222,0.0361866,0.60092,0.566243,-0.335236,1.83997,1.57073,0.556201,0.588482
4.7843,0.0360801,0.600353,0.566299,-0.335286,1.84168,1.57612,0.55617,0.586909
4.79638,0.0359898,0.599863,0.566309,-0.335325,1.84286,1.57939,0.556153,0.585693
4.80846,0.0358999,0.599331,0.566309,-0.335314,1.84413,1.58262,0.556185,0.584236
4.82054,0.0358328,0.598627,0.566264,-0.335266,1.84545,1.58598,0.556111,0.582687
4.83262,0.0357805,0.597724,0.566248,-0.335298,1.84684,1.58941,0.556177,0.581082
4.84471,0.0357425,0.596654,0.566212,-0.335258,1.84841,1.59299,0.556145,0.579261
4.85679,0.0357108,0.594544,0.566193,-0.335187,1.85142,1.59951,0.556185,0.575448
4.86887,0.0357211,0.593318,0.566146,-0.335167,1.85298,1.60294,0.556159,0.573664
4.88095,0.0357211,0.592068,0.566161,-0.335163,1.85464,1.60651,0.556163,0.571604
4.89303,0.0357169,0.590792,0.566161,-0.335146,1.85631,1.61006,0.556138,0.569609
4.90511,0.0356996,0.589512,0.566186,-0.335145,1.85798,1.61355,0.556153,0.567738
4.9172,0.0356687,0.588184,0.566212,-0.335172,1.85974,1.61702,0.556164,0.565951
4.92928,0.0356242,0.586859,0.566244,-0.335229,1.86162,1.62069,0.556184,0.564265
4.94136,0.0355806,0.585554,0.566281,-0.335295,1.86352,1.62441,0.556169,0.562744
4.95344,0.0354394,0.583353,0.566305,-0.335319,1.86683,1.63035,0.556138,0.560401
4.96552,0.035265,0.581429,0.566345,-0.335314,1.86964,1.63513,0.556121,0.558268
4.9776,0.0350778,0.579761,0.566316,-0.33528,1.87206,1.63881,0.556168,0.55624
4.98969,0.0348587,0.578122,0.566286,-0.335241,1.87439,1.64237,0.556144,0.554366
5.00177,0.0346171,0.576535,0.566213,-0.335167,1.8766,1.64599,0.556129,0.552381
5.01385,0.0343596,0.5751,0.566222,-0.335231,1.87889,1.64967,0.556105,0.550557
5.02593,0.0340951,0.57354,0.56619,-0.335128,1.88113,1.65323,0.556107,0.548754
5.03801,0.0338235,0.571968,0.566203,-0.335109,1.88338,1.65673,0.556124,0.547204
5.05009,0.0335466,0.570491,0.566211,-0.335121,1.88545,1.65999,0.556144,0.545856
5.06217,0.0333323,0.569522,0.566203,-0.335129,1.88686,1.6623,0.556104,0.545014
5.07426,0.0323845,0.566226,0.566265,-0.335195,1.8916,1.67121,0.556075,0.542661
5.08634,0.0317312,0.564135,0.566305,-0.335245,1.89459,1.67693,0.5561,0.541319
5.09842,0.0312422,0.562674,0.566287,-0.335219,1.89668,1.68113,0.556127,0.540365
5.1105,0.0307061,0.561203,0.566296,-0.335237,1.89877,1.68555,0.556107,0.539497
5.12258,0.0300395,0.559809,0.566213,-0.335214,1.90084,1.6902,0.556081,0.538749
5.13466,0.029367,0.558288,0.566204,-0.335167,1.90289,1.69487,0.556062,0.537882
5.14675,0.0286195,0.55667,0.566235,-0.335163,1.90499,1.69989,0.556105,0.537183
5.15883,0.0272422,0.553838,0.566225,-0.335133,1.90849,1.70913,0.556103,0.535891
5.17091,0.0262989,0.552147,0.566228,-0.335146,1.91037,1.71473,0.556097,0.535223
5.18299,0.0253378,0.550571,0.566237,-0.335142,1.91208,1.72006,0.556118,0.534605
5.19507,0.0243564,0.549105,0.566237,-0.335124,1.91374,1.72563,0.556136,0.533885
5.20715,0.0233737,0.547729,0.566237,-0.335125,1.91532,1.7313,0.55613,0.53327
5.21923,0.0223594,0.546299,0.56623,-0.335119,1.91678,1.73708,0.556116,0.53272
5.23132,0.0213075,0.544866,0.56624,-0.335103,1.91816,1.74296,0.556175,0.532097
5.2434,0.0202252,0.543455,0.566241,-0.335128,1.91939,1.7488,0.55614,0.531422
5.25548,0.0180195,0.541004,0.566263,-0.335125,1.92147,1.75912,0.556088,0.530546
5.26756,0.0162581,0.539257,0.566263,-0.335099,1.92292,1.76673,0.556082,0.529903
5.27964,0.0146685,0.537999,0.56625,-0.33516,1.924,1.77275,0.556114,0.52939
5.29172,0.0129893,0.536665,0.566213,-0.335119,1.92499,1.77862,0.556094,0.529009
5.30381,0.0111755,0.535325,0.566225,-0.335107,1.92599,1.78459,0.556111,0.528658
5.31589,0.00914849,0.533948,0.566225,-0.335111,1.92694,1.79106,0.556054,0.528324
5.32797,0.00721645,0.532768,0.56623,-0.335128,1.92776,1.79664,0.556099,0.527984
5.34005,0.0052188,0.531642,0.566245,-0.335126,1.92852,1.80212,0.556111,0.52757
5.35213,0.00333391,0.530656,0.566234,-0.335143,1.9292,1.80708,0.556085,0.527226
5.36421,0.00188821,0.529991,0.566226,-0.335143,1.92972,1.8106,0.55606,0.527019
5.3763,0.00174648,0.529926,0.566225,-0.335143,1.92977,1.81094,0.556058,0.526998
5.38838,-0.00611234,0.526911,0.56627,-0.335211,1.93205,1.82732,0.556091,0.525767
5.40046,-0.00922951,0.525867,0.566284,-0.335191,1.93286,1.833,0.556094,0.525227
5.41254,-0.0120137,0.525059,0.566274,-0.335228,1.93356,1.83753,0.556059,0.52451
5.42462,-0.0147075,0.524247,0.566294,-0.335252,1.93419,1.84181,0.556083,0.523792
5.4367,-0.0174615,0.523495,0.566281,-0.335254,1.93486,1.84589,0.556091,0.522923
5.44878,-0.0201958,0.522744,0.566318,-0.335221,1.93551,1.84964,0.556087,0.521809
5.46087,-0.0238083,0.521757,0.566305,-0.335216,1.93637,1.85407,0.556109,0.519961
5.47295,-0.0284239,0.520546,0.566287,-0.335171,1.93746,1.85931,0.556141,0.517391
5.48503,-0.031337,0.519751,0.566273,-0.335168,1.93815,1.86241,0.556132,0.515685
5.49711,-0.0340842,0.518956,0.566292,-0.335142,1.93883,1.86518,0.556095,0.513822
5.50919,-0.0368443,0.518156,0.566309,-0.335161,1.9395,1.86768,0.55609,0.511854
5.52127,-0.0396336,0.517371,0.566268,-0.335187,1.94016,1.86987,0.556114,0.50996
5.53336,-0.0426152,0.51658,0.566275,-0.335226,1.9409,1.87195,0.556033,0.508067
5.54544,-0.0455145,0.515783,0.566294,-0.335239,1.94165,1.87375,0.556026,0.506384
5.55752,-0.0508415,0.514454,0.566317,-0.335259,1.94298,1.87661,0.556044,0.503911
5.5696,-0.0541692,0.513614,0.566321,-0.335274,1.94378,1.8784,0.555989,0.502339
5.58168,-0.0570803,0.512885,0.566346,-0.335273,1.9445,1.8798,0.555911,0.500806
5.59376,-0.059818,0.512184,0.56639,-0.335229,1.94525,1.88106,0.555828,0.499195
5.60584,-0.0624405,0.511465,0.566357,-0.335255,1.94596,1.8822,0.5558,0.497564
5.61793,-0.0650229,0.510783,0.566353,-0.335279,1.94668,1.88325,0.555733,0.495827
5.63001,-0.067578,0.510151,0.56633,-0.335239,1.9474,1.88423,0.555577,0.494042
5.64209,-0.0707032,0.509346,0.566324,-0.335236,1.94823,1.88528,0.555394,0.491742
5.65417,-0.0744597,0.508439,0.566333,-0.335227,1.94934,1.88653,0.554991,0.489021
5.66625,-0.0744597,0.508439,0.566333,-0.335227,1.94934,1.88653,0.554991,0.489021
5.67833,-0.0763293,0.50795,0.566325,-0.335219,1.94981,1.88701,0.55475,0.487962
5.69042,-0.0838558,0.506024,0.566311,-0.335191,1.95164,1.88895,0.553867,0.483802
5.7025,-0.0866919,0.505431,0.566331,-0.335186,1.95219,1.88963,0.553794,0.482591
5.71458,-0.0893457,0.504902,0.566319,-0.335184,1.95269,1.8903,0.553703,0.481527
5.72666,-0.0920034,0.504397,0.566326,-0.33521,1.95315,1.89103,0.553548,0.480457
5.73874,-0.0946276,0.503881,0.566299,-0.335227,1.95349,1.89189,0.553382,0.479377
5.75082,-0.0971421,0.503383,0.566317,-0.335243,1.95378,1.89279,0.553146,0.478383
5.76291,-0.099546,0.502974,0.566333,-0.335251,1.95414,1.89377,0.552798,0.477515
5.77499,-0.103563,0.502233,0.566342,-0.33526,1.95473,1.89574,0.552076,0.475927
5.78707,-0.106558,0.501649,0.566355,-0.335232,1.95504,1.89746,0.551642,0.474653
5.79915,-0.108854,0.501166,0.566345,-0.33517,1.95519,1.89903,0.551396,0.473672
5.81123,-0.111,0.500613,0.566333,-0.335131,1.95515,1.90073,0.551108,0.472746
5.82331,-0.113293,0.500056,0.566271,-0.33515,1.9551,1.90267,0.550577,0.471965
5.83539,-0.115592,0.49943,0.566255,-0.335103,1.95507,1.90469,0.550026,0.47125
5.84748,-0.117949,0.498823,0.56628,-0.335085,1.95504,1.90682,0.549795,0.470661
5.85956,-0.12043,0.498148,0.566267,-0.335092,1.95506,1.90901,0.549624,0.470173
5.87164,-0.124125,0.497142,0.566289,-0.335105,1.95512,1.9123,0.549194,0.46975
5.88372,-0.128684,0.495912,0.566318,-0.335175,1.95514,1.91638,0.548504,0.469398
5.8958,-0.131454,0.495183,0.566345,-0.335239,1.9551,1.91903,0.548042,0.469203
5.90788,-0.134173,0.494411,0.566359,-0.335291,1.95509,1.92169,0.547668,0.468975
5.91996,-0.136774,0.493719,0.566346,-0.335326,1.95513,1.9242,0.547327,0.468862
5.93205,-0.139258,0.493009,0.566364,-0.335335,1.95518,1.92662,0.546865,0.46866
5.94413,-0.141665,0.492187,0.566389,-0.335335,1.9552,1.92881,0.546211,0.468384
5.95621,-0.143553,0.491517,0.566411,-0.335347,1.95517,1.9304,0.545644,0.468045
5.96829,-0.144674,0.491122,0.566429,-0.335358,1.95514,1.93134,0.545308,0.467797
5.98037,-0.14779,0.489798,0.566396,-0.335396,1.95513,1.93359,0.544144,0.466897
5.99245,-0.153609,0.487251,0.566356,-0.335465,1.95512,1.93777,0.541929,0.465271
6.00454,-0.156062,0.485978,0.566375,-0.335465,1.95511,1.93944,0.540824,0.4647
6.01662,-0.158485,0.484707,0.566358,-0.335432,1.95511,1.9411,0.539665,0.464201
6.0287,-0.160879,0.483544,0.566345,-0.335427,1.95507,1.94264,0.538517,0.46379
6.04078,-0.163335,0.48229,0.566335,-0.335403,1.95508,1.94417,0.537357,0.463407
6.05286,-0.165825,0.48091,0.566333,-0.335374,1.9551,1.94568,0.536058,0.463064
6.06494,-0.168246,0.479621,0.566302,-0.335401,1.95507,1.94709,0.534983,0.462769
6.07703,-0.173263,0.47683,0.56633,-0.335418,1.95507,1.95002,0.53285,0.462316
6.08911,-0.176007,0.475262,0.566345,-0.335347,1.95507,1.95162,0.531742,0.462356
6.10119,-0.1785,0.473895,0.566357,-0.335349,1.95506,1.95315,0.530768,0.462307
6.11327,-0.181019,0.47256,0.566355,-0.335393,1.95505,1.95468,0.529766,0.462278
6.12535,-0.183534,0.471033,0.566345,-0.335382,1.95501,1.95643,0.528875,0.462307
6.13743,-0.186093,0.469463,0.566331,-0.335379,1.95501,1.95827,0.52785,0.462272
6.14952,-0.188607,0.467865,0.566317,-0.33537,1.95497,1.96017,0.52671,0.462345
6.1616,-0.19146,0.466065,0.566344,-0.335367,1.95492,1.96231,0.525213,0.462385
6.17368,-0.195093,0.463826,0.566309,-0.335358,1.95486,1.96502,0.523142,0.462428
6.18576,-0.197121,0.462631,0.566346,-0.335368,1.95482,1.96638,0.521993,0.46241
6.19784,-0.199187,0.46148,0.566375,-0.335334,1.95476,1.9677,0.52062,0.462453
6.20992,-0.201744,0.460095,0.566383,-0.335305,1.95467,1.96922,0.518815,0.462532
6.222,-0.205433,0.458112,0.566353,-0.335329,1.95452,1.97128,0.516199,0.46264
6.23409,-0.208633,0.456453,0.566326,-0.335376,1.95438,1.97305,0.513899,0.462882
6.24617,-0.211664,0.454907,0.566302,-0.335431,1.95423,1.97472,0.511709,0.463171
6.25825,-0.214127,0.45369,0.566304,-0.33542,1.95413,1.97622,0.509956,0.463428
6.27033,-0.216439,0.45256,0.566314,-0.335391,1.95403,1.97767,0.508319,0.463677
6.28241,-0.218088,0.451754,0.566321,-0.33537,1.95395,1.97871,0.507151,0.463854
6.29449,-0.221852,0.449846,0.566332,-0.335333,1.95357,1.98126,0.50351,0.464189
6.30658,-0.232246,0.444454,0.566329,-0.33526,1.95233,1.98818,0.49338,0.465164
6.31866,-0.236847,0.44183,0.566279,-0.335258,1.95144,1.99093,0.488889,0.465746
6.33074,-0.239758,0.440189,0.566285,-0.335189,1.95086,1.99267,0.486178,0.46626
6.34282,-0.242702,0.438447,0.566297,-0.33506,1.95022,1.99454,0.483245,0.466873
6.3549,-0.245691,0.43653,0.566312,-0.334859,1.94946,1.99657,0.479927,0.467597
6.36698,-0.248655,0.434483,0.566347,-0.334555,1.94852,1.99878,0.476272,0.468478
6.37906,-0.251724,0.432196,0.566366,-0.334103,1.94736,2.00117,0.472614,0.469474
6.39115,-0.25449,0.429903,0.5664,-0.333627,1.94616,2.00334,0.469407,0.470381
6.40323,-0.257212,0.427506,0.566439,-0.333073,1.94495,2.0055,0.466265,0.471306
6.41531,-0.261863,0.422636,0.566403,-0.331799,1.94229,2.0093,0.459247,0.472619
6.42739,-0.264138,0.41967,0.566358,-0.331118,1.94061,2.01123,0.455121,0.473407
6.43947,-0.266349,0.416413,0.566371,-0.330268,1.93863,2.01334,0.451068,0.474125
6.45155,-0.26815,0.413393,0.5664,-0.329361,1.93671,2.01519,0.447752,0.474672
6.46364,-0.26985,0.410187,0.56644,-0.328362,1.93477,2.01714,0.44447,0.475253
6.47572,-0.271475,0.406729,0.566417,-0.327225,1.93272,2.01918,0.440701,0.475943
6.4878,-0.272976,0.403115,0.566411,-0.326066,1.93059,2.02121,0.436799,0.476595
6.49988,-0.274877,0.397862,0.56638,-0.324252,1.92706,2.02418,0.43152,0.477635
6.51196,-0.276543,0.39266,0.566369,-0.322359,1.92339,2.02695,0.426722,0.478719
6.52404,-0.27751,0.388873,0.566405,-0.320926,1.92074,2.02867,0.423512,0.479442
6.53612,-0.278436,0.384397,0.566408,-0.319335,1.91776,2.03041,0.419755,0.480201
6.54821,-0.279062,0.381063,0.566403,-0.31816,1.91555,2.0316,0.416985,0.480712
6.56029,-0.279485,0.378842,0.566423,-0.317308,1.91401,2.03239,0.415122,0.481045
6.57237,-0.280123,0.375007,0.566437,-0.315778,1.91138,2.03375,0.412183,0.481612
6.58445,-0.281419,0.363935,0.566567,-0.31065,1.9036,2.03753,0.40463,0.483157
6.59653,-0.282038,0.357521,0.566682,-0.307427,1.89902,2.03969,0.399766,0.484005
6.60861,-0.282278,0.352458,0.566784,-0.305138,1.89539,2.04108,0.396171,0.484589
6.6207,-0.28236,0.347226,0.566802,-0.302889,1.892,2.04234,0.392875,0.485196
6.63278,-0.282394,0.342147,0.566862,-0.300856,1.88863,2.04342,0.389942,0.485887
6.64486,-0.282397,0.337201,0.566884,-0.29894,1.88533,2.04439,0.387175,0.486448
6.65694,-0.282441,0.331046,0.5669,-0.296357,1.88114,2.04544,0.383701,0.487244
6.66902,-0.282487,0.321896,0.567015,-0.29191,1.87474,2.0469,0.378248,0.488548
6.6811,-0.282478,0.317025,0.567173,-0.288982,1.87113,2.0476,0.375289,0.489241
6.69319,-0.282459,0.311545,0.56736,-0.285925,1.86738,2.04822,0.372565,0.489948
6.70527,-0.282419,0.305854,0.567594,-0.282961,1.86362,2.04882,0.370127,0.490608
6.71735,-0.282413,0.300453,0.567812,-0.280199,1.86004,2.04937,0.367769,0.491043
6.72943,-0.28244,0.294969,0.568001,-0.277441,1.85639,2.04992,0.365139,0.491308
6.74151,-0.282478,0.289604,0.568159,-0.274613,1.85286,2.05042,0.362479,0.491463
6.75359,-0.282499,0.284343,0.568245,-0.271475,1.84917,2.05095,0.359519,0.491614
6.76567,-0.282541,0.27515,0.56832,-0.26605,1.84294,2.05193,0.354924,0.491937
6.77776,-0.282603,0.268886,0.568366,-0.26264,1.83881,2.05261,0.352101,0.492239
6.78984,-0.282692,0.263614,0.568323,-0.259919,1.83524,2.05326,0.349991,0.492608
6.80192,-0.282835,0.258161,0.568239,-0.257172,1.83153,2.05409,0.347818,0.492852
6.814,-0.283008,0.253433,0.568256,-0.254437,1.82817,2.05489,0.345704,0.493005
6.82608,-0.28323,0.248895,0.56831,-0.251657,1.82496,2.05574,0.343641,0.493121
6.83816,-0.283525,0.244679,0.568384,-0.248898,1.8218,2.05663,0.341585,0.493124
6.85025,-0.283859,0.24029,0.568452,-0.24632,1.81886,2.05754,0.339583,0.493112
6.86233,-0.284104,0.237181,0.568492,-0.244472,1.81667,2.05828,0.33818,0.493175
6.87441,-0.28483,0.22746,0.568607,-0.239181,1.81006,2.06069,0.334355,0.493268
6.88649,-0.285322,0.221482,0.568686,-0.235802,1.80603,2.06233,0.33236,0.493224
6.89857,-0.285856,0.217026,0.568762,-0.233095,1.80298,2.0637,0.330864,0.49334
6.91065,-0.286436,0.212605,0.568743,-0.230268,1.7998,2.06515,0.329413,0.493373
6.92273,-0.28707,0.207858,0.568819,-0.227144,1.79643,2.06667,0.327824,0.493464
6.93482,-0.287712,0.203688,0.568889,-0.224546,1.79332,2.0682,0.326301,0.493559
6.9469,-0.288363,0.199967,0.568914,-0.222086,1.79025,2.06972,0.324718,0.493534
6.95898,-0.289241,0.19478,0.568923,-0.219079,1.78637,2.0719,0.322658,0.493532
6.97106,-0.290388,0.188064,0.568902,-0.215228,1.78133,2.07501,0.31996,0.493566
6.98314,-0.291118,0.183903,0.56892,-0.212775,1.7782,2.07731,0.31821,0.493551
6.99522,-0.291844,0.179842,0.568952,-0.210233,1.77511,2.07969,0.316567,0.493538
7.00731,-0.292526,0.176203,0.568983,-0.207988,1.77229,2.08198,0.31512,0.493527
7.01939,-0.293206,0.172803,0.568993,-0.205863,1.7695,2.08439,0.31382,0.493559
7.03147,-0.293916,0.169235,0.568939,-0.203848,1.7666,2.08682,0.312656,0.493584
7.04355,-0.294694,0.165616,0.568941,-0.201985,1.76367,2.08922,0.311476,0.493606
7.05563,-0.295507,0.162127,0.568904,-0.200204,1.76083,2.09165,0.31037,0.49359
7.06771,-0.297273,0.155472,0.568943,-0.196508,1.75532,2.09688,0.308228,0.493609
7.07979,-0.29835,0.151782,0.568984,-0.194132,1.75222,2.10009,0.306924,0.493634
7.09188,-0.299572,0.147861,0.569078,-0.191361,1.749,2.10344,0.305539,0.493608
7.10396,-0.300706,0.144728,0.569186,-0.188878,1.74602,2.10648,0.304285,0.493571
7.11604,-0.301881,0.141268,0.569264,-0.18646,1.74299,2.1095,0.302955,0.493531
7.12812,-0.303039,0.137782,0.569336,-0.184137,1.73992,2.11251,0.301584,0.493599
7.1402,-0.304152,0.134394,0.569397,-0.181992,1.73695,2.11549,0.300183,0.493583
7.15228,-0.305388,0.130544,0.569443,-0.179673,1.73363,2.11897,0.298658,0.493605
7.16437,-0.306907,0.125781,0.56946,-0.17684,1.7296,2.12313,0.296942,0.493622
7.17645,-0.307014,0.125461,0.569462,-0.176642,1.72932,2.1234,0.296834,0.493622
7.18853,-0.309988,0.117133,0.569585,-0.171162,1.72186,2.13051,0.294365,0.493584
7.20061,-0.311435,0.113462,0.569632,-0.168751,1.71834,2.13378,0.293404,0.493563
7.21269,-0.312746,0.110214,0.56965,-0.1668,1.71516,2.1369,0.292654,0.493567
7.22477,-0.314118,0.107051,0.569646,-0.164951,1.7119,2.13999,0.291792,0.493581
7.23686,-0.316005,0.103192,0.569672,-0.162725,1.7076,2.14396,0.290787,0.493574
7.24894,-0.318498,0.0979587,0.569688,-0.160045,1.70212,2.14865,0.289508,0.493594
7.26102,-0.320132,0.0948264,0.569694,-0.15848,1.69882,2.15138,0.288697,0.493576
7.2731,-0.321842,0.0917635,0.569713,-0.156887,1.69554,2.15422,0.287813,0.49355
7.28518,-0.323638,0.0887044,0.569778,-0.155287,1.69222,2.15706,0.28691,0.493539
7.29726,-0.325462,0.0856074,0.569817,-0.153713,1.68892,2.15975,0.285912,0.493565
7.30935,-0.327392,0.0824999,0.569811,-0.151975,1.68537,2.16257,0.284853,0.493565
7.32143,-0.329176,0.0794083,0.569868,-0.150385,1.68209,2.16501,0.28387,0.493543
7.33351,-0.330913,0.076148,0.569869,-0.148888,1.67877,2.16729,0.282782,0.493594
7.34559,-0.334132,0.0699776,0.569784,-0.146374,1.67245,2.17159,0.280559,0.493635
7.35767,-0.335821,0.06685,0.569759,-0.145133,1.66913,2.17388,0.279366,0.493614
7.36975,-0.337457,0.0637859,0.569763,-0.1439,1.66571,2.17618,0.278374,0.49364
7.38183,-0.339126,0.0608873,0.569835,-0.14282,1.66232,2.17845,0.277407,0.493626
7.39392,-0.340831,0.058046,0.569848,-0.141735,1.65887,2.1807,0.276535,0.493646
7.406,-0.342604,0.0553006,0.569861,-0.140588,1.65541,2.18289,0.275704,0.493599
7.41808,-0.344307,0.0523125,0.569879,-0.139392,1.6519,2.18494,0.275004,0.493593
7.43016,-0.345936,0.0494268,0.569874,-0.13819,1.64849,2.18683,0.274321,0.493599
7.44224,-0.3485,0.0448144,0.569842,-0.136108,1.64292,2.18978,0.273476,0.493604
7.45432,-0.350465,0.0411919,0.569842,-0.134462,1.63858,2.19208,0.272799,0.493583
7.4664,-0.35135,0.0395047,0.569856,-0.133693,1.63659,2.19315,0.272408,0.493563
7.47849,-0.352379,0.0373954,0.569844,-0.132656,1.63407,2.19437,0.272062,0.493574
7.49057,-0.356037,0.0297641,0.569804,-0.128959,1.625,2.19873,0.270796,0.493603
7.50265,-0.357505,0.0263391,0.569782,-0.1275,1.621,2.20043,0.270254,0.493596
7.51473,-0.358926,0.0229931,0.56976,-0.126174,1.617,2.20203,0.269783,0.493583
7.52681,-0.360331,0.0196351,0.569767,-0.124847,1.61294,2.20355,0.269261,0.49357
7.53889,-0.361706,0.016369,0.569779,-0.12345,1.60879,2.20494,0.268702,0.493579
7.55098,-0.363097,0.0131148,0.5698,-0.122022,1.60457,2.20623,0.268121,0.493583
7.56306,-0.365418,0.00765129,0.569862,-0.119237,1.59705,2.2084,0.267057,0.493596
7.57514,-0.366989,0.00366769,0.5699,-0.117137,1.59166,2.20997,0.266276,0.493539
7.58722,-0.36811,0.000327544,0.569893,-0.115218,1.58727,2.21125,0.265783,0.493538
7.5993,-0.369229,-0.00295133,0.569892,-0.11326,1.58309,2.21251,0.265106,0.493539
7.61138,-0.370263,-0.00647795,0.56991,-0.111172,1.57835,2.21391,0.264423,0.49345
7.62347,-0.371127,-0.00999969,0.569831,-0.10929,1.57428,2.21518,0.263855,0.493532
7.63555,-0.371704,-0.0125419,0.569822,-0.107982,1.57129,2.2161,0.263395,0.493487
7.64763,-0.372279,-0.0151015,0.569798,-0.106662,1.56823,2.21708,0.262923,0.493539
7.65971,-0.373077,-0.0187983,0.569772,-0.104806,1.56379,2.21846,0.262371,0.493575
7.67179,-0.374094,-0.0235961,0.569748,-0.102431,1.55802,2.22022,0.261743,0.493575
7.68387,-0.37512,-0.0284797,0.569757,-0.0996001,1.55167,2.22206,0.260818,0.493529
7.69595,-0.375717,-0.031547,0.569789,-0.0976581,1.54765,2.22321,0.260315,0.493532
7.70804,-0.376165,-0.0341888,0.569843,-0.0957366,1.54415,2.22419,0.25998,0.493543
7.72012,-0.376751,-0.0380649,0.569941,-0.0926134,1.53899,2.22565,0.259576,0.493508
7.7322,-0.37735,-0.0424372,0.569992,-0.0891703,1.53322,2.22733,0.259055,0.493461
7.74428,-0.377937,-0.0471661,0.569996,-0.0855171,1.52701,2.22918,0.258457,0.493397
7.75636,-0.378186,-0.0505784,0.569939,-0.0829734,1.52244,2.23058,0.258264,0.493261
7.76844,-0.378436,-0.0539907,0.569882,-0.0804298,1.51787,2.23198,0.258071,0.493125
7.78053,-0.37861,-0.0577149,0.569868,-0.0776167,1.51321,2.23358,0.257958,0.492885
7.79261,-0.378844,-0.0682906,0.569927,-0.0691775,1.50052,2.23801,0.25743,0.492134
7.80469,-0.378917,-0.0720727,0.569904,-0.0663237,1.4959,2.23976,0.257116,0.492039
7.81677,-0.378951,-0.0758057,0.569897,-0.0635317,1.49141,2.24135,0.256843,0.491884
7.82885,-0.378966,-0.0802421,0.569853,-0.0602039,1.48583,2.24336,0.256653,0.491744
7.84093,-0.378985,-0.0869363,0.569895,-0.0547231,1.47716,2.24645,0.256498,0.491503
7.85302,-0.378994,-0.0901731,0.56993,-0.0515461,1.47252,2.24821,0.256437,0.491305
7.8651,-0.379025,-0.0936393,0.569956,-0.0485025,1.46779,2.25004,0.256467,0.491075
7.87718,-0.379063,-0.0971293,0.569922,-0.0456674,1.46292,2.25196,0.256511,0.490794
7.88926,-0.379116,-0.100372,0.56993,-0.0430423,1.45834,2.25385,0.256465,0.490498
7.90134,-0.379165,-0.103561,0.569932,-0.0405143,1.45392,2.25572,0.256454,0.490153
7.91342,-0.379211,-0.106681,0.569911,-0.0380528,1.44965,2.25743,0.256414,0.489708
7.9255,-0.379272,-0.110102,0.569932,-0.035197,1.44523,2.25923,0.256388,0.489068
7.93759,-0.379442,-0.115717,0.569929,-0.0304672,1.43759,2.26218,0.256407,0.487741
7.94967,-0.379534,-0.119267,0.569881,-0.0277986,1.43295,2.26381,0.256433,0.486987
7.96175,-0.379625,-0.122472,0.569843,-0.0256015,1.42892,2.26529,0.256434,0.486231
7.97383,-0.379708,-0.125511,0.569828,-0.0234897,1.42497,2.26665,0.256432,0.485632
7.98591,-0.379828,-0.128451,0.569821,-0.0213181,1.42109,2.26808,0.256437,0.485147
7.99799,-0.379963,-0.131403,0.569877,-0.0190801,1.41715,2.26964,0.256494,0.484712
8.01008,-0.380092,-0.134019,0.569931,-0.0167986,1.41357,2.27107,0.25647,0.484263
8.02216,-0.380241,-0.136478,0.570014,-0.0143807,1.40999,2.27246,0.256406,0.483772
8.03424,-0.380416,-0.139834,0.570052,-0.0110812,1.40522,2.27437,0.256402,0.482798
8.04632,-0.380567,-0.143764,0.570043,-0.007679,1.40027,2.27632,0.25641,0.481561
8.0584,-0.38063,-0.14506,0.569996,-0.00669549,1.39877,2.27693,0.25641,0.481022
8.07048,-0.380675,-0.145972,0.569964,-0.00600398,1.39772,2.27735,0.25641,0.480644
8.08256,-0.380852,-0.14966,0.569922,-0.00321807,1.39343,2.27893,0.25641,0.478714
8.09465,-0.381201,-0.156783,0.569878,0.00220555,1.38526,2.28187,0.256431,0.474916
8.10673,-0.381359,-0.159639,0.569928,0.00460662,1.38212,2.28292,0.256445,0.473146
8.11881,-0.381505,-0.162276,0.569959,0.0070222,1.37913,2.28392,0.25644,0.471417
8.13089,-0.381682,-0.164806,0.569941,0.00927959,1.37613,2.28488,0.256461,0.469767
8.14297,-0.381872,-0.167141,0.569945,0.011465,1.37297,2.28586,0.256478,0.468194
8.15505,-0.382175,-0.171356,0.569924,0.0149236,1.36742,2.28765,0.256463,0.465819
8.16714,-0.382391,-0.17436,0.569874,0.0172226,1.36356,2.28883,0.256489,0.464217
8.17922,-0.382594,-0.177069,0.569913,0.0192199,1.36018,2.28989,0.256448,0.462798
8.1913,-0.382774,-0.17953,0.569964,0.0210558,1.35723,2.29081,0.256422,0.461184
8.20338,-0.383008,-0.181972,0.569976,0.0230129,1.35423,2.29169,0.256436,0.459445
8.21546,-0.38325,-0.184362,0.56998,0.0249235,1.35129,2.29262,0.256462,0.457743
8.22754,-0.383562,-0.18644,0.569995,0.0267859,1.34843,2.29352,0.256477,0.456087
8.23962,-0.383877,-0.188397,0.569976,0.0282809,1.34596,2.29432,0.256458,0.454483
8.25171,-0.384145,-0.190051,0.569957,0.0294911,1.34393,2.29493,0.256476,0.453106
8.26379,-0.38457,-0.192793,0.56992,0.0313588,1.34061,2.29588,0.256488,0.45092
8.27587,-0.384995,-0.195453,0.569896,0.033107,1.33737,2.2968,0.256494,0.44885
8.28795,-0.385427,-0.197592,0.569904,0.0344656,1.33461,2.29756,0.256494,0.447342
8.30003,-0.386183,-0.200682,0.569904,0.0365103,1.33045,2.29858,0.256494,0.4454
8.31211,-0.386606,-0.202169,0.569912,0.0376067,1.32836,2.29899,0.256459,0.444547
8.3242,-0.387238,-0.204194,0.569964,0.0393028,1.32529,2.29955,0.25645,0.443301
8.33628,-0.387993,-0.206556,0.570039,0.0413696,1.32165,2.3002,0.256456,0.441814
8.34836,-0.388591,-0.208539,0.570077,0.0431817,1.31888,2.30069,0.256437,0.440631
8.36044,-0.389112,-0.210321,0.570106,0.0447927,1.31641,2.30113,0.256416,0.439549
8.37252,-0.389342,-0.211335,0.5701,0.045639,1.31505,2.30137,0.256392,0.438852
8.3846,-0.389835,-0.213831,0.570039,0.0474668,1.31173,2.30199,0.256398,0.436864
8.39669,-0.3908,-0.219309,0.569871,0.05119,1.30435,2.30345,0.256483,0.432087
8.40877,-0.39127,-0.222308,0.569818,0.0531877,1.29989,2.30451,0.256515,0.429175
8.42085,-0.391619,-0.224013,0.569872,0.054429,1.29695,2.30535,0.256511,0.427663
8.43293,-0.391991,-0.225738,0.569916,0.0557318,1.29409,2.30617,0.256478,0.426369
8.44501,-0.392401,-0.227442,0.56996,0.0572614,1.29123,2.30705,0.256434,0.425169
8.45709,-0.392841,-0.229296,0.569996,0.0590427,1.28833,2.30811,0.256467,0.423957
8.46917,-0.393218,-0.231115,0.570044,0.0608657,1.28561,2.30916,0.256464,0.422778
8.48126,-0.393656,-0.234601,0.570079,0.0643037,1.28102,2.31122,0.256448,0.420427
8.49334,-0.393802,-0.237049,0.570051,0.0665556,1.27795,2.31269,0.256478,0.418787
8.50542,-0.393809,-0.238932,0.569967,0.0683137,1.27539,2.31395,0.256459,0.41711
8.5175,-0.393822,-0.241235,0.569962,0.070113,1.27249,2.31536,0.256518,0.414876
8.52958,-0.39384,-0.243198,0.569913,0.0716196,1.27001,2.3167,0.256523,0.412718
8.54166,-0.393887,-0.245096,0.569902,0.073048,1.26765,2.31796,0.256499,0.410623
8.55375,-0.393909,-0.246889,0.569936,0.0744218,1.26542,2.31924,0.256559,0.408727
8.56583,-0.393917,-0.248581,0.569945,0.0757506,1.26326,2.32046,0.25652,0.407082
8.57791,-0.393892,-0.250807,0.569996,0.0777191,1.26032,2.32213,0.256461,0.40514
8.58999,-0.393834,-0.253294,0.570035,0.0801188,1.25706,2.32395,0.256475,0.403141
8.60207,-0.393796,-0.254868,0.570061,0.0818744,1.25492,2.32518,0.256491,0.401765
8.61415,-0.393786,-0.256365,0.570072,0.0835282,1.25292,2.32634,0.256476,0.400393
8.62624,-0.393772,-0.257816,0.570085,0.085048,1.25108,2.32749,0.256516,0.399018
8.63832,-0.393754,-0.259262,0.570089,0.0864949,1.24925,2.32867,0.25652,0.397484
8.6504,-0.393749,-0.260256,0.570076,0.087409,1.24803,2.32948,0.256509,0.396291
8.66248,-0.393749,-0.260959,0.570064,0.0880199,1.2472,2.33007,0.256515,0.395362
8.67456,-0.393734,-0.263468,0.569998,0.0900753,1.2441,2.33252,0.256502,0.391693
8.68664,-0.393733,-0.265386,0.569964,0.0917091,1.24159,2.33452,0.256548,0.388809
8.69872,-0.393753,-0.266328,0.569948,0.092609,1.24017,2.33576,0.25653,0.387322
8.71081,-0.39377,-0.26719,0.56994,0.0934153,1.23881,2.33691,0.256578,0.38604
8.72289,-0.393756,-0.268488,0.57001,0.094821,1.23645,2.33891,0.256613,0.383898
8.73497,-0.39374,-0.269358,0.570085,0.0959061,1.2347,2.34029,0.256594,0.382318
8.74705,-0.393727,-0.270022,0.570074,0.0968462,1.23344,2.34135,0.2566,0.381056
8.75913,-0.393702,-0.270671,0.570048,0.0977579,1.23222,2.34234,0.256601,0.379964
8.77121,-0.393675,-0.271298,0.570057,0.0986888,1.23114,2.34324,0.256603,0.378877
8.7833,-0.393623,-0.272029,0.57002,0.0997709,1.23001,2.34429,0.256631,0.377552
8.79538,-0.393575,-0.27257,0.570069,0.100741,1.229,2.34523,0.256589,0.376273
8.80746,-0.393513,-0.273273,0.570056,0.102035,1.22784,2.34642,0.256609,0.374489
8.81954,-0.393417,-0.274177,0.570048,0.103821,1.22635,2.34805,0.256648,0.372086
8.83162,-0.393386,-0.27461,0.570042,0.104864,1.22549,2.34898,0.25662,0.370673
8.8437,-0.393366,-0.274998,0.570023,0.105857,1.22467,2.34989,0.25664,0.369352
8.85579,-0.393358,-0.275406,0.570019,0.106799,1.22387,2.35082,0.256654,0.367979
8.86787,-0.393346,-0.275714,0.569998,0.107591,1.22306,2.35166,0.256649,0.366746
8.87995,-0.393351,-0.275857,0.570006,0.108355,1.22237,2.35241,0.256612,0.365622
8.89203,-0.393354,-0.275928,0.570022,0.108972,1.2217,2.35309,0.256651,0.36446
8.90411,-0.393354,-0.275928,0.570033,0.109592,1.22104,2.35373,0.256661,0.363283
8.91619,-0.393344,-0.275926,0.570055,0.1101,1.22041,2.35426,0.256661,0.362352
8.92827,-0.393342,-0.275885,0.570039,0.110859,1.21922,2.35519,0.256734,0.360206
8.94036,-0.393342,-0.275867,0.570036,0.111229,1.21855,2.35567,0.256745,0.358772
8.95244,-0.393337,-0.275866,0.570025,0.11142,1.21825,2.35585,0.256773,0.358104
8.96452,-0.393331,-0.275866,0.570013,0.111604,1.21796,2.35602,0.256803,0.357476
8.9766,-0.393342,-0.275889,0.569989,0.112074,1.21726,2.35638,0.256828,0.356026
8.98868,-0.393365,-0.275843,0.570023,0.112867,1.21564,2.35722,0.256934,0.352598
9.00076,-0.393378,-0.275866,0.569988,0.113273,1.21496,2.35745,0.256925,0.35118
9.01285,-0.393366,-0.275844,0.570024,0.113687,1.21436,2.3576,0.256893,0.350205
9.02493,-0.393367,-0.275877,0.570022,0.114119,1.21375,2.35773,0.256976,0.349215
9.03701,-0.393375,-0.275865,0.570003,0.114564,1.21314,2.3578,0.257006,0.348262
9.04909,-0.39335,-0.275854,0.570028,0.115336,1.21227,2.35787,0.256991,0.34698
9.06117,-0.393328,-0.275862,0.570045,0.115773,1.21181,2.35788,0.257016,0.346298
9.07325,-0.393315,-0.275884,0.570045,0.116196,1.21137,2.35788,0.257,0.345611
9.08533,-0.393302,-0.27587,0.570068,0.116619,1.21105,2.35786,0.257016,0.344965
9.09742,-0.39329,-0.27587,0.57006,0.117128,1.21078,2.35788,0.257004,0.344244
9.1095,-0.393282,-0.275873,0.570046,0.117623,1.21045,2.35788,0.256972,0.343518
9.12158,-0.393292,-0.275902,0.570044,0.118318,1.20999,2.35787,0.257019,0.342493
9.13366,-0.393288,-0.275902,0.570041,0.119152,1.20952,2.35789,0.257002,0.341248
9.14574,-0.393256,-0.275902,0.570019,0.11979,1.20933,2.35788,0.256995,0.340221
9.15782,-0.393238,-0.275869,0.570057,0.12039,1.20919,2.35789,0.257034,0.339116
9.1699,-0.393225,-0.275873,0.570053,0.121005,1.20914,2.35789,0.257018,0.338065
9.18199,-0.393202,-0.275908,0.570058,0.121671,1.2091,2.3579,0.256979,0.336909
9.19407,-0.393198,-0.275924,0.57007,0.122298,1.20909,2.3579,0.257045,0.33562
9.20615,-0.393188,-0.275905,0.570061,0.12294,1.20907,2.35788,0.257025,0.334212
9.21823,-0.393197,-0.275913,0.570049,0.123591,1.20902,2.3579,0.256977,0.332871
9.23031,-0.393198,-0.275878,0.570012,0.124598,1.209,2.35789,0.257057,0.330111
9.24239,-0.393211,-0.275914,0.570011,0.125035,1.20903,2.35788,0.256987,0.328858
9.25448,-0.393217,-0.27592,0.569999,0.125272,1.20902,2.35788,0.257011,0.32828
9.26656,-0.393222,-0.275926,0.569988,0.125484,1.20902,2.35788,0.257033,0.327764
9.27864,-0.393224,-0.275926,0.56999,0.125692,1.20902,2.35788,0.257033,0.326901
9.29072,-0.393238,-0.275923,0.570006,0.126642,1.20901,2.35788,0.257036,0.322836
9.3028,-0.393246,-0.275914,0.570015,0.126837,1.209,2.35788,0.257036,0.321507
9.31488,-0.393246,-0.275909,0.569995,0.126993,1.209,2.35791,0.257016,0.320164
9.32697,-0.393246,-0.275919,0.570017,0.127224,1.209,2.35789,0.25705,0.318736
9.33905,-0.393253,-0.275945,0.570034,0.127466,1.209,2.35788,0.257066,0.317272
9.35113,-0.393251,-0.275935,0.570024,0.127652,1.209,2.35789,0.257052,0.315811
9.36321,-0.393246,-0.275918,0.570032,0.127788,1.20903,2.35789,0.257065,0.314413
9.37529,-0.393246,-0.275914,0.570026,0.127886,1.20903,2.35788,0.25705,0.313028
9.38737,-0.393246,-0.275883,0.570003,0.127916,1.20902,2.35787,0.257045,0.310668
9.39946,-0.393246,-0.275912,0.570034,0.127906,1.20903,2.35788,0.257045,0.309569
9.41154,-0.393246,-0.27595,0.570083,0.12787,1.20905,2.35787,0.257045,0.308538
9.42362,-0.393233,-0.275938,0.570037,0.12788,1.20901,2.35787,0.257044,0.307664
9.4357,-0.393222,-0.275936,0.570048,0.127869,1.20903,2.35784,0.257031,0.306962
9.44778,-0.393215,-0.275919,0.570054,0.127866,1.20901,2.35783,0.257021,0.306129
9.45986,-0.393194,-0.275906,0.570067,0.127844,1.209,2.35785,0.256999,0.305296
9.47194,-0.393186,-0.275914,0.570069,0.127851,1.209,2.35787,0.25698,0.304533
9.48403,-0.393186,-0.275919,0.570073,0.127872,1.209,2.35786,0.257025,0.303522
9.49611,-0.393186,-0.27592,0.570047,0.127889,1.209,2.35785,0.257064,0.302464
9.50819,-0.393186,-0.275907,0.570036,0.127922,1.20902,2.35784,0.257046,0.30187
9.52027,-0.393202,-0.275902,0.570036,0.127925,1.20902,2.35782,0.257036,0.301263
9.53235,-0.393202,-0.27591,0.570061,0.127921,1.20902,2.35782,0.257028,0.3006
9.54443,-0.393198,-0.275905,0.570036,0.127899,1.20901,2.35783,0.257003,0.299975
9.55652,-0.393192,-0.275902,0.570018,0.127899,1.209,2.35782,0.257003,0.29959
9.5686,-0.393186,-0.275902,0.570012,0.127905,1.209,2.35781,0.257009,0.299338
9.58068,-0.393186,-0.275905,0.570014,0.127903,1.209,2.3578,0.257011,0.298875
9.59276,-0.393189,-0.275914,0.570026,0.127888,1.20899,2.35776,0.257024,0.296976
9.60484,-0.393201,-0.275908,0.570033,0.127882,1.20899,2.35773,0.257036,0.296388
9.61692,-0.393214,-0.27589,0.570031,0.127925,1.20899,2.35771,0.257041,0.29587
9.629,-0.393222,-0.275899,0.570038,0.127927,1.209,2.3577,0.257052,0.295402
9.64109,-0.393222,-0.275897,0.570035,0.127916,1.20901,2.35763,0.257042,0.294909
9.65317,-0.393229,-0.275897,0.570041,0.127929,1.209,2.35756,0.257003,0.294403
9.66525,-0.393234,-0.275914,0.570006,0.127951,1.20899,2.35749,0.257002,0.293907
9.67733,-0.393226,-0.275881,0.570021,0.127949,1.209,2.35731,0.25703,0.293251
