timestamp,ArmL1_Cla1,ArmL2_Sho1,ArmL3_Sho2,ArmL4_Sho3,ArmL5_Elb1,ArmL6_Elb2,ArmL7_Wri1,ArmL8_Wri2
0,0.0395203,0.67595,0.219923,0.178907,1.45175,0.0508076,0.133945,0.327414
0.013136,0.039756,0.679443,0.221599,0.178909,1.4554,0.0511344,0.133939,0.330154
0.0262719,0.0400431,0.683534,0.223591,0.17891,1.45967,0.051515,0.133933,0.333314
0.0394079,0.0403863,0.688211,0.225904,0.178909,1.46457,0.0519481,0.133928,0.336863
0.0525438,0.0407904,0.693439,0.228539,0.178906,1.47005,0.0524306,0.133923,0.340753
0.0656798,0.0412598,0.699163,0.231485,0.178901,1.47607,0.0529582,0.13392,0.34492
0.0788157,0.041799,0.705314,0.234728,0.178893,1.48256,0.0535255,0.133918,0.349293
0.0919517,0.0424127,0.711816,0.238249,0.178883,1.48946,0.0541272,0.133917,0.353795
0.105088,0.0431059,0.718588,0.242027,0.17887,1.49668,0.0547582,0.133917,0.358355
0.118224,0.0438839,0.725555,0.24604,0.178854,1.50415,0.055414,0.133918,0.362907
0.13136,0.0447523,0.732645,0.25027,0.178835,1.51182,0.0560908,0.133919,0.367395
0.144496,0.0457168,0.739798,0.254698,0.178812,1.51963,0.0567856,0.133922,0.371779
0.157631,0.0467831,0.746963,0.259311,0.178784,1.52753,0.0574963,0.133927,0.376026
0.170767,0.0479567,0.754096,0.264096,0.178749,1.53551,0.0582213,0.133932,0.38012
0.183903,0.0492425,0.761163,0.269044,0.178705,1.54353,0.0589589,0.13394,0.384052
0.197039,0.0506448,0.768138,0.274146,0.178649,1.55157,0.059708,0.13395,0.387823
0.210175,0.0521674,0.774999,0.279396,0.178578,1.55963,0.060467,0.133963,0.391438
0.223311,0.0538131,0.781727,0.284789,0.178489,1.56769,0.0612344,0.13398,0.39491
0.236447,0.0555844,0.78831,0.290319,0.178376,1.57575,0.0620083,0.134002,0.398253
0.249583,0.0574827,0.794736,0.295982,0.178233,1.5838,0.0627868,0.134031,0.401483
0.262719,0.0595089,0.800996,0.301774,0.178053,1.59184,0.0635678,0.13407,0.404619
0.275855,0.0616629,0.807086,0.307691,0.177827,1.59988,0.0643492,0.134123,0.407681
0.288991,0.0639439,0.813001,0.313728,0.177545,1.6079,0.065129,0.134198,0.41069
0.302127,0.0663499,0.81874,0.319879,0.177196,1.61591,0.0659052,0.134303,0.413664
0.315263,0.0688782,0.8243,0.326137,0.176767,1.6239,0.0666756,0.134449,0.416626
0.328399,0.0715254,0.829685,0.332494,0.176244,1.63188,0.0674385,0.134651,0.419597
0.341535,0.0742879,0.834894,0.338941,0.175614,1.63985,0.0681921,0.134927,0.422596
0.354671,0.0771621,0.839933,0.34547,0.17486,1.6478,0.0689346,0.135299,0.425643
0.367807,0.0801446,0.844807,0.352071,0.173969,1.65574,0.0696647,0.135791,0.428759
0.380943,0.0832326,0.849523,0.358736,0.172925,1.66366,0.070381,0.136426,0.43196
0.394079,0.0864237,0.854093,0.36546,0.171717,1.67158,0.0710823,0.137233,0.435264
0.407215,0.0897158,0.858525,0.372234,0.170333,1.67949,0.0717678,0.138237,0.438685
0.420351,0.093107,0.862831,0.379054,0.168765,1.6874,0.0724363,0.139462,0.442234
0.433487,0.0965945,0.867025,0.385912,0.167006,1.69531,0.073087,0.14093,0.445921
0.446623,0.100176,0.871117,0.392802,0.165055,1.70321,0.0737187,0.14266,0.449752
0.459758,0.103846,0.875118,0.399718,0.16291,1.7111,0.0743302,0.144668,0.45373
0.472894,0.107603,0.879037,0.406652,0.160573,1.71898,0.0749198,0.146965,0.457857
0.48603,0.111442,0.882884,0.413597,0.158046,1.72684,0.0754859,0.149561,0.46213
0.499166,0.115359,0.886667,0.420547,0.155335,1.73467,0.0760264,0.152463,0.466548
0.512302,0.119349,0.890394,0.4275,0.152442,1.74246,0.076539,0.155674,0.471106
0.525438,0.123411,0.894073,0.434452,0.149371,1.75022,0.0770215,0.159198,0.4758
0.538574,0.127541,0.897712,0.441402,0.146128,1.75795,0.0774714,0.163033,0.480624
0.55171,0.131736,0.901316,0.448347,0.142715,1.76563,0.0778866,0.167175,0.485568
0.564846,0.13599,0.904891,0.455285,0.13914,1.77327,0.078265,0.171618,0.490622
0.577982,0.140299,0.908439,0.46221,0.135408,1.78087,0.0786051,0.176351,0.495772
0.591118,0.144653,0.911963,0.469117,0.13153,1.78842,0.078906,0.181357,0.501
0.604254,0.149045,0.91546,0.475993,0.127514,1.79591,0.0791675,0.186616,0.506284
0.61739,0.153461,0.918926,0.482825,0.123375,1.80333,0.0793903,0.192108,0.511601
0.630526,0.15789,0.922356,0.489599,0.119125,1.81068,0.0795761,0.197806,0.516923
0.643662,0.162318,0.925745,0.4963,0.114778,1.81794,0.0797275,0.203686,0.522225
0.656798,0.166732,0.929084,0.502912,0.110346,1.82511,0.0798479,0.209724,0.52748
0.669934,0.171122,0.932368,0.509423,0.105841,1.83219,0.0799411,0.215898,0.532664
0.68307,0.175478,0.935591,0.515826,0.101271,1.83918,0.0800114,0.222191,0.537754
0.696206,0.179791,0.938748,0.522116,0.0966436,1.84609,0.0800627,0.228589,0.542734
0.709342,0.184056,0.941837,0.52829,0.0919624,1.85293,0.0800991,0.235084,0.54759
0.722478,0.188271,0.944856,0.534351,0.0872298,1.85971,0.0801239,0.24167,0.552312
0.735614,0.192431,0.947804,0.540304,0.0824473,1.86645,0.0801402,0.248344,0.556895
0.74875,0.196536,0.95068,0.546155,0.0776164,1.87317,0.0801503,0.255104,0.561335
0.761886,0.200584,0.953484,0.551909,0.0727396,1.87989,0.080156,0.261947,0.565631
0.775021,0.204571,0.956214,0.557572,0.0678207,1.88661,0.0801588,0.268868,0.569784
0.788157,0.208494,0.958871,0.563147,0.0628652,1.89336,0.0801597,0.27586,0.573794
0.801293,0.212349,0.961452,0.568637,0.0578794,1.90013,0.0801594,0.282912,0.577663
0.814429,0.216132,0.963957,0.574045,0.0528693,1.90693,0.0801584,0.290013,0.581392
0.827565,0.219839,0.966387,0.579376,0.0478395,1.91376,0.0801573,0.29715,0.584984
0.840701,0.223469,0.968742,0.584636,0.0427918,1.92063,0.080156,0.304316,0.588443
0.853837,0.22702,0.971026,0.589833,0.0377244,1.92755,0.0801549,0.311501,0.591772
0.866973,0.230496,0.973245,0.594979,0.0326318,1.93452,0.0801539,0.318702,0.594977
0.880109,0.233899,0.975404,0.600088,0.0275053,1.94154,0.0801531,0.325915,0.598064
0.893245,0.237233,0.97751,0.605176,0.0223347,1.94864,0.0801522,0.33314,0.601035
0.906381,0.240501,0.979569,0.610258,0.0171092,1.9558,0.0801512,0.340373,0.603893
0.919517,0.243706,0.981589,0.615348,0.0118192,1.96304,0.0801499,0.347606,0.606639
0.932653,0.246849,0.983573,0.620456,0.00645756,1.97035,0.0801481,0.35483,0.609269
0.945789,0.249928,0.985524,0.62559,0.00102015,1.97772,0.0801458,0.362028,0.611777
0.958925,0.252939,0.987445,0.630757,-0.00449424,1.98514,0.0801429,0.369178,0.614155
0.972061,0.255876,0.989335,0.635959,-0.0100844,1.9926,0.0801395,0.376255,0.616394
0.985197,0.258734,0.991193,0.641198,-0.0157475,2.00007,0.0801357,0.383231,0.618481
0.998333,0.261504,0.99302,0.646478,-0.0214801,2.00754,0.0801317,0.390077,0.620408
1.01147,0.264181,0.994813,0.651803,-0.0272792,2.01501,0.0801278,0.396761,0.622165
1.0246,0.266759,0.996572,0.657176,-0.0331423,2.02245,0.0801241,0.403254,0.623746
1.03774,0.269232,0.998296,0.662604,-0.0390673,2.02986,0.0801209,0.409525,0.625148
1.05088,0.271595,0.999985,0.668095,-0.0450519,2.03724,0.0801183,0.415544,0.626371
1.06401,0.273843,1.00164,0.673655,-0.051093,2.04459,0.0801164,0.421277,0.627419
1.07715,0.275973,1.00325,0.679289,-0.0571852,2.05189,0.0801152,0.426693,0.6283
1.09028,0.277979,1.00483,0.685,-0.0633208,2.05916,0.0801146,0.431758,0.629023
1.10342,0.279856,1.00637,0.690788,-0.0694899,2.06638,0.0801147,0.436436,0.629604
1.11656,0.281598,1.00786,0.696652,-0.0756811,2.07355,0.0801151,0.440698,0.630055
1.12969,0.283201,1.00931,0.702589,-0.0818829,2.08065,0.080116,0.444517,0.630392
1.14283,0.28466,1.01071,0.708596,-0.0880857,2.08769,0.0801172,0.447873,0.630629
1.15596,0.285974,1.01205,0.714672,-0.0942828,2.09465,0.0801187,0.450757,0.630782
1.1691,0.287141,1.01334,0.720817,-0.100471,2.10154,0.0801204,0.453172,0.630859
1.18224,0.288164,1.01458,0.727034,-0.106652,2.10835,0.0801222,0.455129,0.630871
1.19537,0.289047,1.01575,0.733328,-0.112828,2.1151,0.0801242,0.456651,0.630821
1.20851,0.289798,1.01686,0.739703,-0.119006,2.12179,0.0801263,0.457766,0.630712
1.22164,0.290424,1.01791,0.746163,-0.125191,2.12843,0.0801281,0.458504,0.630543
1.23478,0.290937,1.01889,0.752711,-0.131389,2.13502,0.0801297,0.458895,0.630308
1.24792,0.291347,1.01979,0.759346,-0.137603,2.14157,0.0801307,0.458964,0.63
1.26105,0.291668,1.02061,0.766067,-0.143836,2.14808,0.080131,0.458731,0.629605
1.27419,0.29191,1.02135,0.77287,-0.150089,2.15455,0.0801304,0.458206,0.629109
1.28732,0.292085,1.02199,0.779751,-0.156362,2.16099,0.0801285,0.457392,0.628493
1.30046,0.292205,1.02255,0.786703,-0.162658,2.16739,0.0801253,0.456285,0.627735
1.3136,0.292278,1.02302,0.79372,-0.168976,2.17376,0.0801205,0.454876,0.626808
1.32673,0.292314,1.02341,0.800799,-0.175319,2.18008,0.0801141,0.453153,0.625684
1.33987,0.292317,1.0237,0.807931,-0.181686,2.18637,0.0801059,0.451102,0.624328
1.353,0.292294,1.02392,0.815113,-0.188081,2.19262,0.0800958,0.448711,0.622706
1.36614,0.292247,1.02406,0.822339,-0.194501,2.19884,0.0800837,0.44597,0.62078
1.37928,0.292175,1.02413,0.829602,-0.200946,2.20503,0.0800695,0.442872,0.618514
1.39241,0.292078,1.02413,0.836897,-0.207412,2.21118,0.080053,0.439415,0.61587
1.40555,0.291953,1.02407,0.844214,-0.213891,2.21731,0.0800341,0.435599,0.612817
1.41868,0.291796,1.02394,0.851545,-0.220375,2.2234,0.0800127,0.431434,0.609327
1.43182,0.2916,1.02375,0.858876,-0.226852,2.22947,0.0799887,0.426929,0.605381
1.44496,0.291359,1.02349,0.866194,-0.233306,2.2355,0.0799619,0.422103,0.600968
1.45809,0.291066,1.02315,0.873479,-0.239722,2.2415,0.0799326,0.416979,0.596088
1.47123,0.290713,1.02274,0.880715,-0.246082,2.24745,0.0799009,0.411582,0.590752
1.48436,0.290292,1.02224,0.887881,-0.252369,2.25334,0.0798673,0.405944,0.584978
1.4975,0.289796,1.02164,0.894959,-0.25857,2.25916,0.0798321,0.400096,0.578794
1.51064,0.289218,1.02095,0.901933,-0.264674,2.26492,0.0797962,0.39407,0.57223
1.52377,0.28855,1.02015,0.908794,-0.270679,2.27059,0.0797603,0.387895,0.565317
1.53691,0.287786,1.01924,0.915535,-0.276586,2.27617,0.079725,0.381597,0.558088
1.55004,0.286919,1.01821,0.922158,-0.282404,2.28166,0.0796912,0.375195,0.550571
1.56318,0.285943,1.01705,0.92867,-0.288148,2.28707,0.0796591,0.368707,0.542795
1.57631,0.284853,1.01575,0.935082,-0.293835,2.29238,0.0796291,0.362146,0.534785
1.58945,0.283646,1.01432,0.941404,-0.299484,2.29761,0.0796012,0.355527,0.526572
1.60259,0.282318,1.01275,0.947644,-0.30511,2.30273,0.0795751,0.348866,0.51819
1.61572,0.280869,1.01104,0.953806,-0.310723,2.30776,0.0795505,0.342184,0.509677
1.62886,0.279298,1.00919,0.959891,-0.316328,2.31267,0.0795265,0.33551,0.501079
1.64199,0.277606,1.0072,0.965889,-0.321923,2.31745,0.0795026,0.328879,0.492446
1.65513,0.275797,1.00509,0.971791,-0.327502,2.32207,0.0794781,0.322328,0.483832
1.66827,0.273874,1.00284,0.977582,-0.333056,2.32652,0.0794523,0.315901,0.475287
1.6814,0.271838,1.00048,0.98325,-0.338576,2.33077,0.0794249,0.30964,0.466856
1.69454,0.269693,0.997999,0.988783,-0.344053,2.33481,0.0793958,0.303586,0.458575
1.70767,0.267438,0.995409,0.994176,-0.349485,2.33863,0.079365,0.297774,0.45047
1.72081,0.265075,0.992713,0.999426,-0.35487,2.34222,0.0793329,0.292234,0.442553
1.73395,0.2626,0.98991,1.00454,-0.360212,2.34558,0.0793002,0.286992,0.434826
1.74708,0.260013,0.987003,1.00951,-0.365516,2.34871,0.0792675,0.282064,0.427285
1.76022,0.25731,0.983995,1.01436,-0.370787,2.35162,0.0792355,0.277467,0.419917
1.77335,0.254491,0.980888,1.01909,-0.376027,2.35431,0.079205,0.27321,0.412709
1.78649,0.251554,0.977687,1.02369,-0.381239,2.3568,0.0791765,0.269302,0.405648
1.79963,0.248499,0.974398,1.02817,-0.386418,2.35908,0.0791505,0.265747,0.398721
1.81276,0.245328,0.971029,1.03254,-0.39156,2.36118,0.0791271,0.262547,0.391917
1.8259,0.242041,0.967588,1.03677,-0.396655,2.36309,0.0791063,0.259702,0.385229
1.83903,0.238643,0.964085,1.04087,-0.401697,2.36482,0.0790879,0.257203,0.378647
1.85217,0.235136,0.960528,1.04483,-0.406677,2.36639,0.0790715,0.25504,0.372164
1.86531,0.231525,0.956924,1.04864,-0.411588,2.3678,0.0790567,0.253195,0.365771
1.87844,0.227814,0.953281,1.0523,-0.416427,2.36907,0.0790428,0.251646,0.359457
1.89158,0.224011,0.949604,1.05579,-0.421192,2.37021,0.0790292,0.250365,0.353212
1.90471,0.220122,0.945898,1.05912,-0.425883,2.37123,0.0790154,0.249321,0.347024
1.91785,0.216157,0.942169,1.06227,-0.430504,2.37216,0.0790006,0.248479,0.340882
1.93099,0.212125,0.938419,1.06524,-0.435057,2.37301,0.0789841,0.247802,0.334772
1.94412,0.208036,0.934653,1.06803,-0.439549,2.37379,0.0789647,0.247252,0.328683
1.95726,0.2039,0.930873,1.07064,-0.443983,2.37452,0.0789408,0.246791,0.322602
1.97039,0.199727,0.927082,1.07306,-0.448366,2.37522,0.0789103,0.24638,0.316517
1.98353,0.195521,0.923282,1.07529,-0.452701,2.37588,0.0788698,0.245977,0.310417
1.99667,0.191288,0.919475,1.07732,-0.456995,2.37653,0.0788149,0.245543,0.304289
2.0098,0.187027,0.915664,1.07917,-0.46125,2.37716,0.0787396,0.245036,0.298122
2.02294,0.182734,0.911851,1.08084,-0.465469,2.37778,0.0786366,0.244412,0.291904
2.03607,0.178402,0.908037,1.08233,-0.469654,2.37839,0.078497,0.243627,0.285627
2.04921,0.17402,0.904228,1.08366,-0.473806,2.37899,0.0783109,0.242638,0.279279
2.06235,0.169576,0.900426,1.08483,-0.477925,2.37956,0.0780675,0.241402,0.272854
2.07548,0.165054,0.896637,1.08585,-0.482008,2.38012,0.0777563,0.239879,0.266347
2.08862,0.160439,0.892869,1.08675,-0.486053,2.38065,0.0773672,0.238035,0.259755
2.10175,0.15572,0.889128,1.08755,-0.490057,2.38114,0.0768917,0.235839,0.25308
2.11489,0.150885,0.885426,1.08825,-0.494015,2.38159,0.0763232,0.233271,0.246328
2.12803,0.145929,0.881775,1.08887,-0.497919,2.38201,0.0756576,0.230315,0.239509
2.14116,0.14085,0.87819,1.08943,-0.501765,2.38237,0.0748934,0.226966,0.232638
2.1543,0.135648,0.874684,1.08995,-0.505544,2.38269,0.0740313,0.223223,0.22573
2.16743,0.130329,0.871272,1.09043,-0.509253,2.38296,0.0730741,0.219091,0.218799
2.18057,0.124896,0.867967,1.09089,-0.512888,2.38318,0.0720263,0.214578,0.211858
2.1937,0.119353,0.86478,1.09134,-0.516449,2.38336,0.0708932,0.209697,0.204916
2.20684,0.113703,0.861719,1.09179,-0.519939,2.3835,0.0696811,0.204461,0.197975
2.21998,0.107948,0.85879,1.09224,-0.523362,2.38361,0.0683967,0.198887,0.191034
2.23311,0.102087,0.855994,1.09271,-0.526726,2.38369,0.0670467,0.192994,0.184089
2.24625,0.0961207,0.853333,1.09319,-0.530037,2.38374,0.0656386,0.186804,0.177135
2.25938,0.0900475,0.850807,1.09368,-0.533306,2.38378,0.0641799,0.18034,0.170168
2.27252,0.083867,0.848414,1.0942,-0.536539,2.38381,0.0626783,0.173629,0.163183
2.28566,0.0775793,0.846151,1.09473,-0.539744,2.38383,0.0611419,0.1667,0.15618
2.29879,0.0711843,0.844013,1.09529,-0.54293,2.38384,0.0595787,0.159582,0.14916
2.31193,0.0646824,0.841998,1.09587,-0.546102,2.38384,0.0579966,0.152304,0.142125
2.32506,0.0580736,0.840097,1.09647,-0.549268,2.38384,0.0564034,0.144894,0.135077
2.3382,0.0513574,0.838305,1.09709,-0.552434,2.38384,0.0548062,0.137378,0.128018
2.35134,0.0445334,0.836614,1.09773,-0.555607,2.38384,0.0532119,0.129778,0.120948
2.36447,0.0376009,0.835014,1.0984,-0.558793,2.38384,0.0516269,0.122115,0.113866
2.37761,0.03056,0.833498,1.09909,-0.561999,2.38383,0.0500577,0.114409,0.106768
2.39074,0.0234121,0.832058,1.0998,-0.565228,2.38383,0.0485106,0.10668,0.0996525
2.40388,0.0161604,0.830687,1.10054,-0.568485,2.38382,0.0469922,0.0989462,0.0925142
2.41702,0.00881038,0.829381,1.1013,-0.571772,2.38381,0.0455098,0.0912297,0.0853511
2.43015,0.00137014,0.828137,1.10209,-0.575088,2.38379,0.0440708,0.0835546,0.0781627
2.44329,-0.00615026,0.826954,1.1029,-0.578433,2.38377,0.0426835,0.0759473,0.0709505
2.45642,-0.0137394,0.825831,1.10374,-0.581803,2.38375,0.0413561,0.0684369,0.0637179
2.46956,-0.0213858,0.824771,1.1046,-0.585193,2.38372,0.0400966,0.0610541,0.05647
2.4827,-0.029079,0.823775,1.10548,-0.5886,2.38369,0.0389127,0.0538299,0.0492119
2.49583,-0.0368113,0.822847,1.10639,-0.592016,2.38365,0.0378108,0.0467945,0.0419484
2.50897,-0.0445777,0.821986,1.10732,-0.595436,2.38361,0.0367958,0.0399763,0.0346827
2.5221,-0.0523766,0.821196,1.10826,-0.598857,2.38356,0.0358711,0.0334015,0.0274165
2.53524,-0.0602088,0.820475,1.10922,-0.602272,2.38351,0.0350378,0.0270941,0.0201504
2.54838,-0.068076,0.819822,1.1102,-0.605677,2.38347,0.0342952,0.0210766,0.0128843
2.56151,-0.0759791,0.819236,1.11118,-0.60907,2.38342,0.0336409,0.0153706,0.00561923
2.57465,-0.0839168,0.818712,1.11217,-0.612445,2.38337,0.0330709,0.00999746,-0.00164223
2.58778,-0.0918837,0.818248,1.11315,-0.615798,2.38333,0.0325801,0.00497816,-0.00889481
2.60092,-0.0998703,0.817839,1.11412,-0.619125,2.38329,0.0321625,0.000332857,-0.0161305
2.61406,-0.107863,0.817479,1.11507,-0.62242,2.38325,0.0318116,-0.00392049,-0.0233388
2.62719,-0.115844,0.817165,1.11598,-0.625677,2.38321,0.0315207,-0.00776782,-0.030508
2.64033,-0.123793,0.81689,1.11685,-0.628893,2.38316,0.0312828,-0.0112007,-0.0376259
2.65346,-0.131691,0.81665,1.11767,-0.63206,2.38312,0.0310914,-0.0142179,-0.0446817
2.6666,-0.139518,0.81644,1.11843,-0.635174,2.38307,0.0309398,-0.0168264,-0.0516675
2.67974,-0.147258,0.816256,1.11912,-0.638231,2.38301,0.0308219,-0.0190416,-0.058579
2.69287,-0.154899,0.816094,1.11974,-0.641226,2.38293,0.0307319,-0.0208871,-0.0654177
2.70601,-0.162435,0.815952,1.12028,-0.644159,2.38283,0.0306645,-0.0223934,-0.0721906
2.71914,-0.169866,0.815828,1.12075,-0.647027,2.38269,0.030615,-0.0235965,-0.0789111
2.73228,-0.177198,0.815719,1.12115,-0.649833,2.38252,0.0305793,-0.0245356,-0.0855975
2.74541,-0.184443,0.815626,1.12148,-0.652578,2.38229,0.030554,-0.0252513,-0.0922717
2.75855,-0.191614,0.815546,1.12175,-0.655263,2.382,0.0305362,-0.0257833,-0.0989572
2.77169,-0.198724,0.815479,1.12196,-0.657891,2.38163,0.0305238,-0.0261691,-0.105676
2.78482,-0.205783,0.815425,1.12212,-0.660462,2.38118,0.030515,-0.0264417,-0.112445
2.79796,-0.212796,0.815382,1.12224,-0.662972,2.38063,0.0305086,-0.0266297,-0.119275
2.81109,-0.21976,0.81535,1.12233,-0.665418,2.37997,0.0305037,-0.0267565,-0.12617
2.82423,-0.226665,0.815326,1.12239,-0.667791,2.37922,0.0304998,-0.0268402,-0.133125
2.83737,-0.233495,0.815309,1.12243,-0.670079,2.37835,0.0304965,-0.0268946,-0.140127
2.8505,-0.240232,0.815297,1.12246,-0.67227,2.37737,0.0304937,-0.0269297,-0.147159
2.86364,-0.246852,0.815289,1.12248,-0.674351,2.37629,0.0304911,-0.0269521,-0.154201
2.87677,-0.253336,0.815284,1.12249,-0.676309,2.3751,0.0304889,-0.0269664,-0.161232
2.88991,-0.259665,0.81528,1.12249,-0.678132,2.3738,0.030487,-0.0269757,-0.168233
2.90305,-0.265827,0.815278,1.12249,-0.67981,2.37241,0.0304854,-0.0269818,-0.175186
2.91618,-0.271811,0.815275,1.12249,-0.681336,2.37093,0.0304841,-0.0269859,-0.182077
2.92932,-0.277615,0.815274,1.12249,-0.682708,2.36935,0.0304832,-0.0269889,-0.188895
2.94245,-0.283237,0.815273,1.12249,-0.683924,2.36769,0.0304825,-0.0269915,-0.195628
2.95559,-0.288678,0.815271,1.12249,-0.684987,2.36596,0.0304823,-0.0269939,-0.202266
2.96873,-0.293943,0.815271,1.12249,-0.685904,2.36415,0.0304823,-0.0269965,-0.2088
2.98186,-0.299038,0.81527,1.12249,-0.686684,2.36227,0.0304825,-0.0269995,-0.215215
2.995,-0.303968,0.815269,1.12249,-0.687337,2.36035,0.030483,-0.0270026,-0.221498
3.00813,-0.308739,0.815269,1.12248,-0.687875,2.35837,0.0304837,-0.027006,-0.227631
3.02127,-0.313357,0.815269,1.12248,-0.688313,2.35636,0.0304846,-0.0270094,-0.233593
3.03441,-0.317827,0.815268,1.12248,-0.688665,2.35431,0.0304856,-0.0270126,-0.239359
3.04754,-0.322153,0.815267,1.12248,-0.688945,2.35225,0.0304866,-0.0270156,-0.2449
3.06068,-0.326339,0.815265,1.12247,-0.689167,2.35018,0.0304877,-0.0270182,-0.250185
3.07381,-0.330387,0.815263,1.12247,-0.689345,2.3481,0.0304888,-0.0270205,-0.255184
3.08695,-0.334298,0.815261,1.12247,-0.689489,2.34604,0.03049,-0.0270225,-0.259863
3.10009,-0.338073,0.815258,1.12246,-0.689611,2.34398,0.0304911,-0.0270244,-0.264192
3.11322,-0.341713,0.815254,1.12246,-0.689719,2.34195,0.0304921,-0.0270266,-0.268146
3.12636,-0.345219,0.815251,1.12245,-0.689819,2.33994,0.0304932,-0.0270292,-0.271705
3.13949,-0.348595,0.815248,1.12245,-0.689917,2.33797,0.0304941,-0.0270325,-0.274857
3.15263,-0.351846,0.815244,1.12245,-0.690017,2.33603,0.0304949,-0.0270367,-0.277598
3.16577,-0.354981,0.81524,1.12245,-0.690122,2.33411,0.0304956,-0.0270421,-0.279935
3.1789,-0.358007,0.815236,1.12244,-0.690233,2.33223,0.0304961,-0.0270489,-0.281884
3.19204,-0.360937,0.815233,1.12244,-0.69035,2.33038,0.0304964,-0.0270571,-0.283472
3.20517,-0.36378,0.815229,1.12244,-0.690475,2.32855,0.0304966,-0.027067,-0.284731
3.21831,-0.366543,0.815226,1.12244,-0.690607,2.32674,0.0304966,-0.0270788,-0.285697
3.23145,-0.369234,0.815224,1.12244,-0.690745,2.32496,0.0304964,-0.0270931,-0.286412
3.24458,-0.371855,0.815221,1.12243,-0.690889,2.3232,0.0304961,-0.0271103,-0.286914
3.25772,-0.374405,0.81522,1.12243,-0.691038,2.32148,0.0304956,-0.0271315,-0.287241
3.27085,-0.376883,0.815218,1.12243,-0.691193,2.31978,0.030495,-0.0271582,-0.287423
3.28399,-0.379283,0.815218,1.12243,-0.691353,2.31812,0.0304944,-0.0271923,-0.287487
3.29713,-0.381601,0.815217,1.12242,-0.691521,2.3165,0.0304936,-0.0272368,-0.287449
3.31026,-0.383833,0.815218,1.12242,-0.691695,2.31492,0.0304929,-0.0272961,-0.287319
3.3234,-0.385973,0.815218,1.12242,-0.691879,2.31337,0.0304921,-0.0273759,-0.287096
3.33653,-0.388021,0.815219,1.12241,-0.692072,2.31187,0.0304913,-0.0274843,-0.286774
3.34967,-0.389975,0.81522,1.12241,-0.692276,2.31041,0.0304906,-0.0276316,-0.28634
3.3628,-0.391834,0.815221,1.1224,-0.692493,2.30898,0.03049,-0.0278312,-0.285777
3.37594,-0.393598,0.815222,1.1224,-0.692723,2.30758,0.0304895,-0.0280992,-0.285065
3.38908,-0.395269,0.815222,1.1224,-0.692969,2.30622,0.030489,-0.0284549,-0.284182
3.40221,-0.396847,0.815223,1.12239,-0.693229,2.30489,0.0304888,-0.0289199,-0.283111
3.41535,-0.398332,0.815224,1.12239,-0.693507,2.3036,0.0304886,-0.0295177,-0.281837
3.42848,-0.399725,0.815225,1.12239,-0.693803,2.30236,0.0304887,-0.0302727,-0.280348
3.44162,-0.401026,0.815225,1.12238,-0.694116,2.30117,0.0304889,-0.0312089,-0.278643
3.45476,-0.402236,0.815226,1.12238,-0.694449,2.30003,0.0304892,-0.0323488,-0.276722
3.46789,-0.403354,0.815226,1.12238,-0.6948,2.29896,0.0304898,-0.0337122,-0.274596
3.48103,-0.404382,0.815227,1.12238,-0.695168,2.29795,0.0304905,-0.0353151,-0.272278
3.49416,-0.405319,0.815228,1.12237,-0.695554,2.297,0.0304914,-0.037169,-0.269788
3.5073,-0.406166,0.815229,1.12237,-0.695954,2.29612,0.0304924,-0.0392809,-0.267148
3.52044,-0.406925,0.815231,1.12236,-0.696368,2.2953,0.0304936,-0.0416527,-0.26438
3.53357,-0.407598,0.815232,1.12236,-0.696791,2.29453,0.0304948,-0.0442814,-0.26151
3.54671,-0.408186,0.815235,1.12236,-0.69722,2.29381,0.0304959,-0.0471597,-0.258563
3.55984,-0.408692,0.815238,1.12235,-0.697653,2.29313,0.030497,-0.0502756,-0.255564
3.57298,-0.409121,0.815241,1.12234,-0.698084,2.29247,0.0304979,-0.0536132,-0.252538
3.58612,-0.409478,0.815244,1.12234,-0.698509,2.29184,0.0304985,-0.0571529,-0.249511
3.59925,-0.409768,0.815248,1.12233,-0.698925,2.29121,0.030499,-0.0608715,-0.246508
3.61239,-0.409999,0.815252,1.12232,-0.699327,2.29058,0.0304991,-0.0647432,-0.243555
3.62552,-0.410178,0.815256,1.12231,-0.69971,2.28995,0.030499,-0.0687403,-0.240677
3.63866,-0.410313,0.81526,1.1223,-0.700072,2.28931,0.0304986,-0.0728338,-0.2379
3.6518,-0.410411,0.815263,1.12229,-0.700409,2.28865,0.0304981,-0.0769941,-0.235247
3.66493,-0.41048,0.815266,1.12228,-0.700719,2.28797,0.0304973,-0.0811919,-0.232738
3.67807,-0.410526,0.815269,1.12228,-0.701,2.28727,0.0304964,-0.0853977,-0.230391
3.6912,-0.410555,0.815271,1.12227,-0.701252,2.28656,0.0304954,-0.0895828,-0.228218
3.70434,-0.410573,0.815272,1.12226,-0.701473,2.28584,0.0304943,-0.093718,-0.226231
3.71748,-0.410583,0.815273,1.12225,-0.701665,2.28511,0.0304931,-0.0977736,-0.224435
3.73061,-0.410589,0.815273,1.12225,-0.701829,2.28438,0.0304919,-0.101719,-0.222832
3.74375,-0.410592,0.815273,1.12224,-0.701966,2.28365,0.0304907,-0.105522,-0.221419
3.75688,-0.410595,0.815272,1.12223,-0.702078,2.28294,0.0304896,-0.109152,-0.220191
3.77002,-0.410598,0.815271,1.12223,-0.702168,2.28226,0.0304888,-0.112575,-0.21914
3.78316,-0.410602,0.81527,1.12222,-0.702239,2.2816,0.0304883,-0.115762,-0.218254
3.79629,-0.410607,0.815268,1.12222,-0.702293,2.28099,0.0304881,-0.118687,-0.217519
3.80943,-0.410613,0.815267,1.12221,-0.702334,2.28042,0.0304884,-0.121329,-0.216921
3.82256,-0.410619,0.815266,1.12221,-0.702363,2.27991,0.0304891,-0.123673,-0.216443
3.8357,-0.410626,0.815264,1.12221,-0.702384,2.27945,0.0304902,-0.125716,-0.216068
3.84884,-0.410633,0.815263,1.12221,-0.702397,2.27905,0.0304916,-0.127459,-0.215781
3.86197,-0.410639,0.815262,1.1222,-0.702405,2.27871,0.0304932,-0.128917,-0.215565
3.87511,-0.410644,0.815262,1.1222,-0.70241,2.27842,0.0304949,-0.130108,-0.215406
3.88824,-0.410648,0.815262,1.1222,-0.702411,2.27818,0.0304966,-0.13106,-0.215291
3.90138,-0.41065,0.815264,1.1222,-0.702411,2.27799,0.0304981,-0.131802,-0.215211
3.91452,-0.410651,0.815266,1.1222,-0.70241,2.27784,0.0304995,-0.132366,-0.215155
3.92765,-0.41065,0.815268,1.1222,-0.702408,2.27773,0.0305007,-0.132783,-0.215118
3.94079,-0.410648,0.815271,1.1222,-0.702406,2.27765,0.0305017,-0.133081,-0.215093
3.95392,-0.410644,0.815276,1.12219,-0.702403,2.27759,0.0305024,-0.133285,-0.215077
3.96706,-0.41064,0.815279,1.12219,-0.7024,2.27754,0.0305029,-0.133416,-0.215066
3.98019,-0.410636,0.815283,1.12219,-0.702398,2.27752,0.0305033,-0.133489,-0.215058
3.99333,-0.410631,0.815287,1.12219,-0.702396,2.2775,0.0305035,-0.133513,-0.215053
4.00647,-0.410627,0.81529,1.12218,-0.702393,2.27749,0.0305037,-0.133494,-0.215048
4.0196,-0.410622,0.815293,1.12218,-0.702392,2.27749,0.0305038,-0.133432,-0.215043
4.03274,-0.410619,0.815296,1.12218,-0.70239,2.27749,0.0305039,-0.133321,-0.215038
4.04587,-0.410616,0.815297,1.12217,-0.702388,2.27749,0.0305041,-0.133154,-0.215031
4.05901,-0.410615,0.815298,1.12217,-0.702387,2.27749,0.0305042,-0.13292,-0.215023
4.07215,-0.410614,0.815298,1.12217,-0.702386,2.2775,0.0305045,-0.132603,-0.215011
4.08528,-0.410615,0.815298,1.12217,-0.702384,2.27751,0.0305048,-0.132188,-0.214996
4.09842,-0.410616,0.815297,1.12217,-0.702383,2.27752,0.0305051,-0.131658,-0.214974
4.11155,-0.410619,0.815297,1.12216,-0.702381,2.27753,0.0305055,-0.130997,-0.214944
4.12469,-0.410622,0.815296,1.12216,-0.70238,2.27755,0.0305059,-0.130187,-0.214902
4.13783,-0.410625,0.815295,1.12216,-0.702378,2.27757,0.0305063,-0.129215,-0.214843
4.15096,-0.410628,0.815294,1.12216,-0.702376,2.27758,0.0305068,-0.128068,-0.214762
4.1641,-0.410631,0.815294,1.12216,-0.702374,2.2776,0.0305072,-0.126736,-0.214651
4.17723,-0.410634,0.815294,1.12216,-0.702371,2.27762,0.0305076,-0.125214,-0.214502
4.19037,-0.410636,0.815295,1.12216,-0.702368,2.27763,0.030508,-0.123496,-0.214304
4.20351,-0.410636,0.815297,1.12216,-0.702365,2.27765,0.0305084,-0.12158,-0.214048
4.21664,-0.410636,0.8153,1.12216,-0.702362,2.27767,0.0305088,-0.119468,-0.213721
4.22978,-0.410635,0.815303,1.12216,-0.702358,2.27768,0.0305093,-0.117164,-0.213315
4.24291,-0.410633,0.815307,1.12216,-0.702354,2.27769,0.0305098,-0.114673,-0.212817
4.25605,-0.41063,0.815311,1.12216,-0.70235,2.27771,0.0305105,-0.112004,-0.212221
4.26919,-0.410627,0.815316,1.12215,-0.702346,2.27772,0.0305112,-0.109169,-0.211519
4.28232,-0.410623,0.815321,1.12215,-0.702342,2.27773,0.030512,-0.106181,-0.210707
4.29546,-0.410619,0.815327,1.12215,-0.702338,2.27774,0.0305129,-0.103056,-0.209783
4.30859,-0.410615,0.815332,1.12215,-0.702335,2.27774,0.0305138,-0.0998106,-0.208746
4.32173,-0.41061,0.815338,1.12215,-0.702332,2.27775,0.0305148,-0.0964636,-0.207599
4.33487,-0.410606,0.815343,1.12214,-0.702329,2.27775,0.0305159,-0.0930342,-0.206347
4.348,-0.410601,0.815349,1.12214,-0.702326,2.27776,0.0305169,-0.0895421,-0.204997
4.36114,-0.410597,0.815354,1.12214,-0.702324,2.27776,0.0305179,-0.0860075,-0.203556
4.37427,-0.410593,0.81536,1.12214,-0.702322,2.27776,0.0305188,-0.0824514,-0.202035
4.38741,-0.410588,0.815366,1.12214,-0.702319,2.27776,0.0305196,-0.0788952,-0.200445
4.40055,-0.410583,0.815373,1.12214,-0.702317,2.27776,0.0305204,-0.0753619,-0.198799
4.41368,-0.410578,0.815379,1.12213,-0.702314,2.27776,0.030521,-0.0718754,-0.197112
4.42682,-0.410572,0.815386,1.12213,-0.702311,2.27776,0.0305216,-0.068461,-0.1954
4.43995,-0.410565,0.815394,1.12213,-0.702308,2.27776,0.030522,-0.0651452,-0.19368
4.45309,-0.410557,0.815403,1.12213,-0.702304,2.27775,0.0305223,-0.061955,-0.19197
4.46623,-0.410548,0.815413,1.12213,-0.702299,2.27775,0.0305225,-0.0589175,-0.19029
4.47936,-0.410538,0.815425,1.12212,-0.702294,2.27775,0.0305226,-0.0560585,-0.188658
4.4925,-0.410527,0.815438,1.12212,-0.702289,2.27774,0.0305227,-0.0534021,-0.187094
4.50563,-0.410514,0.815453,1.12211,-0.702282,2.27774,0.0305227,-0.0509685,-0.185616
4.51877,-0.4105,0.815469,1.1221,-0.702274,2.27773,0.0305227,-0.0487736,-0.18424
4.5319,-0.410485,0.815488,1.12208,-0.702265,2.27773,0.0305227,-0.0468276,-0.182979
4.54504,-0.410468,0.815507,1.12206,-0.702255,2.27772,0.0305227,-0.0451344,-0.181845
4.55818,-0.410452,0.815529,1.12203,-0.702243,2.27772,0.0305228,-0.0436912,-0.180842
4.57131,-0.410435,0.81555,1.12199,-0.70223,2.27771,0.030523,-0.0424891,-0.179975
4.58445,-0.410419,0.815573,1.12195,-0.702216,2.27771,0.0305232,-0.0415136,-0.179239
4.59759,-0.410403,0.815595,1.12189,-0.702201,2.27771,0.0305234,-0.0407461,-0.17863
4.61072,-0.410389,0.815616,1.12181,-0.702184,2.2777,0.0305237,-0.0401657,-0.178138
4.62386,-0.410376,0.815636,1.12172,-0.702167,2.2777,0.0305239,-0.0397508,-0.177751
4.63699,-0.410365,0.815653,1.12161,-0.702149,2.2777,0.030524,-0.0394809,-0.177457
4.65013,-0.410356,0.815669,1.12149,-0.702131,2.27769,0.0305241,-0.0393376,-0.17724
4.66326,-0.410349,0.815682,1.12134,-0.702113,2.27769,0.0305241,-0.039306,-0.177087
4.6764,-0.410344,0.815693,1.12118,-0.702094,2.27769,0.0305242,-0.0393747,-0.176986
4.68954,-0.410341,0.815702,1.12099,-0.702074,2.27769,0.0305242,-0.0395358,-0.176924
4.70267,-0.41034,0.815708,1.12079,-0.702054,2.27769,0.0305243,-0.0397843,-0.176894
4.71581,-0.41034,0.815712,1.12058,-0.702033,2.27769,0.0305246,-0.0401175,-0.176886
4.72894,-0.410341,0.815716,1.12035,-0.70201,2.27769,0.0305249,-0.040534,-0.176895
4.74208,-0.410343,0.815718,1.1201,-0.701984,2.27768,0.0305254,-0.0410332,-0.176916
4.75522,-0.410345,0.81572,1.11985,-0.701954,2.27768,0.030526,-0.0416145,-0.176947
4.76835,-0.410346,0.815723,1.1196,-0.701921,2.27768,0.0305268,-0.0422772,-0.176986
4.78149,-0.410348,0.815725,1.11934,-0.701881,2.27768,0.0305277,-0.0430208,-0.177032
4.79462,-0.41035,0.815728,1.11908,-0.701837,2.27768,0.0305286,-0.0438447,-0.177085
4.80776,-0.410351,0.815731,1.11882,-0.701786,2.27767,0.0305297,-0.0447492,-0.177146
4.8209,-0.410352,0.815735,1.11857,-0.701728,2.27767,0.0305309,-0.0457359,-0.177216
4.83403,-0.410352,0.81574,1.11833,-0.701665,2.27767,0.0305321,-0.0468081,-0.177297
4.84717,-0.410352,0.815744,1.11809,-0.701596,2.27767,0.0305334,-0.0479713,-0.177389
4.8603,-0.410352,0.815749,1.11786,-0.701524,2.27767,0.0305347,-0.049233,-0.177495
4.87344,-0.410352,0.815754,1.11764,-0.701448,2.27767,0.030536,-0.0506024,-0.177614
4.88658,-0.410352,0.815758,1.11744,-0.701372,2.27767,0.0305374,-0.0520893,-0.177748
4.89971,-0.410352,0.815762,1.11724,-0.701298,2.27766,0.0305388,-0.0537034,-0.177896
4.91285,-0.410351,0.815766,1.11705,-0.701225,2.27766,0.0305401,-0.0554524,-0.178057
4.92598,-0.410351,0.815769,1.11687,-0.701157,2.27766,0.0305415,-0.0573409,-0.178231
4.93912,-0.410351,0.815771,1.11671,-0.701095,2.27766,0.0305428,-0.0593693,-0.178414
4.95226,-0.410351,0.815773,1.11656,-0.70104,2.27766,0.0305442,-0.061533,-0.178605
4.96539,-0.410351,0.815774,1.11642,-0.700991,2.27766,0.0305455,-0.0638218,-0.1788
4.97853,-0.41035,0.815775,1.11629,-0.70095,2.27766,0.0305469,-0.066221,-0.178998
4.99166,-0.410349,0.815775,1.11618,-0.700915,2.27765,0.0305484,-0.068711,-0.179195
5.0048,-0.410347,0.815775,1.11608,-0.700886,2.27765,0.0305498,-0.0712687,-0.17939
5.01794,-0.410345,0.815774,1.11599,-0.700863,2.27765,0.0305513,-0.0738682,-0.179581
5.03107,-0.410342,0.815774,1.11591,-0.700845,2.27764,0.0305528,-0.0764817,-0.179769
5.04421,-0.410338,0.815773,1.11584,-0.70083,2.27764,0.0305543,-0.07908,-0.179955
5.05734,-0.410334,0.815772,1.11577,-0.70082,2.27764,0.0305557,-0.0816332,-0.180143
5.07048,-0.410329,0.815771,1.1157,-0.700812,2.27764,0.0305571,-0.0841119,-0.180336
5.08361,-0.410325,0.815771,1.11563,-0.700805,2.27764,0.0305584,-0.0864872,-0.180542
5.09675,-0.41032,0.815769,1.11555,-0.700801,2.27764,0.0305597,-0.0887322,-0.180766
5.10989,-0.410316,0.815768,1.11547,-0.700797,2.27764,0.0305608,-0.0908227,-0.181017
5.12302,-0.410312,0.815767,1.11537,-0.700793,2.27764,0.0305618,-0.0927381,-0.181301
5.13616,-0.410309,0.815766,1.11527,-0.700788,2.27764,0.0305627,-0.0944628,-0.181625
5.14929,-0.410308,0.815764,1.11514,-0.700781,2.27764,0.0305635,-0.095986,-0.181994
5.16243,-0.410308,0.815762,1.115,-0.700773,2.27764,0.0305641,-0.0973031,-0.18241
5.17557,-0.41031,0.81576,1.11485,-0.70076,2.27764,0.0305645,-0.0984154,-0.182874
5.1887,-0.410313,0.815758,1.11467,-0.700741,2.27765,0.0305647,-0.0993292,-0.183385
5.20184,-0.410318,0.815756,1.11449,-0.700715,2.27765,0.0305648,-0.100056,-0.183937
5.21497,-0.410323,0.815754,1.11429,-0.700677,2.27765,0.0305646,-0.100609,-0.184524
5.22811,-0.41033,0.815752,1.11407,-0.700625,2.27766,0.0305642,-0.101005,-0.185139
5.24125,-0.410337,0.81575,1.11385,-0.700553,2.27766,0.0305636,-0.101258,-0.18577
5.25438,-0.410345,0.815748,1.11363,-0.700458,2.27766,0.0305629,-0.101384,-0.186407
5.26752,-0.410352,0.815747,1.11341,-0.700334,2.27766,0.0305622,-0.101391,-0.187038
5.28065,-0.410358,0.815748,1.11319,-0.700176,2.27766,0.0305615,-0.101288,-0.187654
5.29379,-0.410364,0.815749,1.11297,-0.699979,2.27767,0.0305608,-0.101078,-0.188243
5.30693,-0.410369,0.815753,1.11277,-0.699741,2.27767,0.0305603,-0.100761,-0.188797
5.32006,-0.410372,0.81576,1.11258,-0.699458,2.27767,0.0305599,-0.100335,-0.189308
5.3332,-0.410374,0.81577,1.1124,-0.699131,2.27767,0.0305597,-0.0997963,-0.18977
5.34633,-0.410374,0.815785,1.11224,-0.698762,2.27767,0.0305596,-0.0991412,-0.190181
5.35947,-0.410374,0.815805,1.11209,-0.698356,2.27767,0.0305597,-0.098367,-0.190538
5.37261,-0.410373,0.815833,1.11196,-0.697919,2.27767,0.0305597,-0.097472,-0.190843
5.38574,-0.410372,0.815869,1.11184,-0.697459,2.27767,0.0305598,-0.0964564,-0.191097
5.39888,-0.41037,0.815915,1.11173,-0.696985,2.27767,0.0305599,-0.095322,-0.191303
5.41201,-0.410369,0.815973,1.11163,-0.696506,2.27768,0.0305599,-0.0940722,-0.191467
5.42515,-0.410368,0.816044,1.11154,-0.696032,2.27768,0.0305598,-0.0927111,-0.191594
5.43829,-0.410368,0.816131,1.11147,-0.695571,2.27768,0.0305598,-0.0912436,-0.191689
5.45142,-0.410369,0.816234,1.1114,-0.69513,2.27768,0.0305597,-0.0896748,-0.191758
5.46456,-0.410371,0.816355,1.11134,-0.694713,2.27769,0.0305596,-0.0880094,-0.191805
5.47769,-0.410374,0.816495,1.11129,-0.694325,2.27769,0.0305597,-0.0862523,-0.191836
5.49083,-0.410379,0.816655,1.11125,-0.693966,2.2777,0.0305598,-0.0844075,-0.191854
5.50397,-0.410384,0.816834,1.11121,-0.693636,2.2777,0.0305599,-0.0824791,-0.191862
5.5171,-0.410389,0.817032,1.11119,-0.693335,2.27771,0.0305602,-0.0804705,-0.191863
5.53024,-0.410395,0.81725,1.11116,-0.693058,2.27771,0.0305604,-0.0783854,-0.191857
5.54337,-0.410401,0.817486,1.11115,-0.692803,2.27772,0.0305607,-0.0762278,-0.191845
5.55651,-0.410407,0.817739,1.11114,-0.692566,2.27773,0.0305609,-0.0740028,-0.191826
5.56965,-0.410412,0.81801,1.11113,-0.692342,2.27774,0.030561,-0.0717174,-0.191801
5.58278,-0.410417,0.818295,1.11112,-0.692126,2.27775,0.030561,-0.0693813,-0.191765
5.59592,-0.410421,0.818595,1.11112,-0.691913,2.27776,0.0305607,-0.0670077,-0.191716
5.60905,-0.410424,0.818908,1.11112,-0.691698,2.27777,0.0305603,-0.0646133,-0.19165
5.62219,-0.410427,0.819233,1.11112,-0.691476,2.27778,0.0305597,-0.0622188,-0.19156
5.63533,-0.410429,0.819568,1.11112,-0.691242,2.27779,0.030559,-0.0598476,-0.19144
5.64846,-0.41043,0.819913,1.11112,-0.690991,2.2778,0.0305582,-0.0575251,-0.191279
5.6616,-0.41043,0.820265,1.11112,-0.690717,2.27781,0.0305574,-0.0552776,-0.191068
5.67473,-0.410429,0.820625,1.11112,-0.690417,2.27782,0.0305566,-0.0531301,-0.190795
5.68787,-0.410428,0.82099,1.11112,-0.690085,2.27783,0.0305559,-0.051106,-0.190448
5.701,-0.410426,0.821361,1.11112,-0.689715,2.27784,0.0305555,-0.049225,-0.190014
5.71414,-0.410424,0.821737,1.11112,-0.689305,2.27784,0.0305552,-0.0475029,-0.189483
5.72728,-0.410421,0.822118,1.11112,-0.688849,2.27785,0.0305552,-0.0459506,-0.188843
5.74041,-0.410417,0.822504,1.11112,-0.688342,2.27786,0.0305555,-0.0445743,-0.188088
5.75355,-0.410412,0.822895,1.11112,-0.687781,2.27786,0.0305561,-0.0433748,-0.187214
5.76669,-0.410407,0.823292,1.11112,-0.687163,2.27786,0.0305569,-0.0423481,-0.186217
5.77982,-0.4104,0.823694,1.11112,-0.686484,2.27786,0.0305579,-0.0414858,-0.185102
5.79296,-0.410393,0.824102,1.11111,-0.685746,2.27786,0.0305591,-0.0407755,-0.183873
5.80609,-0.410384,0.824515,1.11111,-0.684949,2.27786,0.0305604,-0.0402018,-0.182539
5.81923,-0.410375,0.824933,1.11111,-0.684098,2.27786,0.0305617,-0.0397473,-0.181114
5.83236,-0.410365,0.825355,1.1111,-0.683199,2.27786,0.0305632,-0.0393933,-0.179611
5.8455,-0.410353,0.82578,1.1111,-0.682265,2.27785,0.0305646,-0.0391209,-0.178046
5.85864,-0.410342,0.826207,1.11109,-0.681307,2.27785,0.030566,-0.0389117,-0.176437
5.87177,-0.41033,0.826636,1.11108,-0.68034,2.27785,0.0305674,-0.0387481,-0.174802
5.88491,-0.410317,0.827064,1.11107,-0.679383,2.27784,0.0305687,-0.038614,-0.173159
5.89804,-0.410306,0.827491,1.11105,-0.678453,2.27784,0.03057,-0.0384942,-0.171527
5.91118,-0.410294,0.827915,1.11104,-0.677566,2.27783,0.0305712,-0.038375,-0.169924
5.92432,-0.410284,0.828334,1.11102,-0.676738,2.27783,0.0305722,-0.0382436,-0.168368
5.93745,-0.410275,0.828746,1.11099,-0.675981,2.27782,0.0305733,-0.0380876,-0.166875
5.95059,-0.410267,0.82915,1.11096,-0.675306,2.27781,0.0305742,-0.0378953,-0.165459
5.96372,-0.410261,0.829543,1.11093,-0.674717,2.27781,0.030575,-0.0376555,-0.164136
5.97686,-0.410257,0.829922,1.1109,-0.674216,2.2778,0.0305758,-0.037357,-0.162916
5.99,-0.410255,0.830284,1.11086,-0.673801,2.27779,0.0305765,-0.0369888,-0.161808
6.00313,-0.410254,0.830628,1.11082,-0.673464,2.27778,0.0305771,-0.0365401,-0.160817
6.01627,-0.410255,0.83095,1.11077,-0.6732,2.27778,0.0305777,-0.0360004,-0.159947
6.0294,-0.410258,0.831249,1.11073,-0.672997,2.27777,0.0305781,-0.0353594,-0.159198
6.04254,-0.410262,0.831524,1.11068,-0.672846,2.27777,0.0305785,-0.0346072,-0.158564
6.05568,-0.410267,0.831775,1.11063,-0.672735,2.27776,0.0305787,-0.0337345,-0.158039
6.06881,-0.410274,0.831999,1.11059,-0.672657,2.27776,0.0305788,-0.0327332,-0.157613
6.08195,-0.410282,0.832199,1.11055,-0.672601,2.27776,0.0305788,-0.0315966,-0.157276
6.09508,-0.41029,0.832375,1.11051,-0.672563,2.27776,0.0305785,-0.0303203,-0.157016
6.10822,-0.410298,0.832529,1.11048,-0.672536,2.27776,0.0305782,-0.0289021,-0.156819
6.12136,-0.410307,0.83266,1.11045,-0.672517,2.27776,0.0305777,-0.0273428,-0.156674
6.13449,-0.410316,0.832772,1.11042,-0.672502,2.27776,0.030577,-0.0256462,-0.156569
6.14763,-0.410325,0.832865,1.11041,-0.672491,2.27776,0.0305764,-0.0238191,-0.156494
6.16076,-0.410334,0.832942,1.11039,-0.672482,2.27776,0.0305756,-0.0218709,-0.156441
6.1739,-0.410343,0.833003,1.11038,-0.672474,2.27776,0.0305749,-0.0198136,-0.156405
6.18704,-0.410351,0.833051,1.11037,-0.672466,2.27776,0.0305742,-0.0176608,-0.156378
6.20017,-0.41036,0.833088,1.11037,-0.67246,2.27776,0.0305736,-0.0154279,-0.156358
6.21331,-0.410367,0.833116,1.11036,-0.672453,2.27777,0.030573,-0.0131315,-0.156342
6.22644,-0.410375,0.833136,1.11036,-0.672448,2.27777,0.0305725,-0.0107894,-0.156329
6.23958,-0.410382,0.83315,1.11036,-0.672443,2.27777,0.0305719,-0.0084208,-0.156317
6.25272,-0.410389,0.83316,1.11036,-0.672438,2.27778,0.0305714,-0.00604621,-0.156305
6.26585,-0.410396,0.833167,1.11037,-0.672435,2.27778,0.0305708,-0.00368761,-0.156292
6.27899,-0.410402,0.833171,1.11037,-0.672431,2.27778,0.0305701,-0.00136835,-0.156279
6.29212,-0.410407,0.833175,1.11037,-0.672429,2.27779,0.0305694,0.000887172,-0.156265
6.30526,-0.410413,0.833178,1.11037,-0.672426,2.27779,0.0305687,0.00305422,-0.156249
6.3184,-0.410417,0.833181,1.11038,-0.672424,2.27779,0.0305679,0.0051086,-0.156231
6.33153,-0.410421,0.833184,1.11038,-0.672422,2.27779,0.030567,0.00702789,-0.156209
6.34467,-0.410423,0.833187,1.11038,-0.67242,2.27779,0.0305662,0.00879263,-0.156182
6.3578,-0.410425,0.833191,1.11038,-0.672418,2.27779,0.0305655,0.0103875,-0.156149
6.37094,-0.410426,0.833194,1.11038,-0.672416,2.27779,0.0305649,0.0118023,-0.156105
6.38407,-0.410425,0.833198,1.11038,-0.672414,2.27779,0.0305645,0.0130326,-0.156049
6.39721,-0.410424,0.833203,1.11038,-0.672412,2.27779,0.0305642,0.0140798,-0.155976
6.41035,-0.410421,0.833207,1.11038,-0.67241,2.27779,0.030564,0.0149508,-0.155881
6.42348,-0.410418,0.833211,1.11038,-0.672409,2.27779,0.030564,0.0156578,-0.155759
6.43662,-0.410414,0.833214,1.11038,-0.672408,2.27778,0.0305641,0.0162164,-0.155602
6.44975,-0.410409,0.833218,1.11038,-0.672409,2.27778,0.0305642,0.016645,-0.155406
6.46289,-0.410403,0.83322,1.11038,-0.67241,2.27778,0.0305644,0.0169634,-0.155163
6.47603,-0.410397,0.833223,1.11037,-0.672413,2.27778,0.0305647,0.0171911,-0.154869
6.48916,-0.41039,0.833225,1.11037,-0.672416,2.27778,0.030565,0.0173466,-0.154517
6.5023,-0.410383,0.833226,1.11037,-0.672421,2.27777,0.0305654,0.0174465,-0.154107
6.51543,-0.410376,0.833227,1.11037,-0.672427,2.27777,0.0305659,0.017505,-0.153637
6.52857,-0.410368,0.833227,1.11037,-0.672433,2.27777,0.0305664,0.0175339,-0.15311
6.54171,-0.410361,0.833226,1.11036,-0.67244,2.27777,0.0305671,0.0175422,-0.152529
6.55484,-0.410354,0.833225,1.11036,-0.672447,2.27776,0.0305678,0.0175372,-0.151903
6.56798,-0.410348,0.833223,1.11036,-0.672454,2.27776,0.0305687,0.017524,-0.151241
6.58111,-0.410342,0.833221,1.11036,-0.672461,2.27776,0.0305697,0.0175064,-0.150554
6.59425,-0.410336,0.833219,1.11036,-0.672468,2.27776,0.0305708,0.017487,-0.149854
6.60739,-0.410331,0.833217,1.11035,-0.672474,2.27775,0.030572,0.0174675,-0.149156
6.62052,-0.410326,0.833214,1.11035,-0.67248,2.27775,0.0305732,0.017449,-0.148471
6.63366,-0.410322,0.833212,1.11035,-0.672485,2.27775,0.0305745,0.0174323,-0.147813
6.64679,-0.410318,0.833209,1.11035,-0.672488,2.27775,0.0305758,0.0174176,-0.147192
6.65993,-0.410315,0.833207,1.11035,-0.672492,2.27775,0.0305771,0.0174049,-0.146617
6.67307,-0.410312,0.833206,1.11034,-0.672493,2.27775,0.0305783,0.0173941,-0.146094
6.6862,-0.41031,0.833204,1.11034,-0.672494,2.27775,0.0305794,0.0173848,-0.145628
6.69934,-0.410308,0.833203,1.11034,-0.672494,2.27775,0.0305803,0.0173769,-0.145221
6.71247,-0.410307,0.833203,1.11034,-0.672494,2.27774,0.030581,0.0173699,-0.144872
6.72561,-0.410306,0.833202,1.11034,-0.672493,2.27775,0.0305814,0.0173636,-0.14458
6.73875,-0.410305,0.833202,1.11034,-0.672492,2.27775,0.0305815,0.0173577,-0.144341
6.75188,-0.410304,0.833201,1.11033,-0.672491,2.27775,0.0305813,0.0173522,-0.144149
6.76502,-0.410304,0.833201,1.11033,-0.672489,2.27775,0.0305809,0.0173469,-0.144
6.77815,-0.410304,0.833201,1.11033,-0.672488,2.27775,0.0305803,0.017342,-0.143887
6.79129,-0.410305,0.8332,1.11033,-0.672487,2.27775,0.0305796,0.0173374,-0.143803
6.80443,-0.410305,0.833199,1.11033,-0.672486,2.27775,0.0305789,0.0173332,-0.143743
6.81756,-0.410306,0.833199,1.11033,-0.672486,2.27775,0.0305782,0.0173295,-0.143701
6.8307,-0.410307,0.833198,1.11033,-0.672485,2.27775,0.0305776,0.0173261,-0.143673
6.84383,-0.410308,0.833197,1.11033,-0.672485,2.27775,0.0305771,0.0173232,-0.143655
6.85697,-0.41031,0.833196,1.11033,-0.672485,2.27775,0.0305768,0.0173203,-0.143643
6.87011,-0.410311,0.833195,1.11033,-0.672485,2.27775,0.0305766,0.0173173,-0.143636
6.88324,-0.410313,0.833194,1.11033,-0.672485,2.27775,0.0305765,0.0173136,-0.143633
6.89638,-0.410315,0.833193,1.11033,-0.672485,2.27775,0.0305765,0.0173088,-0.143631
6.90951,-0.410316,0.833192,1.11033,-0.672486,2.27775,0.0305765,0.0173019,-0.14363
6.92265,-0.410317,0.833191,1.11033,-0.672486,2.27775,0.0305765,0.0172919,-0.143631
6.93578,-0.410318,0.833191,1.11033,-0.672486,2.27775,0.0305766,0.0172772,-0.143632
6.94892,-0.410318,0.83319,1.11033,-0.672486,2.27775,0.0305767,0.0172558,-0.143633
6.96206,-0.410318,0.83319,1.11033,-0.672486,2.27775,0.0305768,0.0172254,-0.143635
6.97519,-0.410318,0.833189,1.11033,-0.672486,2.27775,0.030577,0.0171829,-0.143637
6.98833,-0.410317,0.833188,1.11033,-0.672486,2.27775,0.0305772,0.0171249,-0.14364
7.00146,-0.410316,0.833188,1.11033,-0.672486,2.27775,0.0305774,0.0170478,-0.143643
7.0146,-0.410315,0.833187,1.11033,-0.672487,2.27775,0.0305777,0.016948,-0.143646
7.02774,-0.410314,0.833187,1.11033,-0.672487,2.27775,0.0305778,0.0168225,-0.143651
7.04087,-0.410313,0.833186,1.11033,-0.672488,2.27775,0.030578,0.0166691,-0.143657
7.05401,-0.410311,0.833185,1.11033,-0.672489,2.27775,0.0305782,0.0164871,-0.143664
7.06714,-0.41031,0.833185,1.11033,-0.67249,2.27775,0.0305784,0.0162775,-0.143673
7.08028,-0.410308,0.833185,1.11033,-0.672491,2.27774,0.0305787,0.016043,-0.143685
7.09342,-0.410306,0.833185,1.11033,-0.672491,2.27774,0.0305791,0.0157886,-0.143699
7.10655,-0.410304,0.833186,1.11033,-0.672492,2.27774,0.0305796,0.0155207,-0.143717
7.11969,-0.410302,0.833187,1.11033,-0.672493,2.27774,0.0305801,0.015247,-0.143737
7.13282,-0.410299,0.833188,1.11033,-0.672493,2.27774,0.0305808,0.0149757,-0.143762
7.14596,-0.410297,0.833189,1.11032,-0.672494,2.27774,0.0305815,0.014715,-0.143789
7.1591,-0.410295,0.83319,1.11032,-0.672494,2.27774,0.0305822,0.0144721,-0.14382
7.17223,-0.410292,0.833191,1.11032,-0.672495,2.27773,0.0305828,0.0142528,-0.143853
7.18537,-0.410291,0.833192,1.11032,-0.672495,2.27773,0.0305833,0.0140611,-0.143888
7.1985,-0.410289,0.833191,1.11032,-0.672495,2.27773,0.0305837,0.0138987,-0.143923
7.21164,-0.410288,0.83319,1.11032,-0.672496,2.27773,0.0305839,0.0137657,-0.143958
7.22478,-0.410288,0.833189,1.11032,-0.672497,2.27773,0.0305841,0.0136606,-0.143991
7.23791,-0.410288,0.833186,1.11032,-0.672498,2.27773,0.0305841,0.0135803,-0.144023
7.25105,-0.410288,0.833182,1.11032,-0.6725,2.27773,0.0305841,0.0135214,-0.144052
7.26418,-0.410289,0.833178,1.11032,-0.672502,2.27773,0.0305841,0.0134801,-0.144077
7.27732,-0.410291,0.833172,1.11032,-0.672504,2.27773,0.030584,0.0134526,-0.144098
7.29046,-0.410292,0.833166,1.11032,-0.672506,2.27773,0.0305839,0.0134355,-0.144116
7.30359,-0.410294,0.83316,1.11032,-0.672508,2.27773,0.0305837,0.0134261,-0.144131
7.31673,-0.410295,0.833153,1.11032,-0.67251,2.27773,0.0305834,0.0134218,-0.144142
7.32986,-0.410297,0.833146,1.11032,-0.672512,2.27773,0.0305831,0.0134208,-0.14415
7.343,-0.410298,0.833139,1.11033,-0.672514,2.27773,0.0305826,0.0134218,-0.144157
7.35614,-0.410299,0.833132,1.11033,-0.672516,2.27773,0.0305821,0.0134237,-0.144161
7.36927,-0.410299,0.833126,1.11033,-0.672517,2.27773,0.0305814,0.0134259,-0.144164
7.38241,-0.4103,0.83312,1.11033,-0.672518,2.27773,0.0305806,0.0134279,-0.144166
7.39554,-0.4103,0.833115,1.11033,-0.672519,2.27773,0.0305797,0.0134295,-0.144168
7.40868,-0.410299,0.833111,1.11033,-0.672519,2.27773,0.0305787,0.0134305,-0.14417
7.42182,-0.410298,0.833107,1.11033,-0.672519,2.27773,0.0305777,0.0134311,-0.144171
7.43495,-0.410297,0.833104,1.11033,-0.672519,2.27773,0.0305768,0.0134314,-0.144172
7.44809,-0.410296,0.833103,1.11033,-0.672519,2.27773,0.0305759,0.0134316,-0.144174
7.46122,-0.410295,0.833101,1.11033,-0.672519,2.27773,0.0305752,0.0134318,-0.144175
7.47436,-0.410294,0.833101,1.11033,-0.672519,2.27773,0.0305746,0.0134324,-0.144177
7.4875,-0.410292,0.8331,1.11032,-0.67252,2.27773,0.0305742,0.0134334,-0.144178
7.50063,-0.410291,0.833099,1.11032,-0.67252,2.27773,0.0305741,0.0134351,-0.144179
7.51377,-0.41029,0.833098,1.11032,-0.672521,2.27773,0.0305741,0.0134375,-0.14418
7.5269,-0.410289,0.833098,1.11032,-0.672523,2.27773,0.0305744,0.0134407,-0.144181
7.54004,-0.410288,0.833096,1.11032,-0.672525,2.27773,0.0305747,0.0134448,-0.144182
7.55317,-0.410287,0.833095,1.11032,-0.672526,2.27773,0.0305752,0.0134497,-0.144182
7.56631,-0.410286,0.833092,1.11032,-0.672529,2.27773,0.0305756,0.0134557,-0.144183
7.57945,-0.410285,0.83309,1.11032,-0.672531,2.27773,0.0305761,0.0134627,-0.144183
7.59258,-0.410285,0.833088,1.11032,-0.672533,2.27773,0.0305766,0.0134708,-0.144184
7.60572,-0.410284,0.833084,1.11032,-0.672535,2.27773,0.030577,0.0134802,-0.144184
7.61885,-0.410284,0.833081,1.11032,-0.672537,2.27773,0.0305773,0.013491,-0.144184
7.63199,-0.410283,0.833078,1.11032,-0.672539,2.27773,0.0305776,0.0135033,-0.144185
7.64513,-0.410283,0.833074,1.11032,-0.672541,2.27773,0.0305778,0.0135173,-0.144185
7.65826,-0.410283,0.833071,1.11032,-0.672542,2.27773,0.0305779,0.0135333,-0.144184
7.6714,-0.410282,0.833068,1.11032,-0.672544,2.27773,0.030578,0.0135514,-0.144184
7.68453,-0.410282,0.833065,1.11031,-0.672545,2.27773,0.0305781,0.013572,-0.144183
7.69767,-0.410282,0.833062,1.11031,-0.672545,2.27773,0.0305781,0.0135953,-0.144182
7.71081,-0.410282,0.833059,1.11031,-0.672546,2.27773,0.0305781,0.0136218,-0.14418
7.72394,-0.410282,0.833056,1.11031,-0.672547,2.27773,0.0305782,0.0136516,-0.144179
7.73708,-0.410282,0.833053,1.11031,-0.672548,2.27773,0.0305783,0.0136849,-0.144177
7.75021,-0.410281,0.83305,1.11031,-0.672548,2.27773,0.0305785,0.013722,-0.144175
7.76335,-0.410281,0.833047,1.11031,-0.672549,2.27773,0.0305788,0.0137629,-0.144174
7.77649,-0.410281,0.833044,1.11031,-0.67255,2.27773,0.0305791,0.0138073,-0.144172
7.78962,-0.410281,0.83304,1.11031,-0.67255,2.27773,0.0305795,0.013855,-0.14417
7.80276,-0.41028,0.833037,1.11031,-0.672551,2.27773,0.0305801,0.0139056,-0.144168
7.81589,-0.41028,0.833033,1.11031,-0.672552,2.27773,0.0305807,0.0139583,-0.144167
7.82903,-0.41028,0.833029,1.11031,-0.672553,2.27773,0.0305814,0.0140126,-0.144165
7.84217,-0.41028,0.833025,1.11031,-0.672554,2.27773,0.0305821,0.0140675,-0.144163
7.8553,-0.41028,0.833021,1.11031,-0.672555,2.27773,0.0305829,0.0141223,-0.144162
7.86844,-0.41028,0.833017,1.11031,-0.672556,2.27773,0.0305837,0.0141762,-0.14416
7.88157,-0.41028,0.833012,1.11031,-0.672558,2.27773,0.0305843,0.0142284,-0.144158
7.89471,-0.41028,0.833007,1.11032,-0.67256,2.27773,0.0305849,0.0142783,-0.144156
7.90785,-0.41028,0.833001,1.11032,-0.672562,2.27773,0.0305854,0.0143256,-0.144154
7.92098,-0.410281,0.832996,1.11032,-0.672564,2.27773,0.0305857,0.0143703,-0.144152
7.93412,-0.410281,0.83299,1.11032,-0.672566,2.27773,0.0305859,0.0144127,-0.14415
7.94725,-0.410282,0.832984,1.11032,-0.672569,2.27773,0.0305859,0.0144536,-0.144148
7.96039,-0.410283,0.832978,1.11032,-0.672572,2.27773,0.0305859,0.0144942,-0.144145
7.97353,-0.410283,0.832972,1.11032,-0.672575,2.27773,0.0305857,0.0145362,-0.144142
7.98666,-0.410284,0.832966,1.11032,-0.672577,2.27774,0.0305855,0.0145818,-0.144139
7.9998,-0.410284,0.83296,1.11032,-0.672579,2.27774,0.0305854,0.0146337,-0.144135
8.01293,-0.410285,0.832955,1.11032,-0.672581,2.27774,0.0305852,0.0146952,-0.144131
8.02607,-0.410285,0.832949,1.11032,-0.672583,2.27774,0.0305851,0.01477,-0.144126
8.03921,-0.410285,0.832943,1.11032,-0.672584,2.27774,0.030585,0.0148625,-0.144121
8.05234,-0.410285,0.832938,1.11032,-0.672585,2.27774,0.0305849,0.0149774,-0.144114
8.06548,-0.410285,0.832932,1.11032,-0.672586,2.27774,0.0305847,0.0151196,-0.144107
8.07861,-0.410285,0.832927,1.11032,-0.672586,2.27774,0.0305846,0.015294,-0.1441
8.09175,-0.410285,0.832921,1.11032,-0.672587,2.27774,0.0305843,0.0155055,-0.144091
8.10489,-0.410285,0.832915,1.11032,-0.672588,2.27774,0.0305839,0.0157581,-0.144081
8.11802,-0.410285,0.832907,1.11032,-0.672589,2.27774,0.0305834,0.0160551,-0.14407
8.13116,-0.410286,0.8329,1.11032,-0.672589,2.27774,0.0305828,0.0163982,-0.144058
8.14429,-0.410287,0.832893,1.11032,-0.672591,2.27774,0.0305822,0.0167882,-0.144044
8.15743,-0.410287,0.832884,1.11032,-0.672592,2.27774,0.0305815,0.0172236,-0.144029
8.17057,-0.410288,0.832876,1.11032,-0.672594,2.27775,0.0305809,0.0177016,-0.144013
8.1837,-0.410288,0.832868,1.11032,-0.672596,2.27775,0.0305804,0.0182174,-0.143996
8.19684,-0.410289,0.83286,1.11032,-0.672598,2.27775,0.0305802,0.0187642,-0.143977
8.20997,-0.41029,0.832852,1.11032,-0.6726,2.27775,0.0305801,0.0193337,-0.143957
8.22311,-0.410291,0.832845,1.11032,-0.672602,2.27775,0.0305804,0.019916,-0.143936
8.23625,-0.410291,0.83284,1.11032,-0.672605,2.27775,0.0305809,0.0205,-0.143915
8.24938,-0.410292,0.832835,1.11032,-0.672607,2.27776,0.0305816,0.0210738,-0.143894
8.26252,-0.410293,0.832831,1.11032,-0.672609,2.27776,0.0305826,0.0216255,-0.143872
8.27565,-0.410293,0.832829,1.11032,-0.67261,2.27776,0.0305838,0.0221441,-0.143852
8.28879,-0.410294,0.832827,1.11032,-0.672611,2.27777,0.0305851,0.02262,-0.143832
8.30192,-0.410294,0.832826,1.11032,-0.672613,2.27777,0.0305865,0.0230456,-0.143814
8.31506,-0.410295,0.832826,1.11032,-0.672613,2.27778,0.0305878,0.0234163,-0.143798
