timestamp,ArmR2_Sho1,ArmR4_Sho3,ArmR5_Elb1
0,-0.825554,0.0450719,0.597822
0.0142674,-0.823508,0.0446412,0.595417
0.0285349,-0.821829,0.0441751,0.595785
0.0428023,-0.820675,0.0438405,0.596212
0.0570698,-0.819553,0.0435967,0.596858
0.0713372,-0.817114,0.0431538,0.598604
0.0856047,-0.815528,0.0429486,0.599948
0.0998721,-0.812566,0.0427413,0.602723
0.11414,-0.810791,0.0425693,0.604209
0.128407,-0.808526,0.0424069,0.605896
0.142674,-0.804722,0.042041,0.608344
0.156942,-0.80228,0.0417618,0.609605
0.171209,-0.799416,0.0415548,0.610886
0.185477,-0.794294,0.0412375,0.613043
0.199744,-0.791855,0.0410572,0.613976
0.214012,-0.791855,0.0410572,0.613976
0.228279,-0.791855,0.0410571,0.613976
0.242547,-0.791855,0.0410572,0.613976
0.256814,-0.791855,0.0410573,0.613976
0.271081,-0.791855,0.0410572,0.613976
0.285349,-0.791855,0.0410572,0.613976
0.299616,-0.785335,0.0406744,0.615776
0.313884,-0.743429,0.0382311,0.627255
0.328151,-0.736774,0.0379663,0.628314
0.342419,-0.725935,0.0375475,0.629753
0.356686,-0.71948,0.0373551,0.630437
0.370953,-0.711346,0.0370524,0.631232
0.385221,-0.699751,0.0366117,0.632326
0.399488,-0.690632,0.0361634,0.633024
0.413756,-0.678287,0.0355977,0.633955
0.428023,-0.67105,0.0353321,0.634501
0.442291,-0.660955,0.0349448,0.635309
0.456558,-0.648375,0.0343859,0.636375
0.470826,-0.641321,0.0340264,0.636956
0.485093,-0.624587,0.0334465,0.638289
0.499361,-0.615932,0.0332408,0.638978
0.513628,-0.598499,0.0328591,0.640396
0.527895,-0.588885,0.0326273,0.641184
0.542163,-0.577036,0.0322462,0.642235
0.55643,-0.559752,0.031791,0.643764
0.570698,-0.552199,0.0316498,0.644356
0.584965,-0.552199,0.0316498,0.644356
0.599233,-0.552199,0.0316497,0.644356
0.6135,-0.528422,0.0316197,0.64552
0.627767,-0.481279,0.0315529,0.647682
0.642035,-0.464628,0.0315144,0.647959
0.656302,-0.443586,0.0314765,0.648289
0.67057,-0.425146,0.0314485,0.648465
0.684837,-0.398729,0.0314183,0.648646
0.699105,-0.382195,0.0313896,0.648827
0.713372,-0.362523,0.0312882,0.649292
0.727639,-0.339321,0.0311299,0.650176
0.741907,-0.324908,0.0309751,0.651134
0.756174,-0.306316,0.0305855,0.653094
0.770442,-0.279902,0.0297822,0.656921
0.784709,-0.263486,0.0291534,0.660224
0.798977,-0.253054,0.0287496,0.662919
0.813244,-0.253054,0.0287496,0.662919
0.827512,-0.253054,0.0287495,0.662919
0.841779,-0.253054,0.0287496,0.662919
0.856047,-0.253054,0.0287496,0.662919
0.870314,-0.253054,0.0287496,0.662919
0.884581,-0.253054,0.0287497,0.662919
0.898849,-0.253054,0.0287496,0.662919
0.913116,-0.191167,0.0262052,0.703905
0.927384,-0.0454994,0.0203261,0.801948
0.941651,-0.0275064,0.0202249,0.821595
0.955919,-0.00182663,0.0203294,0.850325
0.970186,0.0174211,0.0204191,0.872543
0.984454,0.0436837,0.0207772,0.90405
0.998721,0.0610296,0.0213274,0.92491
1.01299,0.0860278,0.0223581,0.955795
1.02726,0.100896,0.0233478,0.972614
1.04152,0.12101,0.0251728,0.994099
1.05579,0.146671,0.0280435,1.02019
1.07006,0.160397,0.0301656,1.03287
1.08433,0.17672,0.0331859,1.04637
1.09859,0.196178,0.0372222,1.06171
1.11286,0.196178,0.0372223,1.06171
1.12713,0.196178,0.0372223,1.06171
1.1414,0.196178,0.0372222,1.06171
1.15566,0.196178,0.0372223,1.06171
1.16993,0.196178,0.0372223,1.06171
1.1842,0.196178,0.0372222,1.06171
1.19847,0.196178,0.0372223,1.06171
1.21273,0.248746,0.0447377,1.07072
1.227,0.373637,0.0624408,1.09153
1.24127,0.389035,0.0640542,1.0916
1.25553,0.409937,0.0664649,1.09171
1.2698,0.424414,0.0684696,1.09171
1.28407,0.443234,0.0716808,1.0918
1.29834,0.456951,0.0745402,1.0919
1.3126,0.475177,0.0789746,1.092
1.32687,0.484805,0.0817321,1.09208
1.34114,0.4961,0.0852986,1.09204
1.35541,0.510864,0.090657,1.09201
1.36967,0.518231,0.0941958,1.092
1.38394,0.528979,0.0995703,1.09172
1.39821,0.538141,0.104417,1.09138
1.41248,0.538141,0.104417,1.09138
1.42674,0.538142,0.104417,1.09138
1.44101,0.538141,0.104417,1.09138
1.45528,0.538141,0.104417,1.09138
1.46955,0.538141,0.104417,1.09138
1.48381,0.538142,0.104417,1.09138
1.49808,0.538141,0.104417,1.09138
1.51235,0.582912,0.133815,1.07563
1.52662,0.606125,0.148906,1.06417
1.54088,0.610746,0.152094,1.05936
1.55515,0.614023,0.154513,1.05554
1.56942,0.619373,0.158515,1.04812
1.58369,0.622339,0.160837,1.04336
1.59795,0.626411,0.164127,1.03549
1.61222,0.628738,0.166195,1.03005
1.62649,0.630229,0.167762,1.02556
1.64076,0.632894,0.170813,1.01708
1.65502,0.634005,0.172152,1.01311
1.66929,0.635039,0.173492,1.00893
1.68356,0.636797,0.175687,1.00116
1.69783,0.636902,0.175817,1.0007
1.71209,0.636902,0.175817,1.0007
1.72636,0.636902,0.175817,1.0007
1.74063,0.636902,0.175817,1.0007
1.7549,0.636902,0.175817,1.0007
1.76916,0.636902,0.175817,1.0007
1.78343,0.636902,0.175817,1.0007
1.7977,0.636902,0.175817,1.0007
1.81197,0.644317,0.178621,0.96386
1.82623,0.645065,0.178777,0.960424
1.8405,0.646042,0.178765,0.957376
1.85477,0.646672,0.178849,0.955876
1.86904,0.647194,0.178849,0.954625
1.8833,0.64804,0.178848,0.952997
1.89757,0.648499,0.178831,0.95243
1.91184,0.649227,0.178777,0.95173
1.9261,0.64954,0.178773,0.951644
1.94037,0.649914,0.178741,0.951626
1.95464,0.650584,0.178743,0.951652
1.96891,0.650911,0.178763,0.951691
1.98317,0.651681,0.178701,0.951728
1.99744,0.652176,0.178671,0.951731
