timestamp,ArmL1_Cla1,ArmL2_Sho1,ArmL3_Sho2,ArmL4_Sho3,ArmL5_Elb1,ArmL6_Elb2,ArmL7_Wri1,ArmL8_Wri2
0,-0.12122,0.0067555,-0.0695862,0.0373747,1.62565,1.71127,0.055591,-0.164445
0.0157931,-0.121218,0.00590436,-0.0695868,0.0373759,1.62568,1.71127,0.0540187,-0.164522
0.0315862,-0.121215,0.00486479,-0.069587,0.0373769,1.62572,1.71127,0.052055,-0.164636
0.0473793,-0.121212,0.00361618,-0.0695867,0.0373774,1.62579,1.71127,0.0496441,-0.1648
0.0631724,-0.121208,0.00214108,-0.0695859,0.0373774,1.62589,1.71127,0.0467365,-0.165031
0.0789655,-0.121204,0.000427457,-0.0695847,0.037377,1.62602,1.71127,0.0432937,-0.165347
0.0947586,-0.1212,-0.00152907,-0.0695829,0.0373761,1.6262,1.71127,0.039295,-0.165768
0.110552,-0.121196,-0.00372332,-0.0695809,0.037375,1.62645,1.71127,0.0347424,-0.166312
0.126345,-0.121193,-0.0061396,-0.0695787,0.0373738,1.62677,1.71127,0.0296634,-0.166998
0.142138,-0.121191,-0.00875198,-0.0695766,0.0373729,1.62718,1.71127,0.0241115,-0.167842
0.157931,-0.121189,-0.0115261,-0.0695748,0.0373725,1.62768,1.71127,0.0181627,-0.168852
0.173724,-0.121189,-0.0144221,-0.0695737,0.0373729,1.6283,1.71126,0.0119088,-0.170033
0.189517,-0.121191,-0.0173981,-0.0695732,0.0373743,1.62902,1.71126,0.00544994,-0.171381
0.20531,-0.121193,-0.0204144,-0.0695737,0.0373768,1.62986,1.71126,-0.00111392,-0.172884
0.221103,-0.121197,-0.0234358,-0.069575,0.0373802,1.6308,1.71126,-0.00769061,-0.174522
0.236896,-0.121203,-0.0264345,-0.0695772,0.0373845,1.63182,1.71125,-0.014201,-0.17627
0.25269,-0.121209,-0.0293908,-0.06958,0.0373892,1.63291,1.71125,-0.0205825,-0.178095
0.268483,-0.121215,-0.0322939,-0.0695832,0.0373939,1.63405,1.71125,-0.0267897,-0.179964
0.284276,-0.121222,-0.035141,-0.0695865,0.0373977,1.6352,1.71124,-0.0327948,-0.181841
0.300069,-0.121228,-0.0379372,-0.0695891,0.0373999,1.63635,1.71124,-0.0385854,-0.183692
0.315862,-0.121233,-0.0406943,-0.0695905,0.0373994,1.63746,1.71124,-0.0441629,-0.185485
0.331655,-0.121237,-0.0434293,-0.06959,0.037395,1.63852,1.71123,-0.0495387,-0.187196
0.347448,-0.12124,-0.0461625,-0.0695868,0.0373855,1.6395,1.71123,-0.0547308,-0.188804
0.363241,-0.121241,-0.048915,-0.0695803,0.0373698,1.6404,1.71123,-0.0597585,-0.190294
0.379034,-0.121241,-0.0517053,-0.0695697,0.0373468,1.64122,1.71122,-0.0646366,-0.191658
0.394827,-0.121238,-0.0545464,-0.0695546,0.0373155,1.64193,1.71122,-0.0693707,-0.192891
0.41062,-0.121235,-0.0574428,-0.0695347,0.0372752,1.64256,1.71122,-0.0739526,-0.193992
0.426414,-0.121231,-0.0603896,-0.0695098,0.0372252,1.64309,1.71122,-0.0783594,-0.194964
0.442207,-0.121227,-0.0633719,-0.0694798,0.0371653,1.64354,1.71121,-0.082554,-0.195808
0.458,-0.121223,-0.0663669,-0.0694445,0.0370953,1.64392,1.71121,-0.0864902,-0.19653
0.473793,-0.121219,-0.0693465,-0.0694037,0.0370154,1.64422,1.71121,-0.0901185,-0.197136
0.489586,-0.121216,-0.072281,-0.0693571,0.0369257,1.64446,1.71121,-0.0933945,-0.197634
0.505379,-0.121214,-0.0751422,-0.0693043,0.0368267,1.64464,1.71121,-0.0962843,-0.198033
0.521172,-0.121213,-0.0779065,-0.0692447,0.0367185,1.64477,1.71121,-0.0987706,-0.198344
0.536965,-0.121214,-0.0805565,-0.0691775,0.0366012,1.64485,1.7112,-0.100854,-0.198579
0.552758,-0.121215,-0.0830813,-0.0691021,0.0364744,1.64489,1.7112,-0.102553,-0.198751
0.568551,-0.121218,-0.0854767,-0.0690179,0.0363367,1.64489,1.7112,-0.1039,-0.198871
0.584345,-0.121221,-0.0877445,-0.0689244,0.0361855,1.64486,1.7112,-0.104938,-0.198951
0.600138,-0.121225,-0.0898916,-0.0688214,0.0360169,1.64478,1.71119,-0.105716,-0.198999
0.615931,-0.121229,-0.0919294,-0.0687089,0.0358251,1.64467,1.71119,-0.106282,-0.199025
0.631724,-0.121234,-0.093873,-0.0685871,0.0356025,1.64451,1.71118,-0.106683,-0.199034
0.647517,-0.121238,-0.0957403,-0.0684569,0.0353401,1.64429,1.71116,-0.106957,-0.199029
0.66331,-0.121242,-0.0975513,-0.0683193,0.0350273,1.644,1.71115,-0.10714,-0.199012
0.679103,-0.121246,-0.0993259,-0.0681756,0.0346535,1.64363,1.71112,-0.107258,-0.198984
0.694896,-0.12125,-0.101083,-0.0680277,0.0342081,1.64316,1.71108,-0.107331,-0.198943
0.710689,-0.121253,-0.10284,-0.0678777,0.0336818,1.64259,1.71103,-0.107375,-0.198886
0.726482,-0.121256,-0.104609,-0.0677282,0.0330671,1.64191,1.71095,-0.107399,-0.19881
0.742276,-0.121258,-0.106398,-0.0675814,0.0323593,1.6411,1.71084,-0.107411,-0.198709
0.758069,-0.12126,-0.108212,-0.0674395,0.0315565,1.64016,1.71069,-0.107415,-0.198577
0.773862,-0.121261,-0.110052,-0.0673041,0.03066,1.63909,1.71048,-0.107414,-0.198407
0.789655,-0.121263,-0.111917,-0.0671763,0.0296743,1.63791,1.71021,-0.107408,-0.198192
0.805448,-0.121263,-0.113805,-0.0670561,0.0286065,1.63661,1.70985,-0.1074,-0.197923
0.821241,-0.121263,-0.115714,-0.0669424,0.0274656,1.63521,1.7094,-0.107388,-0.197595
0.837034,-0.121263,-0.117644,-0.0668333,0.0262626,1.63373,1.70884,-0.107371,-0.197199
0.852827,-0.121262,-0.119595,-0.0667259,0.0250084,1.63219,1.70816,-0.107348,-0.196731
0.86862,-0.121261,-0.12157,-0.0666168,0.0237135,1.63059,1.70734,-0.107316,-0.196186
0.884413,-0.12126,-0.123574,-0.0665018,0.0223865,1.62897,1.70637,-0.107271,-0.195558
0.900206,-0.12126,-0.125613,-0.0663766,0.021033,1.62733,1.70524,-0.10721,-0.194844
0.916,-0.121259,-0.127695,-0.0662364,0.0196548,1.62569,1.70394,-0.107126,-0.194038
0.931793,-0.12126,-0.129831,-0.0660768,0.0182495,1.62404,1.70247,-0.107013,-0.193135
0.947586,-0.12126,-0.132033,-0.0658933,0.0168108,1.6224,1.70081,-0.106864,-0.192128
0.963379,-0.121262,-0.134313,-0.065682,0.0153298,1.62076,1.69896,-0.106671,-0.191008
0.979172,-0.121264,-0.136681,-0.0654396,0.0137964,1.61913,1.69692,-0.106426,-0.189771
0.994965,-0.121266,-0.139145,-0.0651639,0.0122017,1.6175,1.69469,-0.106123,-0.188408
1.01076,-0.121269,-0.141708,-0.0648536,0.0105396,1.61586,1.69228,-0.105753,-0.186918
1.02655,-0.121272,-0.144367,-0.0645087,0.00880819,1.61423,1.68971,-0.105313,-0.185301
1.04234,-0.121275,-0.147113,-0.0641306,0.00701048,1.6126,1.687,-0.104798,-0.18356
1.05814,-0.121278,-0.149932,-0.0637213,0.00515397,1.61097,1.68417,-0.104207,-0.181704
1.07393,-0.12128,-0.152805,-0.0632842,0.0032495,1.60935,1.68128,-0.103538,-0.179746
1.08972,-0.121282,-0.155712,-0.062823,0.00130973,1.60774,1.67835,-0.102796,-0.1777
1.10552,-0.121283,-0.158632,-0.0623417,-0.000652549,1.60613,1.67542,-0.101983,-0.175583
1.12131,-0.121284,-0.161546,-0.0618442,-0.0026257,1.60452,1.67255,-0.101109,-0.173413
1.1371,-0.121284,-0.164439,-0.0613344,-0.00460017,1.60291,1.66975,-0.100185,-0.171208
1.1529,-0.121284,-0.167298,-0.0608155,-0.00656892,1.60129,1.66707,-0.0992228,-0.168988
1.16869,-0.121283,-0.170112,-0.0602902,-0.00852758,1.59965,1.66453,-0.098241,-0.166769
1.18448,-0.121282,-0.172878,-0.0597602,-0.0104746,1.59799,1.66215,-0.097258,-0.164571
1.20028,-0.12128,-0.175594,-0.059226,-0.0124114,1.5963,1.65997,-0.0962938,-0.162409
1.21607,-0.121278,-0.178267,-0.0586868,-0.0143428,1.59458,1.65798,-0.0953685,-0.160296
1.23186,-0.121276,-0.180906,-0.0581408,-0.016277,1.59282,1.6562,-0.0945002,-0.158245
1.24765,-0.121274,-0.183529,-0.0575848,-0.0182254,1.59101,1.65464,-0.0937041,-0.156263
1.26345,-0.121273,-0.186156,-0.0570151,-0.020202,1.58915,1.65327,-0.092991,-0.154353
1.27924,-0.121272,-0.188808,-0.0564281,-0.0222214,1.58723,1.65211,-0.0923665,-0.152517
1.29503,-0.121274,-0.191508,-0.0558212,-0.0242966,1.58524,1.65113,-0.0918307,-0.150755
1.31083,-0.121276,-0.19427,-0.0551933,-0.0264367,1.58319,1.65032,-0.0913786,-0.149063
1.32662,-0.12128,-0.197104,-0.0545459,-0.0286447,1.58107,1.64965,-0.0910007,-0.147442
1.34241,-0.121286,-0.20001,-0.0538831,-0.030916,1.5789,1.64912,-0.0906841,-0.145889
1.35821,-0.121294,-0.202976,-0.0532117,-0.0332387,1.57669,1.64869,-0.0904137,-0.144407
1.374,-0.121303,-0.205985,-0.0525405,-0.0355946,1.57447,1.64835,-0.0901732,-0.142997
1.38979,-0.121314,-0.209015,-0.0518797,-0.0379614,1.57224,1.64808,-0.089946,-0.14166
1.40559,-0.121325,-0.212039,-0.0512398,-0.0403151,1.57003,1.64788,-0.0897162,-0.140396
1.42138,-0.121336,-0.215035,-0.0506307,-0.0426328,1.56786,1.64772,-0.0894692,-0.139201
1.43717,-0.121348,-0.217983,-0.0500604,-0.0448947,1.56574,1.64761,-0.0891916,-0.138071
1.45296,-0.121358,-0.220867,-0.0495353,-0.0470854,1.56367,1.64753,-0.0888714,-0.136996
1.46876,-0.121368,-0.223678,-0.0490588,-0.049195,1.56166,1.64747,-0.0884976,-0.135966
1.48455,-0.121376,-0.226417,-0.0486323,-0.0512191,1.55969,1.64742,-0.0880597,-0.134968
1.50034,-0.121382,-0.229087,-0.0482546,-0.0531594,1.55777,1.6474,-0.0875474,-0.133988
1.51614,-0.121387,-0.231699,-0.0479226,-0.0550235,1.55586,1.64738,-0.0869497,-0.133012
1.53193,-0.12139,-0.234271,-0.0476317,-0.0568239,1.55396,1.64736,-0.0862552,-0.132025
1.54772,-0.121393,-0.236825,-0.0473765,-0.0585779,1.55205,1.64736,-0.0854527,-0.131012
1.56352,-0.121395,-0.239384,-0.0471512,-0.0603053,1.55009,1.64735,-0.0845318,-0.129957
1.57931,-0.121397,-0.241971,-0.0469503,-0.0620264,1.54808,1.64735,-0.0834851,-0.128847
1.5951,-0.121399,-0.244605,-0.0467688,-0.0637598,1.546,1.64735,-0.0823098,-0.12767
1.6109,-0.121402,-0.2473,-0.0466026,-0.0655192,1.54382,1.64735,-0.0810092,-0.126418
1.62669,-0.121404,-0.250059,-0.0464489,-0.067312,1.54156,1.64735,-0.079594,-0.125087
1.64248,-0.121406,-0.252875,-0.0463056,-0.0691383,1.53921,1.64735,-0.0780823,-0.123677
1.65828,-0.121409,-0.255734,-0.0461717,-0.0709912,1.53679,1.64735,-0.0764987,-0.122193
1.67407,-0.121411,-0.258614,-0.0460466,-0.0728586,1.53431,1.64735,-0.0748717,-0.120646
1.68986,-0.121414,-0.26149,-0.04593,-0.0747251,1.53179,1.64735,-0.0732317,-0.119049
1.70565,-0.121416,-0.264338,-0.0458217,-0.076575,1.52926,1.64735,-0.0716079,-0.117414
1.72145,-0.121418,-0.267136,-0.0457215,-0.0783944,1.52673,1.64735,-0.0700262,-0.115759
1.73724,-0.121421,-0.269868,-0.0456288,-0.0801731,1.52421,1.64735,-0.0685071,-0.114096
1.75303,-0.121424,-0.272523,-0.0455429,-0.0819052,1.52173,1.64735,-0.067066,-0.112438
1.76883,-0.121427,-0.275098,-0.0454631,-0.0835894,1.51928,1.64735,-0.0657122,-0.110794
1.78462,-0.12143,-0.277595,-0.0453881,-0.085228,1.51688,1.64735,-0.0644506,-0.109169
1.80041,-0.121433,-0.280023,-0.0453169,-0.0868269,1.51451,1.64735,-0.0632822,-0.107567
1.81621,-0.121437,-0.282396,-0.045248,-0.0883937,1.51217,1.64735,-0.0622058,-0.105986
1.832,-0.12144,-0.284731,-0.04518,-0.0899381,1.50986,1.64736,-0.0612182,-0.104422
1.84779,-0.121443,-0.287049,-0.0451117,-0.0914702,1.50755,1.64736,-0.0603155,-0.10287
1.86359,-0.121446,-0.289373,-0.0450417,-0.0930003,1.50522,1.64736,-0.0594936,-0.101322
1.87938,-0.121448,-0.291724,-0.0449694,-0.094538,1.50286,1.64736,-0.0587486,-0.0997718
1.89517,-0.12145,-0.294121,-0.0448943,-0.0960913,1.50046,1.64736,-0.0580768,-0.0982153
1.91096,-0.121452,-0.296578,-0.0448169,-0.0976653,1.498,1.64737,-0.0574753,-0.0966519
1.92676,-0.121454,-0.2991,-0.0447379,-0.0992627,1.49548,1.64737,-0.0569416,-0.0950857
1.94255,-0.121455,-0.301688,-0.0446587,-0.100882,1.49291,1.64737,-0.0564735,-0.0935252
1.95834,-0.121456,-0.304334,-0.0445811,-0.10252,1.49028,1.64738,-0.056069,-0.0919827
1.97414,-0.121458,-0.307028,-0.0445068,-0.10417,1.48762,1.64738,-0.0557257,-0.0904726
1.98993,-0.121458,-0.309753,-0.0444372,-0.105824,1.48493,1.64739,-0.0554405,-0.0890104
2.00572,-0.121459,-0.312493,-0.0443734,-0.107472,1.48225,1.64739,-0.0552091,-0.0876102
2.02152,-0.121459,-0.315235,-0.0443159,-0.109107,1.47958,1.6474,-0.0550263,-0.0862846
2.03731,-0.121459,-0.317965,-0.0442647,-0.110721,1.47694,1.64741,-0.0548862,-0.0850432
2.0531,-0.121458,-0.320675,-0.0442191,-0.112308,1.47433,1.64743,-0.0547821,-0.0838932
2.0689,-0.121458,-0.323357,-0.0441786,-0.113864,1.47177,1.64745,-0.0547073,-0.0828398
2.08469,-0.121458,-0.326011,-0.0441423,-0.115389,1.46926,1.64747,-0.0546555,-0.081886
2.10048,-0.121458,-0.32864,-0.0441092,-0.116886,1.4668,1.64751,-0.054621,-0.0810335
2.11627,-0.121459,-0.331252,-0.0440787,-0.118362,1.46438,1.64756,-0.0545989,-0.0802826
2.13207,-0.121461,-0.33386,-0.0440503,-0.119827,1.462,1.64763,-0.0545855,-0.0796319
2.14786,-0.121464,-0.336483,-0.0440236,-0.121297,1.45965,1.64772,-0.0545777,-0.0790785
2.16365,-0.121469,-0.339144,-0.0439983,-0.122789,1.4573,1.64783,-0.0545735,-0.0786176
2.17945,-0.121475,-0.341865,-0.0439739,-0.124319,1.45494,1.64798,-0.0545712,-0.0782423
2.19524,-0.121482,-0.344669,-0.0439501,-0.125903,1.45255,1.64816,-0.0545699,-0.0779443
2.21103,-0.12149,-0.347572,-0.0439262,-0.127552,1.4501,1.64838,-0.0545689,-0.0777138
2.22683,-0.121499,-0.350582,-0.0439013,-0.129271,1.44759,1.64865,-0.0545677,-0.0775404
2.24262,-0.121508,-0.353697,-0.0438748,-0.131059,1.445,1.64895,-0.0545662,-0.0774137
2.25841,-0.121516,-0.356907,-0.0438454,-0.132907,1.44234,1.6493,-0.0545642,-0.0773237
2.27421,-0.121524,-0.360191,-0.0438124,-0.134804,1.43961,1.6497,-0.0545618,-0.0772614
2.29,-0.121531,-0.363523,-0.0437746,-0.136736,1.43683,1.65013,-0.0545591,-0.0772192
2.30579,-0.121537,-0.366874,-0.0437313,-0.138687,1.43402,1.6506,-0.0545561,-0.0771908
2.32158,-0.121542,-0.370217,-0.0436817,-0.140644,1.4312,1.6511,-0.054553,-0.0771709
2.33738,-0.121546,-0.373526,-0.0436254,-0.142598,1.42839,1.65162,-0.0545499,-0.0771557
2.35317,-0.121549,-0.37678,-0.043562,-0.144541,1.4256,1.65218,-0.0545472,-0.0771417
2.36896,-0.12155,-0.379967,-0.043491,-0.146471,1.42285,1.65275,-0.0545448,-0.0771258
2.38476,-0.121551,-0.383079,-0.0434122,-0.14839,1.42014,1.65335,-0.0545428,-0.0771046
2.40055,-0.121551,-0.386116,-0.0433253,-0.1503,1.41748,1.65396,-0.0545414,-0.0770742
2.41634,-0.12155,-0.389087,-0.0432297,-0.152212,1.41486,1.6546,-0.0545405,-0.0770298
2.43214,-0.121549,-0.39201,-0.0431247,-0.154137,1.41225,1.65525,-0.05454,-0.0769653
2.44793,-0.121548,-0.394907,-0.0430093,-0.156093,1.40964,1.65592,-0.0545397,-0.0768734
2.46372,-0.121548,-0.397808,-0.0428825,-0.158098,1.407,1.65663,-0.0545395,-0.0767459
2.47952,-0.121549,-0.400745,-0.0427432,-0.160174,1.4043,1.65735,-0.0545392,-0.0765735
2.49531,-0.121551,-0.403745,-0.0425905,-0.162339,1.4015,1.65811,-0.0545382,-0.0763471
2.5111,-0.121554,-0.406833,-0.0424237,-0.164608,1.39859,1.6589,-0.0545362,-0.0760576
2.5269,-0.121559,-0.410021,-0.042243,-0.16699,1.39555,1.65971,-0.0545325,-0.0756972
2.54269,-0.121564,-0.413306,-0.0420487,-0.169482,1.39239,1.66053,-0.0545264,-0.0752596
2.55848,-0.121571,-0.416677,-0.041842,-0.172076,1.38912,1.66135,-0.0545168,-0.0747407
2.57427,-0.121579,-0.420107,-0.0416246,-0.174753,1.38578,1.66216,-0.054502,-0.0741387
2.59007,-0.121588,-0.423563,-0.0413983,-0.177489,1.38238,1.66293,-0.0544801,-0.0734543
2.60586,-0.121596,-0.427009,-0.0411651,-0.180259,1.37899,1.66366,-0.054448,-0.0726901
2.62165,-0.121605,-0.43041,-0.0409267,-0.183037,1.37562,1.66433,-0.0544016,-0.0718507
2.63745,-0.121614,-0.433734,-0.0406846,-0.185798,1.37232,1.66493,-0.0543355,-0.0709416
2.65324,-0.121623,-0.436959,-0.0404397,-0.188525,1.3691,1.66546,-0.0542425,-0.0699684
2.66903,-0.121633,-0.440071,-0.0401927,-0.191203,1.36598,1.6659,-0.0541129,-0.0689358
2.68483,-0.121643,-0.443064,-0.0399436,-0.193827,1.36298,1.66628,-0.0539347,-0.067846
2.70062,-0.121654,-0.445943,-0.0396921,-0.196396,1.36008,1.66658,-0.0536931,-0.0666976
2.71641,-0.121666,-0.44872,-0.0394374,-0.198919,1.35727,1.66682,-0.0533702,-0.0654844
2.73221,-0.121679,-0.451418,-0.0391785,-0.201412,1.35452,1.66701,-0.0529457,-0.0641953
2.748,-0.121693,-0.454064,-0.0389137,-0.203896,1.35182,1.66716,-0.0523973,-0.0628138
2.76379,-0.121708,-0.45669,-0.0386413,-0.206397,1.34912,1.66728,-0.0517023,-0.0613207
2.77958,-0.121723,-0.459327,-0.0383593,-0.208942,1.34638,1.66738,-0.0508391,-0.0596957
2.79538,-0.121737,-0.462004,-0.0380657,-0.211555,1.34358,1.66746,-0.0497893,-0.057921
2.81117,-0.121751,-0.464739,-0.0377592,-0.214252,1.34068,1.66754,-0.0485395,-0.0559848
2.82696,-0.121763,-0.467542,-0.0374384,-0.21704,1.33768,1.66762,-0.0470833,-0.0538841
2.84276,-0.121773,-0.470406,-0.037103,-0.219912,1.33457,1.6677,-0.0454219,-0.0516263
2.85855,-0.12178,-0.473316,-0.0367532,-0.222852,1.33137,1.66779,-0.0435643,-0.0492292
2.87434,-0.121785,-0.476243,-0.0363893,-0.225832,1.32809,1.66789,-0.0415263,-0.0467196
2.89014,-0.121788,-0.479156,-0.0360124,-0.228824,1.32478,1.66799,-0.0393297,-0.0441304
2.90593,-0.121789,-0.48202,-0.0356233,-0.231795,1.32145,1.6681,-0.037,-0.0414973
2.92172,-0.121789,-0.484805,-0.0352228,-0.234718,1.31816,1.66822,-0.0345655,-0.0388556
2.93752,-0.121787,-0.48749,-0.0348112,-0.237571,1.31491,1.66833,-0.0320552,-0.0362376
2.95331,-0.121786,-0.490059,-0.0343885,-0.240342,1.31173,1.66845,-0.0294984,-0.0336705
2.9691,-0.121784,-0.492508,-0.0339541,-0.243023,1.30863,1.66857,-0.0269234,-0.0311753
2.9849,-0.121783,-0.494839,-0.0335066,-0.245617,1.30561,1.6687,-0.0243568,-0.0287664
3.00069,-0.121781,-0.497062,-0.0330434,-0.24813,1.30266,1.66883,-0.0218223,-0.0264513
3.01648,-0.12178,-0.499193,-0.0325606,-0.250576,1.29977,1.66899,-0.0193396,-0.0242308
3.03227,-0.121779,-0.501254,-0.0320527,-0.252972,1.29691,1.66918,-0.0169238,-0.0220991
3.04807,-0.121779,-0.503268,-0.031513,-0.255341,1.29406,1.66941,-0.0145845,-0.0200447
3.06386,-0.121778,-0.505261,-0.0309335,-0.257705,1.29118,1.66972,-0.0123269,-0.018052
3.07965,-0.121778,-0.507259,-0.0303062,-0.26009,1.28823,1.6701,-0.0101533,-0.0161036
3.09545,-0.121779,-0.509283,-0.0296237,-0.262516,1.2852,1.6706,-0.00806484,-0.0141829
3.11124,-0.12178,-0.51135,-0.0288807,-0.265001,1.28204,1.67122,-0.00606439,-0.0122768
3.12703,-0.121782,-0.513469,-0.0280745,-0.267552,1.27876,1.67199,-0.00415845,-0.0103786
3.14283,-0.121785,-0.515639,-0.0272058,-0.270169,1.27536,1.67292,-0.002358,-0.00848892
3.15862,-0.121788,-0.517852,-0.0262788,-0.272841,1.27186,1.67402,-0.000678009,-0.00661591
3.17441,-0.121792,-0.520092,-0.0253004,-0.27555,1.26829,1.6753,0.000864438,-0.0047739
3.19021,-0.121796,-0.522339,-0.0242799,-0.278274,1.26468,1.67675,0.00225289,-0.0029811
3.206,-0.1218,-0.524574,-0.0232274,-0.28099,1.26109,1.67837,0.00347453,-0.00125684
3.22179,-0.121803,-0.526776,-0.0221532,-0.283675,1.25753,1.68016,0.00452256,0.000381161
3.23758,-0.121804,-0.52893,-0.0210667,-0.286311,1.25406,1.68208,0.00539762,0.00191887
3.25338,-0.121804,-0.531028,-0.0199755,-0.288887,1.25069,1.68414,0.00610786,0.00334732
3.26917,-0.121803,-0.533065,-0.0188851,-0.291399,1.24743,1.68631,0.00666785,0.00466305
3.28496,-0.121801,-0.535044,-0.0177987,-0.293849,1.24429,1.68858,0.00709669,0.00586807
3.30076,-0.121798,-0.536974,-0.0167168,-0.296248,1.24126,1.69093,0.0074158,0.00696933
3.31655,-0.121794,-0.538869,-0.0156372,-0.298614,1.23833,1.69335,0.00764676,0.00797798
3.33234,-0.121792,-0.540747,-0.0145555,-0.300969,1.23549,1.69584,0.00780968,0.00890869
3.34814,-0.12179,-0.542628,-0.0134656,-0.303339,1.2327,1.6984,0.00792207,0.00977873
3.36393,-0.12179,-0.544533,-0.0123603,-0.30575,1.22993,1.70103,0.0079983,0.0106072
3.37972,-0.121791,-0.546482,-0.0112329,-0.308228,1.22717,1.70372,0.00804964,0.0114139
3.39552,-0.121793,-0.548489,-0.0100781,-0.310791,1.22439,1.70646,0.00808446,0.0122182
3.41131,-0.121796,-0.550564,-0.0088932,-0.313451,1.22157,1.70924,0.00810881,0.0130382
3.4271,-0.121801,-0.552709,-0.0076793,-0.316209,1.21871,1.71203,0.00812692,0.0138892
3.44289,-0.121805,-0.554915,-0.00644107,-0.319057,1.21581,1.71479,0.00814173,0.0147834
3.45869,-0.121809,-0.557173,-0.00518668,-0.321978,1.21288,1.71749,0.00815543,0.0157288
3.47448,-0.121813,-0.559462,-0.00392682,-0.324951,1.20994,1.72008,0.00816986,0.0167294
3.49027,-0.121815,-0.561762,-0.00267346,-0.32795,1.207,1.72252,0.008187,0.0177851
3.50607,-0.121816,-0.564055,-0.00143853,-0.330951,1.2041,1.72476,0.00820937,0.0188923
3.52186,-0.121815,-0.56632,-0.000232817,-0.333933,1.20125,1.72679,0.00824065,0.0200443
3.53765,-0.121813,-0.568543,0.000934918,-0.33688,1.19845,1.72857,0.00828633,0.0212323
3.55345,-0.121809,-0.570713,0.00205836,-0.339782,1.19573,1.73011,0.00835459,0.0224464
3.56924,-0.121803,-0.572821,0.00313384,-0.342636,1.19309,1.73141,0.00845725,0.0236767
3.58503,-0.121796,-0.574867,0.00416031,-0.345447,1.19053,1.73249,0.00861086,0.0249152
3.60083,-0.121788,-0.576849,0.00513928,-0.348223,1.18804,1.73335,0.00883762,0.0261562
3.61662,-0.121779,-0.578774,0.00607462,-0.350983,1.1856,1.73404,0.00916606,0.0273985
3.63241,-0.121769,-0.580649,0.00697227,-0.35375,1.18322,1.73456,0.00963108,0.0286451
3.64821,-0.12176,-0.582485,0.0078398,-0.356553,1.18085,1.73496,0.0102732,0.0299042
3.664,-0.121751,-0.584294,0.00868559,-0.359424,1.17849,1.73526,0.0111372,0.0311881
3.67979,-0.121743,-0.586089,0.00951787,-0.362393,1.1761,1.73547,0.0122691,0.0325115
3.69558,-0.121737,-0.587879,0.0103435,-0.365486,1.17366,1.73562,0.0137134,0.0338902
3.71138,-0.121732,-0.589667,0.0111669,-0.368721,1.17117,1.73572,0.0155091,0.0353388
3.72717,-0.121729,-0.591452,0.0119891,-0.372102,1.1686,1.73579,0.0176864,0.0368684
3.74296,-0.121727,-0.593226,0.0128079,-0.375617,1.16596,1.73583,0.0202636,0.0384859
3.75876,-0.121726,-0.594973,0.0136175,-0.379245,1.16326,1.73586,0.0232448,0.0401932
3.77455,-0.121727,-0.596673,0.0144097,-0.382949,1.16051,1.73588,0.0266196,0.0419878
3.79034,-0.121728,-0.598304,0.0151753,-0.386689,1.15775,1.7359,0.0303626,0.0438635
3.80614,-0.121728,-0.599845,0.0159049,-0.390421,1.15499,1.7359,0.0344355,0.0458122
3.82193,-0.121728,-0.601278,0.0165908,-0.394106,1.15227,1.73591,0.0387888,0.0478256
3.83772,-0.121727,-0.602589,0.0172269,-0.397709,1.14959,1.73592,0.0433657,0.0498964
3.85352,-0.121725,-0.603771,0.0178103,-0.401207,1.14698,1.73592,0.0481049,0.0520199
3.86931,-0.121721,-0.604823,0.0183402,-0.404586,1.14445,1.73592,0.0529455,0.054195
3.8851,-0.121715,-0.605748,0.0188187,-0.407847,1.14199,1.73593,0.0578301,0.056425
3.90089,-0.121707,-0.606554,0.0192494,-0.410998,1.13961,1.73593,0.0627091,0.0587182
3.91669,-0.121698,-0.607253,0.0196376,-0.414061,1.13728,1.73593,0.0675421,0.0610872
3.93248,-0.121686,-0.607857,0.0199896,-0.417065,1.13499,1.73594,0.0722998,0.0635481
3.94827,-0.121673,-0.608381,0.0203121,-0.420043,1.13272,1.73594,0.0769623,0.0661184
3.96407,-0.121659,-0.608838,0.0206116,-0.423032,1.13045,1.73594,0.0815163,0.0688144
3.97986,-0.121643,-0.609242,0.0208947,-0.426066,1.12816,1.73595,0.0859515,0.0716473
3.99565,-0.121626,-0.609604,0.0211671,-0.429172,1.12585,1.73595,0.0902557,0.0746205
4.01145,-0.121608,-0.609933,0.0214339,-0.432367,1.12351,1.73596,0.0944117,0.0777267
4.02724,-0.12159,-0.610237,0.0216994,-0.43566,1.12116,1.73596,0.0983948,0.0809474
4.04303,-0.121572,-0.610522,0.0219668,-0.439046,1.11881,1.73597,0.102174,0.0842533
4.05883,-0.121555,-0.61079,0.0222387,-0.442511,1.1165,1.73598,0.105713,0.0876068
4.07462,-0.121539,-0.611045,0.0225171,-0.446034,1.11426,1.73599,0.108978,0.0909658
4.09041,-0.121525,-0.611287,0.0228031,-0.449589,1.11212,1.736,0.111938,0.0942879
4.1062,-0.121513,-0.611516,0.0230976,-0.453153,1.11011,1.73602,0.114572,0.0975338
4.122,-0.121504,-0.611733,0.0234008,-0.456702,1.10827,1.73605,0.11687,0.10067
4.13779,-0.121498,-0.611937,0.0237127,-0.460216,1.10661,1.73609,0.118836,0.103672
4.15358,-0.121495,-0.612129,0.024033,-0.46368,1.10513,1.73614,0.120484,0.106522
4.16938,-0.121494,-0.612309,0.0243612,-0.467083,1.10386,1.73623,0.12184,0.109209
4.18517,-0.121496,-0.612477,0.0246966,-0.470418,1.10277,1.73636,0.122933,0.111732
4.20096,-0.121499,-0.612635,0.025039,-0.473684,1.10187,1.73654,0.123798,0.114092
4.21676,-0.121504,-0.612783,0.0253884,-0.476884,1.10114,1.7368,0.124469,0.116297
4.23255,-0.121508,-0.612922,0.0257452,-0.480022,1.10055,1.73715,0.12498,0.118357
4.24834,-0.121512,-0.613054,0.0261101,-0.483111,1.1001,1.73761,0.125361,0.120287
4.26414,-0.121515,-0.613179,0.026484,-0.486161,1.09975,1.7382,0.125638,0.122101
4.27993,-0.121516,-0.613298,0.0268674,-0.489184,1.09949,1.73896,0.125834,0.123812
4.29572,-0.121513,-0.613412,0.0272604,-0.492191,1.0993,1.73989,0.125968,0.125434
4.31152,-0.121507,-0.613519,0.0276621,-0.495186,1.09916,1.74102,0.126056,0.126977
4.32731,-0.121498,-0.613619,0.028071,-0.498172,1.09906,1.74235,0.126111,0.128446
4.3431,-0.121484,-0.613712,0.0284845,-0.501143,1.09898,1.74389,0.126142,0.129843
4.35889,-0.121468,-0.613798,0.0288997,-0.504092,1.09892,1.74564,0.126156,0.131167
4.37469,-0.121447,-0.613874,0.0293133,-0.507008,1.09885,1.74761,0.126159,0.132414
4.39048,-0.121424,-0.61394,0.0297226,-0.509881,1.09878,1.74978,0.126154,0.133578
4.40627,-0.121399,-0.613997,0.0301254,-0.512702,1.09869,1.75216,0.126146,0.134654
4.42207,-0.121372,-0.614043,0.0305199,-0.515464,1.09859,1.75472,0.126135,0.135638
4.43786,-0.121344,-0.61408,0.0309054,-0.518165,1.09845,1.75745,0.126123,0.136527
4.45365,-0.121315,-0.614109,0.0312815,-0.520804,1.09827,1.76035,0.126111,0.137319
4.46945,-0.121286,-0.61413,0.0316483,-0.523387,1.09805,1.76339,0.1261,0.138017
4.48524,-0.121256,-0.614146,0.0320059,-0.52592,1.09777,1.76657,0.126089,0.138624
4.50103,-0.121226,-0.614155,0.0323543,-0.528415,1.09744,1.76988,0.126079,0.139143
4.51683,-0.121196,-0.614161,0.0326937,-0.530889,1.09703,1.77331,0.126071,0.139581
4.53262,-0.121165,-0.614164,0.0330237,-0.53336,1.09655,1.77687,0.126065,0.139947
4.54841,-0.121134,-0.614166,0.0333441,-0.535853,1.09599,1.78057,0.12606,0.140248
4.56421,-0.121103,-0.614166,0.033654,-0.538392,1.09534,1.78442,0.126058,0.140495
4.58,-0.121072,-0.614167,0.0339526,-0.541001,1.09461,1.78842,0.126058,0.140698
4.59579,-0.121041,-0.614167,0.0342384,-0.543701,1.09379,1.79258,0.12606,0.140868
4.61158,-0.12101,-0.614169,0.0345095,-0.546505,1.09289,1.79689,0.126064,0.141016
4.62738,-0.120979,-0.614171,0.0347636,-0.549415,1.09193,1.80132,0.126069,0.141152
4.64317,-0.120948,-0.614174,0.034998,-0.552428,1.09092,1.80584,0.126076,0.141287
4.65896,-0.120917,-0.614177,0.0352103,-0.555527,1.08989,1.81039,0.126083,0.141428
4.67476,-0.120886,-0.61418,0.035398,-0.558689,1.08886,1.81493,0.126091,0.141585
4.69055,-0.120857,-0.614183,0.0355596,-0.56189,1.08785,1.81939,0.126098,0.141766
4.70634,-0.120827,-0.614186,0.0356941,-0.565102,1.08688,1.8237,0.126104,0.141976
4.72214,-0.120799,-0.614187,0.0358019,-0.568298,1.08598,1.82782,0.126109,0.142225
4.73793,-0.120771,-0.614187,0.0358843,-0.571457,1.08516,1.8317,0.126113,0.142521
4.75372,-0.120743,-0.614185,0.0359438,-0.574562,1.08443,1.83531,0.126116,0.142876
4.76952,-0.120714,-0.614182,0.0359831,-0.5776,1.08379,1.83863,0.126118,0.143303
4.78531,-0.120685,-0.614176,0.0360056,-0.580564,1.08325,1.84164,0.12612,0.14382
4.8011,-0.120653,-0.614169,0.0360148,-0.583451,1.08279,1.84434,0.126122,0.144447
4.81689,-0.120616,-0.61416,0.0360139,-0.586263,1.08242,1.84674,0.126125,0.145208
4.83269,-0.120574,-0.61415,0.0360057,-0.589005,1.08212,1.84884,0.12613,0.146129
4.84848,-0.120523,-0.614137,0.0359925,-0.591684,1.08187,1.85066,0.126138,0.147237
4.86427,-0.120462,-0.614122,0.0359764,-0.594312,1.08168,1.85221,0.126152,0.148557
4.88007,-0.120386,-0.614104,0.0359587,-0.596898,1.08151,1.85352,0.126173,0.150113
4.89586,-0.120293,-0.614082,0.0359404,-0.599452,1.08138,1.8546,0.126205,0.15192
4.91165,-0.120181,-0.614055,0.0359222,-0.601979,1.08125,1.85549,0.126252,0.153989
4.92745,-0.120046,-0.614021,0.0359046,-0.604484,1.08112,1.85621,0.12632,0.156321
4.94324,-0.119886,-0.613979,0.0358878,-0.606965,1.08099,1.85678,0.126418,0.158907
4.95903,-0.119698,-0.613925,0.0358718,-0.609418,1.08085,1.85723,0.126557,0.161732
4.97483,-0.11948,-0.613856,0.0358568,-0.611835,1.08068,1.85757,0.126751,0.164774
4.99062,-0.119232,-0.613769,0.0358426,-0.614208,1.08051,1.85784,0.127018,0.168005
5.00641,-0.118952,-0.613659,0.0358292,-0.61653,1.08031,1.85803,0.127379,0.171395
5.0222,-0.11864,-0.613521,0.0358164,-0.618794,1.08009,1.85818,0.127862,0.174914
5.038,-0.118296,-0.613347,0.0358042,-0.620994,1.07986,1.85828,0.128494,0.178531
5.05379,-0.117922,-0.61313,0.0357922,-0.623128,1.07962,1.85835,0.129308,0.182218
5.06958,-0.117518,-0.61286,0.0357802,-0.625193,1.07938,1.8584,0.130342,0.185949
5.08538,-0.117088,-0.612524,0.0357679,-0.627191,1.07915,1.85844,0.131634,0.189704
5.10117,-0.116634,-0.61211,0.035755,-0.629124,1.07892,1.85846,0.133226,0.193469
5.11696,-0.116159,-0.611601,0.035741,-0.630998,1.0787,1.85848,0.135161,0.197235
5.13276,-0.115667,-0.610981,0.0357259,-0.632819,1.0785,1.85849,0.137482,0.201002
5.14855,-0.11516,-0.610233,0.0357092,-0.634595,1.07833,1.8585,0.140227,0.204775
5.16434,-0.114641,-0.60934,0.035691,-0.636334,1.07818,1.8585,0.143426,0.20856
5.18014,-0.114112,-0.608291,0.0356713,-0.638043,1.07805,1.85851,0.147093,0.212365
5.19593,-0.113575,-0.607077,0.0356505,-0.639723,1.07794,1.85851,0.151225,0.216192
5.21172,-0.113031,-0.605694,0.0356289,-0.641372,1.07786,1.85851,0.155796,0.220033
5.22751,-0.112483,-0.604148,0.0356072,-0.642982,1.07779,1.85851,0.160754,0.223872
5.24331,-0.111934,-0.602448,0.035586,-0.644542,1.07774,1.85851,0.166025,0.227681
5.2591,-0.111387,-0.60061,0.0355661,-0.646035,1.07771,1.85852,0.171515,0.23142
5.27489,-0.110844,-0.598656,0.035548,-0.647447,1.07768,1.85852,0.177116,0.235048
5.29069,-0.11031,-0.596609,0.0355322,-0.648764,1.07767,1.85852,0.182717,0.238519
5.30648,-0.109789,-0.594494,0.0355189,-0.649976,1.07766,1.85852,0.188208,0.241793
5.32227,-0.109282,-0.592335,0.0355081,-0.651079,1.07766,1.85852,0.193489,0.244835
5.33807,-0.108794,-0.590155,0.0354996,-0.652076,1.07766,1.85852,0.198473,0.247621
5.35386,-0.108325,-0.587975,0.035493,-0.652973,1.07766,1.85852,0.203093,0.250136
5.36965,-0.107877,-0.585813,0.035488,-0.653785,1.07766,1.85852,0.207297,0.252376
5.38545,-0.10745,-0.583682,0.035484,-0.654525,1.07766,1.85852,0.211055,0.254341
5.40124,-0.107046,-0.581594,0.0354808,-0.655214,1.07767,1.85852,0.21435,0.256042
5.41703,-0.106663,-0.579551,0.0354782,-0.655867,1.07767,1.85852,0.217186,0.257491
5.43283,-0.106301,-0.577554,0.0354763,-0.656504,1.07768,1.85852,0.219577,0.258706
5.44862,-0.105958,-0.575597,0.0354753,-0.657139,1.07768,1.85852,0.221551,0.259706
5.46441,-0.105634,-0.573672,0.0354753,-0.657786,1.07769,1.85852,0.223145,0.260514
5.4802,-0.105325,-0.571768,0.0354767,-0.658455,1.0777,1.85852,0.224403,0.261152
5.496,-0.105031,-0.569876,0.0354798,-0.659153,1.07771,1.85852,0.225372,0.261645
5.51179,-0.104751,-0.567987,0.0354847,-0.65988,1.07773,1.85852,0.226099,0.262014
5.52758,-0.104484,-0.566101,0.0354912,-0.660633,1.07775,1.85852,0.226631,0.262283
5.54338,-0.104227,-0.564219,0.0354993,-0.661406,1.07778,1.85852,0.22701,0.262472
5.55917,-0.103981,-0.56235,0.0355083,-0.662187,1.07782,1.85852,0.227273,0.2626
5.57496,-0.103742,-0.560503,0.0355178,-0.662963,1.07787,1.85852,0.22745,0.262681
5.59076,-0.103508,-0.558693,0.0355271,-0.66372,1.07793,1.85852,0.227567,0.262729
5.60655,-0.103276,-0.556931,0.0355353,-0.664443,1.07801,1.85851,0.227642,0.262753
5.62234,-0.103041,-0.555228,0.0355418,-0.66512,1.0781,1.85851,0.227688,0.262762
5.63814,-0.102796,-0.55359,0.0355461,-0.665742,1.07821,1.85851,0.227716,0.262762
5.65393,-0.102539,-0.552021,0.0355477,-0.6663,1.07835,1.85851,0.227731,0.262756
5.66972,-0.102264,-0.550519,0.0355467,-0.666791,1.0785,1.85851,0.227739,0.262747
5.68551,-0.101968,-0.54908,0.035543,-0.667215,1.07869,1.85851,0.22774,0.262738
5.70131,-0.101651,-0.547696,0.0355369,-0.667572,1.0789,1.85851,0.227738,0.262729
5.7171,-0.101311,-0.546357,0.035529,-0.667867,1.07914,1.85851,0.227733,0.262722
5.73289,-0.10095,-0.54505,0.03552,-0.668106,1.07942,1.85851,0.227726,0.262717
5.74869,-0.10057,-0.54376,0.0355104,-0.668294,1.07972,1.85851,0.227718,0.262714
5.76448,-0.100175,-0.542473,0.035501,-0.668438,1.08005,1.85851,0.22771,0.262713
5.78027,-0.0997669,-0.541174,0.0354922,-0.668546,1.0804,1.85851,0.227702,0.262715
5.79607,-0.0993502,-0.539854,0.0354847,-0.668624,1.08077,1.85851,0.227694,0.262718
5.81186,-0.0989287,-0.538502,0.0354786,-0.66868,1.08116,1.85851,0.227687,0.262723
5.82765,-0.0985066,-0.537117,0.0354741,-0.668717,1.08155,1.85851,0.227681,0.262729
5.84345,-0.0980884,-0.5357,0.035471,-0.668742,1.08194,1.8585,0.227676,0.262735
5.85924,-0.0976787,-0.534258,0.0354691,-0.668757,1.08231,1.8585,0.227673,0.262743
5.87503,-0.0972815,-0.532801,0.035468,-0.668766,1.08266,1.8585,0.227669,0.262751
5.89082,-0.0969007,-0.531341,0.0354673,-0.66877,1.08298,1.85849,0.227667,0.26276
5.90662,-0.096539,-0.529889,0.0354666,-0.668772,1.08326,1.85849,0.227665,0.26277
5.92241,-0.0961982,-0.528458,0.0354656,-0.668772,1.08349,1.85849,0.227663,0.262781
5.9382,-0.0958791,-0.527056,0.0354639,-0.668772,1.08369,1.85848,0.227661,0.262795
5.954,-0.0955816,-0.525691,0.0354615,-0.66877,1.08384,1.85848,0.22766,0.262814
5.96979,-0.0953052,-0.524366,0.0354583,-0.668769,1.08397,1.85848,0.227658,0.262837
5.98558,-0.095049,-0.523083,0.0354545,-0.668767,1.08406,1.85847,0.227657,0.262869
6.00138,-0.0948122,-0.521839,0.0354504,-0.668765,1.08413,1.85847,0.227656,0.262913
6.01717,-0.0945942,-0.520631,0.0354462,-0.668763,1.08419,1.85847,0.227656,0.262972
6.03296,-0.0943946,-0.519451,0.0354421,-0.668762,1.08424,1.85846,0.227656,0.263053
6.04876,-0.0942131,-0.51829,0.0354384,-0.66876,1.08429,1.85845,0.227657,0.263164
6.06455,-0.0940492,-0.517135,0.0354351,-0.668759,1.08434,1.85844,0.227658,0.263313
6.08034,-0.0939021,-0.515977,0.0354322,-0.668759,1.08441,1.85842,0.22766,0.263511
6.09613,-0.0937707,-0.514802,0.0354297,-0.668759,1.08449,1.8584,0.227662,0.263771
6.11193,-0.0936533,-0.513602,0.0354273,-0.668758,1.0846,1.85836,0.227665,0.264106
6.12772,-0.0935477,-0.512369,0.0354248,-0.668758,1.08474,1.85831,0.227667,0.264531
6.14351,-0.0934516,-0.511099,0.0354218,-0.668758,1.08492,1.85825,0.227669,0.265059
6.15931,-0.0933626,-0.509793,0.0354182,-0.668758,1.08515,1.85816,0.227671,0.265704
6.1751,-0.0932785,-0.508453,0.0354139,-0.668758,1.08542,1.85804,0.227672,0.266476
6.19089,-0.0931973,-0.507085,0.0354088,-0.668757,1.08574,1.85789,0.227672,0.267383
6.20669,-0.0931175,-0.505696,0.035403,-0.668757,1.08611,1.8577,0.227672,0.268431
6.22248,-0.0930384,-0.504293,0.0353968,-0.668757,1.08653,1.85745,0.227671,0.269618
6.23827,-0.0929595,-0.502886,0.0353906,-0.668757,1.08698,1.85715,0.227669,0.27094
6.25407,-0.0928809,-0.501482,0.0353847,-0.668757,1.08748,1.85679,0.227668,0.272389
6.26986,-0.0928031,-0.500088,0.0353795,-0.668757,1.08799,1.85637,0.227666,0.273952
6.28565,-0.0927266,-0.498707,0.0353754,-0.668758,1.08853,1.85588,0.227665,0.275613
6.30145,-0.0926522,-0.497341,0.0353723,-0.668759,1.08909,1.85531,0.227664,0.277356
6.31724,-0.0925803,-0.495988,0.0353703,-0.66876,1.08965,1.85468,0.227664,0.279163
6.33303,-0.0925115,-0.494643,0.0353691,-0.668762,1.09022,1.85397,0.227664,0.281021
6.34882,-0.0924459,-0.493297,0.0353682,-0.668763,1.0908,1.85318,0.227664,0.282916
6.36462,-0.0923835,-0.49194,0.0353669,-0.668764,1.0914,1.8523,0.227664,0.284837
6.38041,-0.0923245,-0.49056,0.0353647,-0.668764,1.09203,1.85133,0.227665,0.286778
6.3962,-0.0922688,-0.489146,0.0353607,-0.668763,1.09269,1.85027,0.227665,0.288729
6.412,-0.0922165,-0.487689,0.0353543,-0.668762,1.09338,1.8491,0.227665,0.290681
6.42779,-0.0921679,-0.486187,0.035345,-0.668759,1.09413,1.84783,0.227664,0.29262
6.44358,-0.0921234,-0.48464,0.0353323,-0.668754,1.09492,1.84645,0.227664,0.294533
6.45938,-0.0920833,-0.483053,0.0353159,-0.668749,1.09576,1.84498,0.227663,0.296401
6.47517,-0.0920482,-0.481434,0.0352957,-0.668742,1.09665,1.84341,0.227662,0.298204
6.49096,-0.0920184,-0.479795,0.0352716,-0.668733,1.09758,1.84177,0.22766,0.299925
6.50676,-0.0919941,-0.478146,0.0352438,-0.668724,1.09853,1.84005,0.227659,0.301548
6.52255,-0.0919751,-0.476498,0.0352123,-0.668715,1.09951,1.83828,0.227658,0.303064
6.53834,-0.091961,-0.474861,0.0351775,-0.668705,1.1005,1.83646,0.227657,0.304466
6.55413,-0.091951,-0.47324,0.0351396,-0.668695,1.10149,1.83462,0.227656,0.305757
6.56993,-0.0919445,-0.471642,0.035099,-0.668685,1.10245,1.83277,0.227655,0.306941
6.58572,-0.0919405,-0.470069,0.0350558,-0.668677,1.10338,1.83092,0.227655,0.308029
6.60151,-0.0919381,-0.468521,0.0350102,-0.668669,1.10427,1.82908,0.227656,0.309033
6.61731,-0.0919366,-0.466995,0.0349625,-0.668663,1.1051,1.82725,0.227659,0.309965
6.6331,-0.0919352,-0.465487,0.0349128,-0.668658,1.10587,1.82546,0.227664,0.31084
6.64889,-0.0919336,-0.463987,0.034861,-0.668654,1.10658,1.82368,0.227673,0.311671
6.66469,-0.0919313,-0.462484,0.0348074,-0.668651,1.10722,1.82193,0.227689,0.312468
6.68048,-0.0919283,-0.460965,0.034752,-0.668649,1.1078,1.82018,0.227712,0.31324
6.69627,-0.0919245,-0.459417,0.0346951,-0.668648,1.10834,1.81844,0.227748,0.313993
6.71207,-0.0919201,-0.457829,0.034637,-0.668648,1.10884,1.81671,0.227798,0.31473
6.72786,-0.0919152,-0.456195,0.0345781,-0.668648,1.10933,1.81498,0.22787,0.315446
6.74365,-0.0919101,-0.454513,0.034519,-0.668648,1.1098,1.81326,0.227967,0.316138
6.75945,-0.0919053,-0.452787,0.0344601,-0.668648,1.1103,1.81157,0.228098,0.316795
6.77524,-0.091901,-0.451028,0.0344016,-0.668648,1.11082,1.80993,0.228268,0.317408
6.79103,-0.0918977,-0.449249,0.0343436,-0.668647,1.11138,1.80835,0.228486,0.317966
6.80682,-0.0918955,-0.447467,0.0342859,-0.668645,1.11199,1.80687,0.228757,0.318461
6.82262,-0.0918948,-0.445696,0.0342276,-0.668643,1.11266,1.80551,0.229086,0.318886
6.83841,-0.0918953,-0.443952,0.0341676,-0.668639,1.11339,1.80426,0.229477,0.319242
6.8542,-0.0918973,-0.442245,0.0341045,-0.668633,1.11417,1.80316,0.229929,0.319529
6.87,-0.0919003,-0.440582,0.0340367,-0.668626,1.11499,1.8022,0.230439,0.319753
6.88579,-0.0919041,-0.438964,0.0339625,-0.668618,1.11586,1.80137,0.231002,0.319923
6.90158,-0.0919084,-0.43739,0.0338803,-0.668608,1.11675,1.80068,0.231608,0.320048
6.91738,-0.0919126,-0.435853,0.0337887,-0.668596,1.11766,1.8001,0.232246,0.320136
6.93317,-0.0919162,-0.434342,0.0336866,-0.668584,1.11857,1.79963,0.232905,0.320198
6.94896,-0.091919,-0.432845,0.0335734,-0.668571,1.11947,1.79926,0.233572,0.320241
6.96476,-0.0919206,-0.431346,0.0334488,-0.668558,1.12035,1.79897,0.234235,0.320272
6.98055,-0.0919207,-0.42983,0.0333134,-0.668545,1.12121,1.79874,0.234881,0.320295
6.99634,-0.0919193,-0.428286,0.0331682,-0.668532,1.12203,1.79857,0.235501,0.320313
7.01213,-0.0919162,-0.426702,0.033015,-0.668519,1.12282,1.79845,0.236087,0.320331
7.02793,-0.0919118,-0.425075,0.0328564,-0.668508,1.12357,1.79836,0.236631,0.320348
7.04372,-0.0919062,-0.423406,0.0326953,-0.668498,1.12426,1.79829,0.237126,0.320366
7.05951,-0.0918997,-0.421701,0.0325354,-0.66849,1.12491,1.79825,0.237569,0.320385
7.07531,-0.0918928,-0.419969,0.0323803,-0.668482,1.1255,1.79822,0.237957,0.320406
7.0911,-0.091886,-0.418223,0.0322334,-0.668476,1.12604,1.7982,0.23829,0.320427
7.10689,-0.0918795,-0.416478,0.0320977,-0.668471,1.12652,1.79818,0.238568,0.32045
7.12269,-0.0918739,-0.414745,0.0319754,-0.668467,1.12696,1.79817,0.238795,0.320473
7.13848,-0.0918694,-0.413038,0.0318678,-0.668464,1.12736,1.79816,0.238977,0.320497
7.15427,-0.0918662,-0.411367,0.0317753,-0.668461,1.12772,1.79816,0.239121,0.320522
7.17007,-0.0918645,-0.409738,0.0316974,-0.668458,1.12805,1.79816,0.239234,0.320547
7.18586,-0.0918642,-0.408158,0.0316332,-0.668456,1.12837,1.79815,0.239326,0.320573
7.20165,-0.0918651,-0.406629,0.0315809,-0.668453,1.12868,1.79815,0.239407,0.320602
7.21744,-0.0918672,-0.405151,0.0315387,-0.668449,1.12898,1.79815,0.239485,0.320634
7.23324,-0.0918701,-0.403717,0.0315047,-0.668446,1.12928,1.79815,0.239571,0.320671
7.24903,-0.0918736,-0.402322,0.0314772,-0.668441,1.12959,1.79815,0.239672,0.320715
7.26482,-0.0918774,-0.400952,0.0314544,-0.668436,1.1299,1.79815,0.239796,0.320768
7.28062,-0.091881,-0.399594,0.031435,-0.668429,1.13021,1.79814,0.239949,0.320832
7.29641,-0.0918845,-0.398233,0.0314179,-0.668421,1.13053,1.79814,0.240133,0.320906
7.3122,-0.0918875,-0.396856,0.0314023,-0.668412,1.13086,1.79814,0.240349,0.320993
7.328,-0.0918899,-0.395453,0.0313879,-0.668401,1.13119,1.79814,0.240595,0.32109
7.34379,-0.0918917,-0.394021,0.0313742,-0.668387,1.13153,1.79814,0.240864,0.321196
7.35958,-0.091893,-0.392563,0.0313613,-0.668369,1.13187,1.79814,0.241149,0.321308
7.37538,-0.0918939,-0.391086,0.0313492,-0.668348,1.13222,1.79814,0.24144,0.321423
7.39117,-0.0918943,-0.389606,0.0313381,-0.668322,1.13256,1.79814,0.241726,0.321535
7.40696,-0.0918944,-0.388138,0.031328,-0.66829,1.13291,1.79814,0.241997,0.321641
7.42276,-0.0918943,-0.3867,0.031319,-0.668251,1.13324,1.79814,0.242244,0.321737
7.43855,-0.0918943,-0.38531,0.0313113,-0.668205,1.13358,1.79814,0.242461,0.321822
7.45434,-0.0918943,-0.38398,0.0313048,-0.668148,1.1339,1.79814,0.242645,0.321892
7.47013,-0.0918945,-0.382719,0.0312994,-0.66808,1.13423,1.79814,0.242795,0.321949
7.48593,-0.0918951,-0.381532,0.0312949,-0.667997,1.13456,1.79814,0.242912,0.321993
7.50172,-0.0918961,-0.380416,0.0312911,-0.667894,1.13489,1.79814,0.243,0.322025
7.51751,-0.0918974,-0.379366,0.0312877,-0.667768,1.13524,1.79813,0.243063,0.322047
7.53331,-0.0918991,-0.378371,0.0312842,-0.667613,1.13561,1.79813,0.243105,0.322062
7.5491,-0.0919012,-0.377417,0.0312804,-0.667423,1.13601,1.79813,0.243132,0.322071
7.56489,-0.0919033,-0.37649,0.0312757,-0.667191,1.13646,1.79813,0.243148,0.322076
7.58069,-0.0919054,-0.375573,0.03127,-0.666914,1.13694,1.79813,0.243155,0.322079
7.59648,-0.0919073,-0.374652,0.0312628,-0.666586,1.13748,1.79812,0.243157,0.32208
7.61227,-0.0919087,-0.373715,0.031254,-0.666208,1.13808,1.79812,0.243155,0.322081
7.62807,-0.0919096,-0.372754,0.0312437,-0.665781,1.13872,1.79811,0.243151,0.322081
7.64386,-0.0919098,-0.371768,0.0312319,-0.665311,1.13941,1.79811,0.243146,0.322081
7.65965,-0.0919092,-0.370759,0.0312189,-0.664805,1.14012,1.7981,0.24314,0.322081
7.67544,-0.0919078,-0.369733,0.031205,-0.664275,1.14085,1.7981,0.243134,0.322081
7.69124,-0.0919056,-0.3687,0.0311908,-0.663732,1.14159,1.79809,0.243128,0.32208
7.70703,-0.0919026,-0.367672,0.0311767,-0.663191,1.1423,1.79808,0.243121,0.322079
7.72282,-0.091899,-0.366659,0.0311631,-0.662664,1.14299,1.79808,0.243114,0.322077
7.73862,-0.0918948,-0.365674,0.0311505,-0.662163,1.14362,1.79807,0.243108,0.322075
7.75441,-0.0918901,-0.364726,0.031139,-0.661697,1.14421,1.79806,0.243101,0.322071
7.7702,-0.091885,-0.363823,0.0311289,-0.661275,1.14473,1.79805,0.243095,0.322067
7.786,-0.0918797,-0.362969,0.0311203,-0.660902,1.14519,1.79804,0.243089,0.322062
7.80179,-0.0918743,-0.362169,0.0311131,-0.660579,1.14558,1.79803,0.243083,0.322057
7.81758,-0.0918689,-0.361422,0.0311073,-0.660306,1.14593,1.79802,0.243078,0.322051
7.83338,-0.0918638,-0.360726,0.0311026,-0.660082,1.14622,1.79801,0.243073,0.322045
