timestamp,ArmR1_Cla1,ArmR2_Sho1,ArmR3_Sho2,ArmR4_Sho3,ArmR5_Elb1,ArmR6_Elb2,ArmR7_Wri1,ArmR8_Wri2
0,0.10427,1.09328,0.538046,-1.18939,1.12393,-1.55715,0.154977,0.44516
0.0155925,0.104272,1.09328,0.538046,-1.18939,1.12393,-1.55709,0.154989,0.445291
0.0311851,0.104273,1.09328,0.538051,-1.18941,1.12391,-1.55643,0.15504,0.446336
0.0467776,0.104236,1.09327,0.53808,-1.18941,1.1239,-1.55513,0.155028,0.448011
0.0623702,0.104222,1.09327,0.538079,-1.18939,1.12389,-1.55409,0.155086,0.44917
0.0779627,0.104213,1.09332,0.538027,-1.18936,1.1239,-1.55216,0.155194,0.450803
0.0935552,0.104227,1.09336,0.538054,-1.18933,1.12391,-1.55046,0.15529,0.451969
0.109148,0.104234,1.09336,0.538087,-1.18929,1.1239,-1.5491,0.155452,0.452537
0.12474,0.104258,1.09339,0.538021,-1.18929,1.12391,-1.54662,0.156082,0.453247
0.140333,0.104278,1.09341,0.537986,-1.1893,1.12391,-1.54328,0.157455,0.453695
0.155925,0.10429,1.09341,0.538028,-1.1893,1.12391,-1.54089,0.158566,0.453759
0.171518,0.104294,1.09343,0.538018,-1.18929,1.12393,-1.53762,0.160355,0.453615
0.18711,0.104294,1.09343,0.537993,-1.18929,1.12391,-1.53549,0.161593,0.453447
0.202703,0.104294,1.09344,0.538002,-1.18934,1.12392,-1.53264,0.163695,0.452886
0.218296,0.104294,1.09344,0.53801,-1.18936,1.12393,-1.53152,0.164564,0.452637
0.233888,0.104294,1.09344,0.53801,-1.18936,1.12393,-1.53152,0.164564,0.452637
0.249481,0.104303,1.09339,0.538028,-1.1893,1.12394,-1.52588,0.169538,0.451153
0.265073,0.104287,1.09338,0.53796,-1.18932,1.12395,-1.52065,0.173878,0.450061
0.280666,0.104282,1.09339,0.53797,-1.18932,1.12394,-1.51808,0.17571,0.449661
0.296258,0.104275,1.09338,0.538006,-1.18932,1.12392,-1.51475,0.177668,0.449337
0.311851,0.10427,1.09337,0.538022,-1.1893,1.12392,-1.51002,0.180198,0.448992
0.327443,0.104277,1.09337,0.537999,-1.18931,1.12394,-1.50593,0.182202,0.448763
0.343036,0.104291,1.09338,0.538004,-1.18934,1.12397,-1.50083,0.184679,0.448638
0.358628,0.104315,1.09341,0.537977,-1.18932,1.12398,-1.49689,0.186562,0.4486
0.374221,0.104341,1.0934,0.537927,-1.18929,1.12399,-1.49127,0.189223,0.448564
0.389814,0.104342,1.0934,0.537949,-1.18933,1.12401,-1.48822,0.190676,0.448574
0.405406,0.104343,1.09341,0.537927,-1.18934,1.12398,-1.48481,0.192132,0.448564
0.420999,0.104366,1.0934,0.537951,-1.18927,1.12397,-1.47837,0.194496,0.448583
0.436591,0.104366,1.0934,0.53796,-1.18931,1.12399,-1.47485,0.195674,0.448536
0.452184,0.104366,1.09342,0.53795,-1.18932,1.12401,-1.47001,0.197207,0.448455
0.467776,0.104366,1.09342,0.53795,-1.18932,1.12401,-1.47001,0.197207,0.448455
0.483369,0.104366,1.09342,0.53795,-1.18932,1.12401,-1.47001,0.197207,0.448455
0.498961,0.104366,1.09342,0.53795,-1.18932,1.12401,-1.47001,0.197207,0.448455
0.514554,0.104366,1.09342,0.53795,-1.18932,1.12401,-1.47001,0.197207,0.448455
0.530146,0.10437,1.09342,0.537938,-1.18931,1.12403,-1.46834,0.197533,0.448302
0.545739,0.104426,1.0934,0.537782,-1.18929,1.1243,-1.44513,0.202072,0.446171
0.561331,0.10445,1.09341,0.537781,-1.1893,1.12438,-1.44254,0.202504,0.445904
0.576924,0.104463,1.09341,0.537767,-1.18928,1.12455,-1.43778,0.203171,0.445282
0.592516,0.104527,1.09343,0.53769,-1.18935,1.12474,-1.43447,0.203841,0.444926
0.608109,0.104703,1.09343,0.537653,-1.18934,1.12506,-1.42973,0.204477,0.444418
0.623702,0.104862,1.09341,0.53768,-1.1893,1.12537,-1.42645,0.204795,0.444151
0.639294,0.105144,1.0934,0.537698,-1.18929,1.12603,-1.42155,0.205433,0.443824
0.654887,0.105342,1.09339,0.537716,-1.18931,1.12676,-1.41864,0.205995,0.443581
0.670479,0.105714,1.09338,0.537744,-1.18932,1.12807,-1.41379,0.206637,0.442963
0.686072,0.105904,1.0934,0.537701,-1.1893,1.12895,-1.41103,0.206881,0.44253
0.701664,0.106027,1.09339,0.537698,-1.18931,1.12955,-1.40893,0.207089,0.442312
0.717257,0.106321,1.09338,0.53764,-1.1893,1.13101,-1.4042,0.207801,0.441808
0.732849,0.106498,1.09339,0.537573,-1.18929,1.13188,-1.40108,0.208232,0.441375
0.748442,0.106814,1.09334,0.537623,-1.18931,1.13343,-1.39616,0.208842,0.440541
0.764034,0.107047,1.09336,0.537599,-1.18931,1.13469,-1.39237,0.209789,0.440033
0.779627,0.107344,1.09338,0.537585,-1.18935,1.13618,-1.38806,0.211057,0.439412
0.79522,0.107599,1.09338,0.537608,-1.18935,1.13721,-1.38504,0.212005,0.438827
0.810812,0.107891,1.09337,0.537576,-1.18932,1.13807,-1.38236,0.213058,0.438197
0.826405,0.107949,1.09337,0.537566,-1.18932,1.13823,-1.38186,0.213266,0.438077
0.841997,0.108911,1.09335,0.537619,-1.18934,1.14091,-1.37437,0.216691,0.435772
0.85759,0.109274,1.09335,0.537562,-1.18937,1.14194,-1.37142,0.218256,0.434782
0.873182,0.109798,1.09334,0.537597,-1.18934,1.14345,-1.36694,0.220772,0.433105
0.888775,0.110123,1.09333,0.537634,-1.18936,1.14429,-1.36429,0.222396,0.432172
0.904367,0.11073,1.09336,0.537592,-1.18936,1.14578,-1.35923,0.226218,0.430656
0.91996,0.111036,1.09333,0.537626,-1.18939,1.14664,-1.35668,0.228472,0.429975
0.935552,0.111706,1.09337,0.53757,-1.18937,1.14821,-1.35139,0.233921,0.428802
0.951145,0.112258,1.09337,0.537613,-1.18937,1.14913,-1.34799,0.237284,0.428057
0.966738,0.113061,1.09335,0.537654,-1.18936,1.15039,-1.34298,0.241708,0.427067
0.98233,0.113736,1.09337,0.537653,-1.18933,1.15131,-1.33917,0.245896,0.426166
0.997923,0.114549,1.09339,0.53765,-1.18933,1.15236,-1.3351,0.251079,0.424978
1.01352,0.115108,1.09338,0.537615,-1.18936,1.15297,-1.33261,0.254459,0.423976
1.02911,0.116023,1.09337,0.537624,-1.18934,1.1539,-1.32852,0.259445,0.422202
1.0447,0.116836,1.09336,0.53765,-1.18934,1.15474,-1.32484,0.263845,0.4205
1.06029,0.117936,1.09337,0.53765,-1.18935,1.15588,-1.32029,0.270105,0.41811
1.07589,0.118636,1.09338,0.537605,-1.18936,1.15667,-1.31736,0.274269,0.416548
1.09148,0.119773,1.09334,0.53759,-1.18937,1.15787,-1.31276,0.279907,0.414111
1.10707,0.120627,1.09332,0.53758,-1.18939,1.15876,-1.30923,0.283969,0.412612
1.12266,0.120724,1.09332,0.537578,-1.18939,1.15886,-1.30882,0.284427,0.412455
1.13826,0.120724,1.09332,0.537578,-1.18939,1.15886,-1.30882,0.284427,0.412455
1.15385,0.123824,1.09336,0.53761,-1.18933,1.16225,-1.29611,0.298875,0.407875
1.16944,0.12471,1.09341,0.537605,-1.1893,1.16324,-1.29244,0.303033,0.406634
1.18503,0.125857,1.09343,0.537611,-1.18928,1.1646,-1.28727,0.309055,0.404961
1.20063,0.126724,1.09346,0.537624,-1.18925,1.16561,-1.28336,0.313791,0.403442
1.21622,0.127952,1.09345,0.537594,-1.18924,1.16716,-1.27789,0.320219,0.400335
1.23181,0.128732,1.09342,0.537638,-1.18929,1.16815,-1.2746,0.324383,0.39794
1.2474,0.12994,1.09339,0.537609,-1.18935,1.16983,-1.26945,0.331786,0.393261
1.263,0.130561,1.09337,0.53755,-1.18936,1.17073,-1.26671,0.335503,0.390851
1.27859,0.131365,1.09335,0.537557,-1.18937,1.17197,-1.263,0.339907,0.388103
1.29418,0.132258,1.09332,0.537593,-1.18936,1.17344,-1.25902,0.34464,0.385357
1.30977,0.132991,1.09335,0.537596,-1.18934,1.17478,-1.25579,0.348734,0.383364
1.32537,0.133883,1.09337,0.537576,-1.18934,1.17652,-1.25166,0.353795,0.380882
1.34096,0.134575,1.09336,0.53759,-1.18934,1.17798,-1.2481,0.357418,0.378946
1.35655,0.135212,1.09337,0.53759,-1.18933,1.17938,-1.24474,0.360621,0.377102
1.37214,0.135212,1.09337,0.53759,-1.18933,1.17938,-1.24474,0.360621,0.377102
1.38774,0.135212,1.09337,0.53759,-1.18933,1.17938,-1.24474,0.360621,0.377102
1.40333,0.135212,1.09337,0.53759,-1.18933,1.17938,-1.24474,0.360621,0.377102
1.41892,0.135212,1.09337,0.53759,-1.18933,1.17938,-1.24474,0.360621,0.377102
1.43451,0.135212,1.09337,0.53759,-1.18933,1.17938,-1.24474,0.360621,0.377102
1.45011,0.136768,1.09338,0.537562,-1.18932,1.18449,-1.23506,0.373076,0.369247
1.4657,0.139205,1.09339,0.537518,-1.18932,1.19262,-1.21982,0.392835,0.356568
1.48129,0.13954,1.09338,0.537499,-1.18936,1.19426,-1.21758,0.396392,0.353491
1.49688,0.140002,1.09335,0.537458,-1.18939,1.19666,-1.21455,0.401236,0.349364
1.51248,0.140463,1.09334,0.537429,-1.18936,1.19888,-1.21161,0.405608,0.346601
1.52807,0.140923,1.09337,0.537406,-1.18935,1.20115,-1.20847,0.410112,0.343986
1.54366,0.141426,1.0934,0.53733,-1.18937,1.2038,-1.20458,0.414824,0.340827
1.55925,0.141776,1.09342,0.537291,-1.18934,1.20577,-1.20177,0.418142,0.338337
1.57485,0.142019,1.0934,0.537231,-1.18934,1.2072,-1.1998,0.420642,0.336314
1.59044,0.14242,1.09343,0.537038,-1.18932,1.20995,-1.19605,0.42604,0.331909
1.60603,0.142634,1.0934,0.537001,-1.18935,1.21123,-1.19436,0.428718,0.329659
1.62162,0.143036,1.09337,0.53676,-1.18931,1.21387,-1.19065,0.434012,0.325129
1.63722,0.143243,1.0934,0.536679,-1.18938,1.21509,-1.18892,0.436061,0.323135
1.65281,0.143562,1.0934,0.536565,-1.18935,1.21745,-1.18571,0.439808,0.318716
1.6684,0.143577,1.0934,0.53656,-1.18935,1.21756,-1.18555,0.439991,0.318501
1.68399,0.143577,1.0934,0.53656,-1.18935,1.21756,-1.18555,0.439991,0.318501
1.69959,0.143577,1.0934,0.53656,-1.18935,1.21756,-1.18555,0.439991,0.318501
1.71518,0.143577,1.0934,0.53656,-1.18935,1.21756,-1.18555,0.439991,0.318501
1.73077,0.143577,1.0934,0.53656,-1.18935,1.21756,-1.18555,0.439991,0.318501
1.74636,0.144843,1.09339,0.535885,-1.18937,1.22584,-1.17337,0.453389,0.304484
1.76196,0.145497,1.09341,0.535687,-1.18936,1.23001,-1.16652,0.459807,0.29725
1.77755,0.145724,1.09342,0.535685,-1.18934,1.23138,-1.16408,0.461948,0.2945
1.79314,0.146032,1.09341,0.535628,-1.18937,1.23357,-1.16032,0.465438,0.289859
1.80873,0.146187,1.09338,0.535636,-1.18938,1.23465,-1.15849,0.467162,0.287898
1.82433,0.146432,1.09336,0.535661,-1.18938,1.23712,-1.1543,0.47083,0.2837
1.83992,0.14655,1.09338,0.535656,-1.18942,1.23844,-1.15175,0.472626,0.281486
1.85551,0.146751,1.09337,0.535635,-1.18939,1.24057,-1.14752,0.475245,0.277255
1.8711,0.146915,1.09337,0.535639,-1.1894,1.24177,-1.14492,0.476807,0.27463
1.8867,0.14723,1.09337,0.535635,-1.18939,1.24348,-1.14111,0.479106,0.271065
1.90229,0.147496,1.09338,0.535639,-1.1894,1.24487,-1.13794,0.481116,0.268387
1.91788,0.14771,1.09341,0.535648,-1.18936,1.24582,-1.13544,0.482598,0.266834
1.93348,0.148069,1.09343,0.535636,-1.18936,1.24748,-1.13047,0.485371,0.26336
1.94907,0.14823,1.09344,0.535628,-1.18938,1.24823,-1.12799,0.48682,0.261445
1.96466,0.148421,1.09343,0.535654,-1.18939,1.249,-1.12513,0.48841,0.259029
1.98025,0.148699,1.09338,0.535608,-1.18942,1.25014,-1.12056,0.490997,0.254453
1.99585,0.148947,1.09337,0.535589,-1.1894,1.25082,-1.11762,0.492416,0.251478
2.01144,0.149282,1.09334,0.535589,-1.18944,1.25145,-1.11449,0.493835,0.248694
2.02703,0.149282,1.09334,0.535589,-1.18944,1.25145,-1.11449,0.493835,0.248694
2.04262,0.150205,1.09337,0.535624,-1.18942,1.25238,-1.10858,0.495822,0.244489
2.05822,0.15121,1.0934,0.535633,-1.18941,1.25327,-1.10258,0.497892,0.240294
2.07381,0.152177,1.09339,0.535688,-1.18938,1.25398,-1.09791,0.499733,0.237221
2.0894,0.152803,1.09339,0.535684,-1.18942,1.25438,-1.09482,0.50097,0.235238
2.10499,0.15376,1.09341,0.535673,-1.18941,1.25469,-1.09015,0.503007,0.23237
2.12059,0.154558,1.09341,0.535673,-1.18937,1.2548,-1.08659,0.504678,0.230328
2.13618,0.155851,1.09343,0.535704,-1.18937,1.2548,-1.08152,0.507624,0.227291
2.15177,0.156702,1.09343,0.535697,-1.18932,1.25478,-1.07847,0.50944,0.225318
2.16736,0.158213,1.09342,0.535744,-1.18932,1.25481,-1.07329,0.51263,0.221264
2.18296,0.158942,1.09341,0.535696,-1.18937,1.25481,-1.07082,0.514022,0.218993
2.19855,0.159448,1.0934,0.535688,-1.18939,1.25482,-1.06918,0.514926,0.217283
2.21414,0.16063,1.09338,0.535685,-1.18938,1.25483,-1.06567,0.517157,0.213572
2.22973,0.162325,1.0934,0.535626,-1.18935,1.25486,-1.06098,0.520573,0.209218
2.24533,0.164041,1.09342,0.53561,-1.18933,1.25488,-1.05622,0.523859,0.205408
2.26092,0.164465,1.09342,0.535613,-1.18933,1.25488,-1.05503,0.524646,0.204485
2.27651,0.164465,1.09342,0.535613,-1.18933,1.25488,-1.05503,0.524646,0.204485
2.2921,0.164465,1.09342,0.535613,-1.18933,1.25488,-1.05503,0.524646,0.204485
2.3077,0.164465,1.09342,0.535613,-1.18933,1.25488,-1.05503,0.524646,0.204485
2.32329,0.164465,1.09342,0.535613,-1.18933,1.25488,-1.05503,0.524646,0.204485
2.33888,0.165721,1.09343,0.535624,-1.18933,1.25488,-1.05131,0.526533,0.201755
2.35447,0.173769,1.09347,0.535686,-1.18932,1.25485,-1.02752,0.538636,0.184144
2.37007,0.174974,1.09346,0.535656,-1.18931,1.25486,-1.0244,0.54051,0.180679
2.38566,0.176605,1.09342,0.535664,-1.18933,1.2549,-1.02033,0.543087,0.175786
2.40125,0.177546,1.09341,0.535624,-1.18933,1.25491,-1.01782,0.544721,0.17294
2.41684,0.178798,1.09343,0.535606,-1.18936,1.25493,-1.01408,0.546882,0.169315
2.43244,0.180215,1.09346,0.535605,-1.18934,1.25493,-1.00969,0.549087,0.165616
2.44803,0.181778,1.09348,0.535605,-1.1893,1.25491,-1.00455,0.551244,0.161546
2.46362,0.182988,1.09347,0.535642,-1.1893,1.25491,-1.00047,0.552844,0.158235
2.47921,0.183818,1.09347,0.535659,-1.18932,1.2549,-0.997468,0.553727,0.15603
2.49481,0.185276,1.09345,0.53564,-1.18935,1.25489,-0.99155,0.554766,0.151869
2.5104,0.186094,1.09346,0.535637,-1.18936,1.25487,-0.987937,0.555182,0.149426
2.52599,0.187391,1.09347,0.535672,-1.18932,1.25488,-0.981961,0.555299,0.144783
2.54158,0.188089,1.09343,0.535626,-1.18934,1.25489,-0.97851,0.5553,0.14152
2.55718,0.189057,1.09341,0.535649,-1.18936,1.25491,-0.973103,0.555277,0.136044
2.57277,0.189057,1.09341,0.535649,-1.18936,1.25491,-0.973103,0.555277,0.136044
2.58836,0.189057,1.09341,0.535649,-1.18936,1.25491,-0.973103,0.555277,0.136044
2.60395,0.189057,1.09341,0.535649,-1.18936,1.25491,-0.973103,0.555277,0.136044
2.61955,0.189057,1.09341,0.535649,-1.18936,1.25491,-0.973103,0.555277,0.136044
2.63514,0.189629,1.09341,0.535639,-1.18936,1.25492,-0.969532,0.555275,0.133122
2.65073,0.19329,1.09341,0.535577,-1.18936,1.25495,-0.946719,0.555266,0.114481
2.66632,0.194427,1.09344,0.535601,-1.18935,1.2549,-0.939852,0.555313,0.110296
2.68192,0.19493,1.09341,0.535613,-1.18934,1.25491,-0.936547,0.555325,0.108322
2.69751,0.195951,1.09342,0.535649,-1.18934,1.25487,-0.929809,0.555313,0.104401
2.7131,0.196469,1.09342,0.535683,-1.18936,1.25488,-0.926238,0.555325,0.101812
2.72869,0.197363,1.09341,0.535589,-1.18938,1.2549,-0.920119,0.555313,0.0963696
2.74429,0.19832,1.0934,0.535589,-1.18938,1.2549,-0.913799,0.555304,0.0905529
2.75988,0.198855,1.09342,0.535582,-1.18938,1.25493,-0.910293,0.555263,0.0873482
2.77547,0.199611,1.09342,0.535555,-1.18936,1.25492,-0.906019,0.555314,0.0832855
2.79106,0.200402,1.0934,0.535554,-1.18938,1.25492,-0.901883,0.555314,0.0792066
2.80666,0.200945,1.09338,0.53557,-1.18938,1.25493,-0.898999,0.555255,0.0764325
2.82225,0.202052,1.09341,0.535549,-1.1894,1.25491,-0.893053,0.555272,0.0715576
2.83784,0.202919,1.09342,0.53558,-1.18939,1.25491,-0.888281,0.555294,0.0682414
2.85343,0.203569,1.09344,0.535601,-1.18939,1.25491,-0.88484,0.555301,0.0657937
2.86903,0.203569,1.09344,0.535601,-1.18939,1.25491,-0.88484,0.555301,0.0657937
2.88462,0.203569,1.09344,0.535601,-1.18939,1.25491,-0.88484,0.555301,0.0657937
2.90021,0.203569,1.09344,0.535601,-1.18939,1.25491,-0.88484,0.555301,0.0657937
2.9158,0.203569,1.09344,0.535601,-1.18939,1.25491,-0.88484,0.555301,0.0657937
2.9314,0.203569,1.09344,0.535601,-1.18939,1.25491,-0.88484,0.555301,0.0657937
2.94699,0.205327,1.09343,0.535607,-1.1894,1.25491,-0.877199,0.55532,0.059362
2.96258,0.210489,1.0934,0.535621,-1.18942,1.25489,-0.854861,0.555373,0.0403776
2.97818,0.211755,1.09337,0.535589,-1.18938,1.25488,-0.850171,0.555377,0.0350482
2.99377,0.212552,1.09339,0.535593,-1.18944,1.25488,-0.847183,0.5554,0.0320275
3.00936,0.213896,1.09341,0.535622,-1.18939,1.25489,-0.842467,0.555338,0.0274386
3.02495,0.215185,1.09341,0.535603,-1.18935,1.25488,-0.837619,0.555344,0.0223599
3.04055,0.215921,1.0934,0.535598,-1.18938,1.2549,-0.834831,0.555325,0.0192014
3.05614,0.216931,1.0934,0.535565,-1.18939,1.2549,-0.830987,0.555315,0.0150695
3.07173,0.218043,1.0934,0.535578,-1.18941,1.25488,-0.826834,0.555327,0.0107537
3.08732,0.219278,1.09339,0.535613,-1.18942,1.25487,-0.822522,0.555341,0.0063104
3.10292,0.220325,1.09338,0.535605,-1.1894,1.25486,-0.819022,0.555327,0.00282621
3.11851,0.221197,1.09337,0.535601,-1.18941,1.25484,-0.816184,0.555336,-7.77518e-05
3.1341,0.22286,1.09336,0.535613,-1.1894,1.25484,-0.810809,0.555332,-0.00536151
3.14969,0.223679,1.09336,0.535619,-1.18944,1.25482,-0.808161,0.555411,-0.00784498
3.16529,0.224385,1.09338,0.535649,-1.18941,1.25486,-0.806021,0.555361,-0.00988514
3.18088,0.224385,1.09338,0.535649,-1.18941,1.25486,-0.806021,0.555361,-0.00988514
3.19647,0.224385,1.09338,0.535649,-1.18941,1.25486,-0.806021,0.555361,-0.00988514
3.21206,0.224385,1.09338,0.535649,-1.18941,1.25486,-0.806021,0.555361,-0.00988514
3.22766,0.224385,1.09338,0.535649,-1.18941,1.25486,-0.806021,0.555361,-0.00988514
3.24325,0.226026,1.09338,0.535635,-1.18941,1.25484,-0.800967,0.555366,-0.0159289
3.25884,0.231652,1.09335,0.535608,-1.18943,1.25481,-0.783675,0.555376,-0.0367026
3.27443,0.232692,1.09335,0.53565,-1.18944,1.25483,-0.780728,0.555349,-0.0405663
3.29003,0.234122,1.09333,0.535632,-1.18943,1.25482,-0.7767,0.555359,-0.045418
3.30562,0.235225,1.09335,0.535661,-1.18943,1.25477,-0.773579,0.555394,-0.0486822
3.32121,0.236724,1.09335,0.5357,-1.18942,1.25473,-0.76946,0.555411,-0.0531142
3.3368,0.237803,1.09333,0.535692,-1.18943,1.25469,-0.766556,0.555395,-0.0567108
3.3524,0.239436,1.0933,0.535654,-1.18943,1.25459,-0.762272,0.555415,-0.0623299
3.36799,0.240981,1.0933,0.535676,-1.18943,1.25442,-0.758203,0.555391,-0.0672939
3.38358,0.242199,1.0933,0.535673,-1.18945,1.25425,-0.754951,0.555377,-0.0713075
3.39917,0.243769,1.09331,0.535653,-1.18944,1.25407,-0.750968,0.55538,-0.0767547
3.41477,0.245148,1.09331,0.535666,-1.18946,1.25402,-0.747736,0.555378,-0.0815696
3.43036,0.24661,1.09329,0.535679,-1.18948,1.25396,-0.744377,0.555373,-0.0863507
3.44595,0.24752,1.09328,0.535702,-1.18948,1.25394,-0.742227,0.555384,-0.0890915
3.46154,0.248861,1.09329,0.535709,-1.18949,1.25391,-0.738888,0.555426,-0.093354
3.47714,0.250787,1.09326,0.535677,-1.1895,1.25382,-0.73383,0.555405,-0.100064
3.49273,0.252117,1.09324,0.535676,-1.1895,1.25373,-0.730254,0.55541,-0.104833
3.50832,0.253002,1.09325,0.535693,-1.18949,1.2537,-0.727803,0.555425,-0.107766
3.52391,0.253267,1.09325,0.535697,-1.18948,1.25369,-0.727047,0.555421,-0.108633
3.53951,0.253906,1.09324,0.535697,-1.18952,1.25365,-0.725308,0.555393,-0.110852
3.5551,0.256755,1.09323,0.535697,-1.18964,1.25342,-0.716231,0.555395,-0.122084
3.57069,0.257832,1.09325,0.535697,-1.18965,1.25327,-0.712586,0.55544,-0.12585
3.58628,0.25938,1.09324,0.535681,-1.18978,1.25291,-0.707152,0.555466,-0.1313
3.60188,0.260266,1.0932,0.535622,-1.18991,1.25246,-0.704081,0.555428,-0.134638
3.61747,0.261246,1.09321,0.535609,-1.19,1.25167,-0.700217,0.555413,-0.138437
3.63306,0.262435,1.09322,0.535621,-1.19024,1.25061,-0.695125,0.555416,-0.142812
3.64865,0.263352,1.09325,0.53567,-1.19059,1.2496,-0.690678,0.555398,-0.145791
3.66425,0.264272,1.09333,0.535713,-1.19111,1.24846,-0.685846,0.555341,-0.148672
3.67984,0.265038,1.09336,0.535706,-1.19179,1.24736,-0.68101,0.5553,-0.151333
3.69543,0.265839,1.09332,0.535652,-1.19242,1.24612,-0.675873,0.555297,-0.154266
3.71102,0.266338,1.09328,0.535611,-1.19283,1.24527,-0.672548,0.555277,-0.156287
3.72662,0.267006,1.09327,0.535584,-1.19342,1.24406,-0.667786,0.555272,-0.159231
3.74221,0.26787,1.09327,0.535603,-1.19409,1.24248,-0.661535,0.55528,-0.162481
3.7578,0.268558,1.0933,0.535661,-1.19452,1.24127,-0.656641,0.555313,-0.164455
3.77339,0.268558,1.0933,0.535661,-1.19452,1.24127,-0.656641,0.555313,-0.164455
3.78899,0.268558,1.0933,0.535661,-1.19452,1.24127,-0.656641,0.555313,-0.164455
3.80458,0.268558,1.0933,0.535661,-1.19452,1.24127,-0.656641,0.555313,-0.164455
3.82017,0.268558,1.0933,0.535661,-1.19452,1.24127,-0.656641,0.555313,-0.164455
3.83576,0.26982,1.09331,0.535658,-1.19472,1.23952,-0.649852,0.555187,-0.167675
3.85136,0.275161,1.09334,0.535658,-1.19558,1.23218,-0.621187,0.554662,-0.181298
3.86695,0.276061,1.09337,0.535718,-1.19558,1.23112,-0.617118,0.55462,-0.183541
3.88254,0.277611,1.09345,0.535694,-1.19553,1.22939,-0.610436,0.554564,-0.187678
3.89813,0.279264,1.09338,0.53567,-1.19557,1.2276,-0.604274,0.554619,-0.192122
3.91373,0.28035,1.09332,0.535639,-1.1956,1.22645,-0.600425,0.554626,-0.195575
3.92932,0.282191,1.09329,0.535583,-1.19564,1.22456,-0.594607,0.554597,-0.201126
3.94491,0.283718,1.09332,0.535611,-1.19561,1.22301,-0.590389,0.554575,-0.204719
3.96051,0.285454,1.09337,0.535665,-1.19559,1.22136,-0.585844,0.554575,-0.208502
3.9761,0.286674,1.09338,0.535662,-1.1956,1.22018,-0.582823,0.554587,-0.210924
3.99169,0.288833,1.09338,0.535628,-1.19558,1.21815,-0.577546,0.554604,-0.215535
4.00728,0.29043,1.09334,0.535613,-1.19558,1.21673,-0.573913,0.55457,-0.21884
4.02288,0.291926,1.09332,0.535623,-1.19561,1.21529,-0.570809,0.554599,-0.221762
4.03847,0.294219,1.0933,0.535627,-1.19561,1.2132,-0.566104,0.554619,-0.225789
4.05406,0.295898,1.09335,0.535661,-1.19563,1.21163,-0.562529,0.554599,-0.228964
4.06965,0.297717,1.09338,0.535655,-1.1956,1.20998,-0.558621,0.554594,-0.232892
4.08525,0.298925,1.09339,0.535664,-1.19558,1.20887,-0.556144,0.554589,-0.23576
4.10084,0.300962,1.09335,0.535628,-1.19563,1.20704,-0.55225,0.554576,-0.240485
4.11643,0.301502,1.09334,0.535613,-1.19564,1.20656,-0.55123,0.55457,-0.241728
4.13202,0.301502,1.09334,0.535613,-1.19564,1.20656,-0.55123,0.55457,-0.241728
4.14762,0.306082,1.09332,0.5356,-1.19558,1.20253,-0.542698,0.554618,-0.250639
4.16321,0.307064,1.09334,0.53559,-1.19557,1.2017,-0.540806,0.554618,-0.252742
4.1788,0.309112,1.09334,0.535589,-1.19558,1.19992,-0.536588,0.554607,-0.257274
4.19439,0.310362,1.09335,0.535623,-1.19562,1.19885,-0.534063,0.554538,-0.259728
4.20999,0.31252,1.09332,0.535684,-1.19555,1.197,-0.529487,0.554652,-0.263565
4.22558,0.313593,1.09331,0.535673,-1.19559,1.19609,-0.527223,0.554597,-0.265567
4.24117,0.31591,1.0933,0.53566,-1.19561,1.19414,-0.52197,0.554583,-0.270399
4.25676,0.317211,1.09329,0.535649,-1.19561,1.19319,-0.518893,0.554614,-0.2735
4.27236,0.319168,1.09329,0.535638,-1.19562,1.19167,-0.514043,0.554602,-0.278741
4.28795,0.320323,1.09331,0.535618,-1.19562,1.19078,-0.511087,0.554632,-0.281625
4.30354,0.321789,1.09331,0.53568,-1.19559,1.18975,-0.507156,0.554641,-0.285052
4.31913,0.322825,1.09332,0.535649,-1.19561,1.18895,-0.504195,0.554594,-0.287864
4.33473,0.324834,1.09331,0.535647,-1.19556,1.18756,-0.498271,0.55466,-0.294044
4.35032,0.326465,1.0933,0.535625,-1.19558,1.18643,-0.493323,0.554606,-0.299742
4.36591,0.326465,1.0933,0.535625,-1.19558,1.18643,-0.493323,0.554606,-0.299742
4.3815,0.326465,1.0933,0.535625,-1.19558,1.18643,-0.493323,0.554606,-0.299742
4.3971,0.326465,1.0933,0.535625,-1.19558,1.18643,-0.493323,0.554606,-0.299742
4.41269,0.326465,1.0933,0.535625,-1.19558,1.18643,-0.493323,0.554606,-0.299742
4.42828,0.326465,1.0933,0.535625,-1.19558,1.18643,-0.493323,0.554606,-0.299742
4.44387,0.331049,1.09331,0.535632,-1.19558,1.18329,-0.479064,0.554612,-0.315077
4.45947,0.335701,1.09333,0.535629,-1.1956,1.18006,-0.464222,0.554633,-0.331397
4.47506,0.336807,1.09333,0.535581,-1.1956,1.17925,-0.460332,0.55459,-0.336019
4.49065,0.338155,1.0933,0.535561,-1.19559,1.17837,-0.45558,0.554573,-0.341057
4.50624,0.339292,1.0933,0.535557,-1.19558,1.17764,-0.451517,0.554574,-0.345098
4.52184,0.340693,1.09332,0.535562,-1.19556,1.17674,-0.446238,0.554587,-0.35017
4.53743,0.341683,1.09332,0.535593,-1.19558,1.17613,-0.442164,0.554557,-0.354311
4.55302,0.343039,1.09332,0.53557,-1.19559,1.17525,-0.436328,0.554474,-0.359891
4.56861,0.343855,1.09334,0.535565,-1.1956,1.17478,-0.432629,0.554417,-0.36303
4.58421,0.345122,1.09329,0.535602,-1.19558,1.17444,-0.426448,0.554057,-0.3688
4.5998,0.345835,1.0933,0.535597,-1.19557,1.1742,-0.422756,0.55374,-0.372339
4.61539,0.346693,1.09331,0.535525,-1.19559,1.17378,-0.417836,0.553023,-0.377424
4.63098,0.347513,1.0933,0.535493,-1.19561,1.17335,-0.41291,0.552389,-0.382145
4.64658,0.348073,1.09331,0.535564,-1.19562,1.17316,-0.409436,0.552122,-0.385116
4.66217,0.349109,1.0933,0.535648,-1.19557,1.17302,-0.40286,0.551448,-0.390781
4.67776,0.349565,1.09329,0.535624,-1.19562,1.17303,-0.399607,0.550999,-0.393299
4.69335,0.349931,1.09325,0.535613,-1.1956,1.17302,-0.396987,0.550716,-0.39573
4.70895,0.350934,1.09328,0.535601,-1.19557,1.17303,-0.391051,0.550573,-0.400652
4.72454,0.350984,1.09328,0.535601,-1.19557,1.17303,-0.390752,0.550567,-0.400899
4.74013,0.350984,1.09328,0.535601,-1.19557,1.17303,-0.390752,0.550567,-0.400899
4.75572,0.352689,1.09329,0.535592,-1.1956,1.17304,-0.379502,0.550357,-0.410873
4.77132,0.35357,1.09328,0.535541,-1.19561,1.17305,-0.373526,0.550282,-0.416706
4.78691,0.354349,1.0933,0.535569,-1.19559,1.173,-0.368045,0.55024,-0.421629
4.8025,0.354857,1.0933,0.535632,-1.19557,1.17304,-0.364384,0.550122,-0.424982
4.81809,0.355731,1.09329,0.53558,-1.19559,1.17303,-0.358725,0.549862,-0.430943
4.83369,0.356222,1.09326,0.535566,-1.19558,1.17303,-0.355667,0.549493,-0.434229
4.84928,0.357121,1.09326,0.535575,-1.19565,1.17301,-0.350676,0.548889,-0.439217
4.86487,0.357684,1.09328,0.535586,-1.19566,1.173,-0.347595,0.548603,-0.442056
4.88047,0.358566,1.09329,0.535572,-1.19561,1.17301,-0.342724,0.548296,-0.446727
4.89606,0.359445,1.0933,0.535559,-1.1956,1.17301,-0.338038,0.547897,-0.451664
4.91165,0.360145,1.09329,0.535573,-1.19561,1.17299,-0.334334,0.54746,-0.455617
4.92724,0.360895,1.09325,0.535622,-1.19561,1.17294,-0.330333,0.546922,-0.459567
4.94283,0.361962,1.09326,0.535627,-1.19561,1.1729,-0.324858,0.546442,-0.465325
4.95843,0.362525,1.09328,0.535601,-1.19562,1.1729,-0.32206,0.546301,-0.468501
4.97402,0.362525,1.09328,0.535601,-1.19562,1.1729,-0.32206,0.546301,-0.468501
4.98961,0.362525,1.09328,0.535601,-1.19562,1.1729,-0.32206,0.546301,-0.468501
5.00521,0.362525,1.09328,0.535601,-1.19562,1.1729,-0.32206,0.546301,-0.468501
5.0208,0.362525,1.09328,0.535601,-1.19562,1.1729,-0.32206,0.546301,-0.468501
5.03639,0.362525,1.09328,0.535601,-1.19562,1.1729,-0.32206,0.546301,-0.468501
5.05198,0.365199,1.09328,0.535572,-1.19562,1.17199,-0.311609,0.544649,-0.480833
5.06758,0.369426,1.09328,0.535542,-1.19563,1.17049,-0.295165,0.542042,-0.500153
5.08317,0.370217,1.09327,0.535575,-1.19563,1.16988,-0.29248,0.5414,-0.503086
5.09876,0.371498,1.09326,0.535601,-1.19562,1.1687,-0.288373,0.540067,-0.507743
5.11435,0.372743,1.09327,0.535601,-1.19562,1.16753,-0.28439,0.538715,-0.512497
5.12995,0.373523,1.09328,0.535597,-1.19561,1.16666,-0.281916,0.537645,-0.515302
5.14554,0.374812,1.09328,0.535585,-1.19562,1.16509,-0.278016,0.535782,-0.519451
5.16113,0.375991,1.09325,0.535601,-1.19562,1.16351,-0.274726,0.533846,-0.522762
5.17672,0.377224,1.09324,0.535618,-1.19565,1.16193,-0.271627,0.531682,-0.525974
5.19232,0.377854,1.09322,0.535625,-1.19565,1.1611,-0.270047,0.530524,-0.52749
5.20791,0.378559,1.0932,0.535627,-1.19565,1.16016,-0.268283,0.52927,-0.529117
5.2235,0.380391,1.09322,0.535634,-1.19568,1.15777,-0.264026,0.526304,-0.533145
5.23909,0.382228,1.09326,0.535622,-1.19561,1.15517,-0.259633,0.523499,-0.536671
5.25469,0.383437,1.09326,0.535613,-1.1956,1.15339,-0.256783,0.521937,-0.538595
5.27028,0.383437,1.09326,0.535613,-1.1956,1.15339,-0.256783,0.521937,-0.538595
5.28587,0.383437,1.09326,0.535613,-1.1956,1.15339,-0.256783,0.521937,-0.538595
5.30146,0.383437,1.09326,0.535613,-1.1956,1.15339,-0.256783,0.521937,-0.538595
5.31706,0.383437,1.09326,0.535613,-1.1956,1.15339,-0.256783,0.521937,-0.538595
5.33265,0.383437,1.09326,0.535613,-1.1956,1.15339,-0.256783,0.521937,-0.538595
5.34824,0.389079,1.09326,0.535613,-1.19559,1.14488,-0.243828,0.516597,-0.54687
5.36383,0.392201,1.09326,0.535603,-1.19557,1.14024,-0.236778,0.513736,-0.551335
5.37943,0.393043,1.09328,0.535623,-1.19559,1.13898,-0.235024,0.512908,-0.552369
5.39502,0.39452,1.09326,0.535589,-1.19557,1.13681,-0.231488,0.511537,-0.554197
5.41061,0.395181,1.09328,0.535577,-1.1956,1.13584,-0.229748,0.510853,-0.554881
5.4262,0.396574,1.09329,0.535659,-1.19554,1.13397,-0.225901,0.509543,-0.556233
5.4418,0.397311,1.09328,0.535649,-1.19556,1.13298,-0.223613,0.508853,-0.556999
5.45739,0.398249,1.0933,0.535649,-1.19557,1.13173,-0.220607,0.508084,-0.558244
5.47298,0.398779,1.0933,0.53564,-1.19558,1.13105,-0.218815,0.507565,-0.559088
5.48857,0.399486,1.0933,0.535605,-1.19556,1.1301,-0.216014,0.506948,-0.56065
5.50417,0.399811,1.0933,0.535624,-1.19551,1.12968,-0.214693,0.506799,-0.561357
5.51976,0.400504,1.09329,0.535625,-1.19554,1.12901,-0.211607,0.506428,-0.56336
5.53535,0.401124,1.09328,0.535649,-1.19554,1.12835,-0.208522,0.505815,-0.565461
5.55094,0.401365,1.09329,0.535646,-1.19556,1.12813,-0.207077,0.505455,-0.566537
5.56654,0.401533,1.0933,0.535613,-1.19558,1.12803,-0.205791,0.50522,-0.567632
5.58213,0.401533,1.0933,0.535613,-1.19558,1.12803,-0.205791,0.50522,-0.567632
5.59772,0.401533,1.0933,0.535613,-1.19558,1.12803,-0.205791,0.50522,-0.567632
5.61331,0.401533,1.0933,0.535613,-1.19558,1.12803,-0.205791,0.50522,-0.567632
5.62891,0.401533,1.0933,0.535613,-1.19558,1.12803,-0.205791,0.50522,-0.567632
5.6445,0.402212,1.09333,0.53563,-1.19554,1.12806,-0.200111,0.505191,-0.571369
5.66009,0.402962,1.09337,0.535635,-1.19549,1.1281,-0.193498,0.505173,-0.57563
5.67568,0.403004,1.09338,0.53559,-1.19549,1.12811,-0.192518,0.505163,-0.576113
5.69128,0.403063,1.09338,0.535602,-1.1955,1.12814,-0.191115,0.505148,-0.576832
5.70687,0.403099,1.09338,0.535625,-1.19552,1.12816,-0.189994,0.505198,-0.577419
5.72246,0.403112,1.09338,0.535625,-1.19551,1.12823,-0.188745,0.505202,-0.578063
5.73805,0.403115,1.09337,0.535615,-1.19548,1.12828,-0.187993,0.505185,-0.578597
5.75365,0.403091,1.09336,0.535613,-1.19548,1.12841,-0.186931,0.505208,-0.579088
5.76924,0.403089,1.09337,0.535632,-1.19552,1.12848,-0.186365,0.505176,-0.579228
5.78483,0.403082,1.09336,0.535671,-1.1955,1.12859,-0.185865,0.505202,-0.579264
5.80042,0.403091,1.09336,0.535629,-1.19551,1.12871,-0.185332,0.505186,-0.579216
5.81602,0.403091,1.09337,0.535645,-1.19551,1.12876,-0.185126,0.505194,-0.579239
5.83161,0.403041,1.09337,0.535698,-1.19551,1.12913,-0.184359,0.505216,-0.579284
5.8472,0.402985,1.09335,0.535697,-1.1955,1.12946,-0.184081,0.505208,-0.579281
5.86279,0.402935,1.09334,0.535721,-1.19551,1.12984,-0.183896,0.505232,-0.579269
5.87839,0.402935,1.09334,0.535721,-1.19551,1.12984,-0.183896,0.505232,-0.579269
5.89398,0.402935,1.09334,0.535721,-1.19551,1.12984,-0.183896,0.505232,-0.579269
5.90957,0.402935,1.09334,0.535721,-1.19551,1.12984,-0.183896,0.505232,-0.579269
5.92516,0.402935,1.09334,0.535721,-1.19551,1.12984,-0.183896,0.505232,-0.579269
5.94076,0.402602,1.09334,0.535735,-1.19552,1.13092,-0.18369,0.505255,-0.579278
5.95635,0.401384,1.09333,0.535791,-1.19555,1.13458,-0.183051,0.505341,-0.579312
5.97194,0.400766,1.09332,0.535817,-1.19557,1.13564,-0.183033,0.505402,-0.579312
5.98753,0.400301,1.09332,0.535814,-1.19556,1.13638,-0.183033,0.505499,-0.579275
6.00313,0.399582,1.09333,0.535805,-1.19556,1.1375,-0.183039,0.505629,-0.579289
6.01872,0.399071,1.09332,0.535813,-1.1956,1.13827,-0.183057,0.50587,-0.579297
6.03431,0.398252,1.09333,0.53584,-1.19557,1.13942,-0.18306,0.50632,-0.579346
6.04991,0.397205,1.09335,0.535828,-1.19554,1.14086,-0.183082,0.507514,-0.579265
6.0655,0.396621,1.09335,0.535816,-1.19559,1.14162,-0.183101,0.508338,-0.579211
6.08109,0.39563,1.09335,0.535805,-1.19563,1.14295,-0.183188,0.509619,-0.579103
6.09668,0.394981,1.09334,0.535805,-1.19558,1.1439,-0.183218,0.51043,-0.578909
6.11228,0.394345,1.09334,0.535801,-1.19558,1.14481,-0.18327,0.511182,-0.578667
6.12787,0.39326,1.09335,0.535831,-1.1956,1.14642,-0.183521,0.512036,-0.577722
6.14346,0.391894,1.09336,0.535905,-1.19557,1.1485,-0.18398,0.512955,-0.576228
6.15905,0.391186,1.09338,0.535925,-1.1956,1.14956,-0.184365,0.513459,-0.575277
6.17465,0.390855,1.09341,0.535924,-1.19563,1.15009,-0.184543,0.51368,-0.574787
6.19024,0.390855,1.09341,0.535925,-1.19563,1.15009,-0.184543,0.51368,-0.574787
6.20583,0.390855,1.09341,0.535924,-1.19563,1.15009,-0.184543,0.51368,-0.574787
6.22142,0.390855,1.09341,0.535924,-1.19563,1.15009,-0.184543,0.51368,-0.574787
6.23702,0.389818,1.0934,0.535947,-1.19563,1.1514,-0.185573,0.514052,-0.573384
6.25261,0.384998,1.09337,0.536053,-1.1956,1.15748,-0.190354,0.515776,-0.566869
6.2682,0.383653,1.09336,0.536056,-1.1956,1.15894,-0.191844,0.516675,-0.565464
6.28379,0.382419,1.09337,0.536056,-1.19559,1.16023,-0.193212,0.517902,-0.564242
6.29939,0.381132,1.09339,0.536049,-1.1956,1.16152,-0.194659,0.519508,-0.562879
6.31498,0.37968,1.09341,0.536016,-1.19562,1.16291,-0.19639,0.521592,-0.561032
6.33057,0.378283,1.09343,0.535986,-1.19562,1.1642,-0.198196,0.523763,-0.558918
6.34616,0.377027,1.09344,0.536021,-1.19563,1.16534,-0.200111,0.525936,-0.556441
6.36176,0.37579,1.09344,0.536007,-1.19559,1.16652,-0.202167,0.528174,-0.553526
6.37735,0.374953,1.09345,0.53605,-1.19555,1.16727,-0.203734,0.529594,-0.551034
6.39294,0.373469,1.09343,0.536044,-1.19561,1.16865,-0.207039,0.532012,-0.546498
6.40853,0.372686,1.09347,0.53603,-1.19557,1.16934,-0.208914,0.533178,-0.544363
6.42413,0.371648,1.09349,0.536014,-1.19557,1.17016,-0.211401,0.534675,-0.541938
6.43972,0.37024,1.0935,0.536007,-1.19555,1.17113,-0.21481,0.53674,-0.538904
6.45531,0.369523,1.09351,0.53603,-1.19555,1.17165,-0.216603,0.537878,-0.537217
6.4709,0.368912,1.09352,0.53602,-1.19554,1.17211,-0.218135,0.538931,-0.535695
6.4865,0.368912,1.09352,0.53602,-1.19554,1.17211,-0.218135,0.538931,-0.535695
6.50209,0.368912,1.09352,0.53602,-1.19554,1.17211,-0.218134,0.538931,-0.535695
6.51768,0.368912,1.09352,0.53602,-1.19554,1.17211,-0.218135,0.538931,-0.535695
6.53327,0.368912,1.09352,0.53602,-1.19554,1.17211,-0.218135,0.538931,-0.535695
6.54887,0.363364,1.09355,0.536091,-1.19562,1.17703,-0.234517,0.550772,-0.518406
6.56446,0.361023,1.09359,0.536134,-1.19557,1.17929,-0.24158,0.555536,-0.510034
6.58005,0.360131,1.0936,0.53614,-1.1956,1.18022,-0.244356,0.557088,-0.506898
6.59564,0.358658,1.09364,0.53613,-1.1956,1.18159,-0.249018,0.559118,-0.502357
6.61124,0.35775,1.09368,0.536096,-1.1956,1.18238,-0.251928,0.560068,-0.499809
6.62683,0.356045,1.09379,0.536162,-1.19563,1.18383,-0.257318,0.561476,-0.49534
6.64242,0.355009,1.09386,0.536143,-1.19563,1.18465,-0.260726,0.562053,-0.492532
6.65801,0.353417,1.09399,0.536161,-1.19564,1.18598,-0.266455,0.562851,-0.488306
6.67361,0.352644,1.09409,0.536149,-1.19562,1.1866,-0.269263,0.563088,-0.486555
6.6892,0.351817,1.09419,0.536135,-1.19567,1.18726,-0.27222,0.563218,-0.484602
6.70479,0.350731,1.09437,0.536118,-1.1957,1.18814,-0.275816,0.563244,-0.482101
6.72039,0.349958,1.09451,0.536162,-1.1957,1.18878,-0.278254,0.563281,-0.480011
6.73598,0.348002,1.09487,0.536188,-1.1957,1.19054,-0.284868,0.563438,-0.47336
6.75157,0.347269,1.095,0.536248,-1.19574,1.19114,-0.287055,0.56345,-0.470514
6.76716,0.347269,1.095,0.536248,-1.19574,1.19114,-0.287055,0.56345,-0.470514
6.78275,0.347269,1.095,0.536248,-1.19574,1.19114,-0.287055,0.56345,-0.470514
6.79835,0.347269,1.095,0.536248,-1.19574,1.19114,-0.287055,0.56345,-0.470514
6.81394,0.347269,1.095,0.536248,-1.19574,1.19114,-0.287055,0.56345,-0.470514
6.82953,0.347269,1.095,0.536248,-1.19574,1.19114,-0.287055,0.56345,-0.470514
6.84513,0.345202,1.09518,0.536258,-1.19597,1.19249,-0.291344,0.563486,-0.464138
6.86072,0.339499,1.09566,0.536291,-1.19668,1.19619,-0.303173,0.563564,-0.446652
6.87631,0.338614,1.09565,0.536297,-1.19716,1.19661,-0.304962,0.563522,-0.444498
6.8919,0.33746,1.09562,0.536275,-1.19782,1.19725,-0.307257,0.563515,-0.441834
6.9075,0.336653,1.09563,0.536275,-1.19834,1.19766,-0.308937,0.563504,-0.43988
6.92309,0.335467,1.09568,0.536252,-1.19921,1.19814,-0.311346,0.563514,-0.437013
6.93868,0.334322,1.09573,0.536284,-1.20016,1.19869,-0.313576,0.563476,-0.433813
6.95427,0.333568,1.09579,0.536332,-1.20088,1.19917,-0.315052,0.563492,-0.431717
6.96987,0.332502,1.09591,0.53632,-1.20187,1.19976,-0.317199,0.563498,-0.428705
6.98546,0.331678,1.09608,0.53628,-1.20271,1.20001,-0.318954,0.563462,-0.426744
7.00105,0.330633,1.09641,0.536264,-1.20391,1.20031,-0.321447,0.563474,-0.424309
7.01664,0.329846,1.09685,0.536281,-1.20489,1.20073,-0.323448,0.563493,-0.422288
7.03224,0.328941,1.09743,0.536358,-1.20605,1.20134,-0.325796,0.563517,-0.419736
7.04783,0.328127,1.09802,0.536369,-1.20695,1.20179,-0.327704,0.563524,-0.417328
7.06342,0.327568,1.09842,0.536344,-1.20756,1.20205,-0.329011,0.563486,-0.415651
7.07901,0.327568,1.09842,0.536344,-1.20756,1.20205,-0.329011,0.563486,-0.415651
7.09461,0.327568,1.09842,0.536344,-1.20756,1.20205,-0.329011,0.563486,-0.415651
7.1102,0.327568,1.09842,0.536344,-1.20756,1.20205,-0.329011,0.563486,-0.415651
7.12579,0.327568,1.09842,0.536344,-1.20756,1.20205,-0.329011,0.563486,-0.415651
7.14138,0.32498,1.1011,0.536477,-1.21022,1.20302,-0.336331,0.563523,-0.407314
7.15698,0.32307,1.10318,0.53656,-1.21231,1.20359,-0.341906,0.563561,-0.401278
7.17257,0.322299,1.10428,0.53656,-1.21365,1.20359,-0.344499,0.563609,-0.398661
7.18816,0.321658,1.10529,0.536575,-1.21497,1.20358,-0.346644,0.563638,-0.39601
7.20375,0.320942,1.10646,0.536669,-1.21692,1.2036,-0.348794,0.563599,-0.392678
7.21935,0.320056,1.10801,0.536841,-1.21985,1.20362,-0.351191,0.563551,-0.388877
7.23494,0.319311,1.10948,0.537034,-1.22272,1.20361,-0.353125,0.56352,-0.386151
7.25053,0.318336,1.11165,0.53738,-1.22685,1.20363,-0.355775,0.563528,-0.382923
7.26612,0.317588,1.1132,0.537627,-1.22966,1.20366,-0.357714,0.563565,-0.380491
7.28172,0.316376,1.11541,0.538007,-1.23356,1.2037,-0.360713,0.563459,-0.376394
7.29731,0.315693,1.11649,0.538214,-1.23569,1.20373,-0.362333,0.563484,-0.373737
7.3129,0.314893,1.11788,0.53844,-1.2381,1.20373,-0.363912,0.563426,-0.370751
7.32849,0.313503,1.12045,0.538903,-1.24275,1.20376,-0.366586,0.563414,-0.366091
7.34409,0.312707,1.12196,0.53911,-1.24538,1.20378,-0.368056,0.563391,-0.363585
7.35968,0.311174,1.12466,0.539508,-1.24985,1.20384,-0.370607,0.563426,-0.358751
7.37527,0.311174,1.12466,0.539508,-1.24985,1.20384,-0.370607,0.563426,-0.358751
7.39086,0.311174,1.12466,0.539508,-1.24985,1.20384,-0.370607,0.563426,-0.358751
7.40646,0.311174,1.12466,0.539508,-1.24985,1.20384,-0.370607,0.563426,-0.358751
7.42205,0.311174,1.12466,0.539508,-1.24985,1.20384,-0.370607,0.563426,-0.358751
7.43764,0.30976,1.12685,0.539789,-1.25326,1.20418,-0.372786,0.563424,-0.35404
7.45323,0.30369,1.13624,0.540995,-1.26793,1.20565,-0.382144,0.563414,-0.33381
7.46883,0.301694,1.13819,0.541365,-1.27096,1.2063,-0.385132,0.563366,-0.32855
7.48442,0.300659,1.13916,0.541479,-1.27238,1.20663,-0.386699,0.563341,-0.32623
7.50001,0.29858,1.1409,0.541775,-1.27485,1.20745,-0.389662,0.563308,-0.322067
7.5156,0.297265,1.1419,0.541873,-1.27633,1.20792,-0.391479,0.563354,-0.319262
7.5312,0.295164,1.14347,0.542001,-1.27871,1.20864,-0.394389,0.563326,-0.314535
7.54679,0.293322,1.14464,0.542078,-1.28081,1.20937,-0.397129,0.563276,-0.310032
7.56238,0.291355,1.14579,0.542131,-1.28301,1.21004,-0.400122,0.563277,-0.305458
7.57797,0.289975,1.1466,0.542203,-1.28456,1.21049,-0.402414,0.563282,-0.302491
7.59357,0.289287,1.14692,0.54224,-1.2852,1.21076,-0.403523,0.563275,-0.300843
7.60916,0.287899,1.14754,0.542293,-1.28635,1.21128,-0.405803,0.56327,-0.297339
7.62475,0.284975,1.14864,0.542435,-1.28832,1.2124,-0.410682,0.563263,-0.289979
7.64034,0.282112,1.14955,0.542671,-1.28988,1.21368,-0.415818,0.563227,-0.283418
7.65594,0.281837,1.14964,0.542695,-1.29003,1.21381,-0.416326,0.563222,-0.282809
7.67153,0.281837,1.14964,0.542695,-1.29003,1.21381,-0.416326,0.563222,-0.282809
7.68712,0.281837,1.14964,0.542695,-1.29003,1.21381,-0.416326,0.563222,-0.282809
7.70271,0.281837,1.14964,0.542695,-1.29003,1.21381,-0.416326,0.563222,-0.282809
7.71831,0.281837,1.14964,0.542695,-1.29003,1.21381,-0.416326,0.563222,-0.282809
7.7339,0.278874,1.14986,0.543207,-1.29109,1.21564,-0.423017,0.563199,-0.274782
7.74949,0.270728,1.15043,0.544662,-1.294,1.22073,-0.441597,0.56312,-0.252732
7.76508,0.269408,1.15043,0.545025,-1.29446,1.22165,-0.445067,0.563111,-0.249197
7.78068,0.268192,1.15045,0.545355,-1.29495,1.22247,-0.448371,0.563055,-0.246105
7.79627,0.265957,1.15049,0.545878,-1.29589,1.22414,-0.454618,0.563075,-0.240366
7.81186,0.264791,1.1505,0.546121,-1.2964,1.22506,-0.458036,0.563022,-0.236921
7.82745,0.262529,1.15054,0.546711,-1.29749,1.22687,-0.46512,0.562961,-0.230157
7.84305,0.261216,1.15052,0.547037,-1.29807,1.22794,-0.468998,0.562891,-0.22721
7.85864,0.25952,1.15051,0.547476,-1.29891,1.22945,-0.474449,0.562863,-0.222864
7.87423,0.257751,1.15048,0.547916,-1.29971,1.231,-0.480161,0.562835,-0.218314
7.88982,0.257005,1.15047,0.548077,-1.30003,1.23167,-0.482662,0.562817,-0.216207
7.90542,0.256418,1.15048,0.548214,-1.30029,1.2322,-0.484662,0.562803,-0.214497
7.92101,0.253927,1.15053,0.54868,-1.30138,1.23468,-0.49316,0.562755,-0.208097
7.9366,0.251555,1.15052,0.54921,-1.30227,1.23707,-0.501368,0.562695,-0.203021
7.9522,0.250007,1.1505,0.549526,-1.30283,1.23868,-0.506901,0.562695,-0.199951
7.96779,0.250007,1.1505,0.549526,-1.30283,1.23868,-0.506901,0.562695,-0.199951
7.98338,0.250007,1.1505,0.549526,-1.30283,1.23868,-0.506901,0.562695,-0.199951
7.99897,0.250007,1.1505,0.549526,-1.30283,1.23868,-0.506901,0.562695,-0.199951
8.01457,0.250007,1.1505,0.549526,-1.30283,1.23868,-0.506901,0.562695,-0.199951
8.03016,0.250007,1.1505,0.549526,-1.30283,1.23868,-0.506901,0.562695,-0.199951
8.04575,0.244172,1.15046,0.549993,-1.30319,1.24432,-0.52697,0.562752,-0.188388
8.06134,0.23934,1.15043,0.55031,-1.30347,1.24885,-0.54338,0.562781,-0.178398
8.07694,0.23751,1.15044,0.550344,-1.30349,1.25033,-0.549205,0.562767,-0.17391
8.09253,0.235728,1.15043,0.550423,-1.30347,1.25171,-0.55479,0.56277,-0.169503
8.10812,0.234506,1.15046,0.550463,-1.30348,1.2526,-0.558695,0.562787,-0.166686
8.12371,0.232643,1.15048,0.550537,-1.30344,1.25387,-0.564599,0.562812,-0.162363
8.13931,0.230834,1.15046,0.550733,-1.30348,1.25519,-0.570774,0.562788,-0.157504
8.1549,0.22957,1.15045,0.550901,-1.30351,1.25607,-0.575525,0.562782,-0.153968
8.17049,0.22805,1.15044,0.551194,-1.30351,1.2572,-0.581777,0.562804,-0.14976
8.18608,0.226818,1.15044,0.551525,-1.30352,1.25811,-0.586827,0.562805,-0.146269
8.20168,0.225528,1.15043,0.551852,-1.30354,1.25902,-0.592008,0.562791,-0.142409
8.21727,0.224714,1.15044,0.552044,-1.30354,1.25952,-0.59539,0.562816,-0.139403
8.23286,0.223382,1.15046,0.552342,-1.30351,1.26034,-0.600776,0.56282,-0.134435
8.24845,0.222205,1.15048,0.55261,-1.30349,1.26102,-0.605436,0.562794,-0.13019
8.26405,0.221395,1.15049,0.552814,-1.3035,1.26141,-0.608622,0.562757,-0.127379
8.27964,0.22109,1.1505,0.552894,-1.30351,1.26155,-0.60982,0.562743,-0.126345
8.29523,0.22109,1.1505,0.552894,-1.30351,1.26155,-0.60982,0.562743,-0.126345
8.31082,0.22109,1.1505,0.552894,-1.30351,1.26155,-0.60982,0.562743,-0.126345
8.32642,0.22109,1.1505,0.552894,-1.30351,1.26155,-0.60982,0.562743,-0.126345
8.34201,0.218647,1.15048,0.55388,-1.30353,1.26296,-0.621935,0.562743,-0.116575
8.3576,0.21482,1.15044,0.555495,-1.30354,1.26516,-0.64112,0.562743,-0.100983
8.37319,0.213738,1.15043,0.556193,-1.30353,1.26578,-0.64722,0.562728,-0.0956153
8.38879,0.213039,1.15045,0.556691,-1.30352,1.26623,-0.651286,0.562696,-0.0920481
8.40438,0.212102,1.15045,0.55741,-1.30355,1.26687,-0.65717,0.562755,-0.0871852
8.41997,0.211095,1.15045,0.558321,-1.30353,1.26764,-0.664452,0.562741,-0.0812365
8.43556,0.210484,1.15045,0.558939,-1.30352,1.26813,-0.668698,0.562713,-0.0769994
8.45116,0.209577,1.15046,0.560052,-1.30355,1.26885,-0.675553,0.562677,-0.0705781
8.46675,0.208999,1.15046,0.560916,-1.30352,1.26935,-0.680917,0.562687,-0.0660582
8.48234,0.208338,1.15044,0.561935,-1.30354,1.27007,-0.687124,0.562739,-0.060729
8.49793,0.207854,1.15041,0.56279,-1.30353,1.2707,-0.692267,0.562726,-0.0561394
8.51353,0.207368,1.15044,0.56389,-1.30352,1.27143,-0.698397,0.562701,-0.0510877
8.52912,0.206915,1.15045,0.564942,-1.30351,1.27219,-0.703934,0.562661,-0.0466452
8.54471,0.206402,1.15045,0.566074,-1.30352,1.27303,-0.710009,0.562652,-0.0415701
8.5603,0.206218,1.15045,0.566484,-1.30354,1.27335,-0.712379,0.562659,-0.0394257
8.5759,0.206218,1.15045,0.566484,-1.30354,1.27335,-0.712379,0.562659,-0.0394257
8.59149,0.206218,1.15045,0.566484,-1.30354,1.27335,-0.712379,0.562659,-0.0394257
8.60708,0.206218,1.15045,0.566484,-1.30354,1.27335,-0.712379,0.562659,-0.0394257
8.62267,0.206218,1.15045,0.566484,-1.30354,1.27335,-0.712379,0.562659,-0.0394257
8.63827,0.205168,1.15047,0.569979,-1.30349,1.27647,-0.731655,0.562578,-0.0242034
8.65386,0.204073,1.15048,0.573532,-1.30346,1.27965,-0.751463,0.562492,-0.0088598
8.66945,0.20375,1.15045,0.574351,-1.3035,1.28048,-0.757136,0.562495,-0.00518944
8.68504,0.203427,1.15042,0.575249,-1.30352,1.2814,-0.763498,0.562525,-0.000962086
8.70064,0.203205,1.15041,0.576002,-1.3035,1.28213,-0.768411,0.562535,0.00230562
8.71623,0.202862,1.15043,0.577029,-1.30351,1.2832,-0.775453,0.562519,0.00673299
8.73182,0.202461,1.15046,0.578062,-1.30351,1.28431,-0.782799,0.562488,0.0110812
8.74741,0.202187,1.15045,0.578761,-1.30348,1.28508,-0.787763,0.562483,0.0143293
8.76301,0.201832,1.15042,0.579625,-1.30351,1.28605,-0.794308,0.562467,0.0187301
8.7786,0.201583,1.15042,0.5803,-1.30354,1.28679,-0.799351,0.562439,0.0222515
8.79419,0.201273,1.15043,0.581124,-1.30354,1.28773,-0.805406,0.562461,0.026259
8.80978,0.201061,1.15045,0.581689,-1.30353,1.28839,-0.810105,0.562416,0.0290944
8.82538,0.2007,1.15046,0.582694,-1.30354,1.28945,-0.818563,0.562399,0.0339726
8.84097,0.200389,1.15045,0.583514,-1.30354,1.29034,-0.825188,0.562383,0.0380732
8.85656,0.200188,1.15045,0.583964,-1.30352,1.29086,-0.829291,0.562376,0.0408187
8.87216,0.199898,1.15045,0.584716,-1.30352,1.29178,-0.836038,0.562346,0.0447302
8.88775,0.199662,1.15044,0.585254,-1.3035,1.29245,-0.841358,0.562316,0.0476264
8.90334,0.199435,1.15044,0.585993,-1.3035,1.29337,-0.848897,0.562354,0.0514394
8.91893,0.199411,1.15044,0.586078,-1.3035,1.29348,-0.849751,0.56236,0.0518686
8.93453,0.199381,1.15044,0.586187,-1.3035,1.29363,-0.850977,0.562356,0.0525263
8.95012,0.198997,1.15043,0.587609,-1.30356,1.29565,-0.86692,0.562314,0.0611012
8.96571,0.198925,1.15045,0.587845,-1.30356,1.29604,-0.870233,0.562345,0.0630953
8.9813,0.198897,1.15046,0.588478,-1.30354,1.29682,-0.878019,0.562313,0.0672369
8.99689,0.198872,1.15046,0.588886,-1.30351,1.29729,-0.882213,0.562335,0.0693513
9.01249,0.198789,1.15043,0.589437,-1.30351,1.2982,-0.889825,0.562277,0.0733228
9.02808,0.198752,1.15046,0.589587,-1.30352,1.29846,-0.893892,0.562287,0.0754007
9.04367,0.198657,1.15046,0.589989,-1.30352,1.29904,-0.901504,0.562311,0.0797246
9.05927,0.198584,1.15048,0.590223,-1.30351,1.29947,-0.905991,0.5623,0.0819127
9.07486,0.198457,1.15048,0.590687,-1.30349,1.30008,-0.913477,0.562346,0.0857417
9.09045,0.198311,1.1505,0.59121,-1.30351,1.30044,-0.921505,0.562253,0.0892633
9.10604,0.198241,1.15049,0.591432,-1.30352,1.30059,-0.92543,0.562251,0.0910941
9.12164,0.198152,1.15046,0.591591,-1.30354,1.30079,-0.930022,0.562276,0.0930652
9.13723,0.197958,1.15043,0.591874,-1.30354,1.30136,-0.938262,0.562371,0.0974565
9.15282,0.197835,1.15043,0.592196,-1.30351,1.30171,-0.942051,0.562348,0.0999459
9.16841,0.1977,1.15044,0.592482,-1.30356,1.30196,-0.945941,0.562254,0.102396
9.18401,0.197697,1.15044,0.592489,-1.30356,1.30196,-0.946031,0.562251,0.102453
9.1996,0.197697,1.15044,0.592489,-1.30356,1.30196,-0.946031,0.562251,0.102453
9.21519,0.197697,1.15044,0.592489,-1.30356,1.30196,-0.946031,0.562251,0.102453
9.23078,0.197697,1.15044,0.592489,-1.30356,1.30196,-0.946031,0.562251,0.102453
9.24638,0.197379,1.1504,0.594399,-1.30361,1.30271,-0.967692,0.561674,0.114917
9.26197,0.197303,1.15048,0.597364,-1.30355,1.30448,-0.98482,0.559866,0.127896
9.27756,0.197359,1.15048,0.598195,-1.30355,1.30483,-0.988486,0.559636,0.130028
9.29315,0.197409,1.15043,0.59988,-1.30358,1.3057,-0.995842,0.558511,0.13491
9.30875,0.197386,1.15042,0.600764,-1.30358,1.30617,-0.999327,0.557724,0.137573
9.32434,0.197349,1.15041,0.602256,-1.30358,1.30715,-1.00469,0.556589,0.141841
9.33993,0.197338,1.15044,0.604183,-1.30356,1.30842,-1.0113,0.555502,0.146796
9.35552,0.197378,1.15042,0.606476,-1.30355,1.30991,-1.01844,0.554321,0.151995
9.37112,0.197389,1.1504,0.608069,-1.30359,1.31102,-1.02304,0.553667,0.155892
9.38671,0.197359,1.15041,0.610102,-1.30357,1.31257,-1.02896,0.552514,0.161682
9.4023,0.197334,1.15044,0.611444,-1.30355,1.31368,-1.03285,0.551777,0.1653
9.41789,0.197319,1.15045,0.612596,-1.30353,1.3146,-1.03612,0.551129,0.168097
9.43349,0.19732,1.15045,0.614476,-1.3035,1.3161,-1.04136,0.550102,0.172359
9.44908,0.197339,1.15044,0.616943,-1.3035,1.31806,-1.04825,0.548589,0.177793
9.46467,0.19735,1.15043,0.618015,-1.30351,1.3189,-1.05124,0.547859,0.180133
9.48026,0.19735,1.15043,0.618015,-1.30351,1.3189,-1.05124,0.547859,0.180133
9.49586,0.19735,1.15043,0.618015,-1.30351,1.3189,-1.05124,0.547859,0.180133
9.51145,0.19735,1.15043,0.618015,-1.30351,1.3189,-1.05124,0.547859,0.180133
9.52704,0.19735,1.15043,0.618015,-1.30351,1.3189,-1.05124,0.547859,0.180133
9.54263,0.197349,1.15043,0.618015,-1.30351,1.3189,-1.05124,0.547859,0.180133
9.55823,0.197338,1.15041,0.622096,-1.30352,1.32221,-1.06313,0.544128,0.188007
9.57382,0.19731,1.15037,0.631577,-1.30354,1.32989,-1.09086,0.535372,0.206368
9.58941,0.197286,1.15037,0.632909,-1.30355,1.33096,-1.09537,0.533732,0.209551
9.605,0.197262,1.15036,0.634466,-1.30354,1.33221,-1.10084,0.531712,0.213794
9.6206,0.197278,1.15036,0.635735,-1.30355,1.33314,-1.10536,0.529967,0.217255
9.63619,0.197282,1.15036,0.637224,-1.30354,1.33423,-1.11109,0.527899,0.221187
9.65178,0.197294,1.15037,0.638402,-1.30352,1.33506,-1.11601,0.526216,0.223841
9.66737,0.197294,1.15034,0.640035,-1.30357,1.33624,-1.12325,0.523754,0.227341
9.68297,0.197278,1.1503,0.641229,-1.30356,1.33713,-1.12917,0.521986,0.230138
9.69856,0.197278,1.15028,0.641621,-1.30354,1.33741,-1.13125,0.521443,0.231139
9.71415,0.197283,1.15027,0.642476,-1.30354,1.33799,-1.13582,0.520114,0.23364
9.72974,0.197272,1.15028,0.643803,-1.30354,1.33894,-1.14329,0.517973,0.237982
9.74534,0.197254,1.15031,0.64496,-1.30354,1.33978,-1.1506,0.515973,0.242329
9.76093,0.197254,1.15033,0.64553,-1.30356,1.34016,-1.15449,0.514903,0.244643
9.77652,0.197254,1.15033,0.64553,-1.30356,1.34016,-1.15449,0.514903,0.244643
9.79212,0.197254,1.15033,0.64553,-1.30356,1.34016,-1.15449,0.514903,0.244643
9.80771,0.197254,1.15033,0.64553,-1.30356,1.34016,-1.15449,0.514903,0.244643
9.8233,0.197254,1.15033,0.64553,-1.30356,1.34016,-1.15449,0.514903,0.244643
9.83889,0.19721,1.15035,0.647711,-1.30353,1.34191,-1.17566,0.507349,0.256457
9.85449,0.197195,1.15036,0.649239,-1.30352,1.34306,-1.19119,0.501966,0.264704
9.87008,0.197212,1.15032,0.649521,-1.30354,1.34312,-1.19647,0.500457,0.266698
9.88567,0.197218,1.15028,0.64973,-1.30357,1.34312,-1.20215,0.498782,0.26884
9.90126,0.197205,1.15027,0.649804,-1.30358,1.34308,-1.20814,0.497067,0.27113
9.91686,0.197194,1.15027,0.649838,-1.30356,1.34306,-1.21384,0.495477,0.273499
9.93245,0.197175,1.15029,0.64987,-1.30355,1.34308,-1.21931,0.493906,0.275942
9.94804,0.197164,1.1503,0.649911,-1.30358,1.3431,-1.2247,0.492336,0.278328
9.96363,0.197177,1.15029,0.649902,-1.30358,1.34312,-1.2309,0.490618,0.280897
9.97923,0.197182,1.15029,0.649915,-1.30359,1.34311,-1.23636,0.489114,0.283065
9.99482,0.197176,1.15031,0.649918,-1.30359,1.34308,-1.24118,0.487877,0.28503
10.0104,0.197172,1.15032,0.649915,-1.30359,1.34306,-1.24632,0.486643,0.287106
10.026,0.197187,1.15031,0.649952,-1.30359,1.34306,-1.25184,0.485621,0.289405
10.0416,0.197211,1.15034,0.649944,-1.30358,1.34306,-1.26151,0.484111,0.294297
10.0572,0.19723,1.15033,0.649916,-1.30361,1.34306,-1.26441,0.483744,0.295755
10.0728,0.19723,1.15033,0.649916,-1.30361,1.34306,-1.26441,0.483744,0.295755
10.0884,0.19723,1.15033,0.649916,-1.30361,1.34306,-1.26441,0.483744,0.295755
10.104,0.19723,1.15033,0.649916,-1.30361,1.34306,-1.26441,0.483744,0.295755
10.1196,0.19723,1.15033,0.649916,-1.30361,1.34306,-1.26441,0.483744,0.295755
10.1352,0.197241,1.15034,0.649918,-1.30362,1.34306,-1.26949,0.483388,0.297743
10.1507,0.197314,1.15035,0.649925,-1.30367,1.34304,-1.30357,0.481023,0.311123
10.1663,0.197319,1.15034,0.649906,-1.30368,1.34303,-1.30842,0.48094,0.313578
10.1819,0.19735,1.15035,0.649922,-1.30366,1.34302,-1.31649,0.480935,0.317968
10.1975,0.197355,1.15036,0.649936,-1.3037,1.34302,-1.32124,0.480906,0.320539
10.2131,0.197385,1.1504,0.649846,-1.30364,1.34304,-1.32817,0.480916,0.323781
10.2287,0.19742,1.15038,0.649879,-1.3036,1.34303,-1.33608,0.480881,0.32762
10.2443,0.197421,1.15039,0.649892,-1.30363,1.34304,-1.34039,0.480868,0.329865
10.2599,0.197421,1.1504,0.64988,-1.30365,1.34301,-1.34881,0.480903,0.334458
10.2755,0.197409,1.1504,0.649842,-1.30363,1.34302,-1.3532,0.480854,0.336619
10.2911,0.19741,1.1504,0.649812,-1.30364,1.34303,-1.36088,0.480824,0.339947
10.3067,0.197421,1.15036,0.649843,-1.30361,1.34302,-1.36433,0.480855,0.341352
10.3223,0.197433,1.15034,0.649878,-1.30363,1.34299,-1.36853,0.480901,0.342911
10.3379,0.197433,1.15033,0.649858,-1.30369,1.34297,-1.37919,0.480847,0.347058
10.3534,0.197423,1.15032,0.649878,-1.30369,1.34296,-1.38302,0.480888,0.348631
10.369,0.197432,1.15032,0.649837,-1.30369,1.34292,-1.38971,0.48087,0.351807
10.3846,0.197433,1.15034,0.649855,-1.30368,1.34289,-1.39349,0.480868,0.353906
10.4002,0.19741,1.15037,0.64988,-1.30364,1.34284,-1.40036,0.480822,0.357934
10.4158,0.197433,1.15036,0.649822,-1.30365,1.34281,-1.40404,0.480867,0.359845
10.4314,0.197433,1.15036,0.64982,-1.30366,1.34281,-1.40415,0.480868,0.359905
10.447,0.197456,1.15036,0.649832,-1.30367,1.34276,-1.41498,0.480857,0.364677
10.4626,0.197468,1.15036,0.649821,-1.30367,1.34274,-1.41853,0.480845,0.366127
10.4782,0.197458,1.15036,0.649775,-1.30368,1.34273,-1.42497,0.480844,0.368558
10.4938,0.197468,1.15032,0.649838,-1.30367,1.34272,-1.42819,0.480833,0.370012
10.5094,0.197469,1.15033,0.649855,-1.30371,1.34269,-1.43409,0.480865,0.372716
10.525,0.197459,1.15032,0.649826,-1.30369,1.34266,-1.43742,0.480838,0.37421
10.5406,0.197467,1.15033,0.64984,-1.30369,1.34264,-1.44318,0.480842,0.376693
10.5561,0.197469,1.15032,0.649844,-1.30371,1.34259,-1.44943,0.480813,0.379155
10.5717,0.197469,1.15032,0.649844,-1.30372,1.34257,-1.45293,0.480819,0.380662
10.5873,0.197493,1.1503,0.649785,-1.30372,1.34252,-1.45928,0.480797,0.383411
10.6029,0.197493,1.15031,0.649822,-1.3037,1.34251,-1.46177,0.480787,0.384448
10.6185,0.197511,1.15031,0.649814,-1.30374,1.3425,-1.4648,0.480829,0.385768
10.6341,0.197536,1.15032,0.649799,-1.30372,1.34248,-1.47043,0.480816,0.38852
10.6497,0.197588,1.15034,0.649806,-1.3038,1.34246,-1.47626,0.480799,0.391809
10.6653,0.197631,1.15036,0.649808,-1.30387,1.34245,-1.48027,0.480806,0.393999
10.6809,0.197637,1.15037,0.649808,-1.30388,1.34245,-1.48085,0.480808,0.394311
10.6965,0.197637,1.15037,0.649808,-1.30388,1.34245,-1.48085,0.480808,0.394311
10.7121,0.197637,1.15037,0.649808,-1.30388,1.34245,-1.48085,0.480808,0.394311
10.7277,0.197637,1.15037,0.649808,-1.30388,1.34245,-1.48085,0.480808,0.394311
10.7433,0.197659,1.15037,0.649809,-1.30395,1.34244,-1.48212,0.480781,0.394784
10.7589,0.198171,1.15039,0.649829,-1.30547,1.34237,-1.51231,0.480119,0.406021
10.7744,0.198255,1.15036,0.649787,-1.30568,1.34233,-1.5151,0.479765,0.406886
10.79,0.198447,1.1503,0.649795,-1.30582,1.34232,-1.52131,0.479193,0.408743
10.8056,0.198593,1.15032,0.649785,-1.30598,1.34229,-1.5254,0.478946,0.410108
10.8212,0.198862,1.15039,0.649806,-1.30634,1.34227,-1.53213,0.47849,0.412513
10.8368,0.199109,1.15043,0.649796,-1.30684,1.34223,-1.53663,0.478187,0.414129
10.8524,0.199494,1.15047,0.649812,-1.30769,1.34217,-1.54224,0.477697,0.416212
10.868,0.19986,1.15043,0.649827,-1.30842,1.34215,-1.54666,0.47744,0.417635
10.8836,0.200255,1.1504,0.649794,-1.30918,1.34212,-1.55125,0.477271,0.418969
10.8992,0.200393,1.15039,0.649788,-1.30945,1.3421,-1.55281,0.477265,0.419358
10.9148,0.200706,1.15038,0.649784,-1.31004,1.34206,-1.55638,0.477204,0.420122
10.9304,0.201471,1.15041,0.649795,-1.31135,1.34192,-1.56461,0.477041,0.421696
10.946,0.202193,1.15044,0.649808,-1.31248,1.34176,-1.57179,0.476938,0.422981
10.9616,0.202395,1.15044,0.649808,-1.31273,1.34171,-1.57356,0.476938,0.423277
10.9771,0.202395,1.15044,0.649808,-1.31273,1.34171,-1.57356,0.476938,0.423277
10.9927,0.202395,1.15044,0.649808,-1.31273,1.34171,-1.57356,0.476938,0.423277
11.0083,0.202395,1.15044,0.649808,-1.31273,1.34171,-1.57356,0.476938,0.423277
11.0239,0.202395,1.15044,0.649808,-1.31273,1.34171,-1.57356,0.476938,0.423277
11.0395,0.204617,1.15045,0.649802,-1.31574,1.33955,-1.58809,0.475941,0.425154
11.0551,0.207055,1.15045,0.64979,-1.31909,1.33707,-1.60382,0.474871,0.427212
11.0707,0.20783,1.15041,0.64979,-1.32023,1.33592,-1.60796,0.474404,0.427672
11.0863,0.20865,1.15039,0.64975,-1.32141,1.33464,-1.61219,0.473785,0.428015
11.1019,0.209418,1.1504,0.649753,-1.32257,1.33324,-1.61648,0.473294,0.428141
11.1175,0.210197,1.15042,0.649814,-1.3237,1.33179,-1.62094,0.472836,0.42819
11.1331,0.211008,1.1504,0.649804,-1.32465,1.33026,-1.62526,0.472155,0.42819
11.1487,0.212039,1.15034,0.649758,-1.32575,1.3281,-1.63094,0.471217,0.428226
11.1643,0.212818,1.15028,0.649741,-1.32649,1.32631,-1.63537,0.470543,0.428263
11.1799,0.213621,1.15026,0.649766,-1.3271,1.32451,-1.63954,0.469821,0.428291
11.1954,0.214338,1.15026,0.649768,-1.32763,1.3228,-1.6433,0.469176,0.428356
11.211,0.214811,1.15025,0.649759,-1.32799,1.32156,-1.64567,0.468835,0.428456
11.2266,0.215969,1.15027,0.649744,-1.32896,1.31851,-1.65057,0.467939,0.428985
11.2422,0.216935,1.15034,0.649725,-1.33013,1.31558,-1.65464,0.467006,0.429864
11.2578,0.217515,1.15036,0.649718,-1.33094,1.31375,-1.65699,0.466537,0.430535
11.2734,0.21801,1.15037,0.649701,-1.33166,1.3122,-1.65893,0.465972,0.43103
11.289,0.21801,1.15037,0.649701,-1.33166,1.3122,-1.65893,0.465972,0.43103
11.3046,0.21801,1.15037,0.649701,-1.33166,1.3122,-1.65893,0.465972,0.43103
11.3202,0.21801,1.15037,0.649701,-1.33166,1.3122,-1.65893,0.465972,0.43103
11.3358,0.21801,1.15037,0.649701,-1.33166,1.3122,-1.65893,0.465972,0.43103
11.3514,0.219922,1.15037,0.649704,-1.33457,1.30756,-1.66566,0.462399,0.43044
11.367,0.224256,1.15037,0.649709,-1.3412,1.29708,-1.68094,0.453985,0.4288
11.3826,0.225092,1.15032,0.649712,-1.34257,1.29521,-1.68408,0.45102,0.427033
11.3981,0.226176,1.15027,0.649737,-1.3443,1.2928,-1.68817,0.44704,0.424372
11.4137,0.226968,1.15025,0.649737,-1.34555,1.29094,-1.69154,0.443906,0.421983
11.4293,0.2278,1.15022,0.649713,-1.34683,1.28895,-1.69535,0.440691,0.419284
11.4449,0.228567,1.15019,0.649717,-1.34795,1.28698,-1.69932,0.437857,0.416845
11.4605,0.22918,1.15016,0.649745,-1.349,1.2853,-1.70268,0.435558,0.414813
11.4761,0.229817,1.15017,0.649774,-1.35033,1.28328,-1.70648,0.432813,0.412852
11.4917,0.230189,1.15019,0.649779,-1.35116,1.28208,-1.70864,0.431191,0.411885
11.5073,0.230412,1.15021,0.649773,-1.35171,1.28137,-1.70987,0.430243,0.411404
11.5229,0.231172,1.1503,0.649796,-1.35401,1.2787,-1.71429,0.427046,0.410028
11.5385,0.231822,1.15038,0.649736,-1.3569,1.27573,-1.71924,0.424197,0.408801
11.5541,0.232186,1.15039,0.649713,-1.35861,1.27419,-1.72177,0.422936,0.40818
11.5697,0.232762,1.15038,0.649713,-1.36109,1.27202,-1.7254,0.421128,0.406847
11.5853,0.232762,1.15038,0.649713,-1.36109,1.27202,-1.7254,0.421128,0.406847
11.6008,0.232762,1.15038,0.649713,-1.36109,1.27202,-1.7254,0.421128,0.406847
11.6164,0.232762,1.15038,0.649713,-1.36109,1.27202,-1.7254,0.421128,0.406847
11.632,0.232762,1.15038,0.649713,-1.36109,1.27202,-1.7254,0.421128,0.406847
11.6476,0.236165,1.15015,0.649755,-1.37148,1.26336,-1.74398,0.409881,0.38638
11.6632,0.23706,1.15015,0.649771,-1.37428,1.26108,-1.74861,0.406738,0.380668
11.6788,0.237809,1.1502,0.649762,-1.37735,1.25898,-1.75239,0.404411,0.37515
11.6944,0.238252,1.15022,0.64976,-1.37933,1.25761,-1.75459,0.40324,0.371936
11.71,0.239045,1.1502,0.649738,-1.38324,1.25507,-1.75852,0.401338,0.367058
11.7256,0.239467,1.15016,0.649737,-1.3853,1.25358,-1.76069,0.400379,0.364641
11.7412,0.240153,1.15009,0.649706,-1.38829,1.25122,-1.76418,0.398949,0.360629
11.7568,0.24095,1.15008,0.649658,-1.39148,1.24862,-1.7679,0.397441,0.355439
11.7724,0.241466,1.15008,0.649653,-1.39334,1.24721,-1.76982,0.396456,0.352331
11.788,0.242421,1.15021,0.649677,-1.39677,1.24477,-1.7729,0.394776,0.346798
11.8036,0.242855,1.15024,0.649696,-1.39839,1.24371,-1.77415,0.393978,0.344648
11.8191,0.243314,1.15025,0.64971,-1.40011,1.24259,-1.77541,0.393092,0.342064
11.8347,0.244463,1.15011,0.649713,-1.40457,1.23969,-1.77839,0.390865,0.333365
11.8503,0.245004,1.15003,0.649694,-1.40692,1.23805,-1.77997,0.389701,0.328376
11.8659,0.245082,1.15002,0.649689,-1.4073,1.23777,-1.78022,0.389514,0.327524
11.8815,0.245082,1.15002,0.649689,-1.40731,1.23777,-1.78022,0.389514,0.327524
11.8971,0.245082,1.15002,0.649689,-1.4073,1.23777,-1.78022,0.389514,0.327524
11.9127,0.245082,1.15002,0.649689,-1.40731,1.23777,-1.78022,0.389514,0.327524
11.9283,0.245082,1.15002,0.649689,-1.40731,1.23777,-1.78022,0.389514,0.327524
11.9439,0.247875,1.15006,0.649706,-1.41981,1.23074,-1.78465,0.386049,0.303452
11.9595,0.249128,1.15002,0.649659,-1.42559,1.22752,-1.78661,0.384754,0.292089
11.9751,0.249841,1.14993,0.64965,-1.42875,1.22575,-1.78754,0.384687,0.285293
11.9907,0.250335,1.14992,0.649643,-1.43076,1.22458,-1.78816,0.384609,0.280818
12.0063,0.251058,1.14998,0.649668,-1.43388,1.22296,-1.78908,0.384424,0.273211
12.0218,0.251548,1.15004,0.649686,-1.43617,1.22186,-1.78976,0.38429,0.268175
12.0374,0.252253,1.15009,0.649747,-1.43944,1.22038,-1.79054,0.384016,0.262151
12.053,0.25309,1.15001,0.649741,-1.44332,1.21857,-1.79167,0.38374,0.254498
12.0686,0.253638,1.1499,0.64966,-1.44591,1.21721,-1.79258,0.383654,0.249269
12.0842,0.254285,1.14982,0.649579,-1.44894,1.21545,-1.79393,0.383587,0.242738
12.0998,0.254742,1.14981,0.649578,-1.45117,1.21421,-1.79498,0.38351,0.237827
12.1154,0.255064,1.14985,0.649636,-1.45303,1.21328,-1.79586,0.383412,0.233882
12.131,0.255731,1.14999,0.649723,-1.45772,1.21142,-1.79761,0.383387,0.226015
12.1466,0.256326,1.15005,0.649742,-1.46197,1.20985,-1.79907,0.383384,0.219164
12.1622,0.25665,1.14997,0.64973,-1.46412,1.20905,-1.79986,0.383332,0.215133
12.1778,0.256826,1.14991,0.649737,-1.46522,1.2086,-1.80032,0.383306,0.212837
12.1934,0.256826,1.14991,0.649737,-1.46522,1.2086,-1.80032,0.383306,0.212837
12.209,0.256826,1.14991,0.649737,-1.46522,1.2086,-1.80032,0.383306,0.212837
12.2246,0.256826,1.14991,0.649737,-1.46522,1.2086,-1.80032,0.383306,0.212837
12.2401,0.257889,1.14985,0.649737,-1.47286,1.20567,-1.80276,0.383239,0.195982
12.2557,0.259586,1.1497,0.649731,-1.48513,1.20096,-1.80662,0.383123,0.168798
12.2713,0.259912,1.14959,0.64967,-1.48808,1.19986,-1.8073,0.383078,0.161906
12.2869,0.260216,1.14949,0.649539,-1.49144,1.19863,-1.80807,0.383038,0.154018
12.3025,0.260494,1.1495,0.649415,-1.49477,1.19746,-1.8088,0.383026,0.147173
12.3181,0.260871,1.1496,0.649384,-1.49867,1.19618,-1.80957,0.383045,0.139868
12.3337,0.261233,1.14962,0.649494,-1.50208,1.19519,-1.8102,0.383069,0.133253
12.3493,0.26173,1.14957,0.649597,-1.50654,1.19393,-1.81106,0.38306,0.124089
12.3649,0.262147,1.14954,0.649576,-1.51019,1.19294,-1.81176,0.383067,0.116193
12.3805,0.262501,1.14955,0.649485,-1.51344,1.19201,-1.81249,0.383067,0.108972
12.3961,0.262877,1.14958,0.649421,-1.51682,1.19102,-1.81321,0.383075,0.101903
12.4117,0.26312,1.14959,0.649417,-1.5187,1.19044,-1.81363,0.383085,0.0978131
12.4273,0.263472,1.14955,0.649456,-1.52138,1.18953,-1.81424,0.383064,0.0914205
12.4428,0.264173,1.14943,0.649566,-1.52688,1.18746,-1.81551,0.38311,0.0780387
12.4584,0.26434,1.14942,0.649545,-1.52845,1.18677,-1.81588,0.383079,0.0738951
12.474,0.26434,1.14942,0.649545,-1.52845,1.18677,-1.81588,0.383079,0.0738951
12.4896,0.26434,1.14942,0.649545,-1.52845,1.18677,-1.81588,0.383079,0.0738951
12.5052,0.26434,1.14942,0.649545,-1.52845,1.18677,-1.81588,0.383079,0.0738951
12.5208,0.26434,1.14942,0.649545,-1.52845,1.18677,-1.81588,0.383079,0.0738951
12.5364,0.26434,1.14942,0.649545,-1.52845,1.18677,-1.81588,0.383079,0.0738951
12.552,0.26734,1.14941,0.649535,-1.54314,1.17803,-1.81801,0.383039,0.04217
12.5676,0.268907,1.1494,0.649456,-1.54848,1.1741,-1.81858,0.382983,0.0298729
12.5832,0.270282,1.14941,0.649474,-1.55136,1.17153,-1.8187,0.38285,0.0230282
12.5988,0.271096,1.14944,0.649542,-1.55299,1.17006,-1.81875,0.382758,0.0189971
12.6144,0.272353,1.14949,0.649554,-1.5553,1.16802,-1.81877,0.38268,0.0137523
12.63,0.273521,1.14955,0.649523,-1.55735,1.16616,-1.81877,0.382574,0.00940509
12.6455,0.275028,1.14956,0.649488,-1.55961,1.16376,-1.81874,0.382472,0.00457289
12.6611,0.276958,1.14947,0.649473,-1.56207,1.16054,-1.81874,0.382363,-0.00131611
12.6767,0.278411,1.14936,0.649473,-1.56362,1.15807,-1.81876,0.382218,-0.00537261
12.6923,0.279675,1.14934,0.649473,-1.56468,1.15607,-1.81876,0.381832,-0.0081543
12.7079,0.281047,1.14936,0.649473,-1.56575,1.15399,-1.81874,0.381305,-0.0109392
12.7235,0.282272,1.14941,0.649487,-1.56659,1.15221,-1.81873,0.380744,-0.0132458
12.7391,0.284819,1.14942,0.64952,-1.56797,1.14865,-1.81874,0.379863,-0.0175882
12.7547,0.287505,1.14934,0.649509,-1.56923,1.14525,-1.81868,0.378825,-0.0214255
12.7703,0.287505,1.14934,0.649509,-1.56923,1.14525,-1.81868,0.378825,-0.0214255
12.7859,0.287505,1.14934,0.649509,-1.56923,1.14525,-1.81868,0.378825,-0.0214255
12.8015,0.287505,1.14934,0.649509,-1.56923,1.14525,-1.81868,0.378825,-0.0214255
12.8171,0.287505,1.14934,0.649509,-1.56923,1.14525,-1.81868,0.378825,-0.0214255
12.8327,0.287505,1.14934,0.649509,-1.56923,1.14525,-1.81868,0.378825,-0.0214255
12.8483,0.293524,1.14936,0.649509,-1.57224,1.13705,-1.81824,0.37644,-0.0262803
12.8638,0.304733,1.1494,0.649497,-1.57784,1.12171,-1.81745,0.371954,-0.035317
12.8794,0.306742,1.14937,0.649463,-1.57881,1.11872,-1.81739,0.370974,-0.0370098
12.895,0.309559,1.14934,0.649427,-1.58012,1.11447,-1.81736,0.369527,-0.0395478
12.9106,0.31147,1.14932,0.649413,-1.58087,1.11166,-1.81737,0.368301,-0.0413016
12.9262,0.314308,1.14932,0.649509,-1.58183,1.10771,-1.81729,0.366351,-0.043821
12.9418,0.317372,1.14936,0.649517,-1.5826,1.10354,-1.81709,0.364326,-0.0461082
12.9574,0.319191,1.14938,0.649579,-1.58289,1.10093,-1.8168,0.363034,-0.0475687
12.973,0.322077,1.14934,0.649491,-1.58333,1.09668,-1.81604,0.361064,-0.0500343
12.9886,0.323785,1.14935,0.649459,-1.58371,1.09413,-1.81535,0.359903,-0.0516604
13.0042,0.326412,1.1493,0.649462,-1.58424,1.0903,-1.81437,0.358038,-0.0540955
13.0198,0.328217,1.14923,0.649536,-1.58449,1.08776,-1.81369,0.356505,-0.0559195
13.0354,0.330809,1.14921,0.64959,-1.58471,1.08414,-1.81283,0.354086,-0.0584796
13.051,0.332285,1.1492,0.649565,-1.58473,1.08202,-1.81235,0.35261,-0.0599774
13.0665,0.333296,1.14919,0.649521,-1.5847,1.08049,-1.81199,0.351573,-0.0609968
13.0821,0.333296,1.14919,0.649521,-1.5847,1.08049,-1.81199,0.351573,-0.0609968
13.0977,0.333296,1.14919,0.649521,-1.5847,1.08049,-1.81199,0.351573,-0.0609968
13.1133,0.333296,1.14919,0.649521,-1.5847,1.08049,-1.81199,0.351573,-0.0609968
13.1289,0.333296,1.14919,0.649521,-1.5847,1.08049,-1.81199,0.351573,-0.0609968
13.1445,0.337161,1.14914,0.649521,-1.58471,1.07489,-1.81125,0.347566,-0.0637941
13.1601,0.347786,1.149,0.649507,-1.58473,1.05943,-1.80936,0.336552,-0.0714338
13.1757,0.350383,1.14898,0.649497,-1.58471,1.05547,-1.80938,0.333845,-0.0731541
13.1913,0.352646,1.14892,0.649567,-1.58473,1.05197,-1.80936,0.331446,-0.0746896
13.2069,0.353998,1.14887,0.649558,-1.58477,1.04991,-1.80935,0.330043,-0.0756754
13.2225,0.356659,1.14874,0.649567,-1.58481,1.04577,-1.80935,0.327393,-0.0774426
13.2381,0.358148,1.14862,0.649539,-1.58488,1.04338,-1.80937,0.32621,-0.0785829
13.2537,0.36059,1.14823,0.649501,-1.58495,1.03931,-1.80941,0.324438,-0.0803887
13.2693,0.362145,1.14783,0.649535,-1.58512,1.03677,-1.80946,0.323406,-0.0816856
13.2848,0.36455,1.14718,0.649544,-1.58549,1.03301,-1.80964,0.321934,-0.0837793
13.3004,0.365387,1.14695,0.649536,-1.58566,1.0318,-1.80972,0.321493,-0.0846317
13.316,0.367714,1.14614,0.649527,-1.58612,1.02847,-1.81031,0.320252,-0.0878863
13.3316,0.370965,1.14489,0.649515,-1.58673,1.02383,-1.81153,0.318466,-0.0932455
13.3472,0.372966,1.14403,0.649515,-1.58714,1.02098,-1.81273,0.317257,-0.0974062
13.3628,0.373598,1.14374,0.649521,-1.58733,1.02009,-1.81322,0.316831,-0.0989264
13.3784,0.373598,1.14374,0.649521,-1.58733,1.02009,-1.81322,0.316831,-0.0989264
13.394,0.373598,1.14374,0.649521,-1.58733,1.02009,-1.81322,0.316831,-0.0989264
13.4096,0.373598,1.14374,0.649521,-1.58733,1.02009,-1.81322,0.316831,-0.0989264
13.4252,0.373598,1.14374,0.649521,-1.58733,1.02009,-1.81322,0.316831,-0.0989264
13.4408,0.373598,1.14374,0.649521,-1.58733,1.02009,-1.81322,0.316831,-0.0989264
13.4564,0.378481,1.14049,0.649511,-1.58965,1.01303,-1.81911,0.313283,-0.113262
13.472,0.385973,1.13547,0.649507,-1.59335,1.00212,-1.82839,0.307903,-0.135869
13.4875,0.387173,1.13449,0.649531,-1.59446,1.00013,-1.83084,0.307375,-0.141502
13.5031,0.38846,1.13341,0.649534,-1.59572,0.998045,-1.83365,0.306852,-0.147594
13.5187,0.389604,1.13239,0.649531,-1.59698,0.99624,-1.8363,0.306254,-0.153026
13.5343,0.390818,1.13119,0.649571,-1.59835,0.994365,-1.83915,0.305719,-0.159026
13.5499,0.391822,1.13005,0.649561,-1.59944,0.992778,-1.8415,0.305383,-0.164366
13.5655,0.393074,1.12848,0.649497,-1.60071,0.990596,-1.84442,0.304747,-0.171536
13.5811,0.393858,1.12743,0.649501,-1.6015,0.989076,-1.8463,0.304211,-0.176989
13.5967,0.39439,1.12664,0.649518,-1.60198,0.98797,-1.84762,0.303906,-0.181077
13.6123,0.395091,1.12551,0.649509,-1.60244,0.986434,-1.84939,0.303691,-0.186223
13.6279,0.396031,1.12399,0.649521,-1.60274,0.984386,-1.8518,0.303498,-0.193349
13.6435,0.39657,1.12321,0.649529,-1.60298,0.983235,-1.85308,0.303359,-0.197246
13.6591,0.39747,1.12193,0.649486,-1.60342,0.981371,-1.85526,0.303316,-0.203549
13.6747,0.39789,1.12146,0.649497,-1.60363,0.980553,-1.85617,0.30317,-0.206087
13.6903,0.39789,1.12146,0.649497,-1.60363,0.980553,-1.85617,0.30317,-0.206087
13.7058,0.39789,1.12146,0.649497,-1.60363,0.980553,-1.85617,0.30317,-0.206087
13.7214,0.39789,1.12146,0.649497,-1.60363,0.980553,-1.85617,0.30317,-0.206087
13.737,0.39789,1.12146,0.649497,-1.60363,0.980553,-1.85617,0.30317,-0.206087
13.7526,0.40168,1.11719,0.649498,-1.604,0.973507,-1.86315,0.30189,-0.228892
13.7682,0.402216,1.1167,0.649521,-1.60394,0.972669,-1.86372,0.301956,-0.231408
13.7838,0.403299,1.11602,0.649531,-1.60406,0.971184,-1.86457,0.301895,-0.235935
13.7994,0.404059,1.11571,0.649498,-1.60413,0.970139,-1.86507,0.301823,-0.238727
13.815,0.405168,1.11533,0.649461,-1.60412,0.968647,-1.86565,0.301714,-0.241877
13.8306,0.406031,1.11508,0.649465,-1.60407,0.967441,-1.86592,0.301523,-0.243738
13.8462,0.407161,1.11475,0.649502,-1.604,0.965899,-1.86614,0.301331,-0.246159
13.8618,0.408294,1.11455,0.649518,-1.60406,0.96424,-1.86617,0.301175,-0.248336
13.8774,0.409301,1.1144,0.649545,-1.6041,0.962751,-1.86618,0.301009,-0.250156
13.893,0.409756,1.11437,0.649536,-1.60412,0.962043,-1.86618,0.300846,-0.250893
13.9085,0.410112,1.11436,0.649509,-1.60413,0.961465,-1.86616,0.300677,-0.251444
13.9241,0.411376,1.11432,0.649438,-1.60412,0.959369,-1.86616,0.300177,-0.2535
13.9397,0.412705,1.11431,0.649467,-1.60408,0.957325,-1.86618,0.299615,-0.255093
13.9553,0.413805,1.1143,0.649521,-1.60406,0.955638,-1.86617,0.298867,-0.256096
13.9709,0.413805,1.1143,0.649521,-1.60406,0.955638,-1.86617,0.298867,-0.256096
13.9865,0.413805,1.1143,0.649521,-1.60406,0.955638,-1.86617,0.298867,-0.256096
14.0021,0.413805,1.1143,0.649521,-1.60406,0.955638,-1.86617,0.298867,-0.256096
14.0177,0.413805,1.1143,0.649521,-1.60406,0.955638,-1.86617,0.298867,-0.256096
14.0333,0.413804,1.1143,0.649521,-1.60406,0.955638,-1.86617,0.298867,-0.256096
14.0489,0.414282,1.11428,0.649519,-1.60407,0.954599,-1.86614,0.297995,-0.256164
14.0645,0.417657,1.11418,0.649509,-1.60412,0.947253,-1.86586,0.291829,-0.256646
14.0801,0.417969,1.11419,0.649487,-1.60409,0.945862,-1.86555,0.289849,-0.256449
14.0957,0.41802,1.11421,0.649507,-1.60409,0.945219,-1.86532,0.288733,-0.256354
14.1112,0.418034,1.11421,0.649432,-1.60406,0.944163,-1.86489,0.287022,-0.256184
14.1268,0.417992,1.11424,0.649468,-1.60406,0.943408,-1.86436,0.285155,-0.255922
14.1424,0.417977,1.11424,0.649493,-1.60408,0.942996,-1.86412,0.284166,-0.255863
14.158,0.417984,1.11426,0.649525,-1.60408,0.942419,-1.86372,0.282463,-0.255876
14.1736,0.417987,1.11425,0.649553,-1.60403,0.942159,-1.86342,0.281224,-0.255861
14.1892,0.417977,1.11428,0.649547,-1.60401,0.942061,-1.8632,0.279489,-0.255836
14.2048,0.417965,1.11428,0.649526,-1.60404,0.942001,-1.86314,0.278517,-0.255842
14.2204,0.417916,1.11425,0.649539,-1.60406,0.941923,-1.86314,0.277052,-0.255854
14.236,0.417913,1.11421,0.649554,-1.60405,0.941791,-1.86313,0.275604,-0.255866
14.2516,0.417888,1.11422,0.649557,-1.60407,0.941653,-1.86312,0.274841,-0.255841
14.2672,0.417879,1.11422,0.649557,-1.60408,0.941617,-1.86312,0.274683,-0.255832
14.2828,0.417879,1.11422,0.649557,-1.60408,0.941617,-1.86312,0.274683,-0.255832
14.2984,0.417879,1.11422,0.649557,-1.60408,0.941617,-1.86312,0.274683,-0.255832
14.314,0.417879,1.11422,0.649557,-1.60408,0.941617,-1.86312,0.274683,-0.255832
14.3295,0.417879,1.11422,0.649557,-1.60408,0.941617,-1.86312,0.274683,-0.255832
14.3451,0.417879,1.11422,0.649557,-1.60408,0.941617,-1.86312,0.274683,-0.255832
14.3607,0.417935,1.11422,0.649472,-1.60408,0.939515,-1.86308,0.273426,-0.255861
14.3763,0.417987,1.1142,0.649449,-1.60408,0.938428,-1.86305,0.273051,-0.255869
14.3919,0.41799,1.11419,0.649475,-1.60407,0.93812,-1.86302,0.273024,-0.255833
14.4075,0.417968,1.1142,0.649504,-1.60402,0.937902,-1.86301,0.273027,-0.255849
14.4231,0.417963,1.11423,0.649529,-1.60405,0.937773,-1.86303,0.272989,-0.255836
14.4387,0.417952,1.11421,0.649468,-1.60406,0.937454,-1.86304,0.272938,-0.255832
14.4543,0.417985,1.11417,0.649461,-1.60408,0.937159,-1.86302,0.272922,-0.255821
14.4699,0.417964,1.11414,0.649438,-1.60409,0.936801,-1.86302,0.272945,-0.255855
14.4855,0.417951,1.11413,0.649472,-1.60413,0.936716,-1.86302,0.272887,-0.255798
14.5011,0.417928,1.11413,0.649503,-1.60411,0.936701,-1.86299,0.272848,-0.255782
14.5167,0.417905,1.11414,0.6495,-1.60408,0.936697,-1.86297,0.272759,-0.255788
14.5322,0.417891,1.11414,0.64949,-1.60407,0.936704,-1.86291,0.272538,-0.255792
14.5478,0.417878,1.11413,0.649496,-1.60409,0.93671,-1.86281,0.272388,-0.255753
14.5634,0.417867,1.11414,0.649485,-1.60409,0.936715,-1.86277,0.272383,-0.255737
14.579,0.417867,1.11414,0.649485,-1.60409,0.936715,-1.86277,0.272383,-0.255737
14.5946,0.417867,1.11414,0.649485,-1.60409,0.936715,-1.86277,0.272383,-0.255737
14.6102,0.417867,1.11414,0.649485,-1.60409,0.936715,-1.86277,0.272383,-0.255737
14.6258,0.417867,1.11414,0.649485,-1.60409,0.936715,-1.86277,0.272383,-0.255737
14.6414,0.417585,1.11417,0.649478,-1.60407,0.936709,-1.86138,0.271426,-0.253759
14.657,0.417269,1.11419,0.649501,-1.60403,0.936696,-1.85991,0.270562,-0.25175
14.6726,0.4171,1.11419,0.649508,-1.604,0.93671,-1.85916,0.270524,-0.250985
14.6882,0.416946,1.11419,0.64952,-1.604,0.936739,-1.85843,0.270525,-0.250291
14.7038,0.416758,1.11419,0.649533,-1.60401,0.936752,-1.85771,0.270526,-0.249804
14.7194,0.41646,1.11421,0.649521,-1.60401,0.936774,-1.85678,0.270452,-0.249202
14.735,0.416215,1.11423,0.649521,-1.60402,0.93681,-1.85612,0.270306,-0.248725
14.7505,0.415972,1.1142,0.649516,-1.60403,0.936829,-1.85554,0.269962,-0.248418
14.7661,0.415668,1.11419,0.649514,-1.60404,0.936841,-1.85491,0.269305,-0.248155
14.7817,0.415305,1.11419,0.64954,-1.60402,0.936866,-1.85447,0.268357,-0.247998
14.7973,0.414972,1.1142,0.649531,-1.60401,0.936888,-1.85411,0.267621,-0.247877
14.8129,0.414653,1.11424,0.649508,-1.60402,0.936907,-1.85375,0.26696,-0.247675
14.8285,0.414003,1.11426,0.649537,-1.60402,0.936936,-1.85306,0.265694,-0.247073
14.8441,0.413427,1.11426,0.649534,-1.60404,0.936938,-1.85252,0.264804,-0.246436
14.8597,0.412838,1.11427,0.649515,-1.60405,0.936943,-1.85202,0.264043,-0.245963
14.8753,0.412189,1.11425,0.649528,-1.604,0.936955,-1.85148,0.263305,-0.245574
14.8909,0.411688,1.11428,0.649545,-1.60398,0.936991,-1.85107,0.262642,-0.245245
14.9065,0.410822,1.1143,0.649522,-1.60397,0.937082,-1.8504,0.261541,-0.244711
14.9221,0.410413,1.11431,0.649509,-1.60397,0.937123,-1.8501,0.261046,-0.244484
14.9377,0.410413,1.11431,0.649509,-1.60397,0.937123,-1.8501,0.261046,-0.244484
14.9532,0.409036,1.11431,0.649509,-1.60397,0.937272,-1.84912,0.258887,-0.244171
14.9688,0.407466,1.11433,0.649522,-1.60397,0.937441,-1.84816,0.256298,-0.243857
14.9844,0.406655,1.11434,0.649557,-1.60395,0.937507,-1.84779,0.254794,-0.243734
15,0.405759,1.11435,0.649558,-1.60395,0.937582,-1.84739,0.253156,-0.243635
15.0156,0.4048,1.11436,0.649515,-1.60394,0.937691,-1.8469,0.251483,-0.243532
15.0312,0.403982,1.11435,0.649502,-1.60391,0.937873,-1.84634,0.25018,-0.243479
15.0468,0.402866,1.11435,0.64953,-1.6039,0.938309,-1.84555,0.24864,-0.24341
15.0624,0.40181,1.11436,0.649593,-1.60391,0.938917,-1.84478,0.247445,-0.24329
15.078,0.400923,1.11436,0.649603,-1.60391,0.939424,-1.84391,0.246667,-0.243199
15.0936,0.400076,1.11435,0.649558,-1.60391,0.939889,-1.84291,0.245947,-0.243096
15.1092,0.399707,1.11434,0.649534,-1.6039,0.94013,-1.84239,0.24565,-0.243048
15.1248,0.398606,1.11436,0.649567,-1.60387,0.941089,-1.84063,0.244665,-0.242899
15.1404,0.397439,1.11439,0.649534,-1.6038,0.942026,-1.83834,0.244136,-0.242832
15.1559,0.396407,1.1144,0.64958,-1.60375,0.942922,-1.83604,0.243687,-0.242736
15.1715,0.396392,1.1144,0.649581,-1.60375,0.942935,-1.83601,0.243681,-0.242734
15.1871,0.396392,1.1144,0.649581,-1.60375,0.942935,-1.83601,0.243681,-0.242734
15.2027,0.396392,1.1144,0.649581,-1.60375,0.942935,-1.83601,0.243681,-0.242734
15.2183,0.396392,1.1144,0.649581,-1.60375,0.942935,-1.83601,0.243681,-0.242734
15.2339,0.396392,1.1144,0.649581,-1.60375,0.942935,-1.83601,0.243681,-0.242734
15.2495,0.39255,1.11434,0.649604,-1.60319,0.946297,-1.82514,0.242733,-0.241672
15.2651,0.392107,1.11438,0.649593,-1.60315,0.946706,-1.82361,0.242651,-0.24117
15.2807,0.391366,1.11442,0.649615,-1.60305,0.947477,-1.82077,0.242685,-0.239981
15.2963,0.391023,1.11448,0.649582,-1.60297,0.947729,-1.81923,0.242662,-0.239257
15.3119,0.390495,1.11447,0.649615,-1.60283,0.948248,-1.81627,0.242661,-0.237905
15.3275,0.390239,1.11444,0.649582,-1.60266,0.948571,-1.81492,0.242639,-0.237168
15.3431,0.389696,1.11442,0.649646,-1.60195,0.949356,-1.81235,0.242649,-0.235892
15.3587,0.389183,1.11436,0.649598,-1.60059,0.950025,-1.80997,0.242606,-0.23476
15.3742,0.388956,1.11436,0.649627,-1.59973,0.950541,-1.80882,0.242637,-0.234252
15.3898,0.388686,1.11439,0.649725,-1.5981,0.951445,-1.80698,0.242614,-0.232846
15.4054,0.388626,1.11441,0.649745,-1.59747,0.951734,-1.80635,0.242654,-0.232288
15.421,0.388448,1.11446,0.649758,-1.59607,0.952447,-1.80479,0.242672,-0.230563
15.4366,0.388212,1.11451,0.6498,-1.59472,0.953149,-1.80293,0.242714,-0.227939
15.4522,0.388081,1.11455,0.649769,-1.59416,0.953474,-1.80181,0.242712,-0.226087
15.4678,0.388063,1.11456,0.64976,-1.59409,0.953517,-1.80164,0.24271,-0.225801
15.4834,0.388063,1.11456,0.64976,-1.59409,0.953517,-1.80164,0.24271,-0.225801
15.499,0.388063,1.11456,0.64976,-1.59409,0.953517,-1.80164,0.24271,-0.225801
15.5146,0.388063,1.11456,0.64976,-1.59409,0.953517,-1.80164,0.24271,-0.225801
15.5302,0.388063,1.11456,0.64976,-1.59409,0.953517,-1.80164,0.24271,-0.225801
15.5458,0.387227,1.11489,0.649799,-1.5916,0.954716,-1.79842,0.243172,-0.218626
15.5614,0.386072,1.11539,0.649907,-1.58825,0.95644,-1.79435,0.24376,-0.209376
15.5769,0.385506,1.11574,0.650074,-1.58703,0.957413,-1.79357,0.243932,-0.207046
15.5925,0.384915,1.11616,0.650174,-1.58611,0.958323,-1.79308,0.244158,-0.205083
15.6081,0.384461,1.11662,0.650286,-1.58554,0.959046,-1.79284,0.244312,-0.203399
15.6237,0.383712,1.11748,0.650571,-1.58475,0.960341,-1.79242,0.244479,-0.200199
15.6393,0.383084,1.11808,0.650728,-1.58419,0.961557,-1.79211,0.244512,-0.196789
15.6549,0.382236,1.11888,0.650964,-1.58347,0.963171,-1.79172,0.244557,-0.191934
15.6705,0.381465,1.11976,0.651335,-1.58312,0.964746,-1.79145,0.24459,-0.187416
15.6861,0.380647,1.12073,0.651769,-1.58282,0.966393,-1.79122,0.244598,-0.182986
15.7017,0.380285,1.12118,0.651986,-1.58272,0.967111,-1.79111,0.244585,-0.181213
15.7173,0.378951,1.12277,0.652669,-1.58223,0.96959,-1.79067,0.244566,-0.174116
15.7329,0.377017,1.12504,0.653653,-1.58161,0.973205,-1.79009,0.244576,-0.164765
15.7485,0.375778,1.12645,0.654344,-1.58135,0.975591,-1.78978,0.244592,-0.159157
15.7641,0.375456,1.12681,0.654542,-1.58131,0.976227,-1.7897,0.244592,-0.1576
15.7796,0.375456,1.12681,0.654542,-1.58131,0.976227,-1.7897,0.244592,-0.1576
15.7952,0.375456,1.12681,0.654542,-1.58131,0.976227,-1.7897,0.244592,-0.1576
15.8108,0.375456,1.12681,0.654542,-1.58131,0.976227,-1.7897,0.244592,-0.1576
15.8264,0.375456,1.12681,0.654542,-1.58131,0.976227,-1.7897,0.244592,-0.1576
15.842,0.375456,1.12681,0.654542,-1.58131,0.976227,-1.7897,0.244592,-0.1576
15.8576,0.365891,1.13723,0.659456,-1.58037,0.996501,-1.78755,0.244718,-0.112378
15.8732,0.364617,1.13847,0.660094,-1.58007,0.999185,-1.78726,0.244816,-0.106866
15.8888,0.362837,1.14011,0.660917,-1.57959,1.00302,-1.7868,0.245127,-0.0996505
15.9044,0.361749,1.1411,0.661418,-1.57929,1.00544,-1.78653,0.245368,-0.0952727
15.92,0.360084,1.1426,0.662174,-1.57911,1.00908,-1.78617,0.245726,-0.0887752
15.9356,0.358991,1.14357,0.662671,-1.57901,1.01149,-1.78597,0.246014,-0.0847326
15.9512,0.357327,1.14481,0.663365,-1.57875,1.01489,-1.78565,0.246929,-0.0789436
15.9668,0.355516,1.14608,0.664116,-1.57831,1.0186,-1.78511,0.248068,-0.0729372
15.9824,0.354534,1.14666,0.664508,-1.57802,1.02062,-1.78473,0.248757,-0.0700627
15.9979,0.353521,1.14717,0.664908,-1.57768,1.02286,-1.78418,0.249391,-0.0669493
16.0135,0.352563,1.14767,0.665274,-1.5774,1.02499,-1.78367,0.249968,-0.0639796
16.0291,0.351333,1.14838,0.665629,-1.5773,1.0278,-1.78291,0.250717,-0.0599614
16.0447,0.349644,1.14936,0.666074,-1.57727,1.03173,-1.78169,0.251768,-0.0543164
16.0603,0.348848,1.14982,0.666357,-1.57728,1.0337,-1.78101,0.252169,-0.0519845
16.0759,0.347749,1.15035,0.666702,-1.5773,1.03645,-1.78002,0.252885,-0.0489702
16.0915,0.346761,1.15057,0.666916,-1.57719,1.03875,-1.77924,0.253514,-0.0465991
16.1071,0.34555,1.15073,0.667214,-1.5771,1.04156,-1.77835,0.25422,-0.043946
16.1227,0.345112,1.15076,0.667365,-1.57707,1.04255,-1.77804,0.25455,-0.043021
16.1383,0.344855,1.15078,0.667413,-1.57701,1.04309,-1.77788,0.2548,-0.0425021
16.1539,0.343222,1.1508,0.66756,-1.57631,1.0461,-1.77705,0.256421,-0.0398002
16.1695,0.340484,1.15079,0.667684,-1.57489,1.0508,-1.77586,0.259173,-0.0357752
16.1851,0.339379,1.15083,0.667717,-1.57422,1.05261,-1.77553,0.26028,-0.0344664
16.2006,0.337768,1.15087,0.667738,-1.57323,1.05529,-1.77517,0.26176,-0.0326676
16.2162,0.33578,1.151,0.667817,-1.57205,1.05867,-1.77479,0.263616,-0.0306387
16.2318,0.334532,1.15108,0.667796,-1.57134,1.06082,-1.77444,0.264683,-0.0291912
16.2474,0.332572,1.15136,0.667775,-1.57042,1.06415,-1.77387,0.26622,-0.0263607
16.263,0.331076,1.15162,0.667711,-1.56984,1.06658,-1.77345,0.267132,-0.0234412
16.2786,0.329311,1.15198,0.667693,-1.56933,1.06932,-1.77295,0.268214,-0.0194753
16.2942,0.328046,1.15229,0.667701,-1.569,1.0713,-1.77256,0.268873,-0.0163733
16.3098,0.326552,1.15266,0.667701,-1.56856,1.07363,-1.77211,0.269449,-0.0129138
16.3254,0.324358,1.15325,0.667793,-1.56769,1.07751,-1.77157,0.269966,-0.0078426
16.341,0.323209,1.15366,0.66782,-1.56729,1.07964,-1.77129,0.270413,-0.00539417
16.3566,0.321156,1.15451,0.66776,-1.56663,1.0835,-1.77081,0.271196,-0.00077707
16.3722,0.321156,1.15451,0.66776,-1.56663,1.0835,-1.7708,0.271196,-0.00077707
16.3878,0.321156,1.15451,0.66776,-1.56663,1.0835,-1.77081,0.271196,-0.00077707
16.4034,0.321156,1.15451,0.66776,-1.56663,1.0835,-1.7708,0.271196,-0.00077707
16.4189,0.321156,1.15451,0.66776,-1.56663,1.0835,-1.7708,0.271196,-0.00077707
16.4345,0.321156,1.15451,0.66776,-1.56663,1.0835,-1.7708,0.271196,-0.00077707
16.4501,0.318325,1.15578,0.66776,-1.56534,1.08822,-1.76969,0.271228,0.00637396
16.4657,0.310137,1.15947,0.66777,-1.56157,1.10183,-1.76638,0.271337,0.0271607
16.4813,0.309022,1.16004,0.667799,-1.5609,1.10351,-1.76557,0.271437,0.0304319
16.4969,0.307405,1.16088,0.667807,-1.5597,1.10588,-1.7642,0.2716,0.0352138
16.5125,0.305584,1.16204,0.667799,-1.55839,1.10855,-1.7623,0.271885,0.0412378
16.5281,0.304542,1.16274,0.667827,-1.55761,1.10999,-1.76102,0.272174,0.0441941
16.5437,0.302914,1.16397,0.667847,-1.55646,1.11225,-1.75873,0.272685,0.0491033
16.5593,0.301814,1.16486,0.667813,-1.55572,1.11378,-1.75684,0.272994,0.0524529
16.5749,0.300475,1.16599,0.667796,-1.55496,1.11566,-1.75435,0.273201,0.056805
16.5905,0.299629,1.16679,0.667802,-1.55447,1.11689,-1.75251,0.27317,0.0600996
16.6061,0.298687,1.16771,0.667817,-1.55394,1.11829,-1.75034,0.273193,0.063883
16.6216,0.297812,1.16861,0.667841,-1.55347,1.11964,-1.74833,0.273228,0.0669173
16.6372,0.295835,1.17089,0.667812,-1.55256,1.12266,-1.74279,0.273212,0.0747407
16.6528,0.295004,1.1718,0.667819,-1.5521,1.12393,-1.74014,0.273243,0.0785918
16.6684,0.294306,1.17263,0.667832,-1.55171,1.12493,-1.73768,0.273222,0.0819606
16.684,0.294276,1.17267,0.667832,-1.55169,1.12497,-1.73757,0.273221,0.0821039
16.6996,0.294276,1.17267,0.667832,-1.55169,1.12497,-1.73757,0.273221,0.0821039
16.7152,0.294276,1.17267,0.667832,-1.55169,1.12497,-1.73757,0.273221,0.0821039
16.7308,0.294276,1.17267,0.667832,-1.55169,1.12497,-1.73757,0.273221,0.0821039
16.7464,0.294276,1.17267,0.667832,-1.55169,1.12497,-1.73757,0.273221,0.0821039
16.762,0.288325,1.17958,0.667798,-1.54686,1.13298,-1.71575,0.273267,0.106067
16.7776,0.286796,1.18124,0.667796,-1.54502,1.13495,-1.70955,0.273223,0.112506
16.7932,0.286056,1.18196,0.667806,-1.54394,1.13591,-1.70635,0.273245,0.116251
16.8088,0.284808,1.18314,0.667779,-1.54191,1.13759,-1.70059,0.273232,0.123699
16.8244,0.284047,1.18385,0.66783,-1.54051,1.13866,-1.69669,0.273236,0.128189
16.8399,0.282984,1.18481,0.66782,-1.53834,1.14018,-1.69116,0.273293,0.134562
16.8555,0.282209,1.18554,0.66782,-1.53662,1.14129,-1.68705,0.273307,0.13995
16.8711,0.281355,1.1863,0.66783,-1.53471,1.14254,-1.68252,0.273334,0.14573
16.8867,0.280609,1.18692,0.667814,-1.53305,1.14356,-1.67847,0.273371,0.150351
16.9023,0.279788,1.18769,0.667806,-1.53122,1.14467,-1.67396,0.273474,0.155424
16.9179,0.279072,1.18845,0.667832,-1.52957,1.14564,-1.67001,0.27375,0.160056
16.9335,0.278382,1.18921,0.66782,-1.52795,1.14658,-1.66628,0.274121,0.16452
16.9491,0.277704,1.18989,0.66782,-1.52628,1.14758,-1.66274,0.274813,0.168584
16.9647,0.277319,1.19025,0.66782,-1.52529,1.14815,-1.66073,0.275259,0.170881
16.9803,0.277319,1.19025,0.66782,-1.52529,1.14815,-1.66073,0.275259,0.170881
16.9959,0.277319,1.19025,0.66782,-1.52529,1.14815,-1.66073,0.275259,0.170881
17.0115,0.277319,1.19025,0.66782,-1.52529,1.14815,-1.66073,0.275259,0.170881
17.0271,0.277319,1.19025,0.66782,-1.52529,1.14815,-1.66073,0.275259,0.170881
17.0426,0.277319,1.19025,0.66782,-1.52529,1.14815,-1.66073,0.275259,0.170881
17.0582,0.274488,1.19167,0.667847,-1.51578,1.15293,-1.64678,0.277251,0.193822
17.0738,0.273123,1.19224,0.66783,-1.51119,1.15526,-1.64006,0.278208,0.204696
17.0894,0.272414,1.19235,0.667838,-1.5087,1.15658,-1.63706,0.278924,0.209737
17.105,0.271853,1.19246,0.667818,-1.5067,1.15757,-1.63498,0.279397,0.213603
17.1206,0.27115,1.19262,0.667861,-1.50403,1.15879,-1.63294,0.279948,0.218133
17.1362,0.270173,1.19285,0.667848,-1.50027,1.16041,-1.63054,0.280998,0.223453
17.1518,0.269377,1.19304,0.667828,-1.4974,1.16167,-1.62886,0.281827,0.227225
17.1674,0.268451,1.1932,0.667758,-1.4943,1.1632,-1.62671,0.282766,0.232423
17.183,0.267734,1.19331,0.667742,-1.492,1.16443,-1.62482,0.283344,0.237255
17.1986,0.267052,1.19339,0.6678,-1.48999,1.16573,-1.62269,0.283927,0.242499
17.2142,0.266246,1.1935,0.667861,-1.4877,1.16733,-1.62008,0.284604,0.248686
17.2298,0.265054,1.19374,0.667872,-1.48446,1.16983,-1.61612,0.285292,0.257642
17.2453,0.264003,1.19399,0.667847,-1.4816,1.17204,-1.61284,0.28584,0.265691
17.2609,0.263525,1.19405,0.667856,-1.48041,1.17296,-1.61155,0.286152,0.268683
17.2765,0.263525,1.19405,0.667856,-1.48041,1.17296,-1.61155,0.286152,0.268683
17.2921,0.263525,1.19405,0.667856,-1.48041,1.17296,-1.61155,0.286152,0.268683
17.3077,0.263525,1.19405,0.667856,-1.48041,1.17296,-1.61155,0.286152,0.268683
17.3233,0.263525,1.19405,0.667856,-1.48041,1.17296,-1.61155,0.286152,0.268683
17.3389,0.261556,1.19457,0.667853,-1.47497,1.17699,-1.60749,0.28725,0.27862
17.3545,0.256986,1.19577,0.667844,-1.46242,1.18632,-1.59803,0.289796,0.301589
17.3701,0.256275,1.19587,0.667839,-1.46067,1.18762,-1.59647,0.290181,0.304898
17.3857,0.254945,1.19591,0.667805,-1.45738,1.19,-1.59358,0.290865,0.311527
17.4013,0.254105,1.19592,0.667789,-1.45557,1.19142,-1.59172,0.29098,0.316108
17.4169,0.252672,1.19596,0.667832,-1.45259,1.19386,-1.58842,0.291065,0.323498
17.4325,0.251133,1.19595,0.667844,-1.44939,1.1966,-1.58453,0.291345,0.330769
17.4481,0.250276,1.19594,0.667831,-1.44755,1.19809,-1.58245,0.291521,0.334723
17.4636,0.24871,1.19591,0.667823,-1.44407,1.20071,-1.57897,0.292284,0.340814
17.4792,0.247808,1.19585,0.667835,-1.44175,1.20215,-1.57721,0.292939,0.343197
17.4948,0.246434,1.19572,0.667777,-1.43775,1.20438,-1.57467,0.293813,0.346436
17.5104,0.245703,1.19573,0.66781,-1.43581,1.20555,-1.57341,0.29439,0.348293
17.526,0.244973,1.19578,0.667836,-1.43379,1.20676,-1.57204,0.294927,0.350467
17.5416,0.243647,1.19584,0.667889,-1.43012,1.20909,-1.56883,0.295633,0.35575
17.5572,0.242541,1.19586,0.667856,-1.42714,1.21105,-1.56523,0.296267,0.361439
17.5728,0.242541,1.19586,0.667856,-1.42714,1.21105,-1.56523,0.296267,0.361439
17.5884,0.242541,1.19586,0.667856,-1.42714,1.21105,-1.56523,0.296267,0.361439
17.604,0.242541,1.19586,0.667856,-1.42714,1.21105,-1.56523,0.296267,0.361439
17.6196,0.242541,1.19586,0.667856,-1.42714,1.21105,-1.56523,0.296267,0.361439
17.6352,0.242541,1.19586,0.667856,-1.42714,1.21105,-1.56523,0.296267,0.361439
17.6508,0.238611,1.19598,0.667878,-1.41269,1.21995,-1.53952,0.299552,0.390441
17.6663,0.237924,1.19597,0.667838,-1.40958,1.22171,-1.53412,0.300941,0.396031
17.6819,0.237531,1.19581,0.667816,-1.40692,1.22273,-1.5303,0.302878,0.399089
17.6975,0.23719,1.19568,0.667785,-1.40394,1.22366,-1.52641,0.305164,0.401736
17.7131,0.236916,1.19563,0.667785,-1.4009,1.22455,-1.52254,0.307544,0.404137
17.7287,0.236689,1.19568,0.667856,-1.39792,1.2255,-1.51853,0.309859,0.406716
17.7443,0.236561,1.19586,0.667835,-1.39443,1.22659,-1.51247,0.312895,0.411894
17.7599,0.236548,1.19587,0.667889,-1.39144,1.2276,-1.50572,0.31548,0.418176
17.7755,0.236537,1.19585,0.667853,-1.39003,1.22802,-1.5017,0.31661,0.421062
17.7911,0.236533,1.19579,0.667834,-1.38843,1.2285,-1.49702,0.317866,0.424622
17.8067,0.236516,1.19576,0.667843,-1.38626,1.22913,-1.49093,0.319495,0.429285
17.8223,0.236513,1.19581,0.667822,-1.38465,1.22947,-1.48667,0.320822,0.43265
17.8379,0.23656,1.19592,0.667832,-1.3816,1.22978,-1.47909,0.323709,0.437969
17.8535,0.236549,1.19588,0.66782,-1.37835,1.23002,-1.47214,0.326766,0.441732
17.8691,0.236549,1.19588,0.66782,-1.37835,1.23002,-1.47214,0.326766,0.441732
17.8846,0.236549,1.19588,0.66782,-1.37835,1.23002,-1.47214,0.326766,0.441732
17.9002,0.236549,1.19588,0.66782,-1.37835,1.23002,-1.47214,0.326766,0.441732
17.9158,0.236549,1.19588,0.66782,-1.37835,1.23002,-1.47214,0.326766,0.441732
17.9314,0.236549,1.19588,0.66782,-1.37835,1.23002,-1.47214,0.326766,0.441732
17.947,0.236549,1.19588,0.66782,-1.37834,1.23003,-1.47211,0.326782,0.441746
17.9626,0.236585,1.19572,0.66782,-1.36512,1.23091,-1.43863,0.343034,0.455423
17.9782,0.236585,1.19572,0.667808,-1.36399,1.23092,-1.43481,0.344492,0.456914
17.9938,0.236595,1.19572,0.667808,-1.3622,1.23094,-1.42866,0.346611,0.458862
18.0094,0.236606,1.19578,0.667808,-1.36015,1.23097,-1.42107,0.349322,0.460925
18.025,0.236609,1.19581,0.667781,-1.35894,1.231,-1.41627,0.351043,0.462178
18.0406,0.236592,1.19582,0.667807,-1.35744,1.23102,-1.40983,0.353155,0.463636
18.0562,0.236559,1.19581,0.667838,-1.35575,1.23098,-1.40178,0.35551,0.465266
18.0718,0.236532,1.19582,0.667844,-1.35474,1.23096,-1.39679,0.356818,0.466249
18.0873,0.236517,1.19583,0.667862,-1.35349,1.23094,-1.39055,0.358608,0.467504
18.1029,0.236521,1.19585,0.667832,-1.35265,1.23096,-1.38644,0.359894,0.468328
18.1185,0.236532,1.19586,0.667802,-1.35161,1.231,-1.38141,0.361986,0.469091
18.1341,0.236565,1.19581,0.66781,-1.35013,1.23099,-1.37506,0.365256,0.46969
18.1497,0.236578,1.19576,0.667799,-1.34907,1.231,-1.37111,0.367625,0.469835
18.1653,0.236565,1.19575,0.667815,-1.34823,1.23101,-1.36829,0.369432,0.469858
18.1809,0.236561,1.19575,0.667832,-1.34794,1.23101,-1.36729,0.370064,0.46987
18.1965,0.236561,1.19575,0.667832,-1.34794,1.23101,-1.36729,0.370064,0.46987
18.2121,0.236561,1.19575,0.667832,-1.34794,1.23101,-1.36729,0.370064,0.46987
18.2277,0.236561,1.19575,0.667832,-1.34794,1.23101,-1.36729,0.370064,0.46987
18.2433,0.236561,1.19575,0.667832,-1.34794,1.23101,-1.36729,0.370064,0.46987
18.2589,0.236579,1.19581,0.667824,-1.34247,1.23101,-1.34686,0.379974,0.473452
18.2745,0.236585,1.19585,0.667803,-1.33995,1.23102,-1.33677,0.384692,0.475487
18.2901,0.236541,1.19589,0.667805,-1.33891,1.23102,-1.33122,0.387058,0.476902
18.3056,0.236534,1.19589,0.667835,-1.33813,1.23101,-1.32711,0.388944,0.477822
18.3212,0.236511,1.19586,0.667844,-1.337,1.23099,-1.32158,0.391493,0.478556
18.3368,0.236492,1.19582,0.667862,-1.33613,1.23098,-1.31758,0.393395,0.47896
18.3524,0.236498,1.19582,0.66785,-1.33483,1.23101,-1.31236,0.396186,0.479338
18.368,0.236501,1.19583,0.667835,-1.33339,1.23103,-1.30663,0.399385,0.479481
18.3836,0.236511,1.19583,0.667842,-1.33256,1.23103,-1.30331,0.401486,0.479512
18.3992,0.23652,1.19582,0.667812,-1.33169,1.23104,-1.2999,0.403889,0.47957
18.4148,0.236525,1.19579,0.667784,-1.3306,1.23105,-1.29573,0.40684,0.479626
18.4304,0.236525,1.19575,0.667793,-1.32943,1.23105,-1.29131,0.409806,0.479649
18.446,0.236525,1.19575,0.667808,-1.32833,1.23105,-1.2868,0.412134,0.479725
18.4616,0.236525,1.19578,0.667808,-1.32742,1.23105,-1.28308,0.413902,0.479829
18.4772,0.236525,1.19578,0.667808,-1.32742,1.23105,-1.28308,0.413902,0.479829
18.4928,0.236525,1.19578,0.667808,-1.32742,1.23105,-1.28308,0.413902,0.479829
18.5083,0.236525,1.19578,0.667808,-1.32742,1.23105,-1.28308,0.413902,0.479829
18.5239,0.236525,1.19578,0.667808,-1.32742,1.23105,-1.28308,0.413902,0.479829
18.5395,0.236525,1.19578,0.667808,-1.32742,1.23105,-1.28308,0.413902,0.479829
18.5551,0.236518,1.19585,0.667823,-1.32277,1.23105,-1.26202,0.420892,0.482655
18.5707,0.236507,1.19591,0.667839,-1.31934,1.23105,-1.24646,0.426157,0.484826
18.5863,0.236506,1.19589,0.66784,-1.31861,1.23105,-1.24313,0.427597,0.485467
18.6019,0.236516,1.19584,0.667832,-1.31766,1.23102,-1.23897,0.429597,0.486278
18.6175,0.236525,1.19579,0.667826,-1.31677,1.231,-1.23535,0.43161,0.486945
18.6331,0.236531,1.1958,0.667814,-1.31636,1.23098,-1.23356,0.43287,0.487167
18.6487,0.236552,1.19584,0.667837,-1.31581,1.23098,-1.23151,0.434624,0.487262
18.6643,0.236573,1.19587,0.667877,-1.31538,1.23102,-1.23044,0.436247,0.487283
18.6799,0.236575,1.19581,0.66786,-1.31522,1.23102,-1.23063,0.437263,0.487273
18.6955,0.236583,1.19576,0.667871,-1.31503,1.23101,-1.23147,0.438712,0.487224
18.711,0.236575,1.19577,0.667817,-1.31496,1.23102,-1.23258,0.439628,0.4873
18.7266,0.236584,1.19581,0.667802,-1.31493,1.23104,-1.23503,0.441161,0.48733
18.7422,0.236578,1.19579,0.667836,-1.3149,1.23108,-1.23708,0.442109,0.487327
18.7578,0.236609,1.19579,0.667784,-1.31492,1.2311,-1.24008,0.443215,0.487379
18.7734,0.236609,1.19579,0.667784,-1.31492,1.2311,-1.24008,0.443215,0.487379
18.789,0.236609,1.19579,0.667784,-1.31492,1.2311,-1.24008,0.443215,0.487379
18.8046,0.236609,1.19579,0.667784,-1.31492,1.2311,-1.24008,0.443215,0.487379
18.8202,0.236609,1.19579,0.667784,-1.31492,1.2311,-1.24008,0.443215,0.487379
18.8358,0.236609,1.19579,0.667784,-1.31492,1.2311,-1.24008,0.443215,0.487379
18.8514,0.23663,1.19582,0.66779,-1.31485,1.23164,-1.24364,0.443431,0.489326
18.867,0.236653,1.19587,0.667783,-1.31471,1.23247,-1.24814,0.443653,0.491855
18.8826,0.236645,1.19587,0.667763,-1.31463,1.23289,-1.24815,0.443475,0.491988
18.8982,0.236645,1.19585,0.66777,-1.31463,1.23354,-1.24815,0.443024,0.492065
18.9138,0.236644,1.19583,0.66774,-1.31462,1.23429,-1.24814,0.442226,0.491852
18.9293,0.236633,1.19582,0.667785,-1.31467,1.23485,-1.24818,0.441959,0.491503
18.9449,0.236633,1.19581,0.667796,-1.31465,1.23562,-1.24817,0.441716,0.490257
18.9605,0.236645,1.19583,0.667784,-1.31467,1.23594,-1.24817,0.441678,0.489378
18.9761,0.236644,1.19578,0.667785,-1.31473,1.23665,-1.24817,0.441635,0.487641
18.9917,0.236634,1.19574,0.667793,-1.3147,1.237,-1.24815,0.441671,0.486762
19.0073,0.236644,1.19575,0.667763,-1.31469,1.23737,-1.24816,0.441691,0.485764
19.0229,0.236645,1.19575,0.667749,-1.3147,1.23752,-1.24816,0.441601,0.485218
19.0385,0.236669,1.19574,0.667703,-1.31472,1.23785,-1.24817,0.441692,0.484504
19.0541,0.236657,1.19569,0.667784,-1.31478,1.23834,-1.24816,0.441668,0.484132
19.0697,0.236657,1.19569,0.667784,-1.31478,1.23834,-1.24816,0.441668,0.484132
19.0853,0.236657,1.19569,0.667784,-1.31478,1.23834,-1.24816,0.441668,0.484132
19.1009,0.236657,1.19569,0.667784,-1.31478,1.23834,-1.24816,0.441668,0.484132
19.1165,0.236657,1.19569,0.667784,-1.31478,1.23834,-1.24816,0.441668,0.484132
19.132,0.236657,1.19569,0.667784,-1.31478,1.23834,-1.24816,0.441668,0.484132
19.1476,0.236654,1.19569,0.667785,-1.31478,1.23836,-1.24816,0.441704,0.48413
19.1632,0.236597,1.19572,0.667798,-1.31477,1.23883,-1.24818,0.442461,0.484095
19.1788,0.236611,1.19574,0.667831,-1.3148,1.23884,-1.2482,0.442525,0.48407
19.1944,0.236657,1.19574,0.667785,-1.31478,1.23884,-1.24822,0.442668,0.484036
19.21,0.236657,1.19575,0.667809,-1.31474,1.23887,-1.24821,0.442846,0.484061
19.2256,0.236657,1.19575,0.667829,-1.31474,1.23888,-1.24824,0.4431,0.48408
19.2412,0.236657,1.19573,0.667822,-1.31475,1.23887,-1.24826,0.443394,0.484053
19.2568,0.236647,1.19574,0.66782,-1.31477,1.23886,-1.24826,0.44365,0.484089
19.2724,0.236645,1.19573,0.667799,-1.31478,1.23887,-1.24829,0.4441,0.484074
19.288,0.236656,1.19573,0.667742,-1.31478,1.23887,-1.24831,0.444205,0.484071
19.3036,0.236648,1.19574,0.667797,-1.31475,1.23887,-1.24837,0.444287,0.484063
19.3192,0.236652,1.19575,0.66782,-1.31475,1.23886,-1.24841,0.44436,0.48406
19.3347,0.23665,1.19574,0.667806,-1.31476,1.23886,-1.24852,0.444396,0.48406
19.3503,0.23666,1.19572,0.667804,-1.31477,1.23887,-1.24869,0.444393,0.484037
19.3659,0.236669,1.19572,0.667808,-1.31478,1.23887,-1.24875,0.444389,0.484024
19.3815,0.236669,1.19572,0.667808,-1.31478,1.23887,-1.24875,0.444389,0.484024
19.3971,0.236669,1.19572,0.667808,-1.31478,1.23887,-1.24875,0.444389,0.484024
19.4127,0.236669,1.19572,0.667808,-1.31478,1.23887,-1.24875,0.444389,0.484024
19.4283,0.236669,1.19572,0.667808,-1.31478,1.23887,-1.24875,0.444389,0.484024
19.4439,0.236669,1.19572,0.667808,-1.31478,1.23887,-1.24875,0.444389,0.484024
19.4595,0.236689,1.19574,0.667776,-1.31482,1.23889,-1.25024,0.44435,0.48401
19.4751,0.236705,1.19575,0.667743,-1.3149,1.23889,-1.25174,0.444328,0.484027
19.4907,0.236705,1.19575,0.667742,-1.31494,1.23888,-1.25219,0.444346,0.484037
19.5063,0.236699,1.19573,0.667743,-1.31497,1.23888,-1.25248,0.444325,0.484028
19.5219,0.236693,1.19572,0.667765,-1.31502,1.23887,-1.25266,0.444282,0.484036
19.5375,0.236699,1.19574,0.667791,-1.31508,1.23887,-1.25271,0.444275,0.484029
19.553,0.236705,1.19576,0.667767,-1.3152,1.23887,-1.25278,0.444224,0.484041
