timestamp,x,y,z,qw,qx,qy,qz
0,283.717,699.213,1188.29,0.632963,-0.653654,-0.310264,0.275374
0.0131274,283.717,699.213,1188.29,0.632963,-0.653654,-0.310264,0.275374
0.0262547,284.783,701.401,1191.94,0.637244,-0.651662,-0.308261,0.272457
0.0393821,285.125,702.351,1193.88,0.639332,-0.65049,-0.307479,0.271245
0.0525095,285.581,703.33,1195.78,0.641419,-0.649424,-0.306598,0.269867
0.0656368,286.124,704.399,1197.91,0.643787,-0.648198,-0.305556,0.268355
0.0787642,286.564,705.502,1200.32,0.64641,-0.646691,-0.304547,0.266827
0.0918916,287.211,707.545,1205.47,0.651788,-0.643229,-0.302775,0.264114
0.105019,287.82,709.251,1210.02,0.656429,-0.64019,-0.301265,0.26172
0.118146,288.116,710.124,1212.54,0.658974,-0.63846,-0.300467,0.260464
0.131274,288.395,710.95,1215.15,0.661584,-0.636586,-0.299712,0.259303
0.144401,288.796,712.542,1220.92,0.666935,-0.632461,-0.298485,0.257095
0.157528,288.893,713.21,1223.62,0.669344,-0.630491,-0.298054,0.256171
0.170656,288.876,713.759,1226.51,0.671868,-0.62824,-0.297788,0.2554
0.183783,289.002,714.909,1232.4,0.677004,-0.623781,-0.296989,0.253694
0.19691,289.029,715.498,1235.52,0.679542,-0.621541,-0.296618,0.25284
0.210038,289.124,716.076,1238.61,0.682062,-0.619313,-0.296261,0.251939
0.223165,289.124,716.076,1238.61,0.682062,-0.619313,-0.296261,0.251939
0.236293,289.032,717.907,1252.87,0.692998,-0.608631,-0.295689,0.248776
0.24942,289.002,718.213,1256.32,0.695475,-0.606072,-0.295729,0.248065
0.262547,288.949,718.761,1263.5,0.700544,-0.60077,-0.29577,0.246647
0.275675,288.957,719.081,1267.05,0.702962,-0.598292,-0.295701,0.24587
0.288802,289.01,719.375,1270.71,0.705354,-0.595832,-0.295685,0.24501
0.301929,289.229,719.881,1278.42,0.710434,-0.590594,-0.295458,0.243282
0.315057,289.442,720.108,1282.07,0.712857,-0.588153,-0.295197,0.242424
0.328184,289.609,720.337,1286,0.715303,-0.585645,-0.294946,0.241593
0.341312,289.811,720.536,1290.34,0.717831,-0.583025,-0.294747,0.240675
0.354439,290.078,720.821,1298.43,0.722284,-0.57826,-0.294474,0.239177
0.367566,290.24,720.918,1302.59,0.724509,-0.575855,-0.294311,0.23845
0.380694,290.361,720.963,1306.85,0.726738,-0.573387,-0.294167,0.237792
0.393821,290.932,721.097,1315.22,0.73105,-0.568863,-0.29344,0.236334
0.406948,291.194,721.226,1319.61,0.733196,-0.566642,-0.29302,0.235541
0.420076,291.603,721.395,1324.42,0.735478,-0.564385,-0.292394,0.234623
0.433203,292.554,721.779,1333.16,0.73945,-0.560629,-0.290946,0.232936
0.44633,292.991,721.908,1337.61,0.741349,-0.558807,-0.290237,0.232162
0.459458,293.492,721.963,1342.08,0.743217,-0.55697,-0.289521,0.231495
0.472585,294.558,721.967,1350.83,0.746907,-0.553396,-0.28787,0.230248
0.485713,295.09,721.946,1355.5,0.748872,-0.551471,-0.286954,0.229625
0.49884,295.09,721.946,1355.5,0.748872,-0.551471,-0.286954,0.229625
0.511967,295.09,721.946,1355.5,0.748872,-0.551471,-0.286954,0.229625
0.525095,297.681,722.079,1374.8,0.757018,-0.543952,-0.282228,0.226688
0.538222,298.292,721.955,1379.67,0.759003,-0.541998,-0.281045,0.226199
0.551349,298.966,721.882,1384.46,0.760957,-0.540157,-0.279695,0.225711
0.564477,299.709,721.803,1388.91,0.762796,-0.538508,-0.278186,0.225311
0.577604,300.487,721.705,1393.75,0.764808,-0.536682,-0.276564,0.224844
0.590731,302.269,721.586,1404.14,0.769142,-0.532869,-0.27279,0.223735
0.603859,303.197,721.48,1409.06,0.771163,-0.531065,-0.270938,0.223319
0.616986,304.11,721.313,1414.1,0.77319,-0.529197,-0.269069,0.223002
0.630114,306.246,720.886,1424.23,0.777332,-0.525449,-0.265034,0.222297
0.643241,307.531,720.737,1429,0.779365,-0.523784,-0.262674,0.221909
0.656368,308.774,720.515,1434.14,0.781513,-0.521893,-0.260377,0.221517
0.669496,310.049,720.223,1439.34,0.783615,-0.519988,-0.258128,0.221202
0.682623,312.67,719.562,1449.56,0.787735,-0.516283,-0.253395,0.220718
0.69575,314.041,719.25,1454.71,0.789815,-0.514471,-0.250889,0.220378
0.708878,315.322,718.897,1459.78,0.79181,-0.512677,-0.248464,0.220147
0.722005,318.244,718.027,1469.86,0.795712,-0.509181,-0.243351,0.219903
0.735133,319.712,717.605,1474.92,0.797632,-0.507498,-0.240749,0.219703
0.74826,321.232,717.206,1479.83,0.799481,-0.50595,-0.238082,0.219458
0.761387,324.158,716.22,1489.76,0.803044,-0.502765,-0.232991,0.219234
0.774515,325.561,715.719,1494.45,0.804622,-0.501392,-0.23053,0.219192
0.787642,326.972,715.21,1499.19,0.806204,-0.50003,-0.228011,0.219124
0.800769,328.245,714.642,1503.69,0.807604,-0.498779,-0.225784,0.219128
0.813897,328.245,714.642,1503.69,0.807604,-0.498779,-0.225784,0.219128
0.827024,333.236,712.45,1520.13,0.812819,-0.494041,-0.217164,0.219292
0.840151,334.72,711.774,1524.85,0.814364,-0.492593,-0.214722,0.219222
0.853279,336.246,711.132,1529.13,0.815782,-0.491331,-0.212229,0.219208
0.866406,337.64,710.35,1533.71,0.81723,-0.489856,-0.209994,0.219268
0.879534,340.198,708.753,1542.45,0.819825,-0.487169,-0.205918,0.219433
0.892661,341.422,707.94,1546.74,0.821053,-0.485899,-0.203987,0.219462
0.905788,342.781,707.066,1551.46,0.822369,-0.484595,-0.201826,0.219418
0.918916,345.242,705.332,1559.94,0.824616,-0.482273,-0.198164,0.219436
0.932043,346.535,704.528,1563.84,0.825572,-0.481376,-0.1964,0.219396
0.94517,347.641,703.674,1567.94,0.826588,-0.480304,-0.194815,0.219335
0.958298,348.719,702.804,1571.95,0.827602,-0.479233,-0.193316,0.219178
0.971425,351.027,701.097,1579.96,0.829719,-0.477132,-0.190217,0.218469
0.984552,352.21,700.221,1583.96,0.830753,-0.476135,-0.1887,0.218032
0.99768,353.476,699.374,1587.86,0.831737,-0.475239,-0.187174,0.217551
1.01081,355.995,697.619,1595.65,0.833599,-0.473496,-0.184413,0.216578
1.02393,357.472,696.975,1599.12,0.834467,-0.472873,-0.182847,0.215922
1.03706,359.008,696.171,1603.27,0.835555,-0.471974,-0.181283,0.215
1.05019,361.973,694.814,1610.75,0.837511,-0.470562,-0.178357,0.212921
1.06332,363.516,694.149,1614.45,0.838471,-0.469886,-0.176971,0.211789
1.07644,365.041,693.485,1618.07,0.839355,-0.469297,-0.175642,0.210699
1.08957,366.66,692.803,1621.75,0.840313,-0.46857,-0.174386,0.209538
1.1027,368.404,692.243,1625.41,0.841325,-0.467874,-0.172918,0.208243
1.11583,368.404,692.243,1625.41,0.841325,-0.467874,-0.172918,0.208243
1.12895,375.295,690.966,1637.94,0.844672,-0.466354,-0.167016,0.202853
1.14208,377.228,690.544,1641.48,0.845618,-0.465822,-0.165536,0.201341
1.15521,379.253,690.046,1645.2,0.846673,-0.46508,-0.163962,0.199904
1.16834,383.225,689.067,1652.42,0.848649,-0.463705,-0.160988,0.197117
1.18146,385.235,688.627,1655.93,0.849573,-0.463129,-0.159457,0.19573
1.19459,387.296,688.274,1659.35,0.850462,-0.462645,-0.157897,0.194275
1.20772,389.438,687.891,1662.83,0.851359,-0.462126,-0.156267,0.192897
1.22084,394.314,687.293,1669.81,0.853364,-0.460925,-0.152354,0.190015
1.23397,396.719,686.972,1673.41,0.854394,-0.460209,-0.150384,0.188686
1.2471,399.11,686.64,1676.93,0.855376,-0.459538,-0.148473,0.187384
1.26023,404.272,685.968,1684.16,0.857298,-0.458249,-0.144601,0.184766
1.27335,406.848,685.538,1687.77,0.858298,-0.457444,-0.142666,0.183619
1.28648,409.542,685.047,1691.48,0.859404,-0.456421,-0.140644,0.182548
1.29961,415.091,684.233,1698.58,0.861604,-0.454425,-0.136338,0.180414
1.31274,417.961,683.731,1702.28,0.862771,-0.453303,-0.134105,0.179327
1.32586,420.965,683.205,1706.05,0.863997,-0.452085,-0.131746,0.178247
1.33899,427.199,682.042,1713.81,0.866576,-0.449376,-0.126747,0.176192
1.35212,430.485,681.517,1717.61,0.867864,-0.448079,-0.124039,0.175076
1.36525,433.855,680.936,1721.47,0.869169,-0.446724,-0.121288,0.17399
1.37837,437.365,680.319,1725.36,0.870481,-0.445318,-0.118449,0.172986
1.3915,444.723,679.204,1732.93,0.873164,-0.442364,-0.112364,0.171095
1.40463,444.723,679.204,1732.93,0.873164,-0.442364,-0.112364,0.171095
1.41776,444.723,679.204,1732.93,0.873164,-0.442364,-0.112364,0.171095
1.43088,459.079,676.363,1747.61,0.878565,-0.435611,-0.100739,0.167982
1.44401,463.412,675.46,1751.85,0.880148,-0.433518,-0.0972356,0.167174
1.45714,471.845,673.729,1759.52,0.883013,-0.429698,-0.0904966,0.165706
1.47027,476.077,672.968,1763.12,0.884373,-0.427881,-0.0871185,0.164966
1.48339,480.463,672.173,1766.72,0.885744,-0.426054,-0.0835744,0.164168
1.49652,489.756,670.723,1773.55,0.888362,-0.422612,-0.076047,0.16257
1.50965,494.46,670.067,1776.82,0.88962,-0.420994,-0.0721738,0.161649
1.52277,499.42,669.421,1780.05,0.890872,-0.419389,-0.0680829,0.1607
1.5359,504.497,668.692,1783.33,0.892157,-0.417674,-0.0638595,0.159771
1.54903,514.698,667.607,1789.24,0.894498,-0.414709,-0.0552297,0.157607
1.56216,519.887,667.07,1792.09,0.895616,-0.413236,-0.0509199,0.156575
1.57528,525.043,666.63,1794.74,0.896663,-0.41189,-0.0466206,0.155465
1.58841,536.086,665.611,1800.08,0.898831,-0.408994,-0.0375804,0.153015
1.60154,541.458,665.158,1802.47,0.899805,-0.407689,-0.0332985,0.151766
1.61467,546.654,664.792,1804.68,0.900721,-0.406487,-0.0291806,0.150395
1.62779,557.208,664.085,1808.91,0.902509,-0.404081,-0.0208098,0.147527
1.64092,562.374,663.903,1810.75,0.9033,-0.403061,-0.0167609,0.145983
1.65405,567.511,663.678,1812.55,0.904091,-0.402029,-0.0127302,0.144327
1.66718,578.107,663.545,1815.67,0.905485,-0.4003,-0.00434917,0.140849
1.6803,583.249,663.484,1817.1,0.90614,-0.399505,-0.000309137,0.138948
1.69343,588.438,663.473,1818.38,0.906763,-0.398768,0.00367725,0.136939
1.70656,588.438,663.473,1818.38,0.906763,-0.398768,0.00367725,0.136939
1.71968,588.438,663.473,1818.38,0.906763,-0.398768,0.00367725,0.136939
1.73281,608.113,663.629,1822.23,0.908815,-0.396486,0.0182348,0.128539
1.74594,619.07,663.646,1823.81,0.9098,-0.395388,0.0259442,0.12353
1.75907,624.331,663.779,1824.3,0.9102,-0.395024,0.0295652,0.120909
1.77219,629.549,663.854,1824.75,0.910577,-0.394673,0.0331534,0.118255
1.78532,634.993,663.852,1825.16,0.910944,-0.394322,0.0368352,0.115476
1.79845,645.993,663.793,1825.72,0.911638,-0.393665,0.0441679,0.109518
1.81158,651.564,663.632,1825.96,0.911981,-0.393321,0.0478086,0.106318
1.8247,657.304,663.465,1826.14,0.912283,-0.393012,0.0515867,0.103054
1.83783,663.02,663.184,1826.3,0.912561,-0.392732,0.0552806,0.0996894
1.85096,674.657,662.543,1826.27,0.912959,-0.3925,0.062651,0.0923307
1.86409,681.125,662.17,1826.12,0.913096,-0.392455,0.0667893,0.0881676
1.87721,687.118,661.697,1825.94,0.913205,-0.392392,0.070576,0.0842934
1.89034,698.742,660.773,1825.36,0.913301,-0.392435,0.0779023,0.0762049
1.90347,704.521,660.156,1825.03,0.913321,-0.392463,0.0814258,0.0720297
1.9166,710.273,659.452,1824.73,0.913315,-0.392468,0.0848875,0.0679668
1.92972,721.47,657.858,1824.13,0.913293,-0.392389,0.0914424,0.0597032
1.94285,726.836,657,1823.8,0.913252,-0.392386,0.0944494,0.0555317
1.95598,732.238,656.072,1823.45,0.913175,-0.392432,0.0973372,0.051324
1.9691,737.569,655.117,1823.05,0.913066,-0.39249,0.10018,0.0471724
1.98223,747.972,653.059,1822.25,0.912816,-0.392579,0.105552,0.0388354
1.99536,753.225,651.891,1821.81,0.912643,-0.392686,0.108108,0.0345422
2.00849,753.225,651.891,1821.81,0.912643,-0.392686,0.108108,0.0345422
2.02161,753.225,651.891,1821.81,0.912643,-0.392686,0.108108,0.0345422
2.03474,775.555,645.604,1820.3,0.912016,-0.392291,0.11862,0.0162444
2.04787,780.716,643.941,1819.99,0.911872,-0.392046,0.121026,0.0119421
2.061,785.682,642.316,1819.66,0.911691,-0.39186,0.123313,0.00767377
2.07412,791.189,640.397,1819.33,0.911501,-0.391579,0.125791,0.00301177
2.08725,800.957,637.04,1818.66,0.911064,-0.391104,0.13028,-0.00525581
2.10038,805.779,635.324,1818.27,0.910789,-0.390931,0.132475,-0.00936795
2.11351,810.469,633.603,1817.88,0.91052,-0.390724,0.134561,-0.0134686
2.12663,820.327,629.787,1817.17,0.909943,-0.390134,0.138993,-0.0218919
2.13976,824.604,627.952,1816.93,0.909716,-0.389749,0.140931,-0.0255174
2.15289,829.274,625.843,1816.73,0.909461,-0.389305,0.143008,-0.0295153
2.16602,838.977,621.359,1816.29,0.908884,-0.388322,0.147346,-0.0377417
2.17914,843.453,619.194,1816.1,0.908623,-0.387793,0.149295,-0.0416106
2.19227,848.02,616.79,1816.04,0.908411,-0.387063,0.151337,-0.0454832
2.2054,857.077,611.464,1816.25,0.908246,-0.384904,0.155279,-0.053174
2.21852,861.667,608.715,1816.37,0.908176,-0.383686,0.157289,-0.0571124
2.23165,866.243,605.88,1816.49,0.908126,-0.382369,0.159333,-0.0609531
2.24478,871.247,602.7,1816.62,0.908039,-0.380936,0.161584,-0.0651419
2.25791,880.2,596.802,1816.94,0.907892,-0.378115,0.165819,-0.0725714
2.27103,884.81,593.772,1817.07,0.907767,-0.376642,0.168195,-0.076226
2.28416,889.405,590.691,1817.17,0.907664,-0.375054,0.170521,-0.0800236
2.29729,898.695,584.202,1817.39,0.907479,-0.371533,0.175336,-0.0877675
2.31042,898.695,584.202,1817.39,0.907479,-0.371533,0.175336,-0.0877675
2.32354,898.695,584.202,1817.39,0.907479,-0.371533,0.175336,-0.0877675
2.33667,914.359,572.944,1817.6,0.906837,-0.365503,0.184265,-0.1005
2.3498,924.107,565.619,1817.69,0.90633,-0.361331,0.190235,-0.108705
2.36293,929.021,561.986,1817.6,0.905958,-0.359357,0.193278,-0.112902
2.37605,933.908,558.267,1817.53,0.905551,-0.357469,0.196172,-0.11709
2.38918,943.938,550.278,1817.42,0.904745,-0.353183,0.202298,-0.125596
2.40231,948.857,546.285,1817.34,0.904273,-0.351026,0.205357,-0.129996
2.41544,953.873,542.294,1817.12,0.903673,-0.348988,0.208556,-0.134488
2.42856,964.08,534.227,1816.42,0.902216,-0.34503,0.215232,-0.143648
2.44169,969.284,530.087,1815.96,0.901429,-0.343008,0.218565,-0.148325
2.45482,974.321,525.753,1815.67,0.900683,-0.340821,0.221766,-0.153072
2.46794,979.3,521.557,1815.25,0.899851,-0.338896,0.224886,-0.157617
2.48107,990.33,512.369,1813.97,0.897649,-0.334755,0.232253,-0.167997
2.4942,995.422,507.969,1813.33,0.896556,-0.332808,0.235534,-0.173063
2.50733,1000.57,503.553,1812.61,0.895366,-0.330997,0.238843,-0.178085
2.52045,1010.82,494.848,1810.87,0.892698,-0.327586,0.245598,-0.188308
2.53358,1015.85,490.446,1809.98,0.891359,-0.32576,0.248901,-0.193411
2.54671,1020.67,486.128,1809.14,0.890054,-0.324051,0.25188,-0.198373
2.55984,1025.63,481.857,1808.05,0.888534,-0.322627,0.25503,-0.203418
2.57296,1035.4,473.386,1805.73,0.885351,-0.31968,0.261396,-0.213614
2.58609,1040.06,469.243,1804.57,0.883758,-0.318205,0.264384,-0.218676
2.59922,1045.19,464.735,1803.2,0.881895,-0.316817,0.267515,-0.22433
2.61235,1045.19,464.735,1803.2,0.881895,-0.316817,0.267515,-0.22433
2.62547,1045.19,464.735,1803.2,0.881895,-0.316817,0.267515,-0.22433
2.6386,1065.55,446.273,1796.88,0.873671,-0.312262,0.279453,-0.247177
2.65173,1070.51,441.486,1795.22,0.871494,-0.311382,0.282089,-0.252913
2.66486,1075.04,437.157,1793.59,0.869397,-0.310823,0.284332,-0.258253
2.67798,1079.39,432.895,1792,0.867359,-0.310253,0.286307,-0.263551
2.69111,1088.01,424.241,1788.83,0.863185,-0.309095,0.290361,-0.273975
2.70424,1092.35,419.96,1787.11,0.860949,-0.308746,0.292401,-0.279185
2.71736,1096.65,415.782,1785.29,0.85865,-0.308669,0.294342,-0.284265
2.73049,1104.99,407.602,1781.53,0.854129,-0.30868,0.297796,-0.294104
2.74362,1108.94,403.65,1779.66,0.851918,-0.308782,0.299202,-0.298945
2.75675,1112.91,399.701,1777.69,0.849672,-0.308976,0.300548,-0.303747
2.76987,1120.88,392.044,1773.35,0.844933,-0.310197,0.303045,-0.313099
2.783,1124.79,388.178,1771.19,0.842512,-0.310922,0.304232,-0.317717
2.79613,1129.19,383.947,1768.62,0.839732,-0.311843,0.305709,-0.322717
2.80926,1137.06,376.124,1763.92,0.834575,-0.3136,0.308174,-0.331916
2.82238,1140.95,372.241,1761.5,0.832026,-0.314403,0.309364,-0.33642
2.83551,1148.61,364.406,1756.65,0.826893,-0.316073,0.311666,-0.345268
2.84864,1152.45,360.564,1754,0.824219,-0.317069,0.312867,-0.349636
2.86177,1156.28,356.711,1751.36,0.8215,-0.31812,0.314109,-0.35394
2.87489,1163.85,349.004,1745.81,0.815971,-0.320367,0.316528,-0.362446
2.88802,1167.61,345.221,1742.89,0.813115,-0.32163,0.317741,-0.36666
2.90115,1171.37,341.3,1739.95,0.810236,-0.322859,0.318971,-0.37086
2.91428,1171.37,341.3,1739.95,0.810236,-0.322859,0.318971,-0.37086
2.9274,1182.4,329.24,1730.98,0.801722,-0.326072,0.322458,-0.383328
2.94053,1186.28,324.799,1727.79,0.798701,-0.326995,0.323722,-0.387757
2.95366,1189.88,320.938,1724.6,0.795808,-0.328104,0.324988,-0.391689
2.96678,1193.43,317.015,1721.4,0.792868,-0.329194,0.326273,-0.395648
2.97991,1200.48,309.199,1714.85,0.786829,-0.331391,0.328986,-0.403544
2.99304,1204,305.171,1711.52,0.7838,-0.332285,0.330533,-0.407421
3.00617,1207.56,301.102,1708.07,0.780691,-0.333098,0.332173,-0.411373
3.01929,1214.45,292.747,1701.35,0.774442,-0.334405,0.335424,-0.419408
3.03242,1217.95,288.382,1697.91,0.771193,-0.334897,0.337373,-0.423421
3.04555,1221.48,283.844,1694.37,0.767819,-0.335447,0.339406,-0.427473
3.05868,1224.96,279.338,1690.77,0.764451,-0.336005,0.341407,-0.431459
3.0718,1231.63,270.653,1683.49,0.757875,-0.336823,0.345287,-0.439264
3.08493,1235.18,265.852,1679.48,0.754237,-0.33716,0.347376,-0.443598
3.09806,1238.38,261.533,1675.77,0.750914,-0.337539,0.349291,-0.447428
3.11119,1241.58,257.103,1672.02,0.747444,-0.337817,0.351496,-0.451285
3.12431,1247.75,248.306,1664.51,0.740665,-0.338113,0.355621,-0.458943
3.13744,1250.74,243.858,1660.76,0.737279,-0.338204,0.357619,-0.46276
3.15057,1253.81,239.367,1656.79,0.733709,-0.338408,0.359748,-0.466618
3.1637,1259.71,230.288,1649,0.726542,-0.338543,0.364127,-0.474275
3.17682,1262.58,225.621,1645.13,0.723009,-0.338476,0.366236,-0.478082
3.18995,1265.3,221.1,1641.37,0.719643,-0.338455,0.368092,-0.481737
3.20308,1270.72,211.649,1633.81,0.712484,-0.338069,0.372391,-0.489286
3.2162,1270.72,211.649,1633.81,0.712484,-0.338069,0.372391,-0.489286
3.22933,1270.72,211.649,1633.81,0.712484,-0.338069,0.372391,-0.489286
3.24246,1280.48,193.554,1618.98,0.698685,-0.33692,0.380008,-0.503903
3.25559,1282.68,189.169,1615.45,0.695327,-0.336599,0.381726,-0.507451
3.26871,1284.79,184.829,1611.94,0.692083,-0.336161,0.38333,-0.510955
3.28184,1286.75,180.62,1608.59,0.689023,-0.335687,0.384724,-0.514343
3.29497,1290.46,172.061,1602.2,0.682765,-0.334325,0.387934,-0.521121
3.3081,1292.22,167.913,1598.98,0.679717,-0.333724,0.38933,-0.524438
3.32122,1293.87,163.637,1595.93,0.676764,-0.332859,0.390711,-0.52777
3.33435,1297.16,154.74,1589.55,0.670591,-0.33092,0.393738,-0.534576
3.34748,1298.68,150.528,1586.49,0.667701,-0.3301,0.395105,-0.537682
3.36061,1300.04,146.416,1583.61,0.665059,-0.329214,0.396143,-0.540727
3.37373,1302.47,137.766,1578.42,0.659794,-0.32665,0.398579,-0.546906
3.38686,1303.62,133.644,1575.76,0.657202,-0.325599,0.399638,-0.549872
3.39999,1304.74,129.4,1573.1,0.654646,-0.324391,0.400728,-0.552835
3.41312,1305.77,125.257,1570.42,0.652166,-0.323063,0.401733,-0.555806
3.42624,1307.63,117.238,1565.38,0.647522,-0.32056,0.403546,-0.561344
3.43937,1308.44,113.51,1562.96,0.645413,-0.319425,0.404231,-0.563921
3.4525,1309.12,109.93,1560.65,0.643532,-0.318231,0.404701,-0.566404
3.46562,1310.27,102.73,1556.43,0.639971,-0.315325,0.405702,-0.571326
3.47875,1310.84,99.5135,1554.25,0.638292,-0.314375,0.406009,-0.573505
3.49188,1311.31,96.4387,1552.16,0.636798,-0.313352,0.406195,-0.575591
3.50501,1311.71,93.3786,1550.2,0.635435,-0.31221,0.406268,-0.577662
3.51813,1311.71,93.3786,1550.2,0.635435,-0.31221,0.406268,-0.577662
3.53126,1313.19,83.1798,1542.7,0.630467,-0.309727,0.406127,-0.584501
3.54439,1313.7,79.9452,1539.81,0.628868,-0.309494,0.405565,-0.586733
3.55752,1313.97,77.4721,1538.06,0.62794,-0.309083,0.405058,-0.588291
3.57064,1314.33,75.1596,1535.9,0.626842,-0.309097,0.40449,-0.589844
3.58377,1314.73,72.8859,1533.64,0.625696,-0.30934,0.403906,-0.591332
3.5969,1315.52,68.5502,1529.21,0.623449,-0.31013,0.402703,-0.594106
3.61003,1315.91,66.4748,1526.92,0.622301,-0.310638,0.402073,-0.595469
3.62315,1316.28,64.4001,1524.67,0.621187,-0.311096,0.401422,-0.59683
3.63628,1316.96,60.3427,1520.35,0.619041,-0.311902,0.400147,-0.59949
3.64941,1317.34,58.5751,1518.07,0.617922,-0.31254,0.399571,-0.600695
3.66253,1317.74,56.9969,1515.71,0.616752,-0.313323,0.399051,-0.601834
3.67566,1318.17,55.4178,1513.34,0.61552,-0.314184,0.398604,-0.602941
3.68879,1319.06,52.5383,1508.45,0.612963,-0.31619,0.39779,-0.605032
3.70192,1319.55,51.1467,1505.91,0.611587,-0.317326,0.397456,-0.606048
3.71504,1320.03,49.8254,1503.45,0.610253,-0.318473,0.397167,-0.60698
3.72817,1320.96,47.3904,1498.6,0.60758,-0.320878,0.396589,-0.60877
3.7413,1321.43,46.1245,1496.09,0.606205,-0.322104,0.396359,-0.609643
3.75443,1321.9,44.8452,1493.61,0.604821,-0.323335,0.396075,-0.61055
3.76755,1322.92,42.0404,1488.3,0.601791,-0.326009,0.395655,-0.612391
3.78068,1323.39,40.7538,1485.72,0.600351,-0.327325,0.395447,-0.613237
3.79381,1323.87,39.3558,1483.15,0.598839,-0.328644,0.395242,-0.61414
3.80694,1324.34,37.9478,1480.6,0.597365,-0.329954,0.395065,-0.614986
3.82006,1324.34,37.9478,1480.6,0.597365,-0.329954,0.395065,-0.614986
3.83319,1325.92,32.7615,1471.79,0.592177,-0.33439,0.394413,-0.61802
3.84632,1326.33,31.4181,1469.4,0.59077,-0.33559,0.394256,-0.618815
3.85945,1326.72,30.2459,1467.06,0.589464,-0.336805,0.39406,-0.619525
3.87257,1327.09,29.1772,1464.8,0.588217,-0.337959,0.393891,-0.620188
3.8857,1327.84,27.0025,1460.26,0.585702,-0.34028,0.393561,-0.621509
3.89883,1328.2,26.0133,1457.93,0.584463,-0.341478,0.393409,-0.622114
3.91195,1328.59,24.8617,1455.5,0.58314,-0.342677,0.393309,-0.622759
3.92508,1328.89,23.9442,1453.58,0.582129,-0.343618,0.393265,-0.623214
3.93821,1329.55,22.0038,1449.29,0.57989,-0.345695,0.393198,-0.624194
3.95134,1329.87,20.9674,1447.17,0.5788,-0.346663,0.393257,-0.624631
3.96446,1330.17,19.9121,1445.11,0.57775,-0.347611,0.393276,-0.625065
3.97759,1330.78,17.4757,1441.07,0.57563,-0.349342,0.393507,-0.62591
3.99072,1331.09,16.1563,1439.07,0.574602,-0.350114,0.393749,-0.62627
4.00385,1331.4,14.7964,1437.01,0.57355,-0.35091,0.394015,-0.626622
4.01697,1332.03,11.9876,1432.89,0.57159,-0.352304,0.394873,-0.627091
4.0301,1332.33,10.5813,1430.89,0.570652,-0.352957,0.395338,-0.627284
4.04323,1332.64,9.13311,1428.87,0.569749,-0.35354,0.395923,-0.627408
4.05636,1332.94,7.7047,1426.86,0.568908,-0.354061,0.396597,-0.627452
4.06948,1333.52,4.76986,1423.05,0.567332,-0.354896,0.39809,-0.627461
4.08261,1333.81,3.34247,1421.14,0.566592,-0.355269,0.398925,-0.627388
4.09574,1334.08,1.94012,1419.52,0.566019,-0.35543,0.39984,-0.627232
4.10887,1334.37,0.480392,1417.59,0.56535,-0.355707,0.400848,-0.627035
4.12199,1334.37,0.480392,1417.59,0.56535,-0.355707,0.400848,-0.627035
4.13512,1335.45,-4.95675,1410.92,0.56328,-0.356085,0.405199,-0.625885
4.14825,1335.81,-6.6881,1408.65,0.562662,-0.356153,0.406767,-0.625385
4.16138,1336.11,-8.18252,1406.74,0.56218,-0.35615,0.408179,-0.6249
4.1745,1336.42,-9.69181,1404.86,0.561735,-0.356086,0.409693,-0.624347
4.18763,1337.03,-12.543,1401.03,0.561139,-0.355628,0.413211,-0.622824
4.20076,1337.32,-13.7666,1399.09,0.560861,-0.355428,0.414972,-0.622016
4.21388,1337.6,-14.9511,1397.28,0.560661,-0.355206,0.416658,-0.621195
4.22701,1338.14,-17.0757,1393.46,0.560383,-0.354695,0.420307,-0.619277
4.24014,1338.4,-18.0856,1391.51,0.56023,-0.354486,0.422124,-0.618299
4.25327,1338.65,-19.0649,1389.56,0.560111,-0.354228,0.423997,-0.617273
4.26639,1338.89,-19.994,1387.49,0.559988,-0.354004,0.425919,-0.616188
4.27952,1339.32,-21.4817,1383.35,0.560087,-0.353312,0.430071,-0.613606
4.29265,1339.53,-22.0902,1381.02,0.560103,-0.353077,0.432236,-0.612204
4.30578,1339.89,-22.9566,1375.97,0.560363,-0.352472,0.436982,-0.608936
4.3189,1340.03,-23.152,1373.35,0.560557,-0.352227,0.439418,-0.607144
4.33203,1340.15,-23.3431,1370.74,0.560752,-0.351937,0.441813,-0.605392
4.34516,1340.31,-23.3012,1365.27,0.561259,-0.351432,0.446779,-0.601558
4.35829,1340.33,-23.0278,1362.47,0.56165,-0.351109,0.449403,-0.599424
4.37141,1340.34,-22.6622,1359.48,0.561997,-0.350927,0.451966,-0.597274
4.38454,1340.37,-22.0187,1353.49,0.562521,-0.350539,0.457169,-0.593034
4.39767,1340.38,-21.739,1350.46,0.562773,-0.350287,0.459867,-0.590853
4.41079,1340.38,-21.739,1350.46,0.562773,-0.350287,0.459867,-0.590853
4.42392,1340.38,-21.739,1350.46,0.562773,-0.350287,0.459867,-0.590853
4.43705,1340.33,-21.414,1338,0.563126,-0.349174,0.470637,-0.582639
4.45018,1340.3,-21.6636,1334.68,0.563016,-0.348704,0.473594,-0.580627
4.4633,1340.3,-22.4686,1327.83,0.562464,-0.347898,0.479541,-0.576751
4.47643,1340.29,-22.9349,1324.47,0.562118,-0.34745,0.482523,-0.574868
4.48956,1340.3,-23.5648,1321.13,0.561643,-0.347095,0.485333,-0.573179
4.50269,1340.25,-24.7413,1313.8,0.560493,-0.346418,0.491266,-0.569649
4.51581,1340.23,-25.2828,1310.34,0.559905,-0.346141,0.493999,-0.56803
4.52894,1340.2,-25.7826,1306.99,0.559301,-0.34581,0.496712,-0.566458
4.54207,1340.16,-27.0448,1300.53,0.55801,-0.345181,0.501903,-0.563533
4.5552,1340.15,-27.6445,1297.52,0.55743,-0.344875,0.504359,-0.562099
4.56832,1340.12,-28.2423,1294.49,0.556806,-0.344681,0.506674,-0.560752
4.58145,1340.02,-29.1597,1288.46,0.555644,-0.344694,0.510745,-0.558198
4.59458,1339.96,-29.425,1285.49,0.555133,-0.344853,0.512598,-0.556909
4.60771,1339.85,-29.7203,1282.25,0.554526,-0.3451,0.514463,-0.55564
4.62083,1339.58,-29.6212,1276.15,0.553318,-0.34603,0.517552,-0.553392
4.63396,1339.39,-29.2208,1273.28,0.552874,-0.346513,0.518949,-0.552224
4.64709,1339.19,-28.8803,1270.4,0.552359,-0.347115,0.520188,-0.551194
4.66021,1338.77,-28.0279,1264.74,0.551271,-0.348542,0.522346,-0.549339
4.67334,1338.52,-27.5043,1262,0.550741,-0.34932,0.523272,-0.548495
4.68647,1338.24,-26.9029,1259.37,0.550295,-0.350097,0.524046,-0.547708
4.6996,1337.94,-26.2974,1256.74,0.549795,-0.350937,0.524754,-0.546994
4.71272,1337.94,-26.2974,1256.74,0.549795,-0.350937,0.524754,-0.546994
4.72585,1336.66,-23.3152,1247.06,0.548031,-0.354644,0.526655,-0.54454
4.73898,1336.06,-22.0053,1243.06,0.54723,-0.356316,0.527247,-0.543681
4.75211,1335.64,-21.1474,1240.2,0.546591,-0.357589,0.52758,-0.543165
4.76523,1335.2,-20.3234,1237.31,0.545906,-0.358904,0.527878,-0.542697
4.77836,1334.31,-18.6914,1231.64,0.54459,-0.361468,0.528411,-0.541798
4.79149,1333.84,-17.8424,1228.72,0.543908,-0.362804,0.528649,-0.541357
4.80462,1333.34,-17.0158,1225.75,0.543224,-0.36411,0.528955,-0.540868
4.81774,1332.82,-16.1944,1222.72,0.542515,-0.365456,0.529235,-0.540398
4.83087,1331.83,-14.5939,1216.9,0.541122,-0.368114,0.529736,-0.539499
4.844,1331.32,-13.9818,1213.92,0.540338,-0.369439,0.529988,-0.539131
4.85713,1330.78,-13.3687,1210.61,0.539418,-0.37098,0.530216,-0.53877
4.87025,1329.73,-12.2881,1204.44,0.537696,-0.373772,0.530676,-0.538108
4.88338,1329.17,-11.7328,1201.28,0.536817,-0.375238,0.530865,-0.537779
4.89651,1328.59,-11.1816,1198.12,0.535969,-0.376676,0.531053,-0.537434
4.90963,1327.4,-9.87068,1191.85,0.534293,-0.379665,0.531289,-0.536765
4.92276,1326.82,-9.36647,1188.76,0.533364,-0.381179,0.531339,-0.536568
4.93589,1326.23,-8.91676,1185.72,0.53246,-0.382703,0.531281,-0.536437
4.94902,1325.01,-8.15944,1179.49,0.5305,-0.385825,0.531148,-0.536275
4.96214,1324.36,-7.78607,1176.31,0.529494,-0.387432,0.531015,-0.536243
4.97527,1323.66,-7.29818,1173.09,0.528548,-0.389037,0.530791,-0.536236
4.9884,1322.09,-6.1384,1166.74,0.526981,-0.392086,0.52996,-0.536379
5.00153,1322.09,-6.1384,1166.74,0.526981,-0.392086,0.52996,-0.536379
5.01465,1322.09,-6.1384,1166.74,0.526981,-0.392086,0.52996,-0.536379
5.02778,1319.08,-4.72928,1156.18,0.524764,-0.39681,0.527158,-0.537837
5.04091,1318.06,-4.16829,1152.94,0.524206,-0.398292,0.526065,-0.538356
5.05404,1317.11,-3.6212,1150,0.523753,-0.399585,0.525125,-0.538757
5.06716,1315.16,-2.28967,1144.41,0.523059,-0.402241,0.522883,-0.539634
5.08029,1314.18,-1.69212,1141.87,0.522885,-0.403472,0.521492,-0.540229
5.09342,1313.22,-0.964809,1139.85,0.523047,-0.404366,0.519938,-0.540902
5.10654,1312.24,-0.503584,1137.77,0.523116,-0.405262,0.518226,-0.541807
5.11967,1310.16,0.556322,1133.57,0.523374,-0.40702,0.514667,-0.543628
5.1328,1309.06,1.10232,1131.41,0.523545,-0.407902,0.512839,-0.54453
5.14593,1307.97,1.59552,1129.44,0.523832,-0.408623,0.51092,-0.545516
5.15905,1305.8,2.41911,1126.13,0.524748,-0.40979,0.506513,-0.547865
5.17218,1304.74,2.80783,1124.6,0.525198,-0.410421,0.504241,-0.549057
5.18531,1303.69,3.36961,1123.38,0.525897,-0.410829,0.501879,-0.550246
5.19844,1301.47,3.9801,1120.72,0.527187,-0.411771,0.496652,-0.553042
5.21156,1300.42,4.35059,1119.42,0.527746,-0.4124,0.494132,-0.554296
5.22469,1299.32,4.80692,1118.22,0.52846,-0.412941,0.491504,-0.555548
5.23782,1298.21,5.25925,1117.21,0.529362,-0.413372,0.488704,-0.556837
5.25095,1296.15,6.26237,1115.46,0.531065,-0.414565,0.483069,-0.55924
5.26407,1295.19,6.84977,1115.11,0.532119,-0.414871,0.480149,-0.560525
5.2772,1294.18,7.25597,1114.56,0.533066,-0.415248,0.477201,-0.561863
5.29033,1292.29,8.02622,1113.49,0.534686,-0.416218,0.471547,-0.564373
5.30346,1292.29,8.02622,1113.49,0.534686,-0.416218,0.471547,-0.564373
5.31658,1292.29,8.02622,1113.49,0.534686,-0.416218,0.471547,-0.564373
5.32971,1288.61,9.32075,1111.58,0.537587,-0.418029,0.460594,-0.569302
5.34284,1287.74,9.68651,1111.11,0.538187,-0.418556,0.458089,-0.570369
5.35597,1286.88,10.3316,1110.93,0.539032,-0.418913,0.455582,-0.571316
5.36909,1285.98,10.9115,1110.58,0.539799,-0.419354,0.453078,-0.572258
5.38222,1284.31,11.9414,1109.83,0.541089,-0.420317,0.448441,-0.573984
5.39535,1283.58,12.4268,1109.51,0.541632,-0.42078,0.446422,-0.574706
5.40847,1282.86,12.9063,1109,0.542041,-0.42138,0.44457,-0.575315
5.4216,1281.49,13.6923,1108.07,0.542787,-0.422483,0.441115,-0.576461
5.43473,1280.87,14.2443,1107.74,0.543276,-0.422839,0.439766,-0.57677
5.44786,1280.3,14.5727,1107.3,0.543607,-0.423226,0.438559,-0.577094
5.46098,1279.73,14.8662,1106.73,0.543896,-0.423567,0.437611,-0.577292
5.47411,1278.77,15.0112,1105.39,0.544144,-0.424173,0.43645,-0.57749
5.48724,1278.35,14.9698,1104.69,0.544209,-0.424354,0.436231,-0.577463
5.50037,1277.92,14.8237,1103.92,0.544282,-0.424436,0.436205,-0.577353
5.51349,1277.22,14.4515,1102.53,0.544492,-0.424187,0.436852,-0.576849
5.52662,1276.85,14.2168,1101.7,0.544611,-0.423969,0.437447,-0.576446
5.53975,1276.51,13.8439,1100.88,0.544713,-0.423589,0.438223,-0.576039
5.55288,1276.16,13.5591,1100.06,0.54483,-0.423211,0.439034,-0.575588
5.566,1275.5,12.8718,1098.38,0.54498,-0.422422,0.440767,-0.574701
5.57913,1275.22,12.4729,1097.57,0.545011,-0.422037,0.441644,-0.57428
5.59226,1274.68,11.4399,1095.75,0.544927,-0.421105,0.443794,-0.573387
5.60539,1274.68,11.4399,1095.75,0.544927,-0.421105,0.443794,-0.573387
5.61851,1274.68,11.4399,1095.75,0.544927,-0.421105,0.443794,-0.573387
