timestamp,x,y,z,qw,qx,qy,qz
0,525.532,-347.649,452.078,0.0805107,-0.608588,0.780655,-0.117115
0.0142674,525.793,-346.381,451.536,0.0806968,-0.609317,0.780149,-0.116573
0.0285349,525.935,-344.475,450.951,0.0812933,-0.609673,0.779934,-0.11573
0.0428023,526.095,-343.067,450.533,0.0817735,-0.609905,0.779794,-0.115108
0.0570698,526.274,-341.552,450.12,0.0823522,-0.610099,0.779685,-0.114407
0.0713372,526.698,-338.111,449.223,0.0837276,-0.610454,0.77949,-0.112833
0.0856047,526.983,-336.069,448.719,0.0845788,-0.610624,0.779399,-0.111903
0.0998721,527.559,-331.672,447.683,0.0864845,-0.61092,0.77925,-0.109847
0.11414,527.814,-329.244,447.095,0.0874869,-0.61108,0.779174,-0.1087
0.128407,528.125,-326.626,446.468,0.0886004,-0.611239,0.779094,-0.107465
0.142674,528.651,-321.285,445.146,0.0907556,-0.611616,0.778888,-0.104986
0.156942,528.911,-318.153,444.342,0.0919692,-0.611858,0.77875,-0.103538
0.171209,529.186,-315.087,443.546,0.0931377,-0.612058,0.778637,-0.102153
0.185477,529.909,-308.529,441.887,0.0956841,-0.612483,0.77837,-0.0992493
0.199744,530.246,-305.29,441.074,0.096935,-0.612712,0.778218,-0.0977992
0.214012,530.246,-305.29,441.074,0.096935,-0.612712,0.778218,-0.0977992
0.228279,530.246,-305.29,441.074,0.096935,-0.612712,0.778218,-0.0977992
0.242547,530.246,-305.29,441.074,0.096935,-0.612712,0.778218,-0.0977992
0.256814,530.246,-305.29,441.074,0.096935,-0.612712,0.778218,-0.0977992
0.271081,530.246,-305.29,441.074,0.096935,-0.612712,0.778218,-0.0977992
0.285349,530.246,-305.29,441.074,0.096935,-0.612712,0.778218,-0.0977992
0.299616,530.246,-305.29,441.074,0.096935,-0.612712,0.778218,-0.0977992
0.313884,535.391,-252.074,428.708,0.116428,-0.61604,0.775466,-0.0747782
0.328151,535.877,-246.315,427.471,0.118437,-0.616341,0.775153,-0.0723544
0.342419,536.847,-234.209,424.936,0.122634,-0.616953,0.77447,-0.0672777
0.356686,537.352,-227.896,423.642,0.124766,-0.617234,0.774127,-0.0646784
0.370953,537.894,-221.531,422.391,0.126955,-0.617571,0.773715,-0.0620799
0.385221,538.848,-208.081,419.86,0.131482,-0.618184,0.772897,-0.0564914
0.399488,539.307,-201.323,418.647,0.13375,-0.618524,0.772435,-0.053701
0.413756,540.261,-186.868,416.178,0.138495,-0.619226,0.771424,-0.0477864
0.428023,540.796,-179.459,415.016,0.140986,-0.619532,0.770908,-0.0447722
0.442291,541.358,-171.744,413.862,0.143561,-0.619859,0.770343,-0.0416709
0.456558,542.304,-155.858,411.69,0.148835,-0.620494,0.769155,-0.0351577
0.470826,542.714,-148.336,410.742,0.151305,-0.620824,0.76854,-0.0321063
0.485093,543.675,-130.628,408.745,0.157145,-0.621421,0.767151,-0.0249005
0.499361,544.126,-121.962,407.878,0.159976,-0.621666,0.766473,-0.0214039
0.513628,545.034,-103.974,406.345,0.165921,-0.622112,0.765015,-0.0141194
0.527895,545.514,-94.5478,405.667,0.169025,-0.622315,0.76423,-0.0103465
0.542163,545.952,-84.8238,405.08,0.172245,-0.622559,0.763355,-0.00640148
0.55643,546.863,-65.6779,404.205,0.178585,-0.62295,0.761604,0.00127011
0.570698,547.353,-55.1574,403.868,0.182064,-0.623124,0.760618,0.00544587
0.584965,547.353,-55.1574,403.868,0.182064,-0.623124,0.760618,0.00544587
0.599233,547.353,-55.1574,403.868,0.182064,-0.623124,0.760618,0.00544587
0.6135,547.353,-55.1574,403.868,0.182064,-0.623124,0.760618,0.00544587
0.627767,549.897,11.6673,404.02,0.203787,-0.623408,0.754203,0.0317978
0.642035,550.188,24.2274,404.47,0.207764,-0.623379,0.752917,0.0367189
0.656302,550.672,50.2735,405.901,0.216003,-0.623263,0.750124,0.0469073
0.67057,550.846,64.14,406.931,0.220376,-0.623143,0.74859,0.0523444
0.684837,551.1,92.4262,409.603,0.229251,-0.622847,0.745311,0.0633834
0.699105,551.144,108.635,411.507,0.234347,-0.622634,0.743335,0.0697264
0.713372,551.086,123.35,413.469,0.238954,-0.622419,0.741479,0.07553
0.727639,550.668,151.711,417.933,0.247873,-0.622007,0.737647,0.0868491
0.741907,550.381,166.846,420.695,0.252664,-0.621808,0.735451,0.0928794
0.756174,549.976,182.581,423.879,0.2577,-0.621587,0.733053,0.0992693
0.770442,548.833,214.261,431.283,0.268009,-0.621133,0.727824,0.112414
0.784709,548.029,232.829,436.275,0.274255,-0.620747,0.72456,0.120294
0.798977,547.3,247.591,440.639,0.27932,-0.620347,0.72187,0.126702
0.813244,547.3,247.591,440.639,0.27932,-0.620347,0.72187,0.126702
0.827512,547.3,247.591,440.639,0.27932,-0.620347,0.72187,0.126702
0.841779,547.3,247.591,440.639,0.27932,-0.620347,0.72187,0.126702
0.856047,547.3,247.591,440.639,0.27932,-0.620347,0.72187,0.126702
0.870314,547.3,247.591,440.639,0.27932,-0.620347,0.72187,0.126702
0.884581,547.3,247.591,440.639,0.27932,-0.620347,0.72187,0.126702
0.898849,547.3,247.591,440.639,0.27932,-0.620347,0.72187,0.126702
0.913116,547.3,247.591,440.639,0.27932,-0.620347,0.72187,0.126702
0.927384,527.318,493.603,570.936,0.379604,-0.595016,0.66279,0.250131
0.941651,525.15,511.491,585.658,0.388082,-0.591341,0.657113,0.260597
0.955919,520.702,546.78,617.466,0.405415,-0.583044,0.645153,0.281916
0.970186,518.081,565.293,635.69,0.414721,-0.578251,0.63834,0.293522
0.984454,513.211,597.467,670.606,0.431695,-0.568787,0.62544,0.314556
0.998721,510.821,612.64,688.495,0.439889,-0.563778,0.619007,0.324782
1.01299,506.019,640.027,724.002,0.455409,-0.553762,0.606052,0.344458
1.02726,503.663,653.234,742.416,0.463122,-0.548315,0.599522,0.354179
1.04152,501.304,665.774,760.739,0.470519,-0.542858,0.593061,0.363589
1.05579,496.728,690.143,799.224,0.4855,-0.531136,0.579493,0.382587
1.07006,495.075,700.353,816.729,0.492075,-0.525611,0.573482,0.390786
1.08433,493.579,709.921,833.592,0.498234,-0.52014,0.567881,0.398408
1.09859,490.768,726.373,864.272,0.50876,-0.510029,0.557723,0.412285
1.11286,490.768,726.373,864.272,0.50876,-0.510029,0.557723,0.412285
1.12713,490.768,726.373,864.272,0.50876,-0.510029,0.557723,0.412285
1.1414,490.768,726.373,864.272,0.50876,-0.510029,0.557723,0.412285
1.15566,490.768,726.373,864.272,0.50876,-0.510029,0.557723,0.412285
1.16993,490.768,726.373,864.272,0.50876,-0.510029,0.557723,0.412285
1.1842,490.768,726.373,864.272,0.50876,-0.510029,0.557723,0.412285
1.19847,490.768,726.373,864.272,0.50876,-0.510029,0.557723,0.412285
1.21273,490.768,726.373,864.272,0.50876,-0.510029,0.557723,0.412285
1.227,472.624,803.439,1014.72,0.552121,-0.46216,0.508817,0.471886
1.24127,471.4,807.883,1025.04,0.554729,-0.459148,0.505345,0.475484
1.25553,469.19,815.879,1044.73,0.559598,-0.453142,0.498976,0.48222
1.2698,468.09,819.658,1054.45,0.561952,-0.450152,0.495817,0.48553
1.28407,466.571,826.116,1071.97,0.566172,-0.444484,0.490416,0.4913
1.29834,465.766,829.542,1081.84,0.568509,-0.441136,0.487454,0.494556
1.3126,464.789,835.169,1098.81,0.572507,-0.435152,0.48256,0.500014
1.32687,464.527,837.69,1106.91,0.574416,-0.432103,0.480383,0.502559
1.34114,464.402,840.077,1114.75,0.576275,-0.429139,0.478297,0.504955
1.35541,464.487,844.308,1129.22,0.579611,-0.423443,0.474702,0.509318
1.36967,465.063,845.961,1135.29,0.581069,-0.420728,0.473498,0.511024
1.38394,465.626,847.714,1141.79,0.58262,-0.417815,0.472178,0.512867
1.39821,467.279,850.785,1153.71,0.585505,-0.412196,0.470075,0.516051
1.41248,467.279,850.785,1153.71,0.585505,-0.412196,0.470075,0.516051
1.42674,467.279,850.785,1153.71,0.585505,-0.412196,0.470075,0.516051
1.44101,467.279,850.785,1153.71,0.585505,-0.412196,0.470075,0.516051
1.45528,467.279,850.785,1153.71,0.585505,-0.412196,0.470075,0.516051
1.46955,467.279,850.785,1153.71,0.585505,-0.412196,0.470075,0.516051
1.48381,467.279,850.785,1153.71,0.585505,-0.412196,0.470075,0.516051
1.49808,467.279,850.785,1153.71,0.585505,-0.412196,0.470075,0.516051
1.51235,467.279,850.785,1153.71,0.585505,-0.412196,0.470075,0.516051
1.52662,479.864,864.329,1194.08,0.594083,-0.389801,0.469011,0.524546
1.54088,481.713,866.483,1196.57,0.594213,-0.388139,0.470231,0.52454
1.55515,482.611,867.357,1197.05,0.594119,-0.387571,0.471014,0.524364
1.56942,483.421,868.284,1197.55,0.594007,-0.386997,0.471799,0.524209
1.58369,485.15,870.091,1197.63,0.593589,-0.386316,0.473632,0.523531
1.59795,486.015,870.928,1197.26,0.593275,-0.386172,0.474655,0.523068
1.61222,487.531,872.503,1195.9,0.592492,-0.386159,0.476825,0.521989
1.62649,488.316,873.342,1194.7,0.591927,-0.386335,0.478149,0.521289
1.64076,489.008,874.019,1193.32,0.591353,-0.386606,0.479399,0.52059
1.65502,490.465,875.303,1190.54,0.590224,-0.38712,0.481934,0.519146
1.66929,491.204,875.901,1189.02,0.589655,-0.38742,0.483215,0.518378
1.68356,491.901,876.494,1187.39,0.589054,-0.387819,0.48448,0.517581
1.69783,493.047,877.585,1184.12,0.587817,-0.388692,0.486899,0.516062
1.71209,493.047,877.585,1184.12,0.587817,-0.388692,0.486899,0.516062
1.72636,493.047,877.585,1184.12,0.587817,-0.388692,0.486899,0.516062
1.74063,493.047,877.585,1184.12,0.587817,-0.388692,0.486899,0.516062
1.7549,493.047,877.585,1184.12,0.587817,-0.388692,0.486899,0.516062
1.76916,493.047,877.585,1184.12,0.587817,-0.388692,0.486899,0.516062
1.78343,493.047,877.585,1184.12,0.587817,-0.388692,0.486899,0.516062
1.7977,493.047,877.585,1184.12,0.587817,-0.388692,0.486899,0.516062
1.81197,493.047,877.585,1184.12,0.587817,-0.388692,0.486899,0.516062
1.82623,494.379,882.688,1167.55,0.58131,-0.395693,0.49629,0.509119
1.8405,494.31,882.939,1166.84,0.580985,-0.396036,0.496667,0.508856
1.85477,494.188,883.424,1165.86,0.580513,-0.396605,0.497197,0.508433
1.86904,494.168,883.677,1165.5,0.580303,-0.396818,0.497463,0.508247
1.8833,494.119,883.875,1165.19,0.580135,-0.397006,0.497666,0.508093
1.89757,494.009,884.206,1164.91,0.579898,-0.397256,0.497886,0.507952
1.91184,493.933,884.35,1164.94,0.579837,-0.39731,0.497929,0.507938
1.9261,493.654,884.618,1165.12,0.579737,-0.397397,0.49788,0.508032
1.94037,493.548,884.707,1165.33,0.579749,-0.397363,0.497804,0.508119
1.95464,493.414,884.802,1165.59,0.579752,-0.397321,0.497713,0.508239
1.96891,493.233,884.965,1166.24,0.579861,-0.397154,0.497467,0.508485
1.98317,493.126,885.062,1166.61,0.579912,-0.397073,0.49734,0.508614
1.99744,492.919,885.244,1167.36,0.580026,-0.396935,0.497029,0.508897
2.01171,492.82,885.336,1167.73,0.580084,-0.396855,0.496896,0.509023
