timestamp,x,y,z,qw,qx,qy,qz
0,188.257,887.887,1140.92,0.706287,-0.666112,-0.198574,0.13425
0.0147901,188.257,887.887,1140.92,0.706287,-0.666112,-0.198574,0.13425
0.0295802,188.257,887.887,1140.92,0.706287,-0.666112,-0.198574,0.13425
0.0443703,188.257,887.887,1140.92,0.706287,-0.666112,-0.198574,0.13425
0.0591604,188.257,887.887,1140.92,0.706287,-0.666112,-0.198574,0.13425
0.0739506,188.257,887.887,1140.92,0.706287,-0.666112,-0.198574,0.13425
0.0887407,188.257,887.887,1140.92,0.706287,-0.666112,-0.198574,0.13425
0.103531,188.257,887.887,1140.92,0.706287,-0.666112,-0.198574,0.13425
0.118321,188.257,887.887,1140.92,0.706287,-0.666112,-0.198574,0.13425
0.133111,190.824,892.044,1140.92,0.706287,-0.666112,-0.198574,0.13425
0.147901,191.264,893.087,1140.92,0.706287,-0.666112,-0.198574,0.13425
0.162691,191.555,893.529,1140.92,0.706287,-0.666112,-0.198574,0.13425
0.177481,192.113,894.495,1140.92,0.706287,-0.666112,-0.198574,0.13425
0.192271,192.286,894.964,1140.92,0.706287,-0.666112,-0.198574,0.13425
0.207062,192.487,895.463,1140.92,0.706287,-0.666112,-0.198574,0.13425
0.221852,192.712,896.462,1140.92,0.706287,-0.666112,-0.198574,0.13425
0.236642,192.808,896.979,1140.92,0.706287,-0.666112,-0.198574,0.13425
0.251432,192.975,897.528,1140.92,0.706287,-0.666112,-0.198574,0.13425
0.266222,193.172,898.585,1140.92,0.706287,-0.666112,-0.198574,0.13425
0.281012,193.331,899.225,1140.92,0.706287,-0.666112,-0.198574,0.13425
0.295802,193.55,899.801,1140.92,0.706287,-0.666112,-0.198574,0.13425
0.310592,193.55,899.801,1140.92,0.706287,-0.666112,-0.198574,0.13425
0.325382,193.55,899.801,1140.92,0.706287,-0.666112,-0.198574,0.13425
0.340173,193.55,899.801,1140.92,0.706287,-0.666112,-0.198574,0.13425
0.354963,193.55,899.801,1140.92,0.706287,-0.666112,-0.198574,0.13425
0.369753,193.55,899.801,1140.92,0.706287,-0.666112,-0.198574,0.13425
0.384543,193.55,899.801,1140.92,0.706287,-0.666112,-0.198574,0.13425
0.399333,193.55,899.801,1140.92,0.706287,-0.666112,-0.198574,0.13425
0.414123,193.55,899.801,1140.92,0.706287,-0.666112,-0.198574,0.13425
0.428913,194.264,908.553,1140.92,0.706287,-0.666112,-0.198574,0.13425
0.443703,193.891,911.636,1140.92,0.706287,-0.666112,-0.198574,0.13425
0.458493,193.729,912.385,1140.92,0.706287,-0.666112,-0.198574,0.13425
0.473284,193.353,913.907,1140.92,0.706287,-0.666112,-0.198574,0.13425
0.488074,193.213,914.683,1140.92,0.706287,-0.666112,-0.198574,0.13425
0.502864,193.048,915.471,1140.92,0.706287,-0.666112,-0.198574,0.13425
0.517654,192.803,917.166,1140.92,0.706287,-0.666112,-0.198574,0.13425
0.532444,192.606,917.938,1140.92,0.706287,-0.666112,-0.198574,0.13425
0.547234,192.432,918.76,1140.92,0.706287,-0.666112,-0.198574,0.13425
0.562024,192.108,920.349,1140.92,0.706287,-0.666112,-0.198574,0.13425
0.576814,191.948,921.134,1140.92,0.706287,-0.666112,-0.198574,0.13425
0.591604,191.795,921.925,1140.92,0.706287,-0.666112,-0.198574,0.13425
0.606395,191.67,922.702,1140.92,0.706287,-0.666112,-0.198574,0.13425
0.621185,191.202,924.311,1140.92,0.706287,-0.666112,-0.198574,0.13425
0.635975,190.941,925.04,1140.92,0.706287,-0.666112,-0.198574,0.13425
0.650765,190.256,926.438,1140.92,0.706287,-0.666112,-0.198574,0.13425
0.665555,189.89,927.128,1140.92,0.706287,-0.666112,-0.198574,0.13425
0.680345,189.007,928.493,1140.92,0.706287,-0.666112,-0.198574,0.13425
0.695135,189.007,928.493,1140.92,0.706287,-0.666112,-0.198574,0.13425
0.709925,189.007,928.493,1140.92,0.706287,-0.666112,-0.198574,0.13425
0.724715,189.007,928.493,1140.92,0.706287,-0.666112,-0.198574,0.13425
0.739506,186.621,931.551,1140.92,0.706287,-0.666112,-0.198574,0.13425
0.754296,184.639,933.408,1140.92,0.706287,-0.666112,-0.198574,0.13425
0.769086,183.943,934.041,1140.92,0.706287,-0.666112,-0.198574,0.13425
0.783876,182.593,935.401,1140.92,0.706287,-0.666112,-0.198574,0.13425
0.798666,182.046,936.074,1140.92,0.706287,-0.666112,-0.198574,0.13425
0.813456,181.532,936.761,1140.92,0.706287,-0.666112,-0.198574,0.13425
0.828246,180.439,938.128,1140.92,0.706287,-0.666112,-0.198574,0.13425
0.843036,179.946,938.816,1140.92,0.706287,-0.666112,-0.198574,0.13425
0.857826,179.418,939.61,1140.92,0.706287,-0.666112,-0.198574,0.13425
0.872617,178.863,940.291,1140.92,0.706287,-0.666112,-0.198574,0.13425
0.887407,177.771,941.696,1140.92,0.706287,-0.666112,-0.198574,0.13425
0.902197,177.195,942.389,1140.92,0.706287,-0.666112,-0.198574,0.13425
0.916987,176.598,943.08,1140.92,0.706287,-0.666112,-0.198574,0.13425
0.931777,176.598,943.08,1140.92,0.706287,-0.666112,-0.198574,0.13425
0.946567,176.598,943.08,1140.92,0.706287,-0.666112,-0.198574,0.13425
0.961357,176.598,943.08,1140.92,0.706287,-0.666112,-0.198574,0.13425
0.976147,176.598,943.08,1140.92,0.706287,-0.666112,-0.198574,0.13425
0.990937,176.598,943.08,1140.92,0.706287,-0.666112,-0.198574,0.13425
1.00573,176.598,943.08,1140.92,0.706287,-0.666112,-0.198574,0.13425
1.02052,169.721,952.045,1140.92,0.706287,-0.666112,-0.198574,0.13425
1.03531,167.501,955.19,1140.92,0.706287,-0.666112,-0.198574,0.13425
1.0501,167.034,955.98,1140.92,0.706287,-0.666112,-0.198574,0.13425
1.06489,166.527,956.778,1140.92,0.706287,-0.666112,-0.198574,0.13425
1.07968,165.45,958.371,1140.92,0.706287,-0.666112,-0.198574,0.13425
1.09447,164.951,959.168,1140.92,0.706287,-0.666112,-0.198574,0.13425
1.10926,164.368,959.975,1140.92,0.706287,-0.666112,-0.198574,0.13425
1.12405,162.926,961.648,1140.92,0.706287,-0.666112,-0.198574,0.13425
1.13884,162.28,962.459,1140.92,0.706287,-0.666112,-0.198574,0.13425
1.15363,161.557,963.271,1140.92,0.706287,-0.666112,-0.198574,0.13425
1.16842,160.275,964.977,1140.92,0.706287,-0.666112,-0.198574,0.13425
1.18321,159.599,965.81,1140.92,0.706287,-0.666112,-0.198574,0.13425
1.198,159.599,965.81,1140.92,0.706287,-0.666112,-0.198574,0.13425
1.21279,159.599,965.81,1140.92,0.706287,-0.666112,-0.198574,0.13425
1.22758,159.599,965.81,1140.92,0.706287,-0.666112,-0.198574,0.13425
1.24237,159.599,965.81,1140.92,0.706287,-0.666112,-0.198574,0.13425
1.25716,159.599,965.81,1140.92,0.706287,-0.666112,-0.198574,0.13425
1.27195,159.599,965.81,1140.92,0.706287,-0.666112,-0.198574,0.13425
1.28674,159.599,965.81,1140.92,0.706287,-0.666112,-0.198574,0.13425
1.30153,159.599,965.81,1140.92,0.706287,-0.666112,-0.198574,0.13425
1.31632,149.898,975.869,1140.92,0.706287,-0.666112,-0.198574,0.13425
1.33111,146.348,978.728,1140.92,0.706287,-0.666112,-0.198574,0.13425
1.3459,145.371,979.407,1140.92,0.706287,-0.666112,-0.198574,0.13425
1.36069,143.262,980.802,1140.92,0.706287,-0.666112,-0.198574,0.13425
1.37548,142.283,981.464,1140.92,0.706287,-0.666112,-0.198574,0.13425
1.39027,141.321,982.124,1140.92,0.706287,-0.666112,-0.198574,0.13425
1.40506,139.498,983.493,1140.92,0.706287,-0.666112,-0.198574,0.13425
1.41985,138.508,984.283,1140.92,0.706287,-0.666112,-0.198574,0.13425
1.43464,137.633,984.999,1140.92,0.706287,-0.666112,-0.198574,0.13425
1.44943,136.732,985.713,1140.92,0.706287,-0.666112,-0.198574,0.13425
1.46422,135.936,986.413,1140.92,0.706287,-0.666112,-0.198574,0.13425
1.47901,134.144,987.87,1140.92,0.706287,-0.666112,-0.198574,0.13425
1.4938,134.144,987.87,1140.92,0.706287,-0.666112,-0.198574,0.13425
1.50859,134.144,987.87,1140.92,0.706287,-0.666112,-0.198574,0.13425
1.52338,134.144,987.87,1140.92,0.706287,-0.666112,-0.198574,0.13425
1.53817,134.144,987.87,1140.92,0.706287,-0.666112,-0.198574,0.13425
1.55296,134.144,987.87,1140.92,0.706287,-0.666112,-0.198574,0.13425
1.56775,134.144,987.87,1140.92,0.706287,-0.666112,-0.198574,0.13425
1.58254,134.144,987.87,1140.92,0.706287,-0.666112,-0.198574,0.13425
1.59733,134.144,987.87,1140.92,0.706287,-0.666112,-0.198574,0.13425
1.61212,122.048,996.741,1140.92,0.706287,-0.666112,-0.198574,0.13425
1.62691,118.974,998.222,1140.92,0.706287,-0.666112,-0.198574,0.13425
1.6417,117.844,998.652,1140.92,0.706287,-0.666112,-0.198574,0.13425
1.65649,116.725,999.04,1140.92,0.706287,-0.666112,-0.198574,0.13425
1.67128,114.563,999.781,1140.92,0.706287,-0.666112,-0.198574,0.13425
1.68607,113.529,1000.08,1140.92,0.706287,-0.666112,-0.198574,0.13425
1.70086,112.496,1000.34,1140.92,0.706287,-0.666112,-0.198574,0.13425
1.71565,110.403,1000.8,1140.92,0.706287,-0.666112,-0.198574,0.13425
1.73044,109.498,1001.03,1140.92,0.706287,-0.666112,-0.198574,0.13425
1.74523,108.517,1001.25,1140.92,0.706287,-0.666112,-0.198574,0.13425
1.76002,107.572,1001.46,1140.92,0.706287,-0.666112,-0.198574,0.13425
1.77481,105.536,1001.84,1140.92,0.706287,-0.666112,-0.198574,0.13425
1.7896,105.536,1001.84,1140.92,0.706287,-0.666112,-0.198574,0.13425
1.80439,105.536,1001.84,1140.92,0.706287,-0.666112,-0.198574,0.13425
1.81918,105.536,1001.84,1140.92,0.706287,-0.666112,-0.198574,0.13425
1.83397,105.536,1001.84,1140.92,0.706287,-0.666112,-0.198574,0.13425
1.84876,105.536,1001.84,1140.92,0.706287,-0.666112,-0.198574,0.13425
1.86355,105.536,1001.84,1140.92,0.706287,-0.666112,-0.198574,0.13425
1.87834,105.536,1001.84,1140.92,0.706287,-0.666112,-0.198574,0.13425
1.89313,105.536,1001.84,1140.92,0.706287,-0.666112,-0.198574,0.13425
1.90792,91.515,1003.18,1140.92,0.706287,-0.666112,-0.198574,0.13425
1.92271,88.3498,1003.33,1140.92,0.706287,-0.666112,-0.198574,0.13425
1.9375,87.3269,1003.37,1140.92,0.706287,-0.666112,-0.198574,0.13425
1.95229,86.2498,1003.37,1140.92,0.706287,-0.666112,-0.198574,0.13425
1.96708,84.006,1003.33,1140.92,0.706287,-0.666112,-0.198574,0.13425
1.98187,83.0167,1003.3,1140.92,0.706287,-0.666112,-0.198574,0.13425
1.99666,81.8933,1003.28,1140.92,0.706287,-0.666112,-0.198574,0.13425
2.01146,79.7598,1003.25,1140.92,0.706287,-0.666112,-0.198574,0.13425
2.02625,78.6721,1003.24,1140.92,0.706287,-0.666112,-0.198574,0.13425
2.04104,76.4312,1003.21,1140.92,0.706287,-0.666112,-0.198574,0.13425
2.05583,75.227,1003.2,1140.92,0.706287,-0.666112,-0.198574,0.13425
2.07062,73.9915,1003.17,1140.92,0.706287,-0.666112,-0.198574,0.13425
2.08541,73.9915,1003.17,1140.92,0.706287,-0.666112,-0.198574,0.13425
2.1002,73.9915,1003.17,1140.92,0.706287,-0.666112,-0.198574,0.13425
2.11499,73.9915,1003.17,1140.92,0.706287,-0.666112,-0.198574,0.13425
2.12978,73.9915,1003.17,1140.92,0.706287,-0.666112,-0.198574,0.13425
2.14457,73.9915,1003.17,1140.92,0.706287,-0.666112,-0.198574,0.13425
2.15936,73.9915,1003.17,1140.92,0.706287,-0.666112,-0.198574,0.13425
2.17415,73.9915,1003.17,1140.92,0.706287,-0.666112,-0.198574,0.13425
2.18894,73.9915,1003.17,1140.92,0.706287,-0.666112,-0.198574,0.13425
2.20373,58.0436,1002.95,1140.92,0.706287,-0.666112,-0.198574,0.13425
2.21852,52.986,1003.08,1140.92,0.706287,-0.666112,-0.198574,0.13425
2.23331,51.674,1003.09,1140.92,0.706287,-0.666112,-0.198574,0.13425
2.2481,50.2007,1003.09,1140.92,0.706287,-0.666112,-0.198574,0.13425
2.26289,47.5201,1003.1,1140.92,0.706287,-0.666112,-0.198574,0.13425
2.27768,46.2771,1003.12,1140.92,0.706287,-0.666112,-0.198574,0.13425
2.29247,45.1022,1003.19,1140.92,0.706287,-0.666112,-0.198574,0.13425
2.30726,43.8384,1003.24,1140.92,0.706287,-0.666112,-0.198574,0.13425
2.32205,41.3836,1003.35,1140.92,0.706287,-0.666112,-0.198574,0.13425
2.33684,40.1682,1003.42,1140.92,0.706287,-0.666112,-0.198574,0.13425
2.35163,38.7496,1003.45,1140.92,0.706287,-0.666112,-0.198574,0.13425
2.36642,37.477,1003.5,1140.92,0.706287,-0.666112,-0.198574,0.13425
2.38121,36.2674,1003.53,1140.92,0.706287,-0.666112,-0.198574,0.13425
2.396,36.2674,1003.53,1140.92,0.706287,-0.666112,-0.198574,0.13425
2.41079,36.2674,1003.53,1140.92,0.706287,-0.666112,-0.198574,0.13425
2.42558,36.2674,1003.53,1140.92,0.706287,-0.666112,-0.198574,0.13425
2.44037,36.2674,1003.53,1140.92,0.706287,-0.666112,-0.198574,0.13425
2.45516,36.2674,1003.53,1140.92,0.706287,-0.666112,-0.198574,0.13425
2.46995,36.2674,1003.53,1140.92,0.706287,-0.666112,-0.198574,0.13425
2.48474,36.2674,1003.53,1140.92,0.706287,-0.666112,-0.198574,0.13425
2.49953,20.5688,1003.68,1140.92,0.706287,-0.666112,-0.198574,0.13425
2.51432,18.3545,1003.54,1140.92,0.706287,-0.666112,-0.198574,0.13425
2.52911,17.3066,1003.47,1140.92,0.706287,-0.666112,-0.198574,0.13425
2.5439,15.4002,1003.33,1140.92,0.706287,-0.666112,-0.198574,0.13425
2.55869,14.4175,1003.22,1140.92,0.706287,-0.666112,-0.198574,0.13425
2.57348,13.5741,1003.16,1140.92,0.706287,-0.666112,-0.198574,0.13425
2.58827,12.6095,1003.03,1140.92,0.706287,-0.666112,-0.198574,0.13425
2.60306,10.9387,1002.76,1140.92,0.706287,-0.666112,-0.198574,0.13425
2.61785,10.1292,1002.6,1140.92,0.706287,-0.666112,-0.198574,0.13425
2.63264,9.36725,1002.44,1140.92,0.706287,-0.666112,-0.198574,0.13425
2.64743,8.70427,1002.29,1140.92,0.706287,-0.666112,-0.198574,0.13425
2.66222,7.30627,1001.93,1140.92,0.706287,-0.666112,-0.198574,0.13425
2.67701,7.30627,1001.93,1140.92,0.706287,-0.666112,-0.198574,0.13425
2.6918,7.30627,1001.93,1140.92,0.706287,-0.666112,-0.198574,0.13425
2.70659,7.30627,1001.93,1140.92,0.706287,-0.666112,-0.198574,0.13425
2.72138,7.30627,1001.93,1140.92,0.706287,-0.666112,-0.198574,0.13425
2.73617,7.30627,1001.93,1140.92,0.706287,-0.666112,-0.198574,0.13425
2.75096,7.30627,1001.93,1140.92,0.706287,-0.666112,-0.198574,0.13425
2.76575,7.30627,1001.93,1140.92,0.706287,-0.666112,-0.198574,0.13425
2.78054,7.30627,1001.93,1140.92,0.706287,-0.666112,-0.198574,0.13425
2.79533,0.749741,1000,1140.92,0.706287,-0.666112,-0.198574,0.13425
2.81012,0.166016,999.718,1140.92,0.706287,-0.666112,-0.198574,0.13425
2.82491,-0.41703,999.351,1140.92,0.706287,-0.666112,-0.198574,0.13425
2.8397,-0.777542,999.11,1140.92,0.706287,-0.666112,-0.198574,0.13425
2.85449,-1.17434,998.837,1140.92,0.706287,-0.666112,-0.198574,0.13425
2.86928,-1.65358,998.48,1140.92,0.706287,-0.666112,-0.198574,0.13425
2.88407,-2.93626,997.516,1140.92,0.706287,-0.666112,-0.198574,0.13425
2.89886,-3.57612,996.988,1140.92,0.706287,-0.666112,-0.198574,0.13425
2.91365,-4.26086,996.454,1140.92,0.706287,-0.666112,-0.198574,0.13425
2.92844,-4.8905,995.939,1140.92,0.706287,-0.666112,-0.198574,0.13425
2.94323,-5.6375,995.34,1140.92,0.706287,-0.666112,-0.198574,0.13425
2.95802,-7.21683,994.051,1140.92,0.706287,-0.666112,-0.198574,0.13425
2.97281,-8.10439,993.344,1140.92,0.706287,-0.666112,-0.198574,0.13425
2.9876,-8.94069,992.67,1140.92,0.706287,-0.666112,-0.198574,0.13425
3.00239,-9.91419,991.88,1140.92,0.706287,-0.666112,-0.198574,0.13425
3.01718,-9.91419,991.88,1140.92,0.706287,-0.666112,-0.198574,0.13425
3.03197,-9.91419,991.88,1140.92,0.706287,-0.666112,-0.198574,0.13425
3.04676,-9.91419,991.88,1140.92,0.706287,-0.666112,-0.198574,0.13425
3.06155,-9.91419,991.88,1140.92,0.706287,-0.666112,-0.198574,0.13425
3.07634,-9.91419,991.88,1140.92,0.706287,-0.666112,-0.198574,0.13425
3.09113,-9.91419,991.88,1140.92,0.706287,-0.666112,-0.198574,0.13425
3.10592,-9.91419,991.88,1140.92,0.706287,-0.666112,-0.198574,0.13425
3.12071,-20.1886,983.486,1140.92,0.706287,-0.666112,-0.198574,0.13425
3.1355,-20.8983,982.887,1140.92,0.706287,-0.666112,-0.198574,0.13425
3.15029,-22.3415,981.699,1140.92,0.706287,-0.666112,-0.198574,0.13425
3.16508,-23.0045,981.16,1140.92,0.706287,-0.666112,-0.198574,0.13425
3.17987,-23.6609,980.624,1140.92,0.706287,-0.666112,-0.198574,0.13425
3.19466,-24.3125,980.073,1140.92,0.706287,-0.666112,-0.198574,0.13425
3.20945,-25.5021,979.035,1140.92,0.706287,-0.666112,-0.198574,0.13425
3.22424,-26.1391,978.503,1140.92,0.706287,-0.666112,-0.198574,0.13425
3.23903,-26.6146,978.027,1140.92,0.706287,-0.666112,-0.198574,0.13425
3.25382,-27.7212,976.959,1140.92,0.706287,-0.666112,-0.198574,0.13425
3.26861,-28.1213,976.46,1140.92,0.706287,-0.666112,-0.198574,0.13425
3.2834,-28.5775,975.939,1140.92,0.706287,-0.666112,-0.198574,0.13425
3.29819,-29.2909,974.958,1140.92,0.706287,-0.666112,-0.198574,0.13425
3.31298,-29.2909,974.958,1140.92,0.706287,-0.666112,-0.198574,0.13425
3.32777,-29.2909,974.958,1140.92,0.706287,-0.666112,-0.198574,0.13425
3.34257,-29.2909,974.958,1140.92,0.706287,-0.666112,-0.198574,0.13425
3.35735,-29.2909,974.958,1140.92,0.706287,-0.666112,-0.198574,0.13425
3.37215,-29.2909,974.958,1140.92,0.706287,-0.666112,-0.198574,0.13425
3.38694,-29.2909,974.958,1140.92,0.706287,-0.666112,-0.198574,0.13425
3.40173,-29.2909,974.958,1140.92,0.706287,-0.666112,-0.198574,0.13425
3.41652,-29.2909,974.958,1140.92,0.706287,-0.666112,-0.198574,0.13425
3.43131,-33.3032,967.729,1140.92,0.706287,-0.666112,-0.198574,0.13425
3.4461,-33.7262,967.04,1140.92,0.706287,-0.666112,-0.198574,0.13425
3.46089,-34.5459,965.517,1140.92,0.706287,-0.666112,-0.198574,0.13425
3.47568,-35.002,964.743,1140.92,0.706287,-0.666112,-0.198574,0.13425
3.49047,-35.3803,963.981,1140.92,0.706287,-0.666112,-0.198574,0.13425
3.50526,-35.8127,963.192,1140.92,0.706287,-0.666112,-0.198574,0.13425
3.52005,-36.4318,961.72,1140.92,0.706287,-0.666112,-0.198574,0.13425
3.53484,-36.7282,961.002,1140.92,0.706287,-0.666112,-0.198574,0.13425
3.54963,-36.9116,960.328,1140.92,0.706287,-0.666112,-0.198574,0.13425
3.56442,-37.1572,959.58,1140.92,0.706287,-0.666112,-0.198574,0.13425
3.57921,-37.6261,958.25,1140.92,0.706287,-0.666112,-0.198574,0.13425
3.594,-37.8759,957.567,1140.92,0.706287,-0.666112,-0.198574,0.13425
3.60879,-38.1511,956.877,1140.92,0.706287,-0.666112,-0.198574,0.13425
3.62358,-38.3215,956.247,1140.92,0.706287,-0.666112,-0.198574,0.13425
3.63837,-38.3215,956.247,1140.92,0.706287,-0.666112,-0.198574,0.13425
3.65316,-38.3215,956.247,1140.92,0.706287,-0.666112,-0.198574,0.13425
3.66795,-38.3215,956.247,1140.92,0.706287,-0.666112,-0.198574,0.13425
3.68274,-38.3215,956.247,1140.92,0.706287,-0.666112,-0.198574,0.13425
3.69753,-38.3215,956.247,1140.92,0.706287,-0.666112,-0.198574,0.13425
3.71232,-38.3215,956.247,1140.92,0.706287,-0.666112,-0.198574,0.13425
3.72711,-38.3215,956.247,1140.92,0.706287,-0.666112,-0.198574,0.13425
3.7419,-38.993,948.301,1140.92,0.706287,-0.666112,-0.198574,0.13425
3.75669,-39.0651,946.958,1140.92,0.706287,-0.666112,-0.198574,0.13425
3.77148,-39.0628,946.29,1140.92,0.706287,-0.666112,-0.198574,0.13425
3.78627,-39.0499,945.614,1140.92,0.706287,-0.666112,-0.198574,0.13425
3.80106,-38.7428,944.353,1140.92,0.706287,-0.666112,-0.198574,0.13425
3.81585,-38.6021,943.695,1140.92,0.706287,-0.666112,-0.198574,0.13425
3.83064,-38.3085,943.101,1140.92,0.706287,-0.666112,-0.198574,0.13425
3.84543,-37.9566,941.718,1140.92,0.706287,-0.666112,-0.198574,0.13425
3.86022,-37.7857,941.021,1140.92,0.706287,-0.666112,-0.198574,0.13425
3.87501,-37.6646,940.257,1140.92,0.706287,-0.666112,-0.198574,0.13425
3.8898,-37.6547,939.429,1140.92,0.706287,-0.666112,-0.198574,0.13425
3.90459,-37.2729,937.828,1140.92,0.706287,-0.666112,-0.198574,0.13425
3.91938,-37.1411,936.972,1140.92,0.706287,-0.666112,-0.198574,0.13425
3.93417,-36.9098,936.136,1140.92,0.706287,-0.666112,-0.198574,0.13425
3.94896,-36.6963,935.262,1140.92,0.706287,-0.666112,-0.198574,0.13425
3.96375,-36.6963,935.262,1140.92,0.706287,-0.666112,-0.198574,0.13425
3.97854,-36.6963,935.262,1140.92,0.706287,-0.666112,-0.198574,0.13425
3.99333,-36.6963,935.262,1140.92,0.706287,-0.666112,-0.198574,0.13425
4.00812,-36.6963,935.262,1140.92,0.706287,-0.666112,-0.198574,0.13425
4.02291,-36.6963,935.262,1140.92,0.706287,-0.666112,-0.198574,0.13425
4.0377,-36.6963,935.262,1140.92,0.706287,-0.666112,-0.198574,0.13425
4.05249,-36.6963,935.262,1140.92,0.706287,-0.666112,-0.198574,0.13425
4.06728,-34.2758,922.411,1140.92,0.706287,-0.666112,-0.198574,0.13425
4.08207,-34.0001,921.37,1140.92,0.706287,-0.666112,-0.198574,0.13425
4.09686,-33.6233,919.419,1140.92,0.706287,-0.666112,-0.198574,0.13425
4.11165,-33.3588,918.491,1140.92,0.706287,-0.666112,-0.198574,0.13425
4.12644,-33.1536,917.484,1140.92,0.706287,-0.666112,-0.198574,0.13425
4.14123,-32.9004,916.512,1140.92,0.706287,-0.666112,-0.198574,0.13425
4.15602,-32.3783,914.585,1140.92,0.706287,-0.666112,-0.198574,0.13425
4.17081,-32.0577,913.629,1140.92,0.706287,-0.666112,-0.198574,0.13425
4.1856,-31.756,912.674,1140.92,0.706287,-0.666112,-0.198574,0.13425
4.20039,-31.2635,910.638,1140.92,0.706287,-0.666112,-0.198574,0.13425
4.21518,-31.0016,909.716,1140.92,0.706287,-0.666112,-0.198574,0.13425
4.22997,-30.7332,908.804,1140.92,0.706287,-0.666112,-0.198574,0.13425
4.24476,-30.5187,907.894,1140.92,0.706287,-0.666112,-0.198574,0.13425
4.25955,-30.2405,907.014,1140.92,0.706287,-0.666112,-0.198574,0.13425
4.27434,-30.2405,907.014,1140.92,0.706287,-0.666112,-0.198574,0.13425
4.28913,-30.2405,907.014,1140.92,0.706287,-0.666112,-0.198574,0.13425
4.30392,-30.2405,907.014,1140.92,0.706287,-0.666112,-0.198574,0.13425
4.31871,-30.2405,907.014,1140.92,0.706287,-0.666112,-0.198574,0.13425
4.3335,-30.2405,907.014,1140.92,0.706287,-0.666112,-0.198574,0.13425
4.34829,-30.2405,907.014,1140.92,0.706287,-0.666112,-0.198574,0.13425
4.36308,-30.2405,907.014,1140.92,0.706287,-0.666112,-0.198574,0.13425
4.37787,-25.8694,896.285,1140.92,0.706287,-0.666112,-0.198574,0.13425
4.39266,-24.8889,894.744,1140.92,0.706287,-0.666112,-0.198574,0.13425
4.40745,-24.3743,893.969,1140.92,0.706287,-0.666112,-0.198574,0.13425
4.42224,-23.3771,892.444,1140.92,0.706287,-0.666112,-0.198574,0.13425
4.43703,-22.9352,891.645,1140.92,0.706287,-0.666112,-0.198574,0.13425
4.45182,-22.4426,890.784,1140.92,0.706287,-0.666112,-0.198574,0.13425
4.46661,-21.679,889.128,1140.92,0.706287,-0.666112,-0.198574,0.13425
4.4814,-21.2302,888.332,1140.92,0.706287,-0.666112,-0.198574,0.13425
4.49619,-20.3448,886.668,1140.92,0.706287,-0.666112,-0.198574,0.13425
4.51098,-19.8582,885.822,1140.92,0.706287,-0.666112,-0.198574,0.13425
4.52577,-19.3233,884.98,1140.92,0.706287,-0.666112,-0.198574,0.13425
4.54056,-18.4122,883.243,1140.92,0.706287,-0.666112,-0.198574,0.13425
4.55535,-17.9668,882.27,1140.92,0.706287,-0.666112,-0.198574,0.13425
4.57014,-17.9668,882.27,1140.92,0.706287,-0.666112,-0.198574,0.13425
4.58493,-17.9668,882.27,1140.92,0.706287,-0.666112,-0.198574,0.13425
4.59972,-17.9668,882.27,1140.92,0.706287,-0.666112,-0.198574,0.13425
4.61451,-17.9668,882.27,1140.92,0.706287,-0.666112,-0.198574,0.13425
4.6293,-17.9668,882.27,1140.92,0.706287,-0.666112,-0.198574,0.13425
4.64409,-17.9668,882.27,1140.92,0.706287,-0.666112,-0.198574,0.13425
4.65888,-17.9668,882.27,1140.92,0.706287,-0.666112,-0.198574,0.13425
4.67368,-17.9668,882.27,1140.92,0.706287,-0.666112,-0.198574,0.13425
4.68847,-8.87901,872.305,1140.92,0.706287,-0.666112,-0.198574,0.13425
4.70326,-8.25377,871.571,1140.92,0.706287,-0.666112,-0.198574,0.13425
4.71805,-6.88424,870.083,1140.92,0.706287,-0.666112,-0.198574,0.13425
4.73284,-6.17953,869.39,1140.92,0.706287,-0.666112,-0.198574,0.13425
4.74763,-5.49903,868.707,1140.92,0.706287,-0.666112,-0.198574,0.13425
4.76242,-4.83593,868.018,1140.92,0.706287,-0.666112,-0.198574,0.13425
4.77721,-3.40734,866.785,1140.92,0.706287,-0.666112,-0.198574,0.13425
4.792,-2.7236,866.177,1140.92,0.706287,-0.666112,-0.198574,0.13425
4.80679,-1.91315,865.529,1140.92,0.706287,-0.666112,-0.198574,0.13425
4.82158,-1.1614,864.976,1140.92,0.706287,-0.666112,-0.198574,0.13425
4.83637,0.408653,863.934,1140.92,0.706287,-0.666112,-0.198574,0.13425
4.85116,1.26227,863.499,1140.92,0.706287,-0.666112,-0.198574,0.13425
4.86595,2.14461,863.085,1140.92,0.706287,-0.666112,-0.198574,0.13425
4.88074,3.04626,862.653,1140.92,0.706287,-0.666112,-0.198574,0.13425
4.89553,3.04626,862.653,1140.92,0.706287,-0.666112,-0.198574,0.13425
4.91032,3.04626,862.653,1140.92,0.706287,-0.666112,-0.198574,0.13425
4.92511,3.04626,862.653,1140.92,0.706287,-0.666112,-0.198574,0.13425
4.9399,3.04626,862.653,1140.92,0.706287,-0.666112,-0.198574,0.13425
4.95469,3.04626,862.653,1140.92,0.706287,-0.666112,-0.198574,0.13425
4.96948,3.04626,862.653,1140.92,0.706287,-0.666112,-0.198574,0.13425
4.98427,3.04626,862.653,1140.92,0.706287,-0.666112,-0.198574,0.13425
4.99906,3.04626,862.653,1140.92,0.706287,-0.666112,-0.198574,0.13425
5.01385,15.9787,858.393,1140.92,0.706287,-0.666112,-0.198574,0.13425
5.02864,16.9218,858.226,1140.92,0.706287,-0.666112,-0.198574,0.13425
5.04343,18.7561,857.916,1140.92,0.706287,-0.666112,-0.198574,0.13425
5.05822,19.7034,857.785,1140.92,0.706287,-0.666112,-0.198574,0.13425
5.07301,20.6661,857.668,1140.92,0.706287,-0.666112,-0.198574,0.13425
5.0878,22.7944,857.495,1140.92,0.706287,-0.666112,-0.198574,0.13425
5.10259,23.8435,857.444,1140.92,0.706287,-0.666112,-0.198574,0.13425
5.11738,24.8411,857.366,1140.92,0.706287,-0.666112,-0.198574,0.13425
5.13217,26.8214,857.224,1140.92,0.706287,-0.666112,-0.198574,0.13425
5.14696,27.7941,857.135,1140.92,0.706287,-0.666112,-0.198574,0.13425
5.16175,28.8539,857.107,1140.92,0.706287,-0.666112,-0.198574,0.13425
5.17654,29.8788,857.069,1140.92,0.706287,-0.666112,-0.198574,0.13425
5.19133,32.08,856.999,1140.92,0.706287,-0.666112,-0.198574,0.13425
5.20612,32.08,856.999,1140.92,0.706287,-0.666112,-0.198574,0.13425
5.22091,32.08,856.999,1140.92,0.706287,-0.666112,-0.198574,0.13425
5.2357,32.08,856.999,1140.92,0.706287,-0.666112,-0.198574,0.13425
5.25049,32.08,856.999,1140.92,0.706287,-0.666112,-0.198574,0.13425
5.26528,32.08,856.999,1140.92,0.706287,-0.666112,-0.198574,0.13425
5.28007,32.08,856.999,1140.92,0.706287,-0.666112,-0.198574,0.13425
5.29486,32.08,856.999,1140.92,0.706287,-0.666112,-0.198574,0.13425
5.30965,32.08,856.999,1140.92,0.706287,-0.666112,-0.198574,0.13425
5.32444,45.0142,857.088,1140.92,0.706287,-0.666112,-0.198574,0.13425
5.33923,47.1762,857.119,1140.92,0.706287,-0.666112,-0.198574,0.13425
5.35402,48.2231,857.154,1140.92,0.706287,-0.666112,-0.198574,0.13425
5.36881,49.2404,857.193,1140.92,0.706287,-0.666112,-0.198574,0.13425
5.3836,51.2701,857.238,1140.92,0.706287,-0.666112,-0.198574,0.13425
5.39839,52.3221,857.286,1140.92,0.706287,-0.666112,-0.198574,0.13425
5.41318,53.36,857.308,1140.92,0.706287,-0.666112,-0.198574,0.13425
5.42797,55.5167,857.344,1140.92,0.706287,-0.666112,-0.198574,0.13425
5.44276,56.6259,857.393,1140.92,0.706287,-0.666112,-0.198574,0.13425
5.45755,57.615,857.398,1140.92,0.706287,-0.666112,-0.198574,0.13425
5.47234,58.6167,857.438,1140.92,0.706287,-0.666112,-0.198574,0.13425
5.48713,60.7567,857.508,1140.92,0.706287,-0.666112,-0.198574,0.13425
5.50192,61.8092,857.569,1140.92,0.706287,-0.666112,-0.198574,0.13425
5.51671,62.9468,857.646,1140.92,0.706287,-0.666112,-0.198574,0.13425
5.5315,62.9468,857.646,1140.92,0.706287,-0.666112,-0.198574,0.13425
5.54629,62.9468,857.646,1140.92,0.706287,-0.666112,-0.198574,0.13425
5.56108,62.9468,857.646,1140.92,0.706287,-0.666112,-0.198574,0.13425
5.57587,62.9468,857.646,1140.92,0.706287,-0.666112,-0.198574,0.13425
5.59066,62.9468,857.646,1140.92,0.706287,-0.666112,-0.198574,0.13425
5.60545,62.9468,857.646,1140.92,0.706287,-0.666112,-0.198574,0.13425
5.62024,62.9468,857.646,1140.92,0.706287,-0.666112,-0.198574,0.13425
5.63503,78.8874,860.597,1140.92,0.706287,-0.666112,-0.198574,0.13425
5.64982,81.5322,861.393,1140.92,0.706287,-0.666112,-0.198574,0.13425
5.66461,82.9342,861.841,1140.92,0.706287,-0.666112,-0.198574,0.13425
5.6794,85.2925,862.653,1140.92,0.706287,-0.666112,-0.198574,0.13425
5.69419,86.3804,863.038,1140.92,0.706287,-0.666112,-0.198574,0.13425
5.70898,87.4176,863.441,1140.92,0.706287,-0.666112,-0.198574,0.13425
5.72377,88.5238,863.886,1140.92,0.706287,-0.666112,-0.198574,0.13425
5.73856,90.7258,864.883,1140.92,0.706287,-0.666112,-0.198574,0.13425
5.75335,91.8528,865.43,1140.92,0.706287,-0.666112,-0.198574,0.13425
5.76814,92.8233,865.89,1140.92,0.706287,-0.666112,-0.198574,0.13425
5.78293,94.7778,866.859,1140.92,0.706287,-0.666112,-0.198574,0.13425
5.79772,95.6995,867.377,1140.92,0.706287,-0.666112,-0.198574,0.13425
5.81251,96.6194,867.926,1140.92,0.706287,-0.666112,-0.198574,0.13425
5.8273,97.6277,868.542,1140.92,0.706287,-0.666112,-0.198574,0.13425
5.84209,97.6277,868.542,1140.92,0.706287,-0.666112,-0.198574,0.13425
5.85688,97.6277,868.542,1140.92,0.706287,-0.666112,-0.198574,0.13425
5.87167,97.6277,868.542,1140.92,0.706287,-0.666112,-0.198574,0.13425
5.88646,97.6277,868.542,1140.92,0.706287,-0.666112,-0.198574,0.13425
5.90125,97.6277,868.542,1140.92,0.706287,-0.666112,-0.198574,0.13425
5.91604,97.6277,868.542,1140.92,0.706287,-0.666112,-0.198574,0.13425
5.93083,97.6277,868.542,1140.92,0.706287,-0.666112,-0.198574,0.13425
5.94562,97.6277,868.542,1140.92,0.706287,-0.666112,-0.198574,0.13425
5.96041,110.574,876.859,1140.92,0.706287,-0.666112,-0.198574,0.13425
5.9752,111.402,877.326,1140.92,0.706287,-0.666112,-0.198574,0.13425
5.98999,113.254,878.395,1140.92,0.706287,-0.666112,-0.198574,0.13425
6.00479,114.186,878.998,1140.92,0.706287,-0.666112,-0.198574,0.13425
6.01957,115.157,879.607,1140.92,0.706287,-0.666112,-0.198574,0.13425
6.03437,117.114,880.878,1140.92,0.706287,-0.666112,-0.198574,0.13425
6.04916,117.847,881.351,1140.92,0.706287,-0.666112,-0.198574,0.13425
6.06395,119.481,882.403,1140.92,0.706287,-0.666112,-0.198574,0.13425
6.07874,120.226,882.929,1140.92,0.706287,-0.666112,-0.198574,0.13425
6.09353,121.073,883.512,1140.92,0.706287,-0.666112,-0.198574,0.13425
6.10831,122.691,884.737,1140.92,0.706287,-0.666112,-0.198574,0.13425
6.12311,123.449,885.371,1140.92,0.706287,-0.666112,-0.198574,0.13425
6.1379,124.237,886.044,1140.92,0.706287,-0.666112,-0.198574,0.13425
6.15269,124.237,886.044,1140.92,0.706287,-0.666112,-0.198574,0.13425
6.16748,124.237,886.044,1140.92,0.706287,-0.666112,-0.198574,0.13425
6.18227,124.237,886.044,1140.92,0.706287,-0.666112,-0.198574,0.13425
6.19706,124.237,886.044,1140.92,0.706287,-0.666112,-0.198574,0.13425
6.21185,124.237,886.044,1140.92,0.706287,-0.666112,-0.198574,0.13425
6.22664,124.237,886.044,1140.92,0.706287,-0.666112,-0.198574,0.13425
6.24143,124.237,886.044,1140.92,0.706287,-0.666112,-0.198574,0.13425
6.25622,131.633,894.435,1140.92,0.706287,-0.666112,-0.198574,0.13425
6.27101,132.623,895.892,1140.92,0.706287,-0.666112,-0.198574,0.13425
6.2858,133.404,897.341,1140.92,0.706287,-0.666112,-0.198574,0.13425
6.30059,133.808,898.162,1140.92,0.706287,-0.666112,-0.198574,0.13425
6.31538,134.163,898.898,1140.92,0.706287,-0.666112,-0.198574,0.13425
6.33017,134.889,900.44,1140.92,0.706287,-0.666112,-0.198574,0.13425
6.34496,135.139,901.205,1140.92,0.706287,-0.666112,-0.198574,0.13425
6.35975,135.43,901.998,1140.92,0.706287,-0.666112,-0.198574,0.13425
6.37454,135.672,902.779,1140.92,0.706287,-0.666112,-0.198574,0.13425
6.38933,135.958,904.34,1140.92,0.706287,-0.666112,-0.198574,0.13425
6.40412,136.152,905.195,1140.92,0.706287,-0.666112,-0.198574,0.13425
6.41891,136.33,905.99,1140.92,0.706287,-0.666112,-0.198574,0.13425
6.4337,136.399,906.798,1140.92,0.706287,-0.666112,-0.198574,0.13425
6.44849,136.596,907.645,1140.92,0.706287,-0.666112,-0.198574,0.13425
6.46328,136.596,907.645,1140.92,0.706287,-0.666112,-0.198574,0.13425
6.47807,136.596,907.645,1140.92,0.706287,-0.666112,-0.198574,0.13425
6.49286,136.596,907.645,1140.92,0.706287,-0.666112,-0.198574,0.13425
6.50765,136.596,907.645,1140.92,0.706287,-0.666112,-0.198574,0.13425
6.52244,136.596,907.645,1140.92,0.706287,-0.666112,-0.198574,0.13425
6.53723,136.596,907.645,1140.92,0.706287,-0.666112,-0.198574,0.13425
6.55202,136.596,907.645,1140.92,0.706287,-0.666112,-0.198574,0.13425
6.56681,139.674,919.188,1140.92,0.706287,-0.666112,-0.198574,0.13425
6.5816,139.882,920.024,1140.92,0.706287,-0.666112,-0.198574,0.13425
6.59639,140.34,921.711,1140.92,0.706287,-0.666112,-0.198574,0.13425
6.61118,140.6,922.581,1140.92,0.706287,-0.666112,-0.198574,0.13425
6.62597,140.997,924.311,1140.92,0.706287,-0.666112,-0.198574,0.13425
6.64076,141.241,925.123,1140.92,0.706287,-0.666112,-0.198574,0.13425
6.65555,141.352,925.861,1140.92,0.706287,-0.666112,-0.198574,0.13425
6.67034,141.804,927.401,1140.92,0.706287,-0.666112,-0.198574,0.13425
6.68513,142.079,928.167,1140.92,0.706287,-0.666112,-0.198574,0.13425
6.69992,142.278,928.894,1140.92,0.706287,-0.666112,-0.198574,0.13425
6.71471,142.732,930.351,1140.92,0.706287,-0.666112,-0.198574,0.13425
6.7295,142.951,931.091,1140.92,0.706287,-0.666112,-0.198574,0.13425
6.74429,143.031,931.818,1140.92,0.706287,-0.666112,-0.198574,0.13425
6.75908,143.22,933.16,1140.92,0.706287,-0.666112,-0.198574,0.13425
6.77387,143.302,933.817,1140.92,0.706287,-0.666112,-0.198574,0.13425
6.78866,143.395,934.566,1140.92,0.706287,-0.666112,-0.198574,0.13425
6.80345,143.607,935.876,1140.92,0.706287,-0.666112,-0.198574,0.13425
6.81824,143.938,937.228,1140.92,0.706287,-0.666112,-0.198574,0.13425
6.83303,143.938,937.228,1140.92,0.706287,-0.666112,-0.198574,0.13425
6.84782,143.938,937.228,1140.92,0.706287,-0.666112,-0.198574,0.13425
6.86261,143.938,937.228,1140.92,0.706287,-0.666112,-0.198574,0.13425
6.8774,144.392,941.095,1140.92,0.706287,-0.666112,-0.198574,0.13425
6.89219,144.628,941.996,1140.92,0.706287,-0.666112,-0.198574,0.13425
6.90698,144.84,942.521,1140.92,0.706287,-0.666112,-0.198574,0.13425
6.92177,144.863,942.925,1140.92,0.706287,-0.666112,-0.198574,0.13425
6.93656,144.968,943.722,1140.92,0.706287,-0.666112,-0.198574,0.13425
6.95135,145.011,944.125,1140.92,0.706287,-0.666112,-0.198574,0.13425
6.96614,144.946,944.492,1140.92,0.706287,-0.666112,-0.198574,0.13425
6.98093,144.918,945.222,1140.92,0.706287,-0.666112,-0.198574,0.13425
6.99572,144.886,945.561,1140.92,0.706287,-0.666112,-0.198574,0.13425
7.01051,144.857,945.923,1140.92,0.706287,-0.666112,-0.198574,0.13425
7.0253,144.769,946.62,1140.92,0.706287,-0.666112,-0.198574,0.13425
7.04009,144.697,946.995,1140.92,0.706287,-0.666112,-0.198574,0.13425
7.05488,144.697,946.995,1140.92,0.706287,-0.666112,-0.198574,0.13425
7.06967,144.697,946.995,1140.92,0.706287,-0.666112,-0.198574,0.13425
7.08446,144.697,946.995,1140.92,0.706287,-0.666112,-0.198574,0.13425
7.09925,144.697,946.995,1140.92,0.706287,-0.666112,-0.198574,0.13425
7.11404,144.697,946.995,1140.92,0.706287,-0.666112,-0.198574,0.13425
7.12883,144.697,946.995,1140.92,0.706287,-0.666112,-0.198574,0.13425
7.14362,144.697,946.995,1140.92,0.706287,-0.666112,-0.198574,0.13425
7.15841,142.24,950.857,1140.92,0.706287,-0.666112,-0.198574,0.13425
7.1732,140.788,951.797,1140.92,0.706287,-0.666112,-0.198574,0.13425
7.18799,140.492,952.027,1140.92,0.706287,-0.666112,-0.198574,0.13425
7.20278,139.737,952.462,1140.92,0.706287,-0.666112,-0.198574,0.13425
7.21757,139.365,952.664,1140.92,0.706287,-0.666112,-0.198574,0.13425
7.23236,138.608,953.099,1140.92,0.706287,-0.666112,-0.198574,0.13425
7.24715,138.261,953.286,1140.92,0.706287,-0.666112,-0.198574,0.13425
7.26194,138.015,953.484,1140.92,0.706287,-0.666112,-0.198574,0.13425
7.27673,137.374,953.827,1140.92,0.706287,-0.666112,-0.198574,0.13425
7.29152,136.94,953.998,1140.92,0.706287,-0.666112,-0.198574,0.13425
7.30631,136.663,954.175,1140.92,0.706287,-0.666112,-0.198574,0.13425
7.3211,136.35,954.348,1140.92,0.706287,-0.666112,-0.198574,0.13425
7.33589,135.645,954.646,1140.92,0.706287,-0.666112,-0.198574,0.13425
7.35069,135.309,954.767,1140.92,0.706287,-0.666112,-0.198574,0.13425
7.36548,134.663,954.962,1140.92,0.706287,-0.666112,-0.198574,0.13425
7.38027,134.34,955.065,1140.92,0.706287,-0.666112,-0.198574,0.13425
7.39505,133.881,955.394,1140.92,0.706287,-0.666112,-0.198574,0.13425
7.40984,133.591,955.512,1140.92,0.706287,-0.666112,-0.198574,0.13425
7.42464,133.591,955.512,1140.92,0.706287,-0.666112,-0.198574,0.13425
7.43943,133.591,955.512,1140.92,0.706287,-0.666112,-0.198574,0.13425
7.45422,133.004,956.634,1140.92,0.706287,-0.666112,-0.198574,0.13425
7.46901,132.932,956.943,1140.92,0.706287,-0.666112,-0.198574,0.13425
7.4838,132.956,957.109,1140.92,0.706287,-0.666112,-0.198574,0.13425
7.49859,132.775,957.367,1140.92,0.706287,-0.666112,-0.198574,0.13425
7.51338,132.734,957.513,1140.92,0.706287,-0.666112,-0.198574,0.13425
7.52817,132.637,957.635,1140.92,0.706287,-0.666112,-0.198574,0.13425
7.54296,132.573,957.822,1140.92,0.706287,-0.666112,-0.198574,0.13425
7.55775,132.498,957.876,1140.92,0.706287,-0.666112,-0.198574,0.13425
7.57254,132.393,957.918,1140.92,0.706287,-0.666112,-0.198574,0.13425
7.58733,132.344,957.985,1140.92,0.706287,-0.666112,-0.198574,0.13425
7.60212,132.209,958.02,1140.92,0.706287,-0.666112,-0.198574,0.13425
7.61691,132.12,958.04,1140.92,0.706287,-0.666112,-0.198574,0.13425
7.6317,132.12,958.04,1140.92,0.706287,-0.666112,-0.198574,0.13425
7.64649,132.12,958.04,1140.92,0.706287,-0.666112,-0.198574,0.13425
7.66128,132.12,958.04,1140.92,0.706287,-0.666112,-0.198574,0.13425
7.67607,132.12,958.04,1140.92,0.706287,-0.666112,-0.198574,0.13425
7.69086,132.12,958.04,1140.92,0.706287,-0.666112,-0.198574,0.13425
7.70565,132.12,958.04,1140.92,0.706287,-0.666112,-0.198574,0.13425
7.72044,132.12,958.04,1140.92,0.706287,-0.666112,-0.198574,0.13425
7.73523,132.12,958.04,1140.92,0.706287,-0.666112,-0.198574,0.13425
7.75002,130.538,957.854,1140.92,0.706287,-0.666112,-0.198574,0.13425
7.76481,130.464,957.857,1140.92,0.706287,-0.666112,-0.198574,0.13425
7.7796,130.225,957.765,1140.92,0.706287,-0.666112,-0.198574,0.13425
7.79439,130.141,957.757,1140.92,0.706287,-0.666112,-0.198574,0.13425
7.80918,130.073,957.769,1140.92,0.706287,-0.666112,-0.198574,0.13425
7.82397,130.044,957.78,1140.92,0.706287,-0.666112,-0.198574,0.13425
7.83876,129.925,957.75,1140.92,0.706287,-0.666112,-0.198574,0.13425
7.85355,129.825,957.719,1140.92,0.706287,-0.666112,-0.198574,0.13425
7.86834,129.74,957.694,1140.92,0.706287,-0.666112,-0.198574,0.13425
7.88313,129.715,957.685,1140.92,0.706287,-0.666112,-0.198574,0.13425
7.89792,129.675,957.703,1140.92,0.706287,-0.666112,-0.198574,0.13425
7.91271,129.682,957.713,1140.92,0.706287,-0.666112,-0.198574,0.13425
7.9275,129.682,957.713,1140.92,0.706287,-0.666112,-0.198574,0.13425
7.94229,129.682,957.713,1140.92,0.706287,-0.666112,-0.198574,0.13425
7.95708,129.682,957.713,1140.92,0.706287,-0.666112,-0.198574,0.13425
7.97187,129.682,957.713,1140.92,0.706287,-0.666112,-0.198574,0.13425
7.98666,129.682,957.713,1140.92,0.706287,-0.666112,-0.198574,0.13425
8.00145,129.682,957.713,1140.92,0.706287,-0.666112,-0.198574,0.13425
8.01624,129.682,957.713,1140.92,0.706287,-0.666112,-0.198574,0.13425
8.03103,129.682,957.713,1140.92,0.706287,-0.666112,-0.198574,0.13425
8.04582,129.894,957.69,1140.92,0.706287,-0.666112,-0.198574,0.13425
8.06061,129.789,957.666,1140.92,0.706287,-0.666112,-0.198574,0.13425
8.0754,129.816,957.668,1140.92,0.706287,-0.666112,-0.198574,0.13425
8.09019,129.88,957.667,1140.92,0.706287,-0.666112,-0.198574,0.13425
8.10498,129.868,957.662,1140.92,0.706287,-0.666112,-0.198574,0.13425
8.11977,129.883,957.66,1140.92,0.706287,-0.666112,-0.198574,0.13425
8.13456,129.941,957.648,1140.92,0.706287,-0.666112,-0.198574,0.13425
8.14935,129.965,957.657,1140.92,0.706287,-0.666112,-0.198574,0.13425
8.16414,130.017,957.655,1140.92,0.706287,-0.666112,-0.198574,0.13425
