timestamp,ArmL1_Cla1,ArmL2_Sho1,ArmL3_Sho2,ArmL4_Sho3,ArmL5_Elb1,ArmL6_Elb2,ArmL7_Wri1,ArmL8_Wri2
0,-415.873,345.221,677.22,-0.385384,0.584827,0.619149,0.355121
0.0122122,-415.885,345.5,680.144,-0.386596,0.583905,0.618433,0.356567
0.0244245,-415.871,345.792,683.153,-0.387841,0.582998,0.61766,0.358034
0.0366367,-415.923,346.037,686.175,-0.389117,0.582084,0.616901,0.359443
0.048849,-415.998,346.223,689.34,-0.390449,0.581088,0.616166,0.360868
0.0610612,-416.041,346.418,692.3,-0.391666,0.580197,0.615439,0.362222
0.0732735,-416.055,346.57,695.207,-0.392819,0.579352,0.614713,0.363555
0.0854857,-416.06,346.763,697.817,-0.393843,0.578582,0.614055,0.364785
0.097698,-416.039,347.013,700.66,-0.394922,0.577745,0.61332,0.366179
0.10991,-415.976,347.224,706.007,-0.396866,0.576234,0.611959,0.368725
0.122122,-415.917,347.305,708.925,-0.397865,0.575397,0.611253,0.370123
0.134335,-415.86,347.326,711.874,-0.398836,0.574561,0.610548,0.371538
0.146547,-415.767,347.314,716.16,-0.400235,0.573407,0.609463,0.373592
0.158759,-415.635,347.341,721.108,-0.401797,0.572123,0.608172,0.375981
0.170971,-415.501,347.481,724.229,-0.402755,0.571369,0.607278,0.377544
0.183184,-415.397,347.61,727.355,-0.403738,0.570602,0.606387,0.379083
0.195396,-415.339,347.642,730.395,-0.404687,0.569851,0.605559,0.380522
0.207608,-415.251,347.692,733.659,-0.405662,0.569109,0.604631,0.382067
0.21982,-415.112,347.748,736.62,-0.406456,0.568515,0.603749,0.383501
0.232033,-415.042,347.826,739.625,-0.407317,0.567899,0.602837,0.384929
0.244245,-414.926,347.993,742.658,-0.40822,0.567287,0.601878,0.386375
0.256457,-414.91,348.065,743.452,-0.408468,0.567154,0.601602,0.386738
0.268669,-414.754,348.735,751.287,-0.410907,0.565879,0.598856,0.390268
0.280882,-414.778,349.031,754.274,-0.411939,0.56554,0.597682,0.391468
0.293094,-414.807,349.308,756.996,-0.412888,0.565275,0.59658,0.392531
0.305306,-414.857,349.54,759.076,-0.413639,0.565087,0.595721,0.393313
0.317518,-414.936,349.832,761.34,-0.414518,0.56488,0.594752,0.394152
0.329731,-415.014,350.306,764.373,-0.415693,0.564682,0.593361,0.395293
0.341943,-415.08,350.869,767.836,-0.417026,0.564488,0.591735,0.396601
0.354155,-415.163,351.567,771.337,-0.418445,0.564273,0.590032,0.397948
0.366367,-415.235,352.297,774.868,-0.419885,0.564049,0.588292,0.399322
0.37858,-415.251,353.112,778.444,-0.421334,0.563832,0.586455,0.400801
0.390792,-415.258,353.939,781.931,-0.422752,0.563597,0.584652,0.40227
0.403004,-415.257,354.798,785.284,-0.424131,0.563333,0.5829,0.403728
0.415216,-415.175,356.26,790.613,-0.426285,0.562918,0.580049,0.406137
0.427429,-414.998,358.332,797.662,-0.429043,0.562413,0.576162,0.409452
0.439641,-414.851,359.73,802.224,-0.430766,0.56211,0.573594,0.411658
0.451853,-414.766,360.793,805.66,-0.432046,0.561915,0.571624,0.413321
0.464065,-414.506,362.737,811.901,-0.434301,0.561633,0.567939,0.416409
0.476278,-414.404,364.091,816.388,-0.435941,0.561422,0.565314,0.418546
0.48849,-414.342,365.1,819.773,-0.437217,0.561245,0.563319,0.420138
0.500702,-414.265,366.216,823.555,-0.438555,0.561145,0.561047,0.421915
0.512914,-414.215,367.244,827.194,-0.439872,0.560959,0.558918,0.423613
0.525127,-414.194,368.225,830.815,-0.441155,0.560814,0.556824,0.425225
0.537339,-414.12,369.185,834.504,-0.442427,0.56064,0.554678,0.426935
0.549551,-414.075,369.748,836.718,-0.443191,0.560517,0.553394,0.427969
0.561763,-413.93,370.962,841.498,-0.444832,0.560268,0.550617,0.430169
0.573976,-413.754,372.468,847.684,-0.446982,0.559908,0.547036,0.432969
0.586188,-413.701,373.312,851.42,-0.448344,0.55963,0.5449,0.43461
0.5984,-413.528,374.699,857.971,-0.450706,0.559092,0.54117,0.437511
0.610612,-413.31,375.775,863.187,-0.452562,0.558643,0.53816,0.439876
0.622825,-413.077,376.581,867.144,-0.45392,0.55831,0.535862,0.4417
0.635037,-412.835,377.35,870.935,-0.455237,0.557966,0.533655,0.443449
0.647249,-412.511,378.109,874.829,-0.456483,0.557729,0.531304,0.445284
0.659461,-412.147,378.788,878.536,-0.457633,0.557499,0.529074,0.447044
0.671674,-411.678,379.473,882.629,-0.45886,0.557234,0.526598,0.449035
0.683886,-411.221,380.104,886.442,-0.459966,0.557029,0.52425,0.450902
0.696098,-410.758,380.703,890.198,-0.46104,0.556836,0.521925,0.452737
0.70831,-410.275,381.326,894.059,-0.462121,0.556611,0.519585,0.454599
0.720523,-409.238,382.5,901.576,-0.464138,0.556232,0.514948,0.45827
0.732735,-408.641,383.049,905.446,-0.465066,0.556117,0.512524,0.460182
0.744947,-407.579,383.97,912.596,-0.466817,0.555897,0.508072,0.463598
0.757159,-407.054,384.46,916.7,-0.467885,0.555722,0.505549,0.465486
0.769372,-406.621,384.878,920.454,-0.468899,0.555507,0.503295,0.467162
0.781584,-406.2,385.308,924.34,-0.469955,0.555202,0.501031,0.468895
0.793796,-405.87,385.733,928.189,-0.471067,0.554857,0.498809,0.470552
0.806008,-405.628,386.127,932.002,-0.472223,0.554474,0.496634,0.472142
0.818221,-405.438,386.493,935.743,-0.473369,0.554098,0.49451,0.473664
0.830433,-405.282,386.817,939.488,-0.474515,0.553736,0.492381,0.475156
0.842645,-405.236,387.152,943.676,-0.47591,0.553214,0.490056,0.47677
0.854857,-405.231,387.203,944.343,-0.476137,0.553124,0.489687,0.477026
0.86707,-405.606,387.998,954.128,-0.479598,0.552005,0.48425,0.480395
0.879282,-405.954,388.321,957.949,-0.481048,0.551529,0.482225,0.481527
0.891494,-406.37,388.621,961.687,-0.482516,0.551065,0.480234,0.482578
0.903706,-406.84,388.877,965.267,-0.483962,0.550647,0.478271,0.483556
0.915919,-407.523,389.208,969.882,-0.485834,0.550113,0.475828,0.484694
0.928131,-408.506,389.643,976.101,-0.488396,0.549426,0.472536,0.486118
0.940343,-409.135,389.893,979.808,-0.489971,0.54904,0.470559,0.486885
0.952555,-409.731,390.094,983.308,-0.491476,0.548627,0.468711,0.487618
0.964768,-410.293,390.284,986.874,-0.493027,0.548163,0.466815,0.488391
0.97698,-410.862,390.463,990.431,-0.494645,0.547646,0.464872,0.489188
0.989192,-411.485,390.639,993.697,-0.496231,0.547123,0.463109,0.489838
1.0014,-412.725,390.946,998.592,-0.498755,0.546322,0.460564,0.490568
1.01362,-414.08,391.266,1003.55,-0.501374,0.545526,0.457992,0.491192
1.02583,-414.99,391.506,1006.94,-0.503174,0.544987,0.456224,0.491594
1.03804,-416.026,391.795,1010.65,-0.505207,0.544403,0.454262,0.491974
1.05025,-417.023,392.102,1014.15,-0.507188,0.543834,0.452424,0.492257
1.06247,-418.923,392.702,1019.83,-0.51066,0.542888,0.449415,0.492468
1.07468,-420.249,393.148,1023.64,-0.513056,0.542256,0.447381,0.492526
1.08689,-421.396,393.553,1026.92,-0.515165,0.541628,0.445678,0.492559
1.0991,-422.507,393.952,1030.21,-0.517278,0.541035,0.44388,0.49262
1.11131,-423.686,394.381,1033.54,-0.519457,0.540367,0.442062,0.492696
1.12353,-425.014,394.904,1036.98,-0.521829,0.539603,0.440151,0.492738
1.13574,-426.525,395.515,1040.63,-0.524435,0.538738,0.43817,0.492682
1.14795,-427.349,395.856,1042.71,-0.525914,0.538211,0.437044,0.492683
1.16016,-428.957,396.644,1046.66,-0.528738,0.537182,0.434903,0.492677
1.17238,-431.323,397.795,1052.41,-0.532843,0.53569,0.431786,0.492621
1.18459,-432.74,398.544,1055.63,-0.535183,0.534794,0.430048,0.492579
1.1968,-434.191,399.353,1058.84,-0.537568,0.533825,0.428364,0.4925
1.20901,-435.695,400.235,1062.12,-0.54002,0.532817,0.426661,0.492388
1.22122,-437.179,401.116,1065.18,-0.542375,0.531903,0.425041,0.492188
1.23344,-439.715,402.956,1070.81,-0.54664,0.530307,0.42189,0.491902
1.24565,-441.108,404.047,1074.03,-0.549075,0.529413,0.420014,0.49176
1.25786,-442.634,405.192,1077.4,-0.551713,0.528453,0.417988,0.491564
1.27007,-444.012,406.365,1080.56,-0.554196,0.527505,0.416053,0.491431
1.28229,-445.295,407.541,1083.53,-0.55656,0.52655,0.414232,0.491323
1.2945,-446.325,408.535,1085.96,-0.558477,0.525794,0.412701,0.491245
1.30671,-447.823,409.948,1089.19,-0.561091,0.524796,0.41064,0.49106
1.31892,-450.271,412.604,1094.8,-0.5655,0.523094,0.406966,0.490879
1.33113,-451.58,414.143,1097.86,-0.567872,0.522171,0.404921,0.490814
1.34335,-452.871,415.749,1100.82,-0.570159,0.521238,0.402965,0.490764
1.35556,-454.065,417.406,1103.67,-0.572326,0.520337,0.401066,0.490754
1.36777,-455.203,419.086,1106.37,-0.574354,0.519505,0.399278,0.490723
1.37998,-456.863,421.68,1110.24,-0.577288,0.518407,0.396583,0.490626
1.3922,-458.504,424.504,1114.19,-0.580246,0.517403,0.393687,0.49053
1.40441,-459.534,426.521,1116.67,-0.582075,0.516864,0.391746,0.490485
1.41662,-460.507,428.573,1119.11,-0.583866,0.516306,0.389845,0.490459
1.42883,-461.383,430.696,1121.52,-0.585598,0.515802,0.387909,0.490458
1.44105,-462.188,432.903,1123.86,-0.587266,0.515332,0.386008,0.490459
1.45326,-462.256,433.152,1124.09,-0.587423,0.515306,0.385797,0.490464
1.46547,-463.758,439.212,1129.61,-0.591113,0.514722,0.38071,0.490618
1.47768,-464.186,441.575,1131.56,-0.592368,0.514659,0.37878,0.490666
1.48989,-464.625,443.929,1133.48,-0.593626,0.514624,0.376875,0.490648
1.50211,-465.107,446.26,1135.39,-0.594911,0.514621,0.374981,0.490546
1.51432,-465.569,448.613,1137.23,-0.59615,0.514728,0.373087,0.490375
1.52653,-466,450.965,1139.03,-0.59732,0.51496,0.371168,0.490163
1.53874,-466.502,454.074,1141.17,-0.598676,0.515402,0.368848,0.489795
1.55096,-467.073,458.428,1144.03,-0.600455,0.516115,0.365647,0.489266
1.56317,-467.365,461.175,1145.8,-0.601527,0.516607,0.363577,0.488973
1.57538,-467.625,463.939,1147.52,-0.602596,0.517083,0.361515,0.488682
1.58759,-467.853,466.253,1148.97,-0.603537,0.517435,0.359773,0.488434
1.5998,-468.115,468.501,1150.37,-0.60447,0.517804,0.358045,0.488159
1.61202,-468.641,472.302,1152.44,-0.605951,0.518579,0.355235,0.487553
1.62423,-469.279,476.924,1154.72,-0.607653,0.519548,0.352037,0.486722
1.63644,-469.69,479.907,1156.05,-0.608688,0.520229,0.350041,0.486141
1.64865,-470.073,482.947,1157.44,-0.609744,0.52092,0.347983,0.485554
1.66087,-470.54,485.768,1158.78,-0.610822,0.521536,0.346073,0.484903
1.67308,-471.536,490.278,1160.93,-0.612701,0.52259,0.34298,0.483593
1.68529,-472.532,494.448,1162.87,-0.61443,0.523665,0.340133,0.482246
1.6975,-473.303,497.381,1164.16,-0.61566,0.524454,0.338164,0.481202
1.70971,-474.108,500.331,1165.47,-0.616917,0.525263,0.336186,0.480095
1.72193,-474.925,503.316,1166.79,-0.618213,0.526067,0.334142,0.478974
1.73414,-475.747,506.551,1168.26,-0.619588,0.526963,0.331822,0.477823
1.74635,-476.556,509.144,1169.42,-0.620779,0.527678,0.329977,0.476765
1.75856,-477.065,510.726,1170.11,-0.621533,0.528109,0.328853,0.476081
1.77078,-479.071,517.111,1172.93,-0.624579,0.529815,0.324291,0.47332
1.78299,-480.001,520.147,1174.2,-0.626037,0.530771,0.321965,0.471908
1.7952,-480.844,523.224,1175.6,-0.627521,0.531713,0.319526,0.470535
1.80741,-481.592,526.419,1177.09,-0.629066,0.532709,0.31688,0.469132
1.81962,-482.39,529.531,1178.57,-0.630643,0.533706,0.314285,0.467624
1.83184,-483.237,532.515,1179.86,-0.632134,0.534745,0.311866,0.46604
1.84405,-484.65,537.87,1182.12,-0.634791,0.536826,0.307315,0.463051
1.85626,-485.646,541.78,1183.7,-0.63667,0.538482,0.303909,0.46079
1.86847,-486.303,544.931,1185.14,-0.638264,0.539671,0.301018,0.459089
1.88069,-486.571,546.389,1185.84,-0.638997,0.540197,0.299692,0.458318
1.8929,-486.818,547.758,1186.52,-0.639685,0.540681,0.298451,0.457597
1.90511,-487.399,550.583,1187.99,-0.641196,0.541637,0.295806,0.456066
1.91732,-488.869,559.461,1192.24,-0.645536,0.54485,0.287553,0.45137
1.92954,-489.487,563.13,1194.21,-0.647443,0.546176,0.283862,0.449369
1.94175,-490.004,566.516,1196.06,-0.649291,0.547451,0.280244,0.447417
1.95396,-490.435,569.75,1197.94,-0.651105,0.548465,0.27685,0.445649
1.96617,-490.828,573.007,1199.91,-0.652934,0.549518,0.273322,0.44385
1.97838,-491.158,576.319,1201.89,-0.65475,0.550614,0.269683,0.442039
1.9906,-491.391,579.684,1203.88,-0.656513,0.551599,0.266121,0.440351
2.00281,-491.359,584.833,1206.95,-0.658956,0.55308,0.260616,0.438131
2.01502,-491.23,589.955,1209.98,-0.661302,0.554629,0.255045,0.435912
2.02723,-491.131,593.681,1212.22,-0.663052,0.555693,0.250976,0.434256
2.03945,-491.042,597.398,1214.48,-0.664758,0.55665,0.247067,0.432662
2.05166,-491.032,598.134,1214.92,-0.66509,0.556835,0.24631,0.432345
2.06387,-491.033,598.134,1214.92,-0.66509,0.556835,0.24631,0.432344
2.07608,-490.461,608.744,1221.46,-0.669661,0.559297,0.235304,0.42822
2.08829,-490.304,612.736,1223.62,-0.67114,0.560335,0.231476,0.426633
2.10051,-489.982,616.472,1225.97,-0.672604,0.560992,0.227874,0.4254
2.11272,-489.767,620.119,1228.2,-0.674002,0.561716,0.224434,0.424058
2.12493,-489.475,625.364,1231.35,-0.675956,0.56269,0.21973,0.422116
2.13714,-489.163,631.383,1234.97,-0.678155,0.563686,0.214541,0.419923
2.14936,-488.871,635.227,1237.28,-0.679459,0.564257,0.211376,0.418653
2.16157,-488.574,639.392,1239.46,-0.680646,0.565093,0.208153,0.41721
2.17378,-488.238,643.468,1241.55,-0.681746,0.565921,0.205095,0.415802
2.18599,-487.969,646.422,1243.04,-0.682525,0.566436,0.203016,0.414843
2.1982,-487.583,649.941,1244.78,-0.683429,0.566986,0.200601,0.413776
2.21042,-486.548,657.117,1248.46,-0.685305,0.567922,0.19558,0.41179
2.22263,-485.804,661.284,1250.62,-0.686355,0.568371,0.19271,0.410773
2.23484,-485.016,665.407,1252.72,-0.687318,0.568881,0.189873,0.409777
2.24705,-483.953,671.633,1255.38,-0.688469,0.569951,0.185974,0.408143
2.25927,-482.968,677.928,1257.8,-0.689441,0.57115,0.182357,0.406453
2.27148,-482.286,682.187,1259.12,-0.689841,0.572157,0.180131,0.405349
2.28369,-481.57,686.387,1260.16,-0.690037,0.573355,0.17804,0.404245
2.2959,-480.902,690.616,1260.81,-0.690032,0.574829,0.176117,0.403002
2.30811,-480.459,693.975,1261.25,-0.690036,0.575968,0.174726,0.401974
2.32033,-480.056,697.185,1261.62,-0.690025,0.577082,0.173453,0.400944
2.33254,-479.402,701.695,1261.72,-0.689793,0.578899,0.171746,0.399456
2.34475,-478.334,708.009,1261.48,-0.689231,0.581684,0.169397,0.397378
2.35696,-477.607,710.923,1261.33,-0.688867,0.583041,0.168185,0.396534
2.36918,-476.055,716.505,1260.8,-0.688151,0.585856,0.165742,0.394653
2.38139,-474.714,721.35,1260.2,-0.687534,0.588331,0.163697,0.392897
2.3936,-473.647,725.281,1259.43,-0.687018,0.590415,0.162195,0.391292
2.40581,-472.019,731.199,1258.03,-0.686187,0.593675,0.160016,0.388706
2.41802,-470.815,734.929,1256.96,-0.685503,0.595884,0.158559,0.387127
2.43024,-468.969,739.862,1255.05,-0.684337,0.599193,0.15649,0.384919
2.44245,-466.401,746.429,1252.2,-0.682689,0.603759,0.153718,0.381813
2.45466,-463.223,754.222,1248.44,-0.680877,0.609058,0.150623,0.377845
2.46687,-461.384,758.83,1245.89,-0.679865,0.612416,0.14856,0.375046
2.47909,-458.162,766.524,1241.54,-0.678198,0.618204,0.144528,0.370112
2.4913,-457.087,769.08,1240.09,-0.677668,0.620126,0.143062,0.368434
2.50351,-455.638,772.567,1237.97,-0.676923,0.622832,0.141032,0.366012
2.51572,-452.499,779.77,1233.99,-0.675643,0.62794,0.136905,0.361185
2.52794,-450.092,784.889,1231.18,-0.674737,0.631521,0.133852,0.357764
2.54015,-448.039,788.905,1228.96,-0.673981,0.634336,0.131351,0.355127
2.55236,-445.891,792.789,1226.73,-0.673188,0.637116,0.128814,0.352573
2.56457,-443.682,796.564,1224.62,-0.672469,0.63983,0.126138,0.34999
2.57678,-441.404,800.707,1222.45,-0.671867,0.642626,0.123263,0.347033
2.589,-438.013,807.069,1219.57,-0.671419,0.64652,0.118641,0.342248
2.60121,-436.042,810.776,1218.37,-0.671432,0.648566,0.115691,0.339349
2.61342,-433.985,814.142,1217.38,-0.671439,0.650377,0.112813,0.336827
2.62563,-431.697,817.433,1216.46,-0.671428,0.65213,0.1098,0.334447
2.63785,-429.231,820.637,1215.64,-0.67144,0.653752,0.106737,0.332241
2.65006,-428.375,821.703,1215.38,-0.671451,0.654278,0.105692,0.331515
2.66227,-423.256,827.453,1214.3,-0.671693,0.657146,0.0991811,0.327339
2.67448,-419.66,831.568,1213.65,-0.672061,0.65913,0.0942299,0.324041
2.68669,-417.105,834.382,1213.7,-0.672736,0.660174,0.090313,0.32162
2.69891,-414.781,836.811,1213.75,-0.673358,0.661112,0.0867116,0.319375
2.71112,-412.333,839.097,1213.8,-0.673971,0.66203,0.0830007,0.31716
2.72333,-410.005,841.211,1213.88,-0.674694,0.662803,0.0793957,0.314922
2.73554,-407.744,843.023,1214.02,-0.675374,0.663443,0.0759573,0.312961
2.74776,-403.505,846.15,1214.04,-0.676615,0.664777,0.0692805,0.308973
2.75997,-399.567,848.933,1214.08,-0.677854,0.665955,0.0628968,0.305062
2.77218,-396.926,850.751,1214.35,-0.678924,0.666551,0.0584395,0.302253
2.78439,-392.862,853.402,1214.98,-0.680876,0.667203,0.0513061,0.297686
2.7966,-388.227,856.199,1215.59,-0.683098,0.667853,0.0431107,0.292389
2.80882,-384.825,858.088,1215.87,-0.684692,0.66836,0.0369835,0.288311
2.82103,-381.481,859.898,1216.29,-0.686425,0.668717,0.0306977,0.284069
2.83324,-378.024,861.732,1216.55,-0.688326,0.669123,0.0238273,0.279131
2.84545,-371.867,864.629,1216.57,-0.69141,0.669835,0.011706,0.270436
2.85767,-367.457,866.567,1216.49,-0.69363,0.670214,0.00275943,0.263976
2.86988,-363.823,868.102,1216.68,-0.695711,0.670214,-0.00495427,0.258408
2.88209,-360.187,869.538,1216.98,-0.697956,0.669987,-0.0129167,0.252601
2.8943,-356.541,870.875,1217.05,-0.700144,0.669771,-0.0211018,0.246496
2.90651,-352.875,872.302,1217.17,-0.70242,0.669449,-0.0295202,0.239945
2.91873,-349.267,873.743,1217.5,-0.704879,0.668869,-0.0381333,0.233036
2.93094,-344.526,875.518,1217.83,-0.707993,0.667941,-0.0493413,0.223979
2.94315,-339.665,877.197,1218.33,-0.71095,0.666724,-0.0602563,0.215405
2.95536,-339.665,877.197,1218.33,-0.71095,0.666724,-0.0602563,0.215405
2.96758,-334.39,878.972,1219,-0.713982,0.665162,-0.0717146,0.206509
2.97979,-327.741,881.124,1219.77,-0.717522,0.66299,-0.0859592,0.195495
2.992,-322.053,882.921,1220.39,-0.720281,0.660972,-0.0978496,0.186381
3.00421,-316.548,884.754,1221.17,-0.723065,0.658648,-0.10962,0.17704
3.01643,-313.06,885.972,1221.66,-0.724892,0.656999,-0.117299,0.170659
3.02864,-309.905,887.105,1221.79,-0.726436,0.65556,-0.124448,0.164453
3.04085,-307.11,888.181,1221.86,-0.727836,0.654187,-0.130998,0.158534
3.05306,-303.576,889.567,1222.11,-0.729629,0.652252,-0.139218,0.151089
3.06527,-298.167,891.638,1222.15,-0.732096,0.649232,-0.151696,0.139723
3.07749,-295.77,892.594,1221.88,-0.733023,0.647954,-0.157314,0.134485
3.0897,-294.214,893.262,1221.72,-0.733627,0.647082,-0.16097,0.131015
3.10191,-292.753,893.903,1221.57,-0.734185,0.646241,-0.164416,0.127723
3.11412,-286.599,896.4,1220.58,-0.736038,0.64288,-0.17816,0.114946
3.12634,-280.649,898.912,1219.39,-0.737412,0.639657,-0.190854,0.103134
3.13855,-274.196,901.5,1218.05,-0.738453,0.636345,-0.203213,0.0919591
3.15076,-270.833,902.984,1217.23,-0.738814,0.634715,-0.209341,0.086406
3.16297,-267.382,904.567,1216.15,-0.738994,0.63319,-0.215436,0.0809019
3.17518,-264.14,905.994,1214.9,-0.738947,0.631963,-0.220857,0.076181
3.1874,-260.878,907.446,1213.4,-0.738682,0.630959,-0.226012,0.071831
3.19961,-257.612,908.971,1211.65,-0.738246,0.630123,-0.231001,0.0676485
3.21182,-254.296,910.486,1209.85,-0.737697,0.629385,-0.235801,0.0638403
3.22403,-249.153,913.016,1206.51,-0.736511,0.628532,-0.243191,0.0579449
3.23625,-244.478,915.322,1203.2,-0.735229,0.627896,-0.249795,0.0527895
3.24846,-243.512,915.785,1202.49,-0.734936,0.62779,-0.251128,0.0517908
3.26067,-240.89,917.003,1200.47,-0.734086,0.627542,-0.254747,0.0491279
3.27288,-235.442,919.579,1196.25,-0.732287,0.627015,-0.262091,0.0437728
3.28509,-228.18,922.725,1190.88,-0.729867,0.626296,-0.271372,0.037484
3.29731,-224.587,924.505,1187.74,-0.728427,0.626041,-0.27625,0.0339693
3.30952,-220.932,926.038,1184.72,-0.727055,0.625686,-0.281006,0.0307291
3.32173,-217.607,927.612,1181.72,-0.72566,0.625356,-0.285664,0.0272778
3.33394,-214.378,929.286,1178.42,-0.724146,0.625059,-0.290446,0.0235609
3.34616,-210.994,930.933,1174.74,-0.722465,0.624691,-0.295677,0.0195082
3.35837,-208.15,932.493,1171.34,-0.72093,0.624255,-0.300543,0.015451
3.37058,-204.532,934.595,1166.75,-0.718945,0.623501,-0.307034,0.00976784
3.38279,-200.151,937.219,1160.95,-0.716467,0.622266,-0.315365,0.00228178
3.395,-197.425,938.917,1157.53,-0.715078,0.62111,-0.320748,-0.00265628
3.40722,-194.756,940.611,1154.18,-0.713776,0.619675,-0.32629,-0.00783714
3.41943,-192.356,942.311,1151.02,-0.712546,0.618113,-0.331727,-0.0131287
3.43164,-189.819,944.153,1147.75,-0.711279,0.616217,-0.337636,-0.0189929
3.44385,-187.596,945.804,1144.65,-0.710033,0.614359,-0.343234,-0.0246302
3.45607,-184.074,948.729,1139.13,-0.70783,0.610511,-0.353561,-0.0353371
3.46828,-181.684,950.577,1135.45,-0.706336,0.607589,-0.360709,-0.0425927
3.48049,-179.575,952.188,1132.48,-0.705163,0.604673,-0.367039,-0.0489701
3.4927,-177.608,953.757,1129.71,-0.70412,0.601489,-0.373321,-0.0552987
3.50491,-175.488,955.279,1126.72,-0.702958,0.598075,-0.379933,-0.0617009
3.51713,-173.322,956.732,1123.67,-0.701684,0.594449,-0.386813,-0.0681534
3.52934,-171.13,958.22,1120.7,-0.70042,0.590601,-0.393765,-0.0745039
3.54155,-168.949,959.461,1117.88,-0.699301,0.586767,-0.400338,-0.0800846
3.55376,-167.571,960.085,1116.13,-0.698674,0.584246,-0.404434,-0.0833385
3.56598,-167.571,960.085,1116.13,-0.698674,0.584245,-0.404433,-0.0833385
3.57819,-165.837,960.814,1114.38,-0.698078,0.581197,-0.409095,-0.0868241
3.5904,-159.988,962.928,1108.72,-0.696203,0.570994,-0.42411,-0.0969394
3.60261,-155.193,964.435,1104.13,-0.694548,0.562424,-0.436279,-0.104609
3.61483,-153.447,964.878,1102.59,-0.694125,0.559141,-0.440576,-0.106981
3.62704,-150.232,965.792,1099.34,-0.693058,0.552853,-0.448974,-0.111561
3.63925,-148.462,966.193,1097.57,-0.692451,0.549404,-0.453542,-0.113872
3.65146,-147.32,966.387,1096.44,-0.69207,0.547202,-0.456437,-0.115216
3.66367,-144.733,966.738,1093.79,-0.691227,0.541875,-0.463273,-0.118129
3.67589,-140.402,967.122,1089.48,-0.689727,0.532962,-0.474571,-0.122515
3.6881,-134.191,967.294,1083.68,-0.687393,0.520322,-0.490319,-0.127839
3.70031,-132.012,967.28,1081.72,-0.686641,0.515741,-0.495778,-0.129382
3.71252,-129.124,967.219,1079.21,-0.68567,0.5095,-0.503002,-0.131358
3.72474,-123.77,966.708,1074.66,-0.683856,0.49839,-0.515738,-0.134031
3.73695,-120.653,966.118,1071.97,-0.682579,0.492408,-0.522926,-0.134795
3.74916,-117.599,965.508,1069.32,-0.681246,0.486573,-0.529929,-0.135373
3.76137,-114.693,964.971,1066.74,-0.679952,0.480911,-0.536581,-0.135909
3.77358,-111.867,964.431,1064.17,-0.678653,0.475425,-0.542967,-0.136336
3.7858,-108.838,963.736,1061.22,-0.67706,0.469738,-0.549815,-0.136522
3.79801,-104.186,962.567,1056.36,-0.674239,0.460771,-0.560731,-0.136649
3.81022,-100.938,961.782,1053.06,-0.672225,0.454364,-0.568321,-0.13667
3.82243,-98.4624,961.196,1050.6,-0.670634,0.4493,-0.574172,-0.13677
3.83465,-95.7433,960.526,1047.83,-0.668692,0.443872,-0.580597,-0.13688
3.84686,-93.4222,959.829,1045.06,-0.66668,0.439154,-0.586479,-0.136836
3.85907,-92.5641,959.627,1043.97,-0.66584,0.437282,-0.588815,-0.136888
3.87128,-88.0164,958.502,1037.89,-0.661046,0.427096,-0.601499,-0.137134
3.88349,-86.1418,958.093,1035.16,-0.65882,0.422741,-0.606934,-0.137394
3.89571,-84.5867,957.732,1032.47,-0.656669,0.418919,-0.611836,-0.13766
3.90792,-83.5,957.516,1030.1,-0.654712,0.415987,-0.615846,-0.137989
3.92013,-82.7452,957.416,1028.55,-0.653304,0.413948,-0.61864,-0.138298
3.93234,-81.8735,957.377,1026.67,-0.651577,0.411511,-0.621984,-0.138714
3.94456,-80.8104,957.438,1024.27,-0.649307,0.4084,-0.626259,-0.139317
3.95677,-79.8285,957.523,1021.96,-0.647108,0.405462,-0.630298,-0.139916
3.96898,-79.0126,957.694,1019.92,-0.645147,0.402954,-0.633764,-0.140558
3.98119,-78.2134,957.857,1017.87,-0.64316,0.400444,-0.637227,-0.141183
3.9934,-77.4553,958.007,1016.24,-0.641522,0.398531,-0.639953,-0.141715
4.00562,-76.7102,958.153,1014.65,-0.639912,0.396681,-0.642594,-0.142233
4.01783,-75.9802,958.294,1013.05,-0.638284,0.39483,-0.645233,-0.142748
4.03004,-73.4047,959.471,1006.37,-0.631273,0.388031,-0.655604,-0.145295
4.04225,-70.446,962.258,997.31,-0.621081,0.380152,-0.6687,-0.150279
4.05447,-69.7374,963.23,995.107,-0.618465,0.378235,-0.671863,-0.151785
4.06668,-69.1139,964.168,993.081,-0.616097,0.376747,-0.674534,-0.153264
4.07889,-68.7555,965.247,990.944,-0.61359,0.375512,-0.677122,-0.154933
4.0911,-68.0911,966.389,988.715,-0.610936,0.374228,-0.679835,-0.156637
4.10332,-67.2313,967.57,985.977,-0.607759,0.37279,-0.683026,-0.158535
4.11553,-66.0875,969.144,982.224,-0.603376,0.370946,-0.687302,-0.161098
4.12774,-65.2925,970.067,979.818,-0.600664,0.369958,-0.689864,-0.162548
4.13995,-64.576,970.783,977.254,-0.597988,0.369064,-0.692368,-0.163793
4.15216,-64.2643,971.039,976.04,-0.596782,0.368685,-0.693492,-0.164291
4.16438,-63.26,972.249,972.038,-0.592488,0.367524,-0.697304,-0.166284
4.17659,-62.4104,973.369,968.334,-0.588606,0.366781,-0.700566,-0.167995
4.1888,-61.8777,974.047,965.49,-0.585842,0.36651,-0.702774,-0.169024
4.20101,-61.3531,974.599,962.75,-0.583205,0.366222,-0.704902,-0.169901
4.21322,-60.9845,975.184,959.966,-0.580591,0.366176,-0.70687,-0.170778
4.22544,-60.8418,975.811,957.606,-0.578366,0.366352,-0.708394,-0.171628
4.23765,-60.7461,976.478,954.939,-0.575904,0.366694,-0.709997,-0.172551
4.24986,-60.7028,977.431,948.925,-0.570631,0.36738,-0.713494,-0.174177
4.26207,-60.7113,977.819,945.89,-0.568047,0.367657,-0.71523,-0.174921
4.27429,-60.7972,978.196,942.755,-0.565424,0.36799,-0.716936,-0.175731
4.2865,-60.8584,978.505,939.495,-0.562639,0.368261,-0.718781,-0.176563
4.29871,-60.8441,978.652,936.922,-0.56048,0.36836,-0.720261,-0.177193
4.31092,-60.7682,978.763,933.954,-0.557988,0.368353,-0.722013,-0.177939
4.32314,-60.6665,978.918,928.797,-0.553649,0.368201,-0.725077,-0.179347
4.33535,-60.5742,978.992,924.539,-0.550071,0.367904,-0.72763,-0.18062
4.34756,-60.3115,978.94,919.292,-0.545747,0.367196,-0.730821,-0.182287
4.35977,-60.014,978.811,915.36,-0.542602,0.366553,-0.733174,-0.183515
4.37198,-59.5911,978.569,912.017,-0.540033,0.365752,-0.735225,-0.184483
4.3842,-59.0851,978.365,909.101,-0.537901,0.364931,-0.736968,-0.185383
4.39641,-58.469,978.137,906.356,-0.536,0.363917,-0.738628,-0.18627
4.40862,-57.6392,977.782,903.498,-0.534209,0.362523,-0.740356,-0.187272
4.42083,-56.0725,977.212,899.082,-0.531724,0.360017,-0.742941,-0.188934
4.43305,-55.3684,976.915,897.326,-0.530773,0.359011,-0.743966,-0.189487
4.44526,-54.6157,976.546,895.555,-0.529895,0.357891,-0.744997,-0.190012
4.45747,-54.3433,976.411,894.92,-0.529584,0.357484,-0.745366,-0.190197
4.46968,-53.8047,976.263,893.951,-0.529204,0.356762,-0.745878,-0.190606
4.48189,-51.6204,975.658,890.012,-0.527656,0.353758,-0.747971,-0.19229
4.49411,-49.9485,975.321,887.575,-0.526892,0.351445,-0.749285,-0.193504
4.50632,-49.0288,975.173,886.39,-0.526611,0.350201,-0.74989,-0.194178
4.51853,-48.3953,975.099,885.686,-0.526515,0.349376,-0.750223,-0.194638
4.53074,-46.4915,974.927,883.945,-0.526552,0.346808,-0.751024,-0.196036
4.54296,-44.8665,974.744,882.543,-0.526506,0.344682,-0.751754,-0.197105
4.55517,-43.4353,974.557,881.35,-0.526416,0.342844,-0.752429,-0.197977
4.56738,-42.011,974.513,880.643,-0.526828,0.340993,-0.752736,-0.198906
4.57959,-40.5884,974.487,880.027,-0.527333,0.339134,-0.752975,-0.19984
4.5918,-39.1531,974.586,879.836,-0.528091,0.337413,-0.75297,-0.200769
4.60402,-37.7185,974.681,879.661,-0.528858,0.335691,-0.752955,-0.201692
4.61623,-34.6172,974.97,879.82,-0.530772,0.332035,-0.752732,-0.203539
4.62844,-31.6309,975.346,880.35,-0.532985,0.328704,-0.752156,-0.205284
4.64065,-28.7271,975.636,880.789,-0.534851,0.325503,-0.751811,-0.206794
4.65287,-27.2771,975.802,881.113,-0.535848,0.323845,-0.751617,-0.207517
4.66508,-25.822,976.067,881.61,-0.536999,0.322215,-0.75129,-0.208259
4.67729,-24.5989,976.311,882.061,-0.537914,0.320839,-0.751061,-0.208851
4.6895,-23.4626,976.568,882.443,-0.53865,0.319588,-0.750915,-0.209395
4.70171,-22.4131,976.786,882.722,-0.539323,0.318456,-0.75078,-0.209872
4.71393,-21.429,976.898,882.909,-0.539923,0.317363,-0.75073,-0.210164
4.72614,-19.8896,976.97,883.13,-0.540679,0.315603,-0.750866,-0.210385
4.73835,-18.5422,977.008,883.189,-0.541093,0.314091,-0.751183,-0.210449
4.75056,-18.2754,977.013,883.164,-0.541116,0.313799,-0.751292,-0.210438
4.76278,-17.5811,977.037,883.069,-0.541091,0.313054,-0.751657,-0.210308
4.77499,-16.5508,977.092,882.761,-0.540812,0.311986,-0.75237,-0.210061
4.7872,-15.8684,977.11,882.497,-0.540509,0.311374,-0.752909,-0.20982
4.79941,-15.2341,977.085,882.155,-0.540114,0.310795,-0.753508,-0.209546
4.81163,-14.0186,976.818,881.161,-0.539172,0.309633,-0.754831,-0.208929
4.82384,-13.4568,976.697,880.641,-0.538564,0.309038,-0.755593,-0.208623
4.83605,-13.0967,976.589,880.023,-0.537804,0.308642,-0.756368,-0.208363
4.84826,-12.8633,976.546,879.498,-0.537097,0.308356,-0.757043,-0.208159
4.86047,-12.4663,976.513,878.459,-0.535601,0.307962,-0.758379,-0.20773
4.87269,-12.3015,976.486,877.704,-0.534527,0.30785,-0.759264,-0.207433
4.8849,-12.2996,976.474,877.274,-0.533938,0.307866,-0.759711,-0.207289
4.89711,-12.3284,976.465,876.915,-0.533457,0.307904,-0.760064,-0.207176
4.90932,-12.3777,976.469,876.344,-0.53267,0.307978,-0.760637,-0.206988
4.92154,-12.6377,976.332,874.307,-0.529962,0.308284,-0.762599,-0.206262
4.93375,-12.8743,976.115,872.399,-0.527483,0.308532,-0.764407,-0.205551
4.94596,-13.0139,975.973,871.325,-0.526109,0.308674,-0.765395,-0.205183
4.95817,-13.4778,975.781,869.376,-0.523572,0.309212,-0.767074,-0.204592
4.97038,-13.9312,975.668,867.92,-0.521647,0.309747,-0.768284,-0.20416
4.9826,-14.4033,975.647,866.738,-0.519989,0.310327,-0.769254,-0.203855
4.99481,-14.926,975.628,865.547,-0.518307,0.310965,-0.77022,-0.203519
5.00702,-15.5059,975.695,864.483,-0.516778,0.311677,-0.771024,-0.203275
5.01923,-16.0039,975.678,863.345,-0.515263,0.31244,-0.77182,-0.202926
5.03145,-16.46,975.621,862.271,-0.513876,0.313148,-0.772554,-0.202558
5.04366,-16.8684,975.55,861.201,-0.512535,0.313894,-0.773244,-0.202166
5.05587,-17.1223,975.471,860.496,-0.511687,0.314362,-0.773683,-0.20191
5.06808,-17.5645,975.282,859.092,-0.509942,0.315295,-0.774619,-0.20128
5.08029,-18.1355,975.01,857.238,-0.507689,0.316513,-0.775815,-0.200455
5.09251,-18.4343,974.922,856.291,-0.506555,0.317192,-0.776376,-0.200081
5.10472,-18.6975,974.878,855.473,-0.50556,0.317852,-0.776842,-0.199739
5.11693,-19.1409,974.901,854.349,-0.504111,0.318958,-0.777459,-0.199238
5.12914,-19.3794,974.929,853.609,-0.503134,0.319803,-0.777851,-0.198824
5.14136,-19.5046,974.934,853.08,-0.502464,0.320478,-0.778096,-0.19847
5.15357,-19.5754,974.904,852.563,-0.501876,0.321201,-0.778279,-0.19807
5.16578,-19.5781,974.781,851.975,-0.501348,0.321928,-0.778447,-0.197567
5.17799,-19.5056,974.687,851.497,-0.500914,0.322623,-0.77855,-0.19713
5.19021,-19.3022,974.549,850.985,-0.500491,0.323427,-0.77863,-0.19657
5.20242,-19.0752,974.406,850.472,-0.50007,0.324243,-0.778705,-0.195997
5.21463,-18.8218,974.342,850.044,-0.499685,0.325061,-0.778723,-0.195554
5.22684,-18.187,974.306,849.526,-0.499357,0.326424,-0.778518,-0.194934
5.23905,-17.8335,974.396,849.324,-0.499269,0.327191,-0.778275,-0.194844
5.25127,-17.5579,974.539,849.098,-0.499167,0.327999,-0.777992,-0.194878
5.26348,-17.3154,974.768,848.946,-0.499105,0.328858,-0.777623,-0.195062
5.27569,-17.0627,975.185,848.633,-0.498878,0.330324,-0.777019,-0.195572
5.2879,-16.9392,975.617,848.295,-0.498602,0.331812,-0.776408,-0.196181
5.30012,-16.9277,975.953,848.009,-0.498354,0.332954,-0.775935,-0.19675
5.31233,-16.907,976.294,847.749,-0.498112,0.334053,-0.77546,-0.197371
5.32454,-16.9773,976.626,847.453,-0.497831,0.335094,-0.775028,-0.198008
5.33675,-16.9661,976.963,847.227,-0.497584,0.336103,-0.774585,-0.198654
5.34896,-17.0261,977.322,847.057,-0.49734,0.337011,-0.77418,-0.199305
5.36118,-17.0486,977.412,847.018,-0.497277,0.337232,-0.77408,-0.199477
5.37339,-17.3184,978.178,846.707,-0.496692,0.338979,-0.773302,-0.200984
5.3856,-17.9395,979.515,846.212,-0.495595,0.341796,-0.772064,-0.203661
5.39781,-18.196,980.021,845.985,-0.495145,0.342838,-0.771614,-0.20471
5.41003,-18.3408,980.453,845.744,-0.494756,0.34383,-0.771167,-0.205668
5.42224,-18.5415,980.85,845.475,-0.494311,0.344806,-0.770774,-0.206573
5.43445,-18.6667,981.157,845.251,-0.493946,0.345601,-0.770462,-0.207284
5.44666,-19.137,982.028,844.618,-0.492875,0.347831,-0.769579,-0.209373
5.45887,-19.3689,982.457,844.318,-0.492349,0.348923,-0.769135,-0.21042
5.47109,-19.5723,982.846,844.014,-0.491835,0.349984,-0.768728,-0.211348
5.4833,-19.8657,983.277,843.811,-0.491317,0.350908,-0.768377,-0.212293
5.49551,-20.1675,983.709,843.613,-0.490797,0.351821,-0.76803,-0.213239
5.50772,-20.5444,984.205,843.392,-0.490207,0.352848,-0.767628,-0.214344
5.51994,-21.2544,985.106,843.107,-0.489202,0.354583,-0.766926,-0.21628
5.53215,-21.8494,985.885,842.791,-0.488254,0.356164,-0.766319,-0.217972
5.54436,-22.1499,986.253,842.679,-0.487857,0.356877,-0.766016,-0.218757
5.55657,-22.4624,986.663,842.595,-0.487428,0.357599,-0.765713,-0.219593
5.56878,-22.6704,987.029,842.537,-0.487029,0.35818,-0.765476,-0.220357
5.581,-22.9373,987.381,842.537,-0.48666,0.358654,-0.76529,-0.221045
5.59321,-23.0527,987.683,842.607,-0.486403,0.359023,-0.76511,-0.221633
5.60542,-23.1006,987.962,842.697,-0.486199,0.359355,-0.764938,-0.222136
5.61763,-22.9685,988.328,843.005,-0.486082,0.359571,-0.764747,-0.2227
5.62985,-22.7046,988.649,843.436,-0.486137,0.359675,-0.764552,-0.223079
5.64206,-22.5051,988.794,843.738,-0.486249,0.359572,-0.764503,-0.223173
5.65427,-22.4438,988.837,843.832,-0.486279,0.359515,-0.764502,-0.223202
5.66648,-22.157,988.995,844.152,-0.486362,0.359335,-0.764516,-0.223259
5.67869,-21.9387,989.11,844.391,-0.486424,0.359145,-0.764561,-0.22328
5.69091,-21.7073,989.157,844.581,-0.486511,0.358936,-0.764623,-0.223214
5.70312,-21.4834,989.262,844.887,-0.486638,0.358734,-0.764635,-0.223221
5.71533,-21.1147,989.307,845.169,-0.48678,0.358476,-0.764678,-0.223178
5.72754,-20.5215,989.294,845.649,-0.487098,0.357921,-0.764806,-0.222934
5.73976,-20.1716,989.213,845.837,-0.487283,0.357621,-0.764899,-0.222694
5.75197,-19.854,989.166,846.058,-0.487461,0.357358,-0.764957,-0.222525
5.76418,-19.5962,989.118,846.231,-0.487576,0.357098,-0.765038,-0.222411
5.77639,-19.4155,989.03,846.315,-0.487648,0.356829,-0.765163,-0.222256
5.78861,-19.189,988.837,846.328,-0.487724,0.35649,-0.765349,-0.221994
5.80082,-18.9927,988.588,846.298,-0.487766,0.356064,-0.765603,-0.221707
5.81303,-18.9724,988.453,846.234,-0.48774,0.355845,-0.765759,-0.221582
5.82524,-18.9351,988.249,846.121,-0.48772,0.355589,-0.765951,-0.22137
5.83745,-18.927,988.045,846.014,-0.487715,0.355327,-0.766138,-0.221156
5.84967,-18.9363,987.834,845.858,-0.487657,0.355065,-0.766348,-0.220975
5.86188,-18.9421,987.597,845.686,-0.487626,0.354774,-0.766576,-0.22072
5.87409,-18.9807,987.354,845.488,-0.487577,0.354529,-0.766796,-0.220461
5.8863,-18.947,986.906,845.129,-0.487523,0.354069,-0.767186,-0.219959
5.89852,-18.9072,986.648,844.942,-0.487525,0.353791,-0.767405,-0.21964
5.91073,-18.8555,986.439,844.81,-0.487568,0.353571,-0.767572,-0.219313
