timestamp,ArmR2_Sho1,ArmR3_Sho2,ArmR4_Sho3,ArmR5_Elb1,ArmR6_Elb2,ArmR7_Wri1,ArmR8_Wri2
0,1.40654,0.119433,0.317946,2.1549,3.08919,-0.0984486,-0.694171
0.0130338,1.40658,0.119418,0.317936,2.15488,3.08918,-0.0984594,-0.695438
0.0260676,1.40658,0.119394,0.317958,2.15488,3.08918,-0.0984486,-0.696116
0.0391014,1.40657,0.119395,0.317944,2.1549,3.0892,-0.0984486,-0.696806
0.0521352,1.40658,0.119411,0.31792,2.15489,3.08919,-0.0984486,-0.697402
0.065169,1.40658,0.119402,0.317922,2.15488,3.08919,-0.0984486,-0.697961
0.0782028,1.40659,0.119409,0.317938,2.15488,3.08918,-0.0984277,-0.698814
0.0912366,1.40662,0.119409,0.317925,2.15484,3.08921,-0.0984288,-0.699618
0.10427,1.40662,0.119436,0.317901,2.15487,3.0892,-0.0984727,-0.70009
0.117304,1.40664,0.119424,0.317877,2.15489,3.08919,-0.0984338,-0.700553
0.130338,1.40666,0.119421,0.317918,2.15486,3.08923,-0.0984356,-0.701061
0.143372,1.40667,0.119397,0.317922,2.15487,3.0892,-0.0984249,-0.702005
0.156406,1.40667,0.119425,0.317934,2.15486,3.0892,-0.0984352,-0.70236
0.169439,1.40668,0.119369,0.317936,2.15484,3.0892,-0.0984246,-0.702876
0.182473,1.40668,0.119409,0.317943,2.15483,3.08919,-0.0984372,-0.703484
0.195507,1.40668,0.119398,0.317934,2.15484,3.08919,-0.0984652,-0.704206
0.208541,1.40669,0.119373,0.317934,2.15489,3.08921,-0.0984486,-0.704837
0.221575,1.40669,0.119373,0.317934,2.15489,3.08921,-0.0984486,-0.704837
0.234608,1.40669,0.119373,0.317934,2.15489,3.08921,-0.0984486,-0.704837
0.247642,1.40669,0.119394,0.317941,2.15488,3.0892,-0.0984702,-0.706007
0.260676,1.4067,0.119385,0.317946,2.15485,3.08919,-0.0984686,-0.707353
0.27371,1.4067,0.119409,0.317946,2.15484,3.08919,-0.0984974,-0.707973
0.286744,1.40669,0.11939,0.317915,2.15485,3.08919,-0.0984775,-0.708352
0.299777,1.40668,0.119361,0.317933,2.15494,3.08919,-0.0984258,-0.708735
0.312811,1.40667,0.119396,0.317956,2.1549,3.0892,-0.0984586,-0.709068
0.325845,1.40665,0.119391,0.317934,2.15488,3.08921,-0.0984366,-0.709467
0.338879,1.40669,0.119412,0.317934,2.15487,3.08921,-0.0984395,-0.710067
0.351913,1.4067,0.119391,0.317927,2.15488,3.08921,-0.0984387,-0.710341
0.364946,1.40671,0.119394,0.317924,2.15493,3.08921,-0.0984163,-0.710537
0.37798,1.4067,0.119369,0.317946,2.15492,3.08922,-0.0984325,-0.71086
0.391014,1.40669,0.119372,0.317935,2.15492,3.08921,-0.0984359,-0.711139
0.404048,1.40669,0.119363,0.317958,2.15488,3.0892,-0.0984033,-0.711257
0.417082,1.40669,0.119385,0.317958,2.15489,3.0892,-0.0983938,-0.71135
0.430115,1.40669,0.119385,0.317946,2.15493,3.0892,-0.0984294,-0.711543
0.443149,1.40669,0.11936,0.317928,2.15497,3.0892,-0.0984667,-0.711784
0.456183,1.40669,0.119369,0.317935,2.15498,3.0892,-0.0984596,-0.711917
0.469217,1.40669,0.11939,0.317932,2.155,3.0892,-0.0984554,-0.712045
0.482251,1.4067,0.119392,0.317937,2.15505,3.08922,-0.0984459,-0.712199
0.495284,1.40671,0.119374,0.317953,2.15509,3.08922,-0.0984366,-0.712332
0.508318,1.40671,0.119385,0.317926,2.15513,3.08921,-0.0984446,-0.712399
0.521352,1.40671,0.119397,0.31791,2.15515,3.08921,-0.0984486,-0.712411
0.534386,1.40671,0.119397,0.31791,2.15515,3.08921,-0.0984486,-0.712411
0.54742,1.40668,0.119388,0.317919,2.15544,3.08921,-0.0984664,-0.712589
0.560454,1.40665,0.119385,0.31795,2.15582,3.08919,-0.0984074,-0.71266
0.573487,1.40666,0.119404,0.317948,2.15616,3.0892,-0.0984454,-0.71271
0.586521,1.40662,0.119399,0.317965,2.1569,3.0892,-0.0984311,-0.712713
0.599555,1.40663,0.119386,0.317959,2.15722,3.08922,-0.0984761,-0.712824
0.612589,1.40667,0.119385,0.317926,2.15748,3.0892,-0.098453,-0.712864
0.625623,1.40668,0.119407,0.317955,2.1577,3.08923,-0.0984151,-0.712844
0.638656,1.40668,0.119479,0.317958,2.15823,3.0892,-0.0984243,-0.712796
0.65169,1.40671,0.119468,0.318006,2.15847,3.08925,-0.0984602,-0.712819
0.664724,1.40671,0.119444,0.317982,2.15858,3.08923,-0.0984015,-0.712842
0.677758,1.40669,0.119432,0.317993,2.15857,3.08922,-0.0984385,-0.712824
0.690792,1.40669,0.119424,0.317985,2.1583,3.08923,-0.0984845,-0.71268
0.703825,1.40665,0.119468,0.318029,2.15814,3.08921,-0.0984845,-0.712592
0.716859,1.40661,0.11948,0.317995,2.15785,3.08923,-0.0984381,-0.712486
0.729893,1.40655,0.119447,0.318038,2.15686,3.0893,-0.0984366,-0.711204
0.742927,1.40649,0.11949,0.318019,2.15591,3.08931,-0.0984592,-0.709236
0.755961,1.4064,0.119469,0.318006,2.15441,3.08931,-0.0984375,-0.70623
0.768994,1.40625,0.119433,0.318006,2.15227,3.08933,-0.098484,-0.702287
0.782028,1.40584,0.119444,0.317947,2.14603,3.08927,-0.0986376,-0.691977
0.795062,1.40567,0.11941,0.317934,2.14198,3.08927,-0.0987101,-0.684738
0.808096,1.40553,0.119373,0.317898,2.13723,3.08926,-0.0988436,-0.676319
0.82113,1.40541,0.119337,0.31767,2.13157,3.08926,-0.0989519,-0.668274
0.834163,1.40541,0.119337,0.31767,2.13157,3.08926,-0.0989519,-0.668274
0.847197,1.40541,0.119333,0.317669,2.13066,3.08926,-0.0989561,-0.666955
0.860231,1.40522,0.119187,0.317641,2.0968,3.0893,-0.0990994,-0.61779
0.873265,1.4052,0.119069,0.317779,2.07543,3.08933,-0.0989265,-0.589345
0.886299,1.40523,0.119011,0.317804,2.06328,3.08933,-0.0989039,-0.574994
0.899332,1.40518,0.118976,0.317837,2.04973,3.08932,-0.098905,-0.557392
0.912366,1.40517,0.118969,0.31783,2.03383,3.08934,-0.0989123,-0.537413
0.9254,1.40518,0.119006,0.317872,2.00531,3.08934,-0.0988729,-0.501439
0.938434,1.40518,0.119059,0.317992,1.98925,3.08935,-0.0987909,-0.481828
0.951468,1.40512,0.119048,0.318119,1.96959,3.08932,-0.0987334,-0.459042
0.964501,1.40497,0.119135,0.318251,1.93527,3.08937,-0.0986999,-0.421255
0.977535,1.40485,0.119123,0.318305,1.91451,3.08934,-0.0986005,-0.401095
0.990569,1.40474,0.119018,0.318458,1.89484,3.08934,-0.0984228,-0.380767
1.0036,1.40452,0.119063,0.318652,1.87092,3.08932,-0.098238,-0.35641
1.01664,1.40411,0.119173,0.318869,1.83461,3.08931,-0.0981497,-0.320592
1.02967,1.40385,0.119185,0.319011,1.81407,3.08934,-0.0980828,-0.301041
1.0427,1.40353,0.119147,0.319223,1.78902,3.08935,-0.0979768,-0.278004
1.05574,1.40294,0.119157,0.319452,1.74847,3.0893,-0.0979176,-0.242565
1.06877,1.4026,0.119163,0.319525,1.72586,3.08928,-0.0979932,-0.222126
1.08181,1.40228,0.119168,0.319497,1.70328,3.08927,-0.0980304,-0.201916
1.09484,1.40198,0.119099,0.319376,1.67423,3.08925,-0.098171,-0.176161
1.10787,1.40176,0.119013,0.319204,1.64236,3.08925,-0.0982568,-0.148024
1.12091,1.40176,0.119013,0.319204,1.64236,3.08925,-0.0982568,-0.148024
1.13394,1.40176,0.119013,0.319204,1.64236,3.08925,-0.0982568,-0.148024
1.14697,1.40205,0.118972,0.319107,1.60803,3.08922,-0.0982268,-0.118251
1.16001,1.40275,0.118897,0.318931,1.52551,3.08916,-0.0981259,-0.0462631
1.17304,1.40293,0.118946,0.319037,1.50374,3.08915,-0.0980155,-0.0260523
1.18608,1.40308,0.118998,0.31913,1.48437,3.08916,-0.0979326,-0.0079313
1.19911,1.40319,0.119061,0.319196,1.46006,3.08917,-0.0979093,0.0144377
1.21214,1.40322,0.119125,0.319148,1.42983,3.08918,-0.097938,0.0410768
1.22518,1.40312,0.119148,0.319128,1.41226,3.08919,-0.0979718,0.0554478
1.23821,1.40288,0.119133,0.319163,1.39346,3.08921,-0.0979404,0.0709528
1.25125,1.40253,0.11913,0.319262,1.37153,3.0892,-0.0979663,0.0884058
1.26428,1.40219,0.119114,0.319258,1.35853,3.08917,-0.0980176,0.0982923
1.27731,1.40173,0.119147,0.319326,1.34463,3.08919,-0.0979352,0.108843
1.29035,1.40123,0.119161,0.319463,1.32515,3.08917,-0.0978786,0.123067
1.30338,1.40105,0.119185,0.319501,1.31579,3.0892,-0.0978494,0.129151
1.31641,1.40077,0.119207,0.319527,1.3058,3.08918,-0.0978444,0.136386
1.32945,1.40045,0.119211,0.31948,1.29234,3.08916,-0.0978387,0.146462
1.34248,1.4003,0.119196,0.319482,1.2859,3.08918,-0.0978933,0.150925
1.35552,1.40016,0.119199,0.319484,1.28009,3.08916,-0.0979158,0.154964
1.36855,1.40008,0.11917,0.319445,1.27376,3.08919,-0.0978888,0.159618
1.38158,1.4001,0.119125,0.319387,1.26562,3.08922,-0.0978795,0.165336
1.39462,1.40015,0.119091,0.319306,1.26219,3.08921,-0.0979529,0.16785
1.40765,1.40017,0.119062,0.319277,1.25962,3.0892,-0.0979923,0.169763
1.42068,1.40016,0.119026,0.319207,1.25705,3.08917,-0.0980278,0.171859
1.43372,1.40016,0.119025,0.319204,1.25695,3.08917,-0.0980291,0.171936
1.44675,1.40019,0.118858,0.319057,1.251,3.08922,-0.0981566,0.178783
1.45979,1.40022,0.118735,0.319015,1.24921,3.08923,-0.098204,0.180883
1.47282,1.40022,0.118526,0.3189,1.24758,3.08923,-0.0981808,0.183418
1.48585,1.40025,0.118381,0.318841,1.24656,3.08924,-0.0982378,0.184996
1.49889,1.40026,0.118253,0.318805,1.24591,3.08925,-0.0982476,0.18609
1.51192,1.40029,0.118033,0.318733,1.24502,3.08923,-0.0982358,0.188117
1.52495,1.40029,0.117891,0.318722,1.24442,3.08922,-0.098277,0.189523
1.53799,1.40028,0.11782,0.318733,1.24401,3.08923,-0.0982928,0.190534
1.55102,1.40025,0.117779,0.318729,1.24366,3.08923,-0.0983168,0.191535
1.56406,1.40024,0.117683,0.318694,1.24285,3.08923,-0.0983515,0.193419
