timestamp,ArmR1_Cla1,ArmR2_Sho1,ArmR3_Sho2,ArmR4_Sho3,ArmR5_Elb1,ArmR6_Elb2,ArmR7_Wri1,ArmR8_Wri2
0,0.133611,0.470445,1.33138,-0.487259,1.94856,-1.81986,0.495429,-0.1102
0.0119326,0.13354,0.470962,1.33129,-0.486369,1.94855,-1.81876,0.495436,-0.110266
0.0238651,0.133448,0.471532,1.33117,-0.485319,1.94855,-1.81743,0.495447,-0.110336
0.0357977,0.133328,0.472145,1.33103,-0.484104,1.94855,-1.81588,0.49546,-0.110406
0.0477303,0.133175,0.472784,1.33084,-0.482725,1.94854,-1.81409,0.495479,-0.110475
0.0596628,0.132984,0.473434,1.33062,-0.481188,1.94854,-1.81205,0.495503,-0.11054
0.0715954,0.13275,0.474079,1.33034,-0.479499,1.94853,-1.80977,0.495535,-0.1106
0.083528,0.132468,0.474707,1.33001,-0.477667,1.94853,-1.80726,0.495576,-0.110652
0.0954605,0.132133,0.475307,1.32962,-0.4757,1.94853,-1.80451,0.495629,-0.110698
0.107393,0.131743,0.47587,1.32916,-0.473607,1.94853,-1.80153,0.495698,-0.110736
0.119326,0.131295,0.476392,1.32861,-0.471393,1.94853,-1.79834,0.495786,-0.110767
0.131258,0.130787,0.476874,1.32798,-0.469063,1.94853,-1.79493,0.495897,-0.110793
0.143191,0.13022,0.477316,1.32725,-0.466615,1.94853,-1.79132,0.496038,-0.110813
0.155123,0.129594,0.477722,1.32641,-0.464048,1.94854,-1.78751,0.496212,-0.11083
0.167056,0.128907,0.478099,1.32545,-0.461355,1.94854,-1.7835,0.496425,-0.110843
0.178988,0.128162,0.478453,1.32436,-0.458528,1.94855,-1.77929,0.49668,-0.110854
0.190921,0.127358,0.47879,1.32312,-0.455558,1.94855,-1.77489,0.496981,-0.110862
0.202854,0.126495,0.479116,1.32172,-0.452436,1.94856,-1.77028,0.49733,-0.11087
0.214786,0.125574,0.479438,1.32016,-0.449154,1.94857,-1.76548,0.497727,-0.110875
0.226719,0.124598,0.47976,1.31842,-0.445707,1.94858,-1.76048,0.498169,-0.11088
0.238651,0.123567,0.480086,1.31651,-0.442096,1.94858,-1.75529,0.498654,-0.110885
0.250584,0.122488,0.480417,1.31443,-0.438325,1.94859,-1.74994,0.499176,-0.110888
0.262516,0.121365,0.480756,1.31217,-0.434404,1.9486,-1.74443,0.499729,-0.110891
0.274449,0.120205,0.481104,1.30977,-0.430345,1.9486,-1.73879,0.500304,-0.110894
0.286382,0.119014,0.481459,1.30721,-0.42616,1.94861,-1.73306,0.500893,-0.110897
0.298314,0.117801,0.481823,1.30452,-0.421865,1.94861,-1.72724,0.501489,-0.110899
0.310247,0.116572,0.482196,1.30172,-0.417472,1.94862,-1.72136,0.502083,-0.110902
0.322179,0.115333,0.482577,1.29881,-0.412988,1.94862,-1.71544,0.502669,-0.110905
0.334112,0.114086,0.482967,1.2958,-0.408419,1.94863,-1.70949,0.503239,-0.110908
0.346044,0.112835,0.483367,1.29272,-0.403768,1.94863,-1.70351,0.50379,-0.110911
0.357977,0.11158,0.483778,1.28956,-0.399035,1.94863,-1.69751,0.504315,-0.110915
0.369909,0.110321,0.484202,1.28634,-0.394218,1.94864,-1.69149,0.504811,-0.110919
0.381842,0.109057,0.48464,1.28306,-0.389315,1.94865,-1.68545,0.505273,-0.110923
0.393775,0.107785,0.485094,1.27974,-0.384326,1.94866,-1.67939,0.505699,-0.110927
0.405707,0.106504,0.485565,1.27637,-0.379251,1.94867,-1.67333,0.506087,-0.110931
0.41764,0.105211,0.486055,1.27298,-0.374092,1.94869,-1.66726,0.506436,-0.110936
0.429572,0.103906,0.486566,1.26956,-0.368849,1.94871,-1.6612,0.506743,-0.11094
0.441505,0.102585,0.487097,1.26612,-0.363524,1.94873,-1.65515,0.507011,-0.110945
0.453437,0.101249,0.48765,1.26268,-0.358116,1.94876,-1.64913,0.507241,-0.110949
0.46537,0.0998967,0.488226,1.25922,-0.352623,1.94879,-1.64313,0.507436,-0.110954
0.477303,0.0985266,0.488826,1.25577,-0.347038,1.94883,-1.63716,0.507598,-0.110958
0.489235,0.0971389,0.489449,1.25231,-0.341357,1.94888,-1.63123,0.50773,-0.110962
0.501168,0.0957347,0.490097,1.24885,-0.335575,1.94894,-1.62533,0.507837,-0.110966
0.5131,0.094316,0.490766,1.2454,-0.329688,1.94901,-1.61947,0.507921,-0.11097
0.525033,0.0928863,0.491457,1.24195,-0.323697,1.9491,-1.61366,0.507985,-0.110973
0.536965,0.0914503,0.492167,1.23852,-0.31761,1.94922,-1.60791,0.508032,-0.110976
0.548898,0.0900139,0.492891,1.23511,-0.311434,1.94936,-1.60224,0.508062,-0.110979
0.560831,0.0885835,0.493625,1.23174,-0.305185,1.94955,-1.59667,0.508077,-0.11098
0.572763,0.0871657,0.494365,1.22841,-0.298876,1.94979,-1.59122,0.508077,-0.110981
0.584696,0.0857666,0.495106,1.22514,-0.292523,1.95009,-1.5859,0.508059,-0.110981
0.596628,0.0843915,0.495842,1.22194,-0.286139,1.95045,-1.58075,0.508021,-0.110981
0.608561,0.0830451,0.49657,1.21882,-0.279736,1.9509,-1.57576,0.50796,-0.11098
0.620493,0.0817309,0.497284,1.21578,-0.273322,1.95143,-1.57096,0.50787,-0.110979
0.632426,0.0804519,0.497982,1.21282,-0.266907,1.95205,-1.56633,0.507747,-0.110978
0.644359,0.0792106,0.498659,1.20995,-0.260495,1.95277,-1.5619,0.507583,-0.110976
0.656291,0.0780092,0.499314,1.20717,-0.254092,1.95359,-1.55765,0.507374,-0.110975
0.668224,0.0768492,0.499944,1.20447,-0.247705,1.95452,-1.55358,0.507113,-0.110974
0.680156,0.0757317,0.500548,1.20186,-0.241341,1.95555,-1.54969,0.506796,-0.110973
0.692089,0.0746569,0.501122,1.19933,-0.235003,1.95667,-1.54597,0.50642,-0.110972
0.704021,0.0736241,0.501668,1.19688,-0.228698,1.95789,-1.54241,0.505984,-0.110971
0.715954,0.0726309,0.502184,1.1945,-0.222428,1.95919,-1.53902,0.505485,-0.11097
0.727886,0.0716738,0.502669,1.19219,-0.216194,1.96059,-1.53577,0.504925,-0.110969
0.739819,0.070748,0.503124,1.18994,-0.209992,1.96206,-1.53267,0.504304,-0.110968
0.751752,0.0698472,0.503547,1.18774,-0.203816,1.96362,-1.52969,0.50362,-0.110967
0.763684,0.0689647,0.50394,1.1856,-0.197657,1.96526,-1.52683,0.502873,-0.110965
0.775617,0.0680932,0.504301,1.18349,-0.191502,1.96698,-1.52406,0.502061,-0.110964
0.787549,0.0672253,0.50463,1.18141,-0.185337,1.96879,-1.52138,0.501177,-0.110963
0.799482,0.0663546,0.504928,1.17935,-0.179149,1.97068,-1.51877,0.500217,-0.110961
0.811414,0.0654752,0.505193,1.1773,-0.172928,1.97265,-1.51622,0.499173,-0.11096
0.823347,0.0645827,0.505427,1.17527,-0.166668,1.97472,-1.51372,0.49804,-0.11096
0.83528,0.0636736,0.50563,1.17324,-0.160369,1.97686,-1.51126,0.496811,-0.110959
0.847212,0.0627457,0.505803,1.17122,-0.154037,1.97908,-1.50883,0.495485,-0.110959
0.859145,0.0617976,0.505946,1.16921,-0.147683,1.98137,-1.50643,0.494059,-0.110958
0.871077,0.0608282,0.506063,1.16721,-0.141322,1.98371,-1.50406,0.492537,-0.110958
0.88301,0.0598362,0.506156,1.16522,-0.13497,1.9861,-1.50171,0.490926,-0.110957
0.894942,0.0588202,0.506227,1.16323,-0.12864,1.98852,-1.49938,0.489233,-0.110957
0.906875,0.057778,0.50628,1.16126,-0.122343,1.99096,-1.49706,0.487471,-0.110956
0.918807,0.0567071,0.506319,1.15928,-0.116086,1.99341,-1.49474,0.485651,-0.110954
0.93074,0.0556046,0.506345,1.15731,-0.109871,1.99586,-1.49243,0.483787,-0.110952
0.942673,0.0544674,0.506362,1.15534,-0.103697,1.99832,-1.4901,0.481891,-0.11095
0.954605,0.0532932,0.506373,1.15335,-0.0975583,2.00077,-1.48774,0.479976,-0.110948
0.966538,0.05208,0.506379,1.15134,-0.091451,2.0032,-1.48535,0.478052,-0.110945
0.97847,0.0508272,0.506381,1.14932,-0.0853704,2.00561,-1.48292,0.47613,-0.110942
0.990403,0.0495352,0.506382,1.14727,-0.0793134,2.00799,-1.48044,0.47422,-0.110939
1.00234,0.0482055,0.506382,1.14519,-0.073279,2.01034,-1.4779,0.472332,-0.110934
1.01427,0.046841,0.506382,1.14309,-0.067268,2.01264,-1.47531,0.470477,-0.110929
1.0262,0.0454448,0.506381,1.14096,-0.0612822,2.01489,-1.47265,0.468663,-0.110923
1.03813,0.0440204,0.50638,1.1388,-0.0553229,2.01708,-1.46993,0.466899,-0.110914
1.05007,0.0425709,0.506379,1.13662,-0.04939,2.0192,-1.46714,0.465192,-0.110902
1.062,0.0410986,0.506379,1.1344,-0.0434807,2.02125,-1.46428,0.463545,-0.110885
1.07393,0.0396047,0.506378,1.13216,-0.037589,2.02323,-1.46134,0.461958,-0.110862
1.08586,0.0380894,0.506376,1.12988,-0.0317065,2.02514,-1.45832,0.460432,-0.110829
1.0978,0.0365518,0.506374,1.12756,-0.0258235,2.02697,-1.4552,0.458963,-0.110785
1.10973,0.0349907,0.506371,1.1252,-0.0199306,2.02874,-1.45199,0.457545,-0.110726
1.12166,0.0334048,0.506368,1.12279,-0.0140215,2.03044,-1.44866,0.456176,-0.110647
1.13359,0.0317937,0.506365,1.12033,-0.00809428,2.03208,-1.44522,0.454854,-0.110544
1.14553,0.0301584,0.506361,1.11781,-0.00215241,2.03364,-1.44167,0.45358,-0.110411
1.15746,0.0285008,0.506357,1.11524,0.00379507,2.03514,-1.43801,0.452358,-0.110241
1.16939,0.0268247,0.506352,1.11263,0.00973464,2.03655,-1.43424,0.451195,-0.110029
1.18132,0.0251346,0.506347,1.10996,0.0156499,2.03788,-1.43039,0.450099,-0.109766
1.19326,0.0234359,0.506341,1.10725,0.0215237,2.03912,-1.42644,0.449081,-0.109445
1.20519,0.0217341,0.506334,1.10451,0.0273394,2.04027,-1.42243,0.448149,-0.109058
1.21712,0.0200346,0.506325,1.10173,0.0330827,2.04132,-1.41834,0.44731,-0.108597
1.22905,0.0183424,0.506315,1.09892,0.0387422,2.04227,-1.4142,0.446569,-0.108054
1.24099,0.0166614,0.506303,1.09609,0.0443097,2.04312,-1.41001,0.445927,-0.107422
1.25292,0.0149948,0.506289,1.09323,0.0497802,2.04388,-1.40577,0.445382,-0.106695
1.26485,0.0133448,0.506274,1.09035,0.055152,2.04453,-1.40148,0.444929,-0.105867
1.27678,0.0117121,0.506257,1.08744,0.0604264,2.0451,-1.39715,0.44456,-0.104936
1.28872,0.0100964,0.506238,1.0845,0.0656079,2.04559,-1.39278,0.444266,-0.1039
1.30065,0.008496,0.506219,1.08153,0.0707043,2.04599,-1.38836,0.444038,-0.102759
1.31258,0.00690773,0.506198,1.07852,0.0757261,2.04633,-1.38388,0.443865,-0.101518
1.32451,0.00532752,0.506177,1.07547,0.0806867,2.0466,-1.37936,0.443738,-0.100184
1.33645,0.0037504,0.506155,1.07236,0.0856016,2.04681,-1.37477,0.443646,-0.0987661
1.34838,0.002171,0.506132,1.06919,0.0904874,2.04697,-1.37011,0.443582,-0.0972786
1.36031,0.000583898,0.506108,1.06595,0.0953609,2.04709,-1.36538,0.443539,-0.0957372
1.37224,-0.00101597,0.506083,1.06264,0.100238,2.04718,-1.36056,0.443512,-0.0941593
1.38418,-0.00263302,0.506058,1.05926,0.105133,2.04724,-1.35567,0.443496,-0.0925626
1.39611,-0.00427083,0.506031,1.05579,0.110057,2.04728,-1.3507,0.443487,-0.0909649
1.40804,-0.00593201,0.506004,1.05224,0.11502,2.0473,-1.34565,0.443482,-0.0893826
1.41998,-0.0076182,0.505976,1.0486,0.120028,2.04731,-1.34053,0.443481,-0.0878304
1.43191,-0.00933009,0.505947,1.04488,0.125084,2.04732,-1.33535,0.443481,-0.0863215
1.44384,-0.0110675,0.505919,1.04107,0.130188,2.04732,-1.33011,0.443481,-0.0848669
1.45577,-0.0128295,0.50589,1.03718,0.13534,2.04732,-1.32483,0.443482,-0.0834769
1.46771,-0.0146145,0.505862,1.03321,0.140538,2.04732,-1.31951,0.443483,-0.0821604
1.47964,-0.01642,0.505834,1.02916,0.145779,2.04731,-1.31417,0.443483,-0.0809258
1.49157,-0.0182434,0.505806,1.02503,0.151061,2.04731,-1.30881,0.443484,-0.0797812
1.5035,-0.0200813,0.505778,1.02082,0.156382,2.04731,-1.30344,0.443484,-0.0787332
1.51544,-0.0219302,0.50575,1.01653,0.161743,2.04731,-1.29806,0.443484,-0.0777879
1.52737,-0.0237864,0.505721,1.01217,0.167141,2.04731,-1.29267,0.443485,-0.076949
1.5393,-0.0256458,0.505692,1.00773,0.172579,2.04731,-1.28728,0.443486,-0.0762182
1.55123,-0.0275046,0.505662,1.00322,0.178055,2.04731,-1.28188,0.443488,-0.0755945
1.56317,-0.0293586,0.505629,0.998639,0.183568,2.04731,-1.27647,0.44349,-0.0750737
1.5751,-0.0312035,0.505594,0.993993,0.189114,2.04731,-1.27104,0.443492,-0.074649
1.58703,-0.0330349,0.505556,0.989291,0.194687,2.04731,-1.26561,0.443495,-0.0743114
1.59896,-0.0348483,0.505514,0.984543,0.200278,2.04731,-1.26017,0.443498,-0.07405
1.6109,-0.0366394,0.505466,0.97976,0.205878,2.04731,-1.25473,0.443501,-0.0738532
1.62283,-0.0384042,0.505411,0.974955,0.211474,2.04731,-1.24928,0.443504,-0.0737092
1.63476,-0.0401395,0.505348,0.970141,0.217055,2.0473,-1.24385,0.443508,-0.0736071
1.64669,-0.0418434,0.505275,0.965327,0.222615,2.0473,-1.23841,0.443512,-0.0735368
1.65863,-0.0435154,0.50519,0.96052,0.228148,2.0473,-1.23298,0.443517,-0.07349
1.67056,-0.0451569,0.505091,0.955721,0.233655,2.04729,-1.22754,0.443522,-0.0734597
1.68249,-0.0467707,0.504974,0.950928,0.239143,2.04729,-1.22209,0.443527,-0.0734406
1.69442,-0.0483606,0.504837,0.946133,0.24462,2.04728,-1.2166,0.443534,-0.0734287
1.70636,-0.0499309,0.504676,0.94133,0.250097,2.04728,-1.21106,0.443541,-0.0734214
1.71829,-0.0514855,0.504488,0.936511,0.255583,2.04727,-1.20545,0.443548,-0.0734167
1.73022,-0.0530271,0.50427,0.931669,0.261084,2.04726,-1.19977,0.443557,-0.0734136
1.74215,-0.0545567,0.504019,0.926804,0.266601,2.04725,-1.19401,0.443566,-0.0734114
1.75409,-0.0560734,0.503732,0.921921,0.272127,2.04724,-1.18817,0.443576,-0.0734098
1.76602,-0.0575746,0.503407,0.917029,0.27765,2.04724,-1.18225,0.443586,-0.0734088
1.77795,-0.0590566,0.503043,0.912139,0.283157,2.04723,-1.17627,0.443598,-0.0734084
1.78988,-0.060515,0.502639,0.907266,0.288631,2.04722,-1.17024,0.44361,-0.0734087
1.80182,-0.0619454,0.502192,0.902423,0.294055,2.04721,-1.16417,0.443623,-0.0734098
1.81375,-0.0633443,0.501704,0.897621,0.299417,2.0472,-1.15807,0.443637,-0.0734119
1.82568,-0.0647088,0.50117,0.892871,0.304706,2.04719,-1.15196,0.443651,-0.0734149
1.83761,-0.0660371,0.500592,0.888177,0.309919,2.04718,-1.14583,0.443666,-0.0734188
1.84955,-0.0673284,0.499965,0.883543,0.315052,2.04717,-1.13969,0.443682,-0.0734235
1.86148,-0.0685823,0.499289,0.878972,0.320107,2.04717,-1.13355,0.443697,-0.0734288
1.87341,-0.0697987,0.498562,0.874463,0.325086,2.04716,-1.1274,0.443712,-0.0734344
1.88535,-0.0709775,0.497782,0.87002,0.329992,2.04715,-1.12124,0.443727,-0.0734402
1.89728,-0.0721181,0.496946,0.865641,0.334828,2.04714,-1.11507,0.443741,-0.073446
1.90921,-0.0732199,0.496053,0.861329,0.339596,2.04713,-1.10891,0.443755,-0.0734515
1.92114,-0.0742817,0.495102,0.857085,0.344298,2.04712,-1.10275,0.443768,-0.0734568
1.93308,-0.0753024,0.494091,0.852908,0.34894,2.04711,-1.0966,0.443781,-0.0734618
1.94501,-0.0762809,0.493017,0.848798,0.353526,2.0471,-1.09044,0.443793,-0.0734665
1.95694,-0.0772165,0.491879,0.844747,0.358064,2.04709,-1.08428,0.443805,-0.0734711
1.96887,-0.0781092,0.490673,0.840748,0.362566,2.04708,-1.07811,0.443818,-0.0734756
1.98081,-0.0789596,0.489396,0.836793,0.367046,2.04707,-1.0719,0.44383,-0.0734801
1.99274,-0.079769,0.488046,0.832868,0.371519,2.04706,-1.06565,0.443844,-0.0734848
2.00467,-0.0805392,0.486619,0.828963,0.375999,2.04704,-1.05933,0.443858,-0.0734899
2.0166,-0.0812723,0.485117,0.825071,0.380498,2.04703,-1.05295,0.443873,-0.0734955
2.02854,-0.0819699,0.483538,0.821186,0.385023,2.04702,-1.04648,0.443889,-0.073502
2.04047,-0.0826339,0.481889,0.81731,0.389576,2.047,-1.03994,0.443907,-0.0735094
2.0524,-0.0832649,0.480174,0.813447,0.394154,2.04699,-1.03333,0.443927,-0.0735181
2.06433,-0.0838635,0.4784,0.809607,0.398748,2.04697,-1.02668,0.44395,-0.0735282
2.07627,-0.0844295,0.476573,0.805798,0.403349,2.04695,-1.02,0.443976,-0.0735401
2.0882,-0.0849626,0.4747,0.80203,0.407949,2.04693,-1.01331,0.444006,-0.0735539
2.10013,-0.0854622,0.472784,0.798308,0.412541,2.04691,-1.00662,0.444042,-0.0735698
2.11206,-0.085928,0.470827,0.794635,0.417123,2.04689,-0.999938,0.444086,-0.0735881
2.124,-0.0863594,0.46883,0.791009,0.421697,2.04686,-0.993267,0.44414,-0.0736091
2.13593,-0.0867563,0.466791,0.787424,0.426267,2.04683,-0.986602,0.444209,-0.0736331
2.14786,-0.0871188,0.464707,0.783876,0.430838,2.0468,-0.979939,0.444296,-0.0736606
2.15979,-0.087447,0.462578,0.780357,0.435417,2.04676,-0.97327,0.444406,-0.073692
2.17173,-0.0877413,0.460401,0.776864,0.440007,2.04673,-0.966594,0.444543,-0.0737279
2.18366,-0.0880027,0.458178,0.773394,0.44461,2.04669,-0.959912,0.444714,-0.0737688
2.19559,-0.0882321,0.455911,0.769948,0.449224,2.04665,-0.95323,0.444924,-0.0738155
2.20752,-0.0884313,0.453602,0.766527,0.453846,2.0466,-0.946555,0.445179,-0.0738687
2.21946,-0.0886022,0.451255,0.763133,0.458474,2.04656,-0.939897,0.445482,-0.0739295
2.23139,-0.0887472,0.448873,0.759768,0.463105,2.04651,-0.933263,0.445837,-0.0739994
2.24332,-0.088869,0.446459,0.756431,0.467739,2.04646,-0.926657,0.446245,-0.0740805
2.25525,-0.0889703,0.444015,0.75312,0.472375,2.04641,-0.920081,0.446707,-0.0741754
2.26719,-0.0890537,0.441544,0.749832,0.477017,2.04635,-0.913534,0.447218,-0.074288
2.27912,-0.0891217,0.439044,0.746561,0.481666,2.04629,-0.907008,0.447775,-0.0744229
2.29105,-0.0891766,0.436517,0.743301,0.486327,2.04622,-0.900498,0.448368,-0.0745857
2.30298,-0.0892204,0.433965,0.740044,0.491002,2.04612,-0.893998,0.448987,-0.0747828
2.31492,-0.0892547,0.431388,0.736785,0.495689,2.04601,-0.887502,0.44962,-0.0750209
2.32685,-0.0892811,0.428791,0.733519,0.500386,2.04587,-0.88101,0.450253,-0.0753066
2.33878,-0.089301,0.426179,0.730247,0.505087,2.0457,-0.874523,0.450871,-0.075646
2.35072,-0.0893159,0.423556,0.726965,0.509784,2.04548,-0.868048,0.451461,-0.0760438
2.36265,-0.0893268,0.42093,0.723676,0.514465,2.04521,-0.86159,0.452009,-0.0765026
2.37458,-0.0893349,0.418309,0.720383,0.519122,2.04486,-0.85516,0.452506,-0.0770226
2.38651,-0.0893413,0.4157,0.71709,0.523744,2.04444,-0.848766,0.452945,-0.077601
2.39845,-0.0893466,0.41311,0.713797,0.528326,2.04393,-0.842413,0.453321,-0.0782324
2.41038,-0.0893515,0.410545,0.710509,0.532862,2.04331,-0.836107,0.453633,-0.078908
2.42231,-0.0893562,0.408007,0.707226,0.537353,2.04257,-0.829848,0.453886,-0.0796175
2.43424,-0.0893608,0.405502,0.70395,0.541799,2.04172,-0.823635,0.454085,-0.0803485
2.44618,-0.0893653,0.40303,0.700681,0.546203,2.04073,-0.817468,0.454235,-0.0810884
2.45811,-0.0893693,0.400593,0.697418,0.55057,2.0396,-0.811343,0.454345,-0.0818252
2.47004,-0.0893725,0.398193,0.694163,0.554902,2.03833,-0.805259,0.454423,-0.0825482
2.48197,-0.0893747,0.395829,0.690915,0.559202,2.03692,-0.799216,0.454475,-0.0832494
2.49391,-0.0893755,0.393503,0.687675,0.563472,2.03537,-0.793214,0.454509,-0.0839234
2.50584,-0.0893748,0.391215,0.684443,0.567712,2.03368,-0.787254,0.454528,-0.0845684
2.51777,-0.0893726,0.388967,0.681221,0.57192,2.03186,-0.781336,0.454538,-0.0851857
2.5297,-0.0893689,0.386758,0.678007,0.576097,2.02991,-0.775458,0.454539,-0.0857798
2.54164,-0.089364,0.384588,0.674798,0.580243,2.02783,-0.769618,0.454535,-0.0863578
2.55357,-0.0893581,0.382457,0.671593,0.58436,2.02562,-0.763805,0.454525,-0.0869288
2.5655,-0.0893514,0.380364,0.668385,0.588453,2.02328,-0.75801,0.454512,-0.0875034
2.57743,-0.0893442,0.378306,0.665168,0.592528,2.02081,-0.752215,0.454494,-0.088093
2.58937,-0.089337,0.376282,0.661934,0.596596,2.0182,-0.746402,0.454472,-0.088709
2.6013,-0.0893301,0.37429,0.658676,0.600663,2.01545,-0.740555,0.454446,-0.0893622
2.61323,-0.0893236,0.37233,0.655389,0.604739,2.01256,-0.734658,0.454415,-0.0900624
2.62516,-0.0893178,0.370402,0.652071,0.608829,2.00952,-0.728703,0.45438,-0.0908174
2.6371,-0.089313,0.368512,0.648722,0.612936,2.00634,-0.722687,0.454341,-0.0916326
2.64903,-0.0893093,0.366662,0.645346,0.617058,2.00304,-0.716616,0.454296,-0.0925109
2.66096,-0.0893067,0.364859,0.641952,0.621191,1.9996,-0.7105,0.454248,-0.0934524
2.67289,-0.0893051,0.363111,0.638549,0.62533,1.99606,-0.704355,0.454195,-0.0944538
2.68483,-0.0893045,0.361423,0.635148,0.629469,1.99242,-0.6982,0.454139,-0.0955093
2.69676,-0.0893045,0.359801,0.631759,0.633605,1.9887,-0.692053,0.454079,-0.0966105
2.70869,-0.089305,0.35825,0.628392,0.637735,1.98491,-0.685931,0.454015,-0.0977473
2.72062,-0.0893055,0.356771,0.625056,0.641859,1.98106,-0.679846,0.453948,-0.0989081
2.73256,-0.0893057,0.355366,0.621754,0.64598,1.97715,-0.673809,0.453877,-0.100081
2.74449,-0.0893054,0.354033,0.618491,0.650103,1.9732,-0.667823,0.4538,-0.101257
2.75642,-0.0893041,0.352773,0.615269,0.654234,1.9692,-0.661893,0.453715,-0.102424
2.76835,-0.0893016,0.351582,0.612089,0.658378,1.96516,-0.656018,0.45362,-0.103578
2.78029,-0.0892978,0.350458,0.608952,0.662539,1.96108,-0.650197,0.453509,-0.104712
2.79222,-0.0892924,0.349399,0.605856,0.666721,1.95697,-0.644429,0.453376,-0.105826
2.80415,-0.0892854,0.348403,0.602803,0.670925,1.95284,-0.638712,0.453214,-0.106922
2.81609,-0.0892768,0.347469,0.599793,0.67515,1.94868,-0.633047,0.453012,-0.108001
2.82802,-0.0892668,0.346593,0.596825,0.679396,1.94451,-0.627427,0.452758,-0.10907
2.83995,-0.0892554,0.345776,0.593898,0.683663,1.94031,-0.62185,0.452438,-0.110133
2.85188,-0.089243,0.345015,0.591009,0.687953,1.9361,-0.616307,0.45204,-0.111197
2.86382,-0.0892297,0.344307,0.588155,0.69227,1.93186,-0.610786,0.451549,-0.112264
2.87575,-0.0892159,0.34365,0.58533,0.696624,1.92759,-0.605273,0.450951,-0.113338
2.88768,-0.0892018,0.343042,0.582526,0.701023,1.92328,-0.599751,0.450235,-0.11442
2.89961,-0.0891876,0.342479,0.579736,0.705481,1.91892,-0.594202,0.449391,-0.115504
2.91155,-0.0891734,0.341958,0.576952,0.710009,1.9145,-0.588609,0.448414,-0.116586
2.92348,-0.0891595,0.341478,0.574168,0.714617,1.91,-0.582961,0.447299,-0.117654
2.93541,-0.0891457,0.341035,0.571382,0.719312,1.90543,-0.577251,0.446048,-0.118697
2.94734,-0.0891322,0.340627,0.568592,0.724095,1.90078,-0.571478,0.444659,-0.119699
2.95928,-0.0891186,0.340254,0.565801,0.728962,1.89606,-0.565651,0.443137,-0.120645
2.97121,-0.0891049,0.339915,0.563016,0.733907,1.89129,-0.559781,0.441482,-0.12152
2.98314,-0.0890909,0.339608,0.560244,0.738918,1.88647,-0.553885,0.439695,-0.122313
2.99507,-0.0890763,0.339333,0.557493,0.743983,1.88162,-0.547979,0.437774,-0.123014
3.00701,-0.0890607,0.339089,0.554772,0.749092,1.87676,-0.542079,0.435717,-0.123619
3.01894,-0.0890438,0.338874,0.552086,0.754234,1.87188,-0.536197,0.43352,-0.124128
3.03087,-0.0890253,0.338688,0.549441,0.759402,1.86701,-0.530341,0.431177,-0.124545
3.0428,-0.0890049,0.338528,0.546839,0.764589,1.86215,-0.524516,0.428685,-0.124878
3.05474,-0.0889824,0.338393,0.544282,0.769791,1.8573,-0.518724,0.426041,-0.125136
3.06667,-0.0889577,0.33828,0.541771,0.775003,1.85246,-0.512965,0.423245,-0.125331
3.0786,-0.0889311,0.338188,0.539305,0.780217,1.84765,-0.507241,0.420301,-0.125474
3.09053,-0.0889028,0.338113,0.536884,0.785427,1.84285,-0.501553,0.417214,-0.125576
3.10247,-0.0888733,0.338053,0.53451,0.790621,1.83809,-0.495903,0.41399,-0.125647
3.1144,-0.0888434,0.338007,0.532181,0.79579,1.83337,-0.490295,0.410638,-0.125695
3.12633,-0.0888138,0.337971,0.529898,0.800924,1.82869,-0.48473,0.407164,-0.125726
3.13826,-0.0887852,0.337944,0.527658,0.806014,1.82406,-0.479208,0.403574,-0.125746
3.1502,-0.0887586,0.337923,0.52546,0.811058,1.81948,-0.473723,0.399868,-0.125758
3.16213,-0.0887344,0.337908,0.523295,0.816056,1.81495,-0.468264,0.396044,-0.125766
3.17406,-0.0887132,0.337897,0.521159,0.821015,1.81046,-0.462815,0.392092,-0.12577
3.18599,-0.0886951,0.337888,0.51904,0.825947,1.80599,-0.457355,0.388003,-0.125773
3.19793,-0.0886802,0.337881,0.516931,0.830864,1.80153,-0.451861,0.383764,-0.125775
3.20986,-0.0886682,0.337874,0.514821,0.835779,1.79706,-0.446312,0.379364,-0.125777
3.22179,-0.0886589,0.337869,0.512705,0.8407,1.79258,-0.440693,0.374797,-0.12578
3.23373,-0.0886517,0.337863,0.510579,0.845631,1.78807,-0.434994,0.370062,-0.125783
3.24566,-0.0886463,0.337857,0.508443,0.850566,1.78355,-0.429219,0.365165,-0.125787
3.25759,-0.0886422,0.337852,0.506302,0.855493,1.779,-0.423377,0.360118,-0.125791
3.26952,-0.0886392,0.337847,0.504162,0.860394,1.77446,-0.417486,0.354941,-0.125796
3.28146,-0.088637,0.337842,0.50203,0.865251,1.76992,-0.411569,0.349652,-0.125802
3.29339,-0.0886355,0.337838,0.499914,0.870043,1.76541,-0.405648,0.344271,-0.125808
3.30532,-0.0886345,0.337836,0.497819,0.874753,1.76094,-0.399744,0.338815,-0.125814
3.31725,-0.0886342,0.337834,0.495751,0.879371,1.75651,-0.393871,0.333294,-0.125821
3.32919,-0.0886343,0.337834,0.49371,0.883892,1.75213,-0.388039,0.327716,-0.125827
3.34112,-0.0886349,0.337835,0.491696,0.888315,1.7478,-0.382253,0.322079,-0.125834
3.35305,-0.0886358,0.337836,0.489707,0.892645,1.74351,-0.376513,0.316384,-0.12584
3.36498,-0.0886369,0.337838,0.48774,0.896889,1.73926,-0.370817,0.310627,-0.125846
3.37692,-0.0886379,0.33784,0.485793,0.901054,1.73504,-0.365163,0.304805,-0.125851
3.38885,-0.0886387,0.337842,0.483863,0.905145,1.73085,-0.359551,0.29892,-0.125856
3.40078,-0.0886391,0.337843,0.481948,0.909167,1.72669,-0.35398,0.292975,-0.125859
3.41271,-0.088639,0.337845,0.480046,0.913119,1.72255,-0.348452,0.286976,-0.125862
3.42465,-0.0886384,0.337845,0.478153,0.917004,1.71844,-0.342969,0.280932,-0.125865
3.43658,-0.0886371,0.337845,0.476268,0.920818,1.71435,-0.337531,0.274848,-0.125866
3.44851,-0.0886354,0.337844,0.474384,0.92456,1.71028,-0.332138,0.268733,-0.125868
3.46044,-0.0886332,0.337843,0.472497,0.928227,1.70622,-0.326786,0.26259,-0.125869
3.47238,-0.0886308,0.337841,0.470601,0.93182,1.70217,-0.321469,0.256421,-0.125871
3.48431,-0.0886285,0.337838,0.468688,0.935336,1.69811,-0.316183,0.250226,-0.125874
3.49624,-0.0886264,0.337836,0.466752,0.938775,1.69404,-0.310921,0.244005,-0.125877
3.50817,-0.0886248,0.337833,0.464789,0.942133,1.68994,-0.305682,0.23776,-0.125881
3.52011,-0.0886238,0.33783,0.462795,0.945409,1.68582,-0.300465,0.231496,-0.125886
3.53204,-0.0886237,0.337827,0.460769,0.948595,1.68166,-0.295276,0.225221,-0.125892
3.54397,-0.0886244,0.337824,0.458711,0.951686,1.67746,-0.290124,0.218949,-0.125898
3.5559,-0.0886259,0.337821,0.456621,0.954676,1.67322,-0.285019,0.212695,-0.125906
3.56784,-0.0886282,0.337818,0.454503,0.957557,1.66895,-0.279975,0.206473,-0.125914
3.57977,-0.0886309,0.337816,0.452357,0.960326,1.66464,-0.275003,0.200298,-0.125923
3.5917,-0.0886339,0.337813,0.450187,0.962981,1.66029,-0.270115,0.194183,-0.125932
3.60363,-0.0886368,0.337811,0.447994,0.96552,1.6559,-0.265318,0.188136,-0.125942
3.61557,-0.0886396,0.337809,0.445778,0.967949,1.65147,-0.260619,0.182161,-0.125951
3.6275,-0.0886419,0.337808,0.443542,0.970269,1.647,-0.25602,0.176261,-0.125961
3.63943,-0.0886438,0.337806,0.441287,0.972488,1.64249,-0.251524,0.170435,-0.125969
3.65136,-0.0886451,0.337805,0.439016,0.97461,1.63792,-0.247134,0.16468,-0.125977
3.6633,-0.0886458,0.337805,0.436731,0.97664,1.6333,-0.242849,0.158995,-0.125985
3.67523,-0.0886461,0.337804,0.434436,0.978582,1.62863,-0.238673,0.153375,-0.125991
3.68716,-0.088646,0.337804,0.432134,0.980439,1.62391,-0.234609,0.147821,-0.125997
3.6991,-0.0886457,0.337803,0.42983,0.982214,1.61913,-0.230657,0.14233,-0.126003
3.71103,-0.0886453,0.337803,0.427528,0.98391,1.6143,-0.226821,0.136902,-0.126009
3.72296,-0.088645,0.337802,0.425231,0.985528,1.60942,-0.223102,0.131537,-0.126017
3.73489,-0.0886447,0.3378,0.42294,0.987072,1.60448,-0.2195,0.126236,-0.126028
3.74683,-0.0886448,0.337798,0.420656,0.988547,1.59949,-0.216012,0.120998,-0.126044
3.75876,-0.0886452,0.337795,0.418377,0.989957,1.59442,-0.212636,0.115824,-0.126068
3.77069,-0.0886461,0.337791,0.416099,0.991308,1.58929,-0.209366,0.110712,-0.126102
3.78262,-0.0886477,0.337786,0.413819,0.992604,1.58407,-0.206194,0.10566,-0.126152
3.79456,-0.0886499,0.337779,0.411531,0.99385,1.57875,-0.203112,0.100666,-0.126222
3.80649,-0.0886529,0.337771,0.409229,0.995051,1.57332,-0.200112,0.0957277,-0.12632
3.81842,-0.0886567,0.33776,0.40691,0.996208,1.56777,-0.197187,0.0908455,-0.126455
3.83035,-0.0886612,0.337748,0.404572,0.997321,1.5621,-0.194331,0.0860214,-0.126637
3.84229,-0.0886664,0.337732,0.402216,0.998389,1.55631,-0.191542,0.0812601,-0.126877
3.85422,-0.0886721,0.337715,0.399845,0.99941,1.5504,-0.188819,0.0765687,-0.127191
3.86615,-0.0886781,0.337694,0.397465,1.00038,1.54437,-0.186165,0.0719561,-0.127592
3.87808,-0.0886841,0.33767,0.395083,1.0013,1.53824,-0.183585,0.0674317,-0.128097
3.89002,-0.08869,0.337643,0.392708,1.00216,1.53203,-0.181082,0.0630041,-0.128723
3.90195,-0.0886955,0.337612,0.390348,1.00297,1.52574,-0.17866,0.0586802,-0.129487
3.91388,-0.0887002,0.337578,0.38801,1.00371,1.5194,-0.176325,0.054464,-0.130406
3.92581,-0.0887041,0.337542,0.3857,1.00441,1.513,-0.174077,0.050357,-0.131497
3.93775,-0.0887067,0.337503,0.383422,1.00505,1.50657,-0.171916,0.0463579,-0.132771
3.94968,-0.0887079,0.337464,0.381179,1.00565,1.5001,-0.169842,0.0424637,-0.134241
3.96161,-0.0887076,0.337424,0.378971,1.00621,1.49359,-0.167851,0.0386701,-0.135914
3.97354,-0.0887058,0.337385,0.376797,1.00673,1.48707,-0.16594,0.034973,-0.137794
3.98548,-0.0887024,0.337349,0.374656,1.00722,1.48051,-0.164103,0.0313686,-0.139879
3.99741,-0.0886974,0.337316,0.372547,1.00768,1.47393,-0.162335,0.0278543,-0.142166
4.00934,-0.0886911,0.337287,0.370469,1.00812,1.46734,-0.16063,0.0244293,-0.144648
4.02127,-0.0886836,0.337263,0.368421,1.00854,1.46072,-0.158986,0.0210934,-0.147315
4.03321,-0.0886754,0.337243,0.366401,1.00893,1.4541,-0.157395,0.0178477,-0.150156
4.04514,-0.0886669,0.337227,0.364408,1.00929,1.44746,-0.155856,0.0146932,-0.15316
4.05707,-0.0886585,0.337214,0.36244,1.00963,1.44081,-0.154365,0.01163,-0.15632
4.069,-0.0886508,0.337204,0.360493,1.00994,1.43414,-0.152918,0.00865671,-0.159628
4.08094,-0.0886443,0.337196,0.358564,1.01022,1.42744,-0.151512,0.00576977,-0.16308
4.09287,-0.0886394,0.337189,0.356647,1.01047,1.42071,-0.150145,0.00296363,-0.166676
4.1048,-0.0886366,0.337182,0.354738,1.01068,1.41391,-0.148813,0.000231024,-0.170414
4.11673,-0.0886358,0.337175,0.352832,1.01086,1.40706,-0.147514,-0.00243616,-0.174294
4.12867,-0.0886373,0.337166,0.350926,1.01101,1.40012,-0.146246,-0.00504579,-0.178314
4.1406,-0.0886408,0.337155,0.349021,1.01113,1.39312,-0.145008,-0.00760451,-0.182468
4.15253,-0.0886463,0.337142,0.347118,1.01123,1.38604,-0.143798,-0.0101169,-0.186745
4.16446,-0.0886533,0.337127,0.34522,1.0113,1.37891,-0.142618,-0.0125854,-0.191131
4.1764,-0.0886613,0.337108,0.343333,1.01136,1.37174,-0.141466,-0.0150098,-0.195609
4.18833,-0.0886699,0.337087,0.341462,1.0114,1.36457,-0.140345,-0.0173884,-0.20016
4.20026,-0.0886786,0.337061,0.339611,1.01143,1.3574,-0.139254,-0.0197187,-0.204766
4.2122,-0.0886867,0.337032,0.337785,1.01146,1.35026,-0.138192,-0.0219975,-0.209412
4.22413,-0.0886937,0.336997,0.335984,1.01147,1.34316,-0.13716,-0.0242224,-0.214084
4.23606,-0.0886992,0.336957,0.334209,1.01148,1.33611,-0.136154,-0.0263916,-0.218775
4.24799,-0.088703,0.33691,0.332457,1.01149,1.32911,-0.135173,-0.0285037,-0.223481
4.25993,-0.0887048,0.336856,0.330726,1.01149,1.32216,-0.134216,-0.0305577,-0.228199
4.27186,-0.0887046,0.336794,0.329013,1.01149,1.31525,-0.13328,-0.0325519,-0.232927
4.28379,-0.0887028,0.336725,0.327315,1.01149,1.30838,-0.132364,-0.0344834,-0.237665
4.29572,-0.0886995,0.336648,0.325631,1.01149,1.30155,-0.131469,-0.0363472,-0.242406
4.30766,-0.0886954,0.336565,0.323959,1.01149,1.29477,-0.130595,-0.0381359,-0.247147
4.31959,-0.0886908,0.336476,0.322299,1.01149,1.28804,-0.129741,-0.0398402,-0.25188
4.33152,-0.0886864,0.336383,0.320651,1.01148,1.28137,-0.12891,-0.0414487,-0.256598
4.34345,-0.0886825,0.336286,0.319014,1.01148,1.27477,-0.128101,-0.0429501,-0.261296
4.35539,-0.0886794,0.336187,0.317388,1.01148,1.26823,-0.127315,-0.0443333,-0.265971
4.36732,-0.0886774,0.336086,0.315771,1.01148,1.26176,-0.126549,-0.0455894,-0.270622
4.37925,-0.0886766,0.335983,0.314161,1.01148,1.25534,-0.125801,-0.0467124,-0.275252
4.39118,-0.0886768,0.335877,0.312556,1.01148,1.24897,-0.125068,-0.0477,-0.279866
4.40312,-0.0886781,0.335768,0.310954,1.01148,1.24264,-0.124347,-0.0485538,-0.284467
4.41505,-0.08868,0.335654,0.309355,1.01148,1.23634,-0.123634,-0.0492789,-0.289058
4.42698,-0.0886824,0.335534,0.307758,1.01148,1.23007,-0.122925,-0.0498837,-0.293638
4.43891,-0.0886849,0.335406,0.306166,1.01148,1.22382,-0.122217,-0.0503791,-0.298205
4.45085,-0.0886873,0.335269,0.304578,1.01148,1.2176,-0.121507,-0.0507773,-0.30275
4.46278,-0.0886893,0.335124,0.302998,1.01148,1.21142,-0.120792,-0.0510912,-0.307264
4.47471,-0.0886906,0.334968,0.301426,1.01148,1.20529,-0.12007,-0.0513339,-0.311739
4.48664,-0.0886912,0.334802,0.299863,1.01148,1.19923,-0.119339,-0.0515177,-0.316164
4.49858,-0.088691,0.334626,0.298309,1.01148,1.19324,-0.118599,-0.0516539,-0.320531
4.51051,-0.08869,0.334442,0.296763,1.01147,1.18732,-0.117849,-0.0517526,-0.324833
4.52244,-0.0886885,0.33425,0.295222,1.01147,1.1815,-0.117088,-0.0518225,-0.329067
4.53437,-0.0886865,0.334051,0.293686,1.01146,1.17577,-0.116318,-0.0518708,-0.333229
4.54631,-0.0886844,0.333847,0.292152,1.01145,1.17013,-0.115541,-0.0519032,-0.337318
4.55824,-0.0886822,0.333638,0.29062,1.01145,1.16459,-0.114758,-0.0519243,-0.34133
4.57017,-0.0886803,0.333427,0.289087,1.01144,1.15916,-0.113975,-0.0519377,-0.345264
4.58211,-0.0886788,0.333215,0.287554,1.01143,1.15383,-0.113194,-0.0519458,-0.349117
4.59404,-0.0886777,0.333,0.286021,1.01142,1.14862,-0.112421,-0.0519505,-0.352888
4.60597,-0.0886772,0.332784,0.284487,1.01141,1.14351,-0.111659,-0.051953,-0.356573
4.6179,-0.0886771,0.332565,0.282952,1.0114,1.13853,-0.110914,-0.0519541,-0.360171
4.62984,-0.0886773,0.332343,0.281417,1.01138,1.13366,-0.11019,-0.0519545,-0.363678
4.64177,-0.0886777,0.332117,0.279879,1.01136,1.1289,-0.10949,-0.0519544,-0.367094
4.6537,-0.088678,0.331886,0.278336,1.01134,1.12426,-0.108817,-0.051954,-0.370418
4.66563,-0.088678,0.331647,0.276787,1.01132,1.11973,-0.108173,-0.0519534,-0.373653
4.67757,-0.0886775,0.331399,0.275228,1.01129,1.1153,-0.107558,-0.0519525,-0.3768
4.6895,-0.0886764,0.331141,0.273653,1.01125,1.11096,-0.106973,-0.0519515,-0.379864
4.70143,-0.0886745,0.330871,0.27206,1.01122,1.10669,-0.106418,-0.0519503,-0.382849
4.71336,-0.0886718,0.330589,0.270443,1.01117,1.1025,-0.105892,-0.0519488,-0.385758
4.7253,-0.0886687,0.330294,0.2688,1.01112,1.09837,-0.105395,-0.051947,-0.388597
4.73723,-0.0886652,0.329985,0.267128,1.01107,1.09429,-0.104924,-0.051945,-0.391366
4.74916,-0.0886618,0.329664,0.265426,1.01101,1.09026,-0.104481,-0.0519429,-0.394066
4.76109,-0.0886588,0.329331,0.263695,1.01095,1.08629,-0.104065,-0.0519407,-0.396695
4.77303,-0.0886566,0.328988,0.261935,1.01089,1.08237,-0.103677,-0.0519386,-0.399249
4.78496,-0.0886554,0.328636,0.260149,1.01083,1.07851,-0.103316,-0.0519366,-0.401726
4.79689,-0.0886554,0.328277,0.258338,1.01077,1.07472,-0.102985,-0.0519349,-0.404121
4.80882,-0.0886566,0.32791,0.256506,1.01071,1.07101,-0.102682,-0.0519334,-0.406432
4.82076,-0.088659,0.327538,0.254653,1.01065,1.06737,-0.102409,-0.0519322,-0.408657
4.83269,-0.0886621,0.327158,0.25278,1.01059,1.06381,-0.102165,-0.0519311,-0.410795
4.84462,-0.0886656,0.32677,0.250888,1.01054,1.06032,-0.101949,-0.0519302,-0.412847
4.85655,-0.0886692,0.32637,0.248976,1.01049,1.05691,-0.101761,-0.0519291,-0.414814
4.86849,-0.0886724,0.325957,0.247046,1.01043,1.05357,-0.101599,-0.0519278,-0.416699
4.88042,-0.088675,0.325526,0.245096,1.01038,1.05029,-0.101462,-0.0519262,-0.418507
4.89235,-0.0886767,0.325074,0.243127,1.01032,1.04707,-0.101347,-0.0519242,-0.420241
4.90428,-0.0886776,0.324599,0.24114,1.01024,1.0439,-0.101253,-0.0519216,-0.421906
4.91622,-0.0886776,0.324097,0.239137,1.01015,1.04078,-0.101177,-0.0519185,-0.423507
4.92815,-0.0886769,0.323566,0.237118,1.01003,1.03771,-0.101116,-0.0519149,-0.425049
4.94008,-0.0886758,0.323004,0.235086,1.00988,1.03469,-0.101069,-0.0519109,-0.426534
4.95201,-0.0886743,0.32241,0.233043,1.00968,1.03171,-0.101033,-0.0519064,-0.427961
4.96395,-0.0886729,0.321782,0.23099,1.00943,1.02877,-0.101007,-0.0519018,-0.429331
4.97588,-0.0886717,0.321119,0.228926,1.00911,1.02588,-0.100987,-0.051897,-0.430639
4.98781,-0.0886709,0.320419,0.22685,1.00871,1.02301,-0.100973,-0.0518923,-0.43188
4.99974,-0.0886707,0.319679,0.22476,1.00822,1.02018,-0.100964,-0.0518878,-0.433048
5.01168,-0.0886712,0.318898,0.222654,1.00762,1.01736,-0.100957,-0.0518836,-0.434135
5.02361,-0.0886724,0.318073,0.220529,1.00691,1.01456,-0.100953,-0.0518796,-0.435134
5.03554,-0.0886743,0.317202,0.218385,1.00608,1.01177,-0.100951,-0.0518758,-0.436038
5.04747,-0.0886767,0.316286,0.216223,1.00511,1.00898,-0.10095,-0.0518718,-0.436844
5.05941,-0.0886793,0.315323,0.214047,1.00401,1.00621,-0.100951,-0.0518674,-0.437548
5.07134,-0.0886819,0.314314,0.21186,1.00276,1.00344,-0.100952,-0.0518621,-0.438151
5.08327,-0.088684,0.31326,0.209669,1.00138,1.00069,-0.100954,-0.0518554,-0.438656
5.0952,-0.0886855,0.312164,0.20748,0.999849,0.997967,-0.100956,-0.0518467,-0.439069
5.10714,-0.088686,0.311026,0.205298,0.99818,0.995264,-0.100958,-0.0518355,-0.439398
5.11907,-0.0886856,0.309849,0.203129,0.99637,0.992592,-0.100961,-0.0518212,-0.439654
5.131,-0.0886842,0.308635,0.200976,0.99442,0.989951,-0.100964,-0.051803,-0.439846
5.14294,-0.088682,0.307387,0.198843,0.99233,0.987343,-0.100967,-0.0517804,-0.439987
5.15487,-0.0886792,0.306105,0.196731,0.990103,0.984769,-0.10097,-0.0517525,-0.440087
5.1668,-0.0886761,0.304794,0.194641,0.987738,0.982228,-0.100972,-0.0517186,-0.440155
5.17873,-0.088673,0.303455,0.192576,0.985236,0.97972,-0.100975,-0.051678,-0.4402
5.19067,-0.0886702,0.30209,0.190538,0.982598,0.977244,-0.100977,-0.0516302,-0.440228
5.2026,-0.088668,0.300701,0.188528,0.979826,0.9748,-0.100979,-0.0515747,-0.440245
5.21453,-0.0886665,0.299292,0.186549,0.976919,0.972389,-0.100981,-0.0515115,-0.440254
5.22646,-0.088666,0.297863,0.184602,0.973878,0.970013,-0.100984,-0.0514412,-0.440258
5.2384,-0.0886665,0.296415,0.182687,0.970703,0.967673,-0.100987,-0.0513647,-0.440259
5.25033,-0.0886681,0.294948,0.180807,0.96739,0.965369,-0.10099,-0.0512835,-0.440259
5.26226,-0.0886706,0.29346,0.178959,0.963935,0.963103,-0.100993,-0.0511996,-0.440258
5.27419,-0.0886737,0.291949,0.177141,0.960333,0.960875,-0.100997,-0.0511151,-0.440256
5.28613,-0.0886774,0.290411,0.175352,0.956577,0.958685,-0.101,-0.0510323,-0.440255
5.29806,-0.0886813,0.288841,0.173588,0.952658,0.956532,-0.101005,-0.0509532,-0.440254
5.30999,-0.0886851,0.287236,0.171846,0.948571,0.954417,-0.101009,-0.0508795,-0.440253
5.32192,-0.0886887,0.285592,0.170125,0.944314,0.952341,-0.101014,-0.0508124,-0.440252
5.33386,-0.0886922,0.283907,0.168424,0.939885,0.950306,-0.10102,-0.0507524,-0.440251
5.34579,-0.0886953,0.28218,0.166744,0.93529,0.948315,-0.101026,-0.0506995,-0.44025
5.35772,-0.0886983,0.280413,0.165087,0.930535,0.946374,-0.101034,-0.0506531,-0.440249
5.36965,-0.0887014,0.278607,0.163457,0.92563,0.944488,-0.101042,-0.0506124,-0.440247
5.38159,-0.0887047,0.276764,0.161858,0.920587,0.942663,-0.101052,-0.0505765,-0.440245
5.39352,-0.0887083,0.274885,0.160293,0.915416,0.940904,-0.101064,-0.0505443,-0.440242
5.40545,-0.0887123,0.27297,0.158767,0.910127,0.939218,-0.101079,-0.0505151,-0.44024
5.41738,-0.0887165,0.271021,0.157282,0.904729,0.937609,-0.101097,-0.0504883,-0.440238
5.42932,-0.0887209,0.269035,0.155842,0.899227,0.936083,-0.101118,-0.0504636,-0.440236
5.44125,-0.0887252,0.267013,0.154448,0.89363,0.934646,-0.101145,-0.0504407,-0.440235
5.45318,-0.0887293,0.26495,0.153105,0.887943,0.933303,-0.101178,-0.0504197,-0.440234
5.46511,-0.0887329,0.262847,0.151813,0.88217,0.932057,-0.101217,-0.0504006,-0.440234
5.47705,-0.0887359,0.260703,0.150574,0.876318,0.930913,-0.101264,-0.0503834,-0.440235
5.48898,-0.0887383,0.258515,0.14939,0.870392,0.92987,-0.10132,-0.0503682,-0.440236
5.50091,-0.08874,0.256286,0.148261,0.864397,0.92893,-0.101385,-0.0503548,-0.440238
5.51285,-0.0887411,0.254014,0.147188,0.858338,0.928091,-0.101459,-0.0503432,-0.44024
5.52478,-0.0887417,0.251702,0.146168,0.852218,0.927348,-0.101543,-0.0503333,-0.440243
5.53671,-0.088742,0.24935,0.1452,0.846037,0.926695,-0.101636,-0.0503248,-0.440246
5.54864,-0.0887422,0.246957,0.144278,0.839792,0.926125,-0.101739,-0.0503176,-0.440248
5.56058,-0.0887425,0.244521,0.143399,0.833476,0.925629,-0.101853,-0.0503115,-0.44025
5.57251,-0.0887435,0.242041,0.142556,0.827078,0.925199,-0.101977,-0.0503064,-0.440251
5.58444,-0.0887453,0.239511,0.141744,0.820585,0.924826,-0.102115,-0.0503023,-0.440252
5.59637,-0.0887481,0.236927,0.140956,0.813981,0.924501,-0.102267,-0.0502991,-0.440251
5.60831,-0.0887523,0.234284,0.140186,0.807254,0.924216,-0.102438,-0.0502967,-0.44025
5.62024,-0.0887578,0.231579,0.139431,0.800393,0.923965,-0.102631,-0.0502952,-0.440247
5.63217,-0.0887647,0.22881,0.138687,0.793394,0.923743,-0.102851,-0.0502944,-0.440245
5.6441,-0.0887726,0.225977,0.137954,0.786259,0.923545,-0.103103,-0.0502944,-0.440242
5.65604,-0.0887815,0.223084,0.137232,0.778998,0.923368,-0.103393,-0.050295,-0.440239
5.66797,-0.0887909,0.220136,0.136526,0.771625,0.923211,-0.103728,-0.0502961,-0.440236
5.6799,-0.0888005,0.21714,0.135837,0.76416,0.923072,-0.104115,-0.0502974,-0.440232
5.69183,-0.08881,0.214104,0.135171,0.756621,0.922951,-0.10456,-0.0502988,-0.440229
5.70377,-0.0888191,0.211034,0.134531,0.749025,0.922846,-0.105069,-0.0503,-0.440226
5.7157,-0.0888276,0.207936,0.133922,0.741387,0.922759,-0.105649,-0.0503008,-0.440222
5.72763,-0.0888355,0.204816,0.133345,0.733713,0.922687,-0.106304,-0.050301,-0.440219
5.73956,-0.0888428,0.201678,0.132803,0.726011,0.922631,-0.107039,-0.0503006,-0.440215
5.7515,-0.0888497,0.198524,0.132297,0.718283,0.922588,-0.107856,-0.0502995,-0.44021
5.76343,-0.0888564,0.195358,0.131825,0.710528,0.922557,-0.108755,-0.050298,-0.440206
5.77536,-0.0888632,0.192184,0.131388,0.702752,0.922536,-0.109735,-0.0502961,-0.4402
5.78729,-0.0888704,0.189006,0.130984,0.694957,0.922523,-0.110793,-0.0502941,-0.440195
5.79923,-0.0888785,0.18583,0.130612,0.687151,0.922516,-0.111921,-0.0502922,-0.440189
5.81116,-0.0888878,0.182661,0.130273,0.679342,0.922515,-0.113114,-0.0502906,-0.440182
5.82309,-0.0888985,0.179505,0.129964,0.671537,0.922517,-0.114362,-0.0502894,-0.440175
5.83502,-0.0889107,0.176364,0.129687,0.66374,0.922523,-0.115659,-0.0502888,-0.440167
5.84696,-0.0889246,0.173239,0.12944,0.655949,0.922531,-0.116998,-0.0502888,-0.440158
5.85889,-0.0889402,0.170127,0.129222,0.648155,0.922543,-0.118375,-0.0502893,-0.440147
5.87082,-0.0889577,0.167024,0.129035,0.64034,0.922557,-0.119787,-0.0502905,-0.440135
5.88275,-0.0889769,0.16392,0.128875,0.632478,0.922576,-0.121237,-0.0502923,-0.44012
5.89469,-0.0889982,0.160805,0.128742,0.624542,0.922602,-0.122726,-0.0502947,-0.440102
5.90662,-0.0890219,0.157668,0.128634,0.616503,0.922635,-0.12426,-0.0502977,-0.440078
5.91855,-0.0890483,0.154504,0.128547,0.608338,0.922678,-0.125841,-0.0503013,-0.440048
5.93048,-0.0890784,0.151307,0.12848,0.600035,0.922735,-0.127472,-0.0503055,-0.440008
5.94242,-0.089113,0.14808,0.12843,0.591593,0.922808,-0.129155,-0.0503102,-0.439957
5.95435,-0.0891534,0.14483,0.128392,0.583022,0.9229,-0.130887,-0.0503153,-0.439888
5.96628,-0.089201,0.141565,0.128366,0.574346,0.923017,-0.132664,-0.0503207,-0.439799
5.97822,-0.089257,0.138301,0.128348,0.565594,0.923163,-0.134479,-0.0503261,-0.439682
5.99015,-0.0893229,0.13505,0.128336,0.556798,0.923343,-0.136326,-0.0503314,-0.439532
6.00208,-0.0893997,0.131824,0.128329,0.547986,0.923562,-0.138196,-0.0503364,-0.43934
6.01401,-0.089488,0.128634,0.128324,0.539186,0.923826,-0.140084,-0.0503408,-0.439099
6.02595,-0.0895881,0.125485,0.128322,0.530415,0.924141,-0.141981,-0.0503446,-0.438799
6.03788,-0.0896996,0.12238,0.12832,0.521686,0.924514,-0.143881,-0.0503476,-0.438434
6.04981,-0.0898215,0.119318,0.128319,0.513007,0.924948,-0.145779,-0.05035,-0.437995
6.06174,-0.0899524,0.116297,0.128319,0.504382,0.92545,-0.147668,-0.0503516,-0.437476
6.07368,-0.0900904,0.113315,0.128319,0.495816,0.926023,-0.149541,-0.0503528,-0.436874
6.08561,-0.0902335,0.110365,0.128319,0.487311,0.926671,-0.151391,-0.0503537,-0.436186
6.09754,-0.0903799,0.107445,0.12832,0.478868,0.927396,-0.153208,-0.0503545,-0.435416
6.10947,-0.0905281,0.104551,0.128321,0.470489,0.928201,-0.154985,-0.0503554,-0.434567
6.12141,-0.0906776,0.101679,0.128321,0.462174,0.929086,-0.156714,-0.0503567,-0.433648
6.13334,-0.0908285,0.0988232,0.128322,0.453916,0.930054,-0.158387,-0.0503585,-0.432669
6.14527,-0.0909823,0.0959789,0.128322,0.445705,0.931107,-0.16,-0.0503612,-0.431639
6.1572,-0.0911417,0.0931381,0.128321,0.437523,0.932248,-0.161548,-0.0503649,-0.430572
6.16914,-0.0913105,0.0902912,0.12832,0.429345,0.933482,-0.163031,-0.05037,-0.429476
6.18107,-0.0914937,0.087427,0.128318,0.421139,0.934813,-0.164448,-0.0503768,-0.428358
6.193,-0.0916968,0.0845337,0.128316,0.412873,0.936248,-0.1658,-0.0503856,-0.427223
6.20493,-0.0919258,0.0815998,0.128313,0.404515,0.937795,-0.167088,-0.050397,-0.42607
6.21687,-0.0921868,0.0786159,0.12831,0.396037,0.939458,-0.168311,-0.0504114,-0.424898
6.2288,-0.0924854,0.0755758,0.128306,0.387423,0.941243,-0.169468,-0.0504293,-0.423701
6.24073,-0.0928269,0.0724774,0.128302,0.378667,0.943153,-0.170555,-0.0504512,-0.422472
6.25266,-0.0932157,0.0693229,0.128298,0.369776,0.945189,-0.171566,-0.0504774,-0.421205
6.2646,-0.0936558,0.0661179,0.128295,0.360769,0.947351,-0.172496,-0.0505082,-0.419892
6.27653,-0.0941505,0.0628705,0.128292,0.351671,0.949636,-0.173337,-0.0505433,-0.418528
6.28846,-0.0947029,0.0595901,0.128289,0.34251,0.952041,-0.174086,-0.0505826,-0.417109
6.30039,-0.0953156,0.0562857,0.128287,0.333312,0.954562,-0.174738,-0.0506251,-0.415633
6.31233,-0.0959914,0.052965,0.128286,0.324103,0.957195,-0.175293,-0.05067,-0.4141
6.32426,-0.0967329,0.049634,0.128285,0.3149,0.959939,-0.175755,-0.050716,-0.412513
6.33619,-0.0975428,0.0462968,0.128286,0.305715,0.96279,-0.176129,-0.0507617,-0.410871
6.34812,-0.0984236,0.0429557,0.128287,0.296555,0.965749,-0.176425,-0.050806,-0.409179
6.36006,-0.0993775,0.0396119,0.12829,0.287424,0.968814,-0.176652,-0.0508478,-0.407437
6.37199,-0.100406,0.0362652,0.128293,0.278321,0.971985,-0.176821,-0.0508863,-0.405644
6.38392,-0.101512,0.0329151,0.128296,0.269244,0.975261,-0.176942,-0.0509211,-0.403797
6.39585,-0.102694,0.0295604,0.1283,0.260191,0.978643,-0.177027,-0.0509521,-0.401894
6.40779,-0.103954,0.0261998,0.128304,0.251159,0.98213,-0.177083,-0.0509797,-0.399929
6.41972,-0.10529,0.0228314,0.128308,0.242143,0.985722,-0.177119,-0.0510043,-0.397894
6.43165,-0.106703,0.0194528,0.128313,0.233139,0.989416,-0.17714,-0.0510266,-0.395784
6.44358,-0.108192,0.016061,0.128318,0.224143,0.993214,-0.17715,-0.0510476,-0.393593
6.45552,-0.109757,0.0126521,0.128323,0.215147,0.997114,-0.177153,-0.0510682,-0.391316
6.46745,-0.111398,0.0092215,0.12833,0.206144,1.00112,-0.17715,-0.0510892,-0.38895
6.47938,-0.113115,0.00576388,0.128337,0.197125,1.00522,-0.177144,-0.0511118,-0.386494
6.49132,-0.114908,0.00227386,0.128344,0.188082,1.00944,-0.177135,-0.0511372,-0.383947
6.50325,-0.116779,-0.00125351,0.128353,0.179008,1.01376,-0.177123,-0.0511666,-0.381309
6.51518,-0.118728,-0.00482197,0.128362,0.169897,1.01818,-0.177107,-0.0512016,-0.378585
6.52711,-0.120754,-0.00843336,0.128371,0.160748,1.02271,-0.177087,-0.0512438,-0.375778
6.53905,-0.122856,-0.0120873,0.128381,0.151565,1.02734,-0.177061,-0.0512952,-0.372895
6.55098,-0.125033,-0.0157809,0.128391,0.142354,1.03207,-0.177028,-0.0513579,-0.369942
6.56291,-0.12728,-0.0195096,0.1284,0.133125,1.03688,-0.176987,-0.0514339,-0.366928
6.57484,-0.129596,-0.023267,0.128409,0.123891,1.04176,-0.176935,-0.0515253,-0.363862
6.58678,-0.131978,-0.0270463,0.128418,0.114664,1.0467,-0.176869,-0.0516339,-0.360752
6.59871,-0.134421,-0.030841,0.128427,0.105455,1.0517,-0.176789,-0.0517612,-0.357607
6.61064,-0.136925,-0.0346455,0.128436,0.0962756,1.05674,-0.17669,-0.0519081,-0.354434
6.62257,-0.139487,-0.0384553,0.128446,0.0871304,1.06182,-0.17657,-0.0520753,-0.351239
6.63451,-0.142106,-0.0422678,0.128456,0.0780236,1.06693,-0.176427,-0.052263,-0.348028
6.64644,-0.144783,-0.0460821,0.128468,0.0689555,1.07207,-0.176257,-0.0524713,-0.344803
6.65837,-0.147518,-0.0498985,0.128481,0.0599249,1.07724,-0.176056,-0.0527005,-0.341568
6.6703,-0.150312,-0.0537184,0.128495,0.0509292,1.08243,-0.175822,-0.0529511,-0.338325
6.68224,-0.153165,-0.0575434,0.12851,0.0419663,1.08766,-0.17555,-0.0532243,-0.335073
6.69417,-0.156079,-0.0613746,0.128527,0.0330358,1.09292,-0.175236,-0.053522,-0.331815
6.7061,-0.159053,-0.0652122,0.128545,0.0241399,1.09822,-0.174875,-0.0538468,-0.328553
6.71803,-0.162088,-0.069055,0.128564,0.0152837,1.10355,-0.174462,-0.0542017,-0.32529
6.72997,-0.165182,-0.0729001,0.128583,0.0064753,1.1089,-0.173993,-0.0545904,-0.322029
6.7419,-0.168332,-0.0767437,0.128602,-0.00227577,1.11429,-0.173464,-0.055016,-0.318774
6.75383,-0.171538,-0.0805816,0.128622,-0.0109601,1.11971,-0.172868,-0.0554817,-0.315528
6.76576,-0.174798,-0.0844096,0.128643,-0.0195699,1.12514,-0.172201,-0.0559894,-0.312296
6.7777,-0.17811,-0.0882246,0.128664,-0.0281006,1.1306,-0.171458,-0.0565396,-0.30908
6.78963,-0.181475,-0.0920244,0.128686,-0.0365506,1.13608,-0.170634,-0.0571307,-0.30588
6.80156,-0.184891,-0.0958076,0.128709,-0.0449209,1.14157,-0.169724,-0.057759,-0.302699
6.81349,-0.188356,-0.0995734,0.128733,-0.0532131,1.1471,-0.168723,-0.0584178,-0.299536
6.82543,-0.191869,-0.103321,0.128758,-0.061428,1.15264,-0.167625,-0.0590977,-0.296395
6.83736,-0.195425,-0.107047,0.128784,-0.0695632,1.1582,-0.166425,-0.059787,-0.29328
6.84929,-0.19902,-0.110749,0.128812,-0.077613,1.16377,-0.165118,-0.0604722,-0.290195
6.86122,-0.202647,-0.114423,0.12884,-0.0855679,1.16935,-0.163697,-0.0611387,-0.28715
6.87316,-0.2063,-0.118064,0.12887,-0.093416,1.17491,-0.162156,-0.0617723,-0.284151
6.88509,-0.209974,-0.121667,0.1289,-0.101145,1.18047,-0.160488,-0.0623604,-0.28121
6.89702,-0.213662,-0.125227,0.128931,-0.108741,1.18599,-0.158685,-0.0628925,-0.278333
6.90896,-0.217361,-0.128743,0.128964,-0.116195,1.19149,-0.156742,-0.0633615,-0.27553
6.92089,-0.221068,-0.132212,0.128997,-0.1235,1.19694,-0.15465,-0.063764,-0.272806
6.93282,-0.224782,-0.135632,0.129031,-0.130649,1.20236,-0.152405,-0.0640999,-0.270167
6.94475,-0.228502,-0.139004,0.129067,-0.13764,1.20775,-0.150003,-0.0643726,-0.267618
6.95669,-0.232225,-0.142329,0.129103,-0.144471,1.21309,-0.14744,-0.0645878,-0.26516
6.96862,-0.235951,-0.145605,0.129141,-0.151141,1.21839,-0.144717,-0.0647529,-0.262799
6.98055,-0.239678,-0.148833,0.129181,-0.157649,1.22366,-0.141836,-0.064876,-0.260537
6.99248,-0.243404,-0.152012,0.129222,-0.163994,1.22889,-0.138797,-0.0649655,-0.258379
7.00442,-0.247125,-0.155144,0.129265,-0.170177,1.23408,-0.135607,-0.065029,-0.256327
7.01635,-0.250841,-0.158228,0.12931,-0.176197,1.23922,-0.132268,-0.065073,-0.254387
7.02828,-0.254548,-0.161266,0.129359,-0.182054,1.24432,-0.128785,-0.065103,-0.252559
7.04021,-0.258245,-0.16426,0.129412,-0.187753,1.24937,-0.125161,-0.0651233,-0.250844
7.05215,-0.261931,-0.167211,0.129472,-0.193298,1.25437,-0.1214,-0.0651371,-0.249239
7.06408,-0.265606,-0.170125,0.129542,-0.198695,1.25932,-0.117503,-0.0651468,-0.24774
7.07601,-0.269271,-0.173004,0.129623,-0.203954,1.26422,-0.113469,-0.065154,-0.246338
7.08794,-0.272926,-0.175854,0.129721,-0.209086,1.26906,-0.109301,-0.0651598,-0.245023
7.09988,-0.276572,-0.178678,0.129837,-0.2141,1.27384,-0.104997,-0.0651651,-0.243784
7.11181,-0.28021,-0.181478,0.129976,-0.219009,1.27857,-0.100561,-0.0651706,-0.242607
7.12374,-0.283836,-0.184255,0.130141,-0.223821,1.28323,-0.0959979,-0.0651766,-0.241482
7.13567,-0.287449,-0.187008,0.130335,-0.228542,1.28783,-0.0913144,-0.0651835,-0.2404
7.14761,-0.291041,-0.189733,0.130561,-0.233177,1.29236,-0.0865216,-0.0651918,-0.239355
7.15954,-0.294607,-0.192427,0.13082,-0.237727,1.2968,-0.0816323,-0.0652017,-0.238342
7.17147,-0.298136,-0.195083,0.131112,-0.242192,1.30115,-0.0766607,-0.0652137,-0.237363
7.1834,-0.301622,-0.197695,0.131439,-0.246571,1.3054,-0.0716216,-0.0652284,-0.23642
7.19534,-0.305055,-0.200258,0.1318,-0.250865,1.30955,-0.0665285,-0.0652465,-0.235518
7.20727,-0.308428,-0.202768,0.132193,-0.255072,1.31359,-0.0613939,-0.0652692,-0.234662
7.2192,-0.311736,-0.205223,0.132617,-0.259196,1.31751,-0.0562284,-0.0652978,-0.233857
7.23113,-0.314975,-0.207618,0.13307,-0.26324,1.32133,-0.0510413,-0.0653344,-0.23311
7.24307,-0.318141,-0.209954,0.13355,-0.267209,1.32502,-0.0458415,-0.0653812,-0.232422
7.255,-0.321232,-0.212228,0.134054,-0.271105,1.3286,-0.040638,-0.0654414,-0.231796
7.26693,-0.324245,-0.214437,0.13458,-0.274935,1.33206,-0.0354412,-0.0655185,-0.231231
7.27886,-0.327177,-0.216579,0.135125,-0.278701,1.3354,-0.030263,-0.0656166,-0.230723
7.2908,-0.330026,-0.218648,0.135686,-0.282406,1.33861,-0.025117,-0.0657401,-0.230267
7.30273,-0.332788,-0.22064,0.136261,-0.286053,1.34169,-0.0200186,-0.0658941,-0.229856
7.31466,-0.335458,-0.22255,0.136848,-0.289644,1.34464,-0.0149844,-0.0660833,-0.229479
7.32659,-0.338033,-0.224371,0.137447,-0.293182,1.34744,-0.0100309,-0.0663129,-0.229126
7.33853,-0.340509,-0.226099,0.138056,-0.296671,1.35009,-0.00517442,-0.0665877,-0.228782
7.35046,-0.342884,-0.227731,0.138677,-0.300117,1.35259,-0.000429428,-0.0669125,-0.228435
7.36239,-0.345156,-0.229266,0.13931,-0.303527,1.35495,0.00419149,-0.0672921,-0.22807
7.37433,-0.347326,-0.230701,0.13996,-0.30691,1.35716,0.00867809,-0.0677312,-0.22767
7.38626,-0.349394,-0.232039,0.140629,-0.310274,1.35922,0.0130222,-0.068235,-0.227221
7.39819,-0.351363,-0.23328,0.141323,-0.313631,1.36116,0.017217,-0.0688094,-0.226706
7.41012,-0.353234,-0.234428,0.142044,-0.316989,1.36296,0.021256,-0.0694607,-0.22611
7.42206,-0.35501,-0.235486,0.142799,-0.320355,1.36465,0.0251321,-0.0701965,-0.225418
7.43399,-0.356693,-0.236456,0.143592,-0.323736,1.36622,0.0288366,-0.0710248,-0.224615
7.44592,-0.358283,-0.237341,0.144426,-0.327133,1.36769,0.0323586,-0.0719544,-0.22369
7.45785,-0.359778,-0.238145,0.145303,-0.330545,1.36906,0.0356856,-0.0729939,-0.222632
7.46979,-0.361178,-0.238869,0.146228,-0.33397,1.37034,0.0388035,-0.0741518,-0.221435
7.48172,-0.362481,-0.239516,0.1472,-0.337403,1.37152,0.0416985,-0.0754352,-0.220096
7.49365,-0.363683,-0.240089,0.148222,-0.34084,1.37262,0.0443584,-0.0768499,-0.218617
7.50558,-0.364784,-0.240591,0.149292,-0.344274,1.37363,0.046774,-0.0783992,-0.217003
7.51752,-0.365783,-0.241028,0.150413,-0.347702,1.37456,0.0489403,-0.0800839,-0.215263
7.52945,-0.366679,-0.241404,0.151582,-0.351121,1.37542,0.0508572,-0.0819024,-0.213409
7.54138,-0.367475,-0.241724,0.152801,-0.354527,1.37619,0.0525296,-0.0838505,-0.211457
7.55331,-0.368174,-0.241996,0.154068,-0.357919,1.3769,0.0539673,-0.085922,-0.209421
7.56525,-0.368778,-0.242225,0.155382,-0.361296,1.37754,0.0551843,-0.0881092,-0.207318
7.57718,-0.369295,-0.242417,0.156743,-0.364657,1.37812,0.0561978,-0.0904037,-0.205163
7.58911,-0.369729,-0.242577,0.15815,-0.368,1.37864,0.0570274,-0.0927969,-0.202974
7.60104,-0.370088,-0.242709,0.159603,-0.371324,1.37911,0.0576942,-0.0952808,-0.200764
7.61298,-0.370379,-0.242817,0.1611,-0.374629,1.37952,0.0582197,-0.097848,-0.198546
7.62491,-0.370611,-0.242904,0.162641,-0.377915,1.37989,0.0586253,-0.100492,-0.196334
7.63684,-0.370792,-0.242973,0.164226,-0.381183,1.3802,0.0589314,-0.10321,-0.194137
7.64877,-0.370928,-0.243024,0.165856,-0.384434,1.38048,0.059157,-0.105996,-0.191964
7.66071,-0.371029,-0.243061,0.167532,-0.387672,1.38071,0.0593191,-0.10885,-0.189822
7.67264,-0.371102,-0.243084,0.169255,-0.390899,1.38091,0.0594325,-0.111772,-0.187717
7.68457,-0.371152,-0.243097,0.171027,-0.394119,1.38107,0.0595097,-0.11476,-0.185654
7.6965,-0.371184,-0.243101,0.172848,-0.397334,1.38121,0.0595607,-0.117816,-0.183637
7.70844,-0.371205,-0.243098,0.174719,-0.400547,1.38131,0.0595934,-0.120938,-0.181673
7.72037,-0.371217,-0.24309,0.176641,-0.403756,1.3814,0.0596137,-0.124122,-0.179767
7.7323,-0.371223,-0.243078,0.178611,-0.406958,1.38146,0.0596259,-0.127363,-0.177929
7.74423,-0.371226,-0.243063,0.180627,-0.410148,1.38151,0.059633,-0.130653,-0.176167
7.75617,-0.371226,-0.243046,0.182686,-0.413317,1.38155,0.0596369,-0.133978,-0.174493
7.7681,-0.371225,-0.243027,0.184784,-0.416458,1.38157,0.0596389,-0.137325,-0.172915
7.78003,-0.371223,-0.243006,0.186916,-0.41956,1.38159,0.0596397,-0.140678,-0.171442
7.79197,-0.37122,-0.242983,0.189078,-0.422616,1.3816,0.0596398,-0.144021,-0.170077
7.8039,-0.371218,-0.242958,0.191267,-0.425618,1.38161,0.0596394,-0.147338,-0.16882
7.81583,-0.371215,-0.242931,0.193478,-0.428562,1.38162,0.0596388,-0.150615,-0.167668
7.82776,-0.371212,-0.242902,0.19571,-0.431446,1.38162,0.059638,-0.153838,-0.166612
7.83969,-0.371209,-0.24287,0.197961,-0.434267,1.38163,0.0596371,-0.156995,-0.16564
7.85163,-0.371206,-0.242836,0.200228,-0.437026,1.38163,0.0596361,-0.160077,-0.164741
7.86356,-0.371203,-0.242801,0.20251,-0.439724,1.38164,0.0596351,-0.163073,-0.1639
7.87549,-0.371201,-0.242763,0.204804,-0.442361,1.38164,0.0596342,-0.165975,-0.163105
7.88743,-0.371198,-0.242725,0.207106,-0.444937,1.38164,0.0596332,-0.168773,-0.162346
7.89936,-0.371196,-0.242684,0.209413,-0.44745,1.38164,0.0596323,-0.171457,-0.161617
7.91129,-0.371194,-0.242642,0.211718,-0.449898,1.38165,0.0596315,-0.174018,-0.160912
7.92322,-0.371193,-0.242597,0.214016,-0.452278,1.38165,0.0596307,-0.176447,-0.160231
7.93516,-0.371192,-0.242549,0.216302,-0.454586,1.38165,0.0596299,-0.178735,-0.159576
7.94709,-0.371191,-0.242495,0.218574,-0.456819,1.38166,0.0596291,-0.180873,-0.158949
7.95902,-0.371191,-0.242434,0.22083,-0.458975,1.38166,0.0596284,-0.182857,-0.158357
7.97095,-0.371191,-0.242361,0.223071,-0.461055,1.38166,0.0596276,-0.184685,-0.157803
7.98289,-0.37119,-0.242274,0.225304,-0.463062,1.38167,0.0596269,-0.186358,-0.157293
7.99482,-0.37119,-0.242168,0.227534,-0.465,1.38167,0.0596262,-0.187882,-0.15683
8.00675,-0.37119,-0.242038,0.22977,-0.466875,1.38167,0.0596257,-0.189266,-0.156417
8.01868,-0.371189,-0.241879,0.232019,-0.468693,1.38167,0.0596254,-0.190521,-0.156055
8.03062,-0.371188,-0.241688,0.234287,-0.470459,1.38167,0.0596252,-0.19166,-0.155742
8.04255,-0.371187,-0.24146,0.236574,-0.472176,1.38166,0.0596254,-0.192693,-0.155477
8.05448,-0.371185,-0.241192,0.238879,-0.473844,1.38166,0.0596258,-0.193632,-0.155256
8.06641,-0.371183,-0.240885,0.241192,-0.475459,1.38166,0.0596265,-0.194483,-0.155075
8.07835,-0.371181,-0.240538,0.243504,-0.477017,1.38165,0.0596275,-0.195252,-0.15493
8.09028,-0.371178,-0.240152,0.245802,-0.478511,1.38165,0.0596286,-0.195941,-0.154816
8.10221,-0.371176,-0.239731,0.248071,-0.479936,1.38165,0.0596298,-0.196552,-0.154728
8.11414,-0.371173,-0.239277,0.2503,-0.481287,1.38164,0.059631,-0.197085,-0.154661
8.12608,-0.371171,-0.238795,0.252479,-0.482565,1.38164,0.0596321,-0.197542,-0.154612
8.13801,-0.371168,-0.238289,0.254601,-0.483769,1.38164,0.059633,-0.197925,-0.154577
8.14994,-0.371166,-0.237764,0.256662,-0.484904,1.38164,0.0596337,-0.198239,-0.154551
8.16187,-0.371163,-0.237224,0.258662,-0.485977,1.38163,0.0596342,-0.198489,-0.154533
8.17381,-0.37116,-0.236674,0.260601,-0.486996,1.38163,0.0596344,-0.198683,-0.154521
8.18574,-0.371157,-0.236119,0.262479,-0.487969,1.38163,0.0596345,-0.198828,-0.154512
8.19767,-0.371153,-0.235561,0.2643,-0.488906,1.38163,0.0596344,-0.198935,-0.154505
8.2096,-0.371149,-0.235007,0.266065,-0.489814,1.38162,0.0596343,-0.19901,-0.1545
8.22154,-0.371144,-0.234459,0.267775,-0.490699,1.38162,0.0596342,-0.199062,-0.154495
8.23347,-0.371139,-0.23392,0.269431,-0.491566,1.38162,0.0596342,-0.199096,-0.15449
8.2454,-0.371134,-0.233394,0.271033,-0.492419,1.38161,0.0596343,-0.199118,-0.154484
8.25733,-0.371129,-0.232882,0.272583,-0.49326,1.38161,0.0596345,-0.199132,-0.154477
8.26927,-0.371125,-0.232385,0.274082,-0.494089,1.38161,0.059635,-0.199141,-0.154469
8.2812,-0.371121,-0.231903,0.275531,-0.494905,1.3816,0.0596356,-0.199146,-0.154458
8.29313,-0.371116,-0.231436,0.276932,-0.495706,1.3816,0.0596364,-0.199148,-0.154445
8.30507,-0.371113,-0.230982,0.278288,-0.496492,1.38159,0.0596374,-0.19915,-0.154428
8.317,-0.37111,-0.230539,0.279602,-0.497259,1.38158,0.0596384,-0.19915,-0.154406
8.32893,-0.371107,-0.230105,0.280873,-0.498005,1.38158,0.0596394,-0.199149,-0.154379
8.34086,-0.371104,-0.229678,0.282103,-0.498726,1.38157,0.0596405,-0.199148,-0.154345
8.3528,-0.371102,-0.229254,0.283292,-0.499421,1.38155,0.0596414,-0.199147,-0.154302
8.36473,-0.3711,-0.228832,0.284437,-0.500086,1.38154,0.0596421,-0.199145,-0.154252
8.37666,-0.371098,-0.22841,0.285536,-0.500721,1.38152,0.0596427,-0.199143,-0.154192
8.38859,-0.371096,-0.227985,0.286586,-0.501323,1.3815,0.059643,-0.199141,-0.154124
8.40053,-0.371095,-0.227555,0.287583,-0.501893,1.38148,0.0596432,-0.199139,-0.154049
8.41246,-0.371094,-0.227118,0.288526,-0.502432,1.38146,0.0596431,-0.199138,-0.153968
8.42439,-0.371093,-0.226674,0.289413,-0.50294,1.38143,0.0596429,-0.199137,-0.153884
8.43632,-0.371092,-0.226219,0.290241,-0.503422,1.3814,0.0596426,-0.199136,-0.153799
