timestamp,ArmR1_Cla1,ArmR2_Sho1,ArmR3_Sho2,ArmR4_Sho3,ArmR5_Elb1,ArmR6_Elb2,ArmR7_Wri1,ArmR8_Wri2
0,-0.0367444,-0.686247,0.162601,-0.179696,1.44807,0.078723,-0.0624973,0.378995
0.0132088,-0.0367547,-0.690005,0.164144,-0.179815,1.45195,0.0787234,-0.0610628,0.38019
0.0264175,-0.0367695,-0.694325,0.165919,-0.17995,1.45641,0.078724,-0.0593783,0.381505
0.0396263,-0.0367902,-0.699177,0.167916,-0.180098,1.46141,0.0787247,-0.0574424,0.382914
0.0528351,-0.0368192,-0.704518,0.170118,-0.180255,1.46691,0.0787258,-0.05526,0.384389
0.0660438,-0.0368593,-0.710294,0.172506,-0.180417,1.47286,0.0787271,-0.0528404,0.385899
0.0792526,-0.036914,-0.716447,0.175056,-0.180579,1.47919,0.0787289,-0.0501961,0.387419
0.0924614,-0.0369877,-0.722919,0.177749,-0.180738,1.48583,0.078731,-0.0473404,0.38893
0.10567,-0.0370859,-0.729659,0.180564,-0.180888,1.49275,0.0787336,-0.0442873,0.390419
0.118879,-0.0372149,-0.73662,0.183486,-0.181027,1.49989,0.0787366,-0.0410502,0.391879
0.132088,-0.037382,-0.743762,0.186503,-0.181153,1.50722,0.0787399,-0.0376426,0.393312
0.145296,-0.0375959,-0.75105,0.189604,-0.181263,1.5147,0.0787436,-0.0340785,0.39472
0.158505,-0.0378661,-0.758452,0.192782,-0.181358,1.5223,0.0787474,-0.0303732,0.396112
0.171714,-0.0382029,-0.765939,0.196029,-0.181438,1.53001,0.0787512,-0.0265435,0.397494
0.184923,-0.0386176,-0.773483,0.199339,-0.181506,1.53781,0.0787548,-0.0226082,0.398873
0.198131,-0.0391215,-0.781056,0.202707,-0.181562,1.54566,0.078758,-0.0185884,0.400259
0.21134,-0.039726,-0.788633,0.206129,-0.181609,1.55356,0.0787607,-0.014507,0.401658
0.224549,-0.0404423,-0.796188,0.209598,-0.18165,1.56149,0.0787627,-0.010389,0.403078
0.237758,-0.0412804,-0.803699,0.213112,-0.181686,1.56943,0.0787639,-0.00626053,0.404527
0.250967,-0.0422494,-0.811142,0.216663,-0.181721,1.57736,0.0787642,-0.0021491,0.406017
0.264175,-0.0433574,-0.818497,0.220249,-0.181757,1.58527,0.0787635,0.0019174,0.407561
0.277384,-0.044611,-0.825746,0.223864,-0.181796,1.59315,0.0787619,0.00591117,0.409174
0.290593,-0.0460159,-0.832872,0.227506,-0.181839,1.60097,0.0787593,0.00980534,0.410873
0.303802,-0.0475766,-0.839864,0.231171,-0.181889,1.60875,0.0787559,0.0135747,0.412678
0.31701,-0.049297,-0.846713,0.234859,-0.181946,1.61646,0.0787516,0.0171962,0.414609
0.330219,-0.0511801,-0.853417,0.238573,-0.182011,1.62411,0.0787466,0.0206496,0.416688
0.343428,-0.0532289,-0.859976,0.242315,-0.182084,1.63172,0.078741,0.0239174,0.418937
0.356637,-0.0554455,-0.866397,0.246092,-0.182166,1.63928,0.0787347,0.0269854,0.421376
0.369845,-0.0578321,-0.872689,0.249912,-0.182254,1.64682,0.078728,0.0298422,0.424027
0.383054,-0.0603905,-0.878867,0.253786,-0.182348,1.65435,0.0787209,0.0324796,0.42691
0.396263,-0.0631216,-0.884945,0.257725,-0.182446,1.6619,0.0787135,0.0348923,0.430044
0.409472,-0.0660259,-0.890942,0.261741,-0.182546,1.66948,0.0787059,0.037078,0.433449
0.42268,-0.0691021,-0.896874,0.265846,-0.182646,1.67711,0.078698,0.0390372,0.437138
0.435889,-0.0723469,-0.902759,0.270051,-0.182743,1.68481,0.0786901,0.0407734,0.441125
0.449098,-0.0757542,-0.908607,0.274362,-0.182834,1.69259,0.078682,0.0422926,0.445415
0.462307,-0.0793146,-0.914428,0.278785,-0.182918,1.70046,0.0786737,0.0436036,0.450009
0.475516,-0.0830155,-0.920224,0.283319,-0.182991,1.7084,0.0786652,0.0447179,0.454903
0.488724,-0.0868409,-0.925993,0.28796,-0.18305,1.71641,0.0786564,0.0456489,0.460085
0.501933,-0.0907728,-0.931725,0.2927,-0.183095,1.72446,0.078647,0.0464124,0.465537
0.515142,-0.0947919,-0.937411,0.297532,-0.183121,1.73255,0.0786369,0.0470255,0.471241
0.528351,-0.0988799,-0.943036,0.302447,-0.183127,1.74063,0.0786257,0.0475063,0.477176
0.541559,-0.103021,-0.948589,0.30744,-0.183109,1.74871,0.0786132,0.0478727,0.483325
0.554768,-0.107202,-0.954061,0.312508,-0.183063,1.75677,0.0785991,0.0481423,0.489676
0.567977,-0.111417,-0.959446,0.317658,-0.182985,1.7648,0.0785831,0.0483305,0.496223
0.581186,-0.115664,-0.964745,0.322899,-0.182868,1.77282,0.0785649,0.0484507,0.502966
0.594395,-0.119946,-0.969964,0.328245,-0.182705,1.78083,0.0785444,0.0485126,0.509912
0.607603,-0.124272,-0.97511,0.333716,-0.182486,1.78886,0.0785213,0.0485222,0.517071
0.620812,-0.128647,-0.980195,0.339326,-0.1822,1.79694,0.0784956,0.0484811,0.524449
0.634021,-0.13308,-0.985227,0.34509,-0.181836,1.80507,0.0784671,0.0483861,0.532049
0.647229,-0.137574,-0.99021,0.351013,-0.18138,1.81326,0.0784356,0.0482291,0.539862
0.660438,-0.142125,-0.995143,0.357093,-0.180819,1.82151,0.0784007,0.0479971,0.547871
0.673647,-0.146727,-1.00002,0.36332,-0.180139,1.82982,0.0783622,0.0476723,0.556046
0.686856,-0.151368,-1.00483,0.369677,-0.179324,1.83815,0.0783191,0.0472324,0.56435
0.700065,-0.156033,-1.00955,0.376143,-0.178358,1.84649,0.0782705,0.0466517,0.572742
0.713273,-0.160708,-1.01418,0.3827,-0.177226,1.8548,0.0782146,0.0459016,0.581182
0.726482,-0.165381,-1.0187,0.389331,-0.17591,1.86308,0.0781493,0.0449523,0.589637
0.739691,-0.170044,-1.02309,0.396024,-0.174393,1.87131,0.0780718,0.0437742,0.598081
0.7529,-0.174691,-1.02736,0.402775,-0.17266,1.87949,0.0779784,0.0423401,0.606499
0.766108,-0.179318,-1.0315,0.409582,-0.170694,1.88763,0.0778651,0.0406264,0.614882
0.779317,-0.183923,-1.0355,0.416442,-0.168486,1.89572,0.0777268,0.0386148,0.623225
0.792526,-0.1885,-1.03937,0.423352,-0.166027,1.90378,0.0775582,0.0362934,0.631521
0.805735,-0.193042,-1.0431,0.430303,-0.163314,1.9118,0.0773532,0.0336569,0.639761
0.818944,-0.197534,-1.04667,0.43728,-0.16035,1.91978,0.0771057,0.0307064,0.647931
0.832152,-0.201959,-1.05009,0.444261,-0.157143,1.92769,0.0768093,0.027449,0.656012
0.845361,-0.206296,-1.05333,0.451221,-0.153706,1.93553,0.0764575,0.0238962,0.663982
0.85857,-0.210524,-1.05638,0.458133,-0.150053,1.94328,0.0760437,0.0200631,0.671819
0.871779,-0.214619,-1.05923,0.464971,-0.1462,1.95091,0.0755609,0.0159664,0.679503
0.884987,-0.218563,-1.06188,0.471713,-0.142165,1.95841,0.0750023,0.0116236,0.687021
0.898196,-0.222338,-1.06431,0.47834,-0.137961,1.96577,0.0743603,0.00705154,0.694367
0.911405,-0.225931,-1.06653,0.484841,-0.1336,1.973,0.073627,0.00226536,0.701543
0.924614,-0.229333,-1.06853,0.491209,-0.129092,1.98011,0.072794,-0.00272203,0.708559
0.937822,-0.232539,-1.07031,0.497441,-0.12444,1.9871,0.0718523,-0.00790011,0.715432
0.951031,-0.235545,-1.07189,0.503538,-0.119647,1.994,0.070793,-0.0132604,0.722179
0.96424,-0.23835,-1.07326,0.509502,-0.114713,2.00082,0.0696075,-0.0187954,0.728824
0.977449,-0.240957,-1.07443,0.515333,-0.109636,2.00759,0.0682883,-0.0244977,0.735386
0.990657,-0.243368,-1.07541,0.52103,-0.104416,2.01433,0.0668298,-0.0303577,0.741885
1.00387,-0.245584,-1.07622,0.526588,-0.0990559,2.02105,0.0652284,-0.0363628,0.748332
1.01707,-0.247608,-1.07684,0.531998,-0.0935611,2.02775,0.0634834,-0.0424962,0.754734
1.03028,-0.249443,-1.0773,0.537248,-0.0879417,2.03444,0.061597,-0.0487363,0.761092
1.04349,-0.251091,-1.07758,0.542322,-0.0822113,2.04113,0.059574,-0.0550571,0.7674
1.0567,-0.252554,-1.07769,0.547202,-0.0763871,2.04779,0.0574215,-0.0614289,0.773645
1.06991,-0.253836,-1.07762,0.551874,-0.0704884,2.05443,0.0551482,-0.0678201,0.779814
1.08312,-0.254941,-1.07737,0.556323,-0.0645352,2.06103,0.052764,-0.0741986,0.785887
1.09633,-0.255876,-1.07692,0.560537,-0.0585472,2.06758,0.0502787,-0.0805327,0.791847
1.10954,-0.256647,-1.07625,0.564512,-0.0525424,2.07409,0.0477025,-0.0867927,0.797675
1.12275,-0.257266,-1.07535,0.568245,-0.046537,2.08053,0.045045,-0.0929511,0.803353
1.13595,-0.257741,-1.07418,0.571739,-0.0405448,2.08691,0.0423154,-0.0989828,0.808867
1.14916,-0.258085,-1.07273,0.575001,-0.034578,2.09323,0.039523,-0.104864,0.814198
1.16237,-0.258309,-1.07097,0.578039,-0.028647,2.09949,0.0366768,-0.110573,0.819332
1.17558,-0.258423,-1.06887,0.580864,-0.0227614,2.10569,0.0337865,-0.116087,0.82425
1.18879,-0.258437,-1.06642,0.583484,-0.0169303,2.11183,0.0308622,-0.121386,0.828934
1.202,-0.258357,-1.06359,0.58591,-0.0111619,2.11792,0.0279146,-0.126448,0.833362
1.21521,-0.258191,-1.06037,0.58815,-0.00546339,2.12396,0.0249552,-0.131252,0.837513
1.22842,-0.257941,-1.05675,0.590211,0.000159168,2.12996,0.0219957,-0.135781,0.841367
1.24162,-0.25761,-1.05272,0.5921,0.0057018,2.13591,0.0190481,-0.140016,0.844903
1.25483,-0.257201,-1.04828,0.593823,0.0111627,2.14183,0.0161248,-0.143946,0.848107
1.26804,-0.256713,-1.04342,0.595386,0.0165422,2.14772,0.0132378,-0.147561,0.850967
1.28125,-0.256147,-1.03816,0.596794,0.0218428,2.15359,0.0103991,-0.15086,0.853478
1.29446,-0.255503,-1.0325,0.598055,0.0270681,2.15944,0.00762058,-0.153844,0.855644
1.30767,-0.254782,-1.02645,0.599175,0.0322222,2.16528,0.00491365,-0.156523,0.857473
1.32088,-0.253981,-1.02004,0.600161,0.0373085,2.17111,0.00228955,-0.15891,0.858981
1.33409,-0.253102,-1.01328,0.601023,0.042329,2.17693,-0.000240932,-0.161023,0.860187
1.34729,-0.252143,-1.00622,0.601768,0.0472836,2.18272,-0.00266759,-0.162885,0.861116
1.3605,-0.251101,-0.998877,0.602407,0.0521698,2.18848,-0.00498103,-0.164519,0.861792
1.37371,-0.249974,-0.991298,0.602948,0.0569827,2.19419,-0.007173,-0.165949,0.862238
1.38692,-0.248758,-0.983521,0.603401,0.0617155,2.19984,-0.0092367,-0.167197,0.862474
1.40013,-0.247449,-0.975588,0.603776,0.0663604,2.2054,-0.0111672,-0.168286,0.862513
1.41334,-0.246042,-0.967537,0.604082,0.0709089,2.21087,-0.0129619,-0.169231,0.862361
1.42655,-0.244533,-0.959408,0.604327,0.0753528,2.21622,-0.0146204,-0.170048,0.862019
1.43976,-0.242916,-0.951236,0.60452,0.0796843,2.22144,-0.0161453,-0.170747,0.861475
1.45296,-0.241189,-0.943054,0.604668,0.083896,2.22651,-0.0175416,-0.17134,0.860713
1.46617,-0.239349,-0.934895,0.604779,0.0879809,2.23143,-0.018817,-0.171833,0.859707
1.47938,-0.237395,-0.926788,0.604859,0.0919325,2.23618,-0.0199814,-0.172234,0.858428
1.49259,-0.23533,-0.918763,0.604914,0.0957444,2.24074,-0.021047,-0.172552,0.856843
1.5058,-0.233157,-0.910846,0.604948,0.0994106,2.24512,-0.0220279,-0.172793,0.854918
1.51901,-0.23088,-0.903061,0.604966,0.102926,2.24929,-0.0229397,-0.172966,0.852622
1.53222,-0.228505,-0.89543,0.604972,0.106285,2.25326,-0.0237994,-0.173078,0.849928
1.54543,-0.22604,-0.887969,0.604969,0.109486,2.25701,-0.024625,-0.173137,0.846814
1.55863,-0.22349,-0.88069,0.604959,0.112527,2.26054,-0.0254354,-0.173147,0.843267
1.57184,-0.220863,-0.873602,0.604945,0.115407,2.26384,-0.0262496,-0.173113,0.839282
1.58505,-0.218165,-0.866706,0.604927,0.118129,2.26691,-0.0270867,-0.173035,0.834861
1.59826,-0.215401,-0.860003,0.604907,0.120696,2.26975,-0.0279653,-0.172914,0.830015
1.61147,-0.212576,-0.853488,0.604886,0.123115,2.27237,-0.028903,-0.172745,0.824759
1.62468,-0.209692,-0.847153,0.604863,0.125394,2.27477,-0.0299156,-0.172525,0.819113
1.63789,-0.206751,-0.840987,0.604837,0.127543,2.27695,-0.0310168,-0.172249,0.8131
1.6511,-0.203755,-0.834978,0.604809,0.129576,2.27892,-0.0322177,-0.171914,0.806747
1.6643,-0.200708,-0.829113,0.604776,0.131508,2.2807,-0.0335264,-0.171517,0.80008
1.67751,-0.197612,-0.823379,0.604738,0.133356,2.2823,-0.0349475,-0.171058,0.793128
1.69072,-0.194473,-0.817765,0.604691,0.135138,2.28372,-0.0364827,-0.170541,0.785924
1.70393,-0.191301,-0.812262,0.604633,0.136876,2.28498,-0.0381305,-0.169972,0.778501
1.71714,-0.188104,-0.806861,0.604561,0.138591,2.2861,-0.0398874,-0.16936,0.770897
1.73035,-0.184897,-0.801557,0.604472,0.140303,2.28709,-0.0417486,-0.168719,0.763147
1.74356,-0.181692,-0.796346,0.604361,0.142035,2.28796,-0.0437085,-0.168059,0.755291
1.75677,-0.178501,-0.791222,0.604226,0.143807,2.28874,-0.0457624,-0.167393,0.747364
1.76997,-0.175336,-0.786181,0.604063,0.145637,2.28944,-0.0479068,-0.16673,0.739399
1.78318,-0.172203,-0.781217,0.603869,0.147543,2.29006,-0.0501399,-0.166079,0.731422
1.79639,-0.169107,-0.776319,0.60364,0.149538,2.29064,-0.0524619,-0.165442,0.723455
1.8096,-0.166048,-0.771477,0.603374,0.151634,2.29118,-0.0548747,-0.164822,0.715513
1.82281,-0.163023,-0.76668,0.603071,0.153839,2.29169,-0.0573817,-0.164218,0.707604
1.83602,-0.160029,-0.761916,0.602729,0.156159,2.29218,-0.0599873,-0.163626,0.699733
1.84923,-0.157059,-0.757171,0.602348,0.158597,2.29266,-0.062697,-0.163044,0.691902
1.86244,-0.154107,-0.752436,0.60193,0.161156,2.29314,-0.0655172,-0.16247,0.684108
1.87564,-0.151169,-0.747698,0.601477,0.163838,2.29362,-0.0684559,-0.161901,0.676347
1.88885,-0.14824,-0.742946,0.600989,0.166646,2.2941,-0.0715235,-0.161339,0.668614
1.90206,-0.145313,-0.738166,0.60047,0.169587,2.29457,-0.0747336,-0.160783,0.660896
1.91527,-0.142385,-0.733344,0.59992,0.172666,2.29505,-0.0781034,-0.160237,0.653179
1.92848,-0.139446,-0.728462,0.599344,0.175895,2.29553,-0.0816533,-0.159703,0.645445
1.94169,-0.13649,-0.723501,0.598741,0.179284,2.29601,-0.0854059,-0.159186,0.637671
1.9549,-0.133505,-0.718442,0.598116,0.182843,2.29648,-0.0893842,-0.158688,0.629838
1.96811,-0.130482,-0.713271,0.59747,0.186581,2.29695,-0.0936088,-0.158214,0.621926
1.98131,-0.127411,-0.707979,0.596805,0.1905,2.29741,-0.098096,-0.157767,0.613929
1.99452,-0.124286,-0.70256,0.596127,0.1946,2.29785,-0.102855,-0.157352,0.605846
2.00773,-0.1211,-0.697022,0.595439,0.198873,2.29828,-0.107889,-0.15697,0.59769
2.02094,-0.117851,-0.691377,0.594745,0.203305,2.29869,-0.113195,-0.156625,0.589483
2.03415,-0.114538,-0.68564,0.59405,0.207879,2.29907,-0.118762,-0.156318,0.581253
2.04736,-0.111161,-0.679831,0.593357,0.212578,2.29942,-0.12458,-0.156049,0.573031
2.06057,-0.107718,-0.673968,0.592669,0.217385,2.29974,-0.130639,-0.155816,0.564845
2.07378,-0.104207,-0.668066,0.591988,0.222284,2.30002,-0.136929,-0.155615,0.556717
2.08699,-0.100626,-0.662136,0.591316,0.227265,2.30026,-0.143445,-0.155439,0.54866
2.10019,-0.0969677,-0.656186,0.590653,0.23232,2.30046,-0.150181,-0.155281,0.540681
2.1134,-0.0932284,-0.65022,0.59,0.23744,2.30062,-0.157133,-0.155129,0.532778
2.12661,-0.089403,-0.644244,0.589359,0.242619,2.30074,-0.164293,-0.154971,0.524949
2.13982,-0.0854884,-0.638266,0.588731,0.247845,2.30084,-0.171651,-0.154791,0.517191
2.15303,-0.0814833,-0.632296,0.588122,0.253105,2.3009,-0.17919,-0.154571,0.5095
2.16624,-0.0773886,-0.626349,0.587536,0.258383,2.30095,-0.186891,-0.154294,0.50188
2.17945,-0.073207,-0.62044,0.586978,0.263659,2.30097,-0.194729,-0.153937,0.494333
2.19266,-0.0689419,-0.614588,0.586455,0.268912,2.30098,-0.202679,-0.153482,0.486865
2.20586,-0.0645967,-0.60881,0.585972,0.274121,2.30097,-0.210717,-0.152904,0.479481
2.21907,-0.0601743,-0.603121,0.585535,0.279266,2.30096,-0.218819,-0.152184,0.472183
2.23228,-0.0556765,-0.597533,0.585146,0.284327,2.30093,-0.226967,-0.151301,0.464972
2.24549,-0.0511041,-0.592057,0.584808,0.289289,2.3009,-0.235143,-0.150235,0.457846
2.2587,-0.0464566,-0.586699,0.58452,0.294138,2.30086,-0.243334,-0.148966,0.450801
2.27191,-0.0417329,-0.581464,0.584281,0.298862,2.30082,-0.251528,-0.147478,0.443832
2.28512,-0.0369313,-0.576358,0.584086,0.303451,2.30076,-0.259716,-0.145752,0.436933
2.29833,-0.0320499,-0.57138,0.583932,0.307898,2.3007,-0.267888,-0.143771,0.430098
2.31153,-0.0270865,-0.566534,0.583813,0.312196,2.30063,-0.276038,-0.141521,0.42332
2.32474,-0.0220395,-0.561819,0.583724,0.316344,2.30055,-0.284159,-0.138985,0.416593
2.33795,-0.0169074,-0.557236,0.583659,0.320337,2.30044,-0.292245,-0.136151,0.409913
2.35116,-0.0116895,-0.552784,0.583612,0.324177,2.30032,-0.300293,-0.133006,0.403272
2.36437,-0.00638617,-0.548461,0.583579,0.327864,2.30016,-0.308298,-0.129543,0.396668
2.37758,-0.000998585,-0.544266,0.583556,0.331401,2.29996,-0.316257,-0.125757,0.390095
2.39079,0.00447067,-0.540196,0.58354,0.334791,2.29971,-0.324166,-0.121646,0.38355
2.404,0.0100179,-0.53625,0.583529,0.338038,2.29939,-0.332023,-0.117215,0.37703
2.4172,0.0156384,-0.532424,0.583522,0.341146,2.299,-0.339826,-0.112472,0.370534
2.43041,0.0213266,-0.528718,0.583516,0.344118,2.2985,-0.347571,-0.107427,0.36406
2.44362,0.0270769,-0.525128,0.583511,0.346961,2.2979,-0.355258,-0.102096,0.357606
2.45683,0.0328836,-0.521653,0.583508,0.349677,2.29718,-0.362886,-0.0964936,0.351171
2.47004,0.0387415,-0.51829,0.583504,0.352274,2.29632,-0.370458,-0.0906387,0.344752
2.48325,0.044646,-0.515035,0.583501,0.354757,2.29532,-0.377976,-0.0845485,0.338346
2.49646,0.0505929,-0.511884,0.583498,0.357134,2.29417,-0.385447,-0.0782411,0.331946
2.50967,0.056578,-0.508831,0.583495,0.359411,2.29287,-0.392875,-0.0717342,0.325546
2.52287,0.0625962,-0.505871,0.583492,0.361596,2.29142,-0.400268,-0.0650462,0.319141
2.53608,0.0686404,-0.502997,0.583489,0.363699,2.28981,-0.407632,-0.0581965,0.312723
2.54929,0.0747012,-0.500203,0.583485,0.365728,2.28807,-0.414973,-0.0512063,0.306289
2.5625,0.0807661,-0.497485,0.583481,0.367692,2.28618,-0.422292,-0.0440996,0.299838
2.57571,0.0868197,-0.49484,0.583478,0.3696,2.28417,-0.429591,-0.0369023,0.293369
2.58892,0.0928446,-0.492264,0.583474,0.371462,2.28203,-0.43687,-0.0296427,0.286887
2.60213,0.0988217,-0.489757,0.58347,0.373289,2.27979,-0.444126,-0.0223501,0.280396
2.61534,0.104732,-0.487319,0.583466,0.375093,2.27744,-0.451359,-0.0150543,0.273904
2.62854,0.110559,-0.48495,0.583462,0.376886,2.275,-0.458567,-0.00778516,0.267416
2.64175,0.116284,-0.482651,0.583459,0.378683,2.27247,-0.46575,-0.000572228,0.260941
2.65496,0.121893,-0.480423,0.583456,0.380495,2.26988,-0.472908,0.00655481,0.254484
2.66817,0.127372,-0.478268,0.583453,0.382334,2.26723,-0.480042,0.0135656,0.248056
2.68138,0.132709,-0.476186,0.583452,0.384209,2.26454,-0.487149,0.0204284,0.241667
2.69459,0.137892,-0.47418,0.58345,0.386125,2.26183,-0.494226,0.02711,0.235329
2.7078,0.142907,-0.472249,0.58345,0.388085,2.2591,-0.501268,0.0335763,0.229061
2.72101,0.147745,-0.470394,0.58345,0.390086,2.25639,-0.508268,0.039793,0.222881
2.73421,0.152393,-0.468616,0.583452,0.392125,2.25371,-0.515215,0.0457277,0.216811
2.74742,0.156843,-0.466914,0.583455,0.394194,2.25108,-0.522101,0.0513515,0.210877
2.76063,0.161088,-0.465285,0.583459,0.396281,2.24853,-0.528917,0.0566407,0.205105
2.77384,0.165121,-0.463728,0.583465,0.398374,2.24605,-0.535655,0.0615791,0.199523
2.78705,0.168941,-0.46224,0.583472,0.400459,2.24368,-0.542308,0.0661579,0.194157
2.80026,0.172545,-0.460818,0.583481,0.40252,2.24142,-0.54887,0.070377,0.189037
2.81347,0.175935,-0.459459,0.583491,0.40454,2.23927,-0.555334,0.0742449,0.184192
2.82668,0.179113,-0.458162,0.583502,0.406502,2.23724,-0.561694,0.077778,0.179648
2.83988,0.182084,-0.456925,0.583516,0.408389,2.23534,-0.567946,0.0810005,0.175432
2.85309,0.184853,-0.455747,0.58353,0.410184,2.23357,-0.574084,0.0839432,0.171567
2.8663,0.187427,-0.454631,0.583545,0.411872,2.23193,-0.580103,0.0866433,0.168072
2.87951,0.189815,-0.453577,0.583561,0.413442,2.23041,-0.585999,0.0891421,0.164958
2.89272,0.192025,-0.452586,0.583577,0.414884,2.22902,-0.591767,0.0914843,0.16223
2.90593,0.194067,-0.45166,0.583593,0.416192,2.22775,-0.597403,0.0937155,0.159883
2.91914,0.195952,-0.450802,0.58361,0.417363,2.22661,-0.602904,0.09588,0.157901
2.93235,0.197687,-0.450012,0.583625,0.418397,2.22558,-0.608261,0.0980188,0.156263
2.94555,0.199281,-0.44929,0.583641,0.419298,2.22468,-0.613465,0.100168,0.154937
2.95876,0.200739,-0.448638,0.583656,0.420071,2.22388,-0.618503,0.102355,0.153889
2.97197,0.202067,-0.448054,0.583669,0.420723,2.22319,-0.623358,0.104603,0.15308
2.98518,0.203267,-0.447537,0.583682,0.421264,2.2226,-0.62801,0.106925,0.152469
2.99839,0.204343,-0.447084,0.583693,0.421705,2.2221,-0.632438,0.109328,0.15202
3.0116,0.205295,-0.446692,0.583703,0.422056,2.2217,-0.636622,0.111815,0.151698
3.02481,0.206128,-0.446358,0.583711,0.42233,2.22136,-0.640543,0.114383,0.151472
3.03802,0.206845,-0.446076,0.583718,0.422539,2.2211,-0.644184,0.117026,0.151317
3.05122,0.207453,-0.445842,0.583724,0.422695,2.2209,-0.647535,0.119735,0.151214
3.06443,0.207957,-0.44565,0.583728,0.422809,2.22074,-0.650589,0.122501,0.151145
3.07764,0.208368,-0.445495,0.58373,0.42289,2.22062,-0.653345,0.125312,0.1511
3.09085,0.208695,-0.445371,0.583732,0.422946,2.22054,-0.655804,0.128155,0.15107
3.10406,0.208949,-0.445275,0.583733,0.422985,2.22048,-0.657976,0.131017,0.15105
3.11727,0.209141,-0.445201,0.583733,0.423012,2.22044,-0.65987,0.13388,0.151035
3.13048,0.209282,-0.445145,0.583733,0.42303,2.22041,-0.661501,0.136727,0.151025
3.14369,0.209383,-0.445103,0.583733,0.423042,2.22039,-0.662887,0.139539,0.151017
3.15689,0.209452,-0.445072,0.583732,0.42305,2.22038,-0.664046,0.142293,0.151012
3.1701,0.209498,-0.445048,0.583732,0.423057,2.22037,-0.665,0.144966,0.151007
3.18331,0.209528,-0.44503,0.583732,0.423061,2.22036,-0.665772,0.147534,0.151004
3.19652,0.209548,-0.445014,0.583732,0.423065,2.22036,-0.666384,0.149975,0.151002
3.20973,0.20956,-0.445,0.583732,0.423068,2.22036,-0.666859,0.152265,0.151001
3.22294,0.20957,-0.444986,0.583732,0.42307,2.22036,-0.66722,0.154386,0.151
3.23615,0.209577,-0.444971,0.583733,0.423072,2.22036,-0.667488,0.156321,0.151
3.24936,0.209584,-0.444954,0.583734,0.423073,2.22036,-0.667682,0.158058,0.150999
3.26257,0.209591,-0.444936,0.583735,0.423073,2.22036,-0.667819,0.159593,0.150998
3.27577,0.209598,-0.444917,0.583737,0.423072,2.22036,-0.667913,0.160922,0.150997
3.28898,0.209605,-0.444896,0.583738,0.423071,2.22037,-0.667976,0.162052,0.150996
3.30219,0.209612,-0.444874,0.583739,0.423069,2.22037,-0.668016,0.16299,0.150995
3.3154,0.209618,-0.444852,0.58374,0.423067,2.22037,-0.668043,0.163751,0.150994
3.32861,0.209623,-0.44483,0.583741,0.423064,2.22037,-0.668059,0.164352,0.150992
3.34182,0.209627,-0.444809,0.583742,0.42306,2.22037,-0.668069,0.164813,0.150991
3.35503,0.20963,-0.444789,0.583742,0.423056,2.22038,-0.668075,0.165154,0.150991
3.36824,0.209631,-0.444771,0.583743,0.423052,2.22038,-0.668079,0.165396,0.15099
3.38144,0.209631,-0.444756,0.583743,0.423048,2.22038,-0.668082,0.165558,0.15099
3.39465,0.20963,-0.444743,0.583743,0.423044,2.22038,-0.668084,0.165658,0.15099
3.40786,0.209628,-0.444732,0.583742,0.42304,2.22038,-0.668085,0.16571,0.150991
3.42107,0.209625,-0.444724,0.583742,0.423037,2.22038,-0.668086,0.165727,0.150991
3.43428,0.209621,-0.444718,0.583742,0.423034,2.22038,-0.668086,0.165717,0.150992
3.44749,0.209616,-0.444714,0.583742,0.423031,2.22038,-0.668086,0.165689,0.150992
3.4607,0.209612,-0.444711,0.583741,0.423029,2.22038,-0.668086,0.165648,0.150993
3.47391,0.209607,-0.444709,0.583741,0.423027,2.22038,-0.668086,0.165598,0.150993
3.48711,0.209602,-0.444708,0.583741,0.423026,2.22038,-0.668086,0.16554,0.150993
3.50032,0.209597,-0.444706,0.583741,0.423025,2.22038,-0.668086,0.165475,0.150993
3.51353,0.209592,-0.444706,0.583742,0.423024,2.22038,-0.668086,0.165403,0.150994
3.52674,0.209588,-0.444705,0.583743,0.423022,2.22038,-0.668086,0.16532,0.150994
3.53995,0.209584,-0.444704,0.583744,0.423021,2.22038,-0.668086,0.165222,0.150995
3.55316,0.209581,-0.444703,0.583745,0.423018,2.22038,-0.668086,0.165104,0.150995
3.56637,0.209578,-0.444702,0.583747,0.423015,2.22038,-0.668085,0.164958,0.150996
3.57958,0.209576,-0.444701,0.583749,0.423011,2.22038,-0.668086,0.164774,0.150998
3.59278,0.209574,-0.4447,0.583751,0.423006,2.22039,-0.668085,0.164543,0.151
3.60599,0.209573,-0.4447,0.583754,0.423,2.22039,-0.668085,0.164257,0.151002
3.6192,0.209572,-0.444699,0.583757,0.422992,2.22039,-0.668084,0.163906,0.151004
3.63241,0.209571,-0.444699,0.58376,0.422983,2.22039,-0.668084,0.163486,0.151007
3.64562,0.209571,-0.444699,0.583763,0.422972,2.22039,-0.668083,0.162995,0.15101
3.65883,0.20957,-0.444698,0.583767,0.422959,2.22039,-0.668082,0.162433,0.151013
3.67204,0.20957,-0.444697,0.58377,0.422943,2.22039,-0.668082,0.161806,0.151015
3.68525,0.20957,-0.444696,0.583774,0.422924,2.22039,-0.668081,0.161123,0.151018
3.69845,0.20957,-0.444695,0.583777,0.422901,2.22039,-0.66808,0.160399,0.15102
3.71166,0.209571,-0.444693,0.583781,0.422875,2.22039,-0.668079,0.159649,0.151021
3.72487,0.209572,-0.44469,0.583785,0.422845,2.22039,-0.668078,0.15889,0.151022
3.73808,0.209572,-0.444686,0.583789,0.422812,2.22039,-0.668077,0.158141,0.151022
3.75129,0.209573,-0.444682,0.583793,0.422774,2.22039,-0.668076,0.15742,0.151021
3.7645,0.209574,-0.444677,0.583798,0.422735,2.22039,-0.668075,0.156742,0.15102
3.77771,0.209575,-0.444671,0.583803,0.422692,2.2204,-0.668074,0.156119,0.151019
3.79092,0.209576,-0.444663,0.583808,0.422649,2.2204,-0.668072,0.155561,0.151017
3.80412,0.209576,-0.444653,0.583815,0.422604,2.2204,-0.668071,0.155074,0.151016
3.81733,0.209576,-0.444641,0.583822,0.42256,2.2204,-0.668069,0.154659,0.151015
3.83054,0.209575,-0.444626,0.58383,0.422516,2.2204,-0.668067,0.154315,0.151014
3.84375,0.209573,-0.444607,0.583839,0.422473,2.2204,-0.668066,0.154038,0.151014
3.85696,0.209571,-0.444583,0.583848,0.422432,2.2204,-0.668064,0.15382,0.151014
3.87017,0.209567,-0.444553,0.583858,0.422393,2.2204,-0.668062,0.153654,0.151015
3.88338,0.209562,-0.444515,0.583867,0.422355,2.2204,-0.668059,0.153532,0.151016
3.89659,0.209557,-0.444469,0.583877,0.42232,2.2204,-0.668057,0.153445,0.151017
3.90979,0.209551,-0.444412,0.583885,0.422285,2.2204,-0.668055,0.153386,0.151018
3.923,0.209545,-0.444342,0.583894,0.422252,2.2204,-0.668053,0.153347,0.15102
3.93621,0.209539,-0.444259,0.583901,0.42222,2.2204,-0.668051,0.153322,0.151021
3.94942,0.209532,-0.444159,0.583908,0.422189,2.2204,-0.668049,0.153308,0.151023
3.96263,0.209526,-0.444042,0.583914,0.422158,2.2204,-0.668048,0.153301,0.151024
3.97584,0.20952,-0.443906,0.58392,0.422128,2.2204,-0.668046,0.153298,0.151025
3.98905,0.209515,-0.443751,0.583925,0.422099,2.2204,-0.668044,0.153298,0.151027
4.00226,0.20951,-0.443575,0.58393,0.422069,2.2204,-0.668041,0.153299,0.151029
4.01546,0.209506,-0.443379,0.583935,0.422041,2.22041,-0.668039,0.153301,0.151031
4.02867,0.209503,-0.443164,0.583941,0.422013,2.22041,-0.668037,0.153304,0.151034
4.04188,0.2095,-0.442932,0.583948,0.421985,2.22041,-0.668034,0.153307,0.151037
4.05509,0.209498,-0.442687,0.583957,0.421958,2.22041,-0.668031,0.153311,0.151041
4.0683,0.209496,-0.44243,0.583967,0.421931,2.22042,-0.668028,0.153315,0.151046
4.08151,0.209495,-0.442167,0.583981,0.421901,2.22042,-0.668024,0.153321,0.151051
4.09472,0.209494,-0.441901,0.584,0.421868,2.22042,-0.66802,0.153328,0.151056
4.10793,0.209493,-0.441638,0.584024,0.42183,2.22042,-0.668016,0.153337,0.151062
4.12114,0.209491,-0.441382,0.584056,0.421782,2.22042,-0.668011,0.153349,0.151067
4.13434,0.209489,-0.441136,0.584098,0.421721,2.22042,-0.668006,0.153363,0.151073
4.14755,0.209486,-0.440903,0.584153,0.421641,2.22042,-0.667999,0.153382,0.151078
4.16076,0.209481,-0.440686,0.584223,0.421536,2.22042,-0.667991,0.153405,0.151083
4.17397,0.209474,-0.440484,0.584311,0.421398,2.22042,-0.667982,0.153435,0.151088
4.18718,0.209465,-0.440298,0.58442,0.42122,2.22042,-0.667969,0.153474,0.151092
4.20039,0.209453,-0.440125,0.584553,0.420993,2.22041,-0.667953,0.153523,0.151095
4.2136,0.209437,-0.439965,0.584711,0.420709,2.22041,-0.667933,0.153586,0.151098
4.22681,0.209417,-0.439816,0.584894,0.420362,2.22041,-0.667907,0.153667,0.1511
4.24001,0.209393,-0.439675,0.585102,0.419946,2.22041,-0.667874,0.153771,0.151101
4.25322,0.209365,-0.439542,0.585332,0.419459,2.2204,-0.667832,0.153903,0.151102
4.26643,0.209331,-0.439417,0.58558,0.4189,2.2204,-0.667781,0.154072,0.151102
4.27964,0.209291,-0.4393,0.585841,0.41827,2.2204,-0.667718,0.154284,0.151102
4.29285,0.209245,-0.439191,0.58611,0.417576,2.2204,-0.667642,0.154548,0.151102
4.30606,0.209189,-0.439092,0.586379,0.416823,2.2204,-0.667554,0.154872,0.151101
4.31927,0.209124,-0.439003,0.586643,0.416021,2.2204,-0.667452,0.155263,0.1511
4.33248,0.209045,-0.438925,0.586894,0.415181,2.2204,-0.667339,0.15573,0.151099
4.34568,0.208949,-0.438858,0.587127,0.414312,2.2204,-0.667216,0.156276,0.151098
4.35889,0.208833,-0.4388,0.587338,0.413426,2.2204,-0.667085,0.156905,0.151096
4.3721,0.208691,-0.438752,0.587524,0.412532,2.2204,-0.66695,0.157617,0.151094
4.38531,0.208519,-0.438711,0.587684,0.411642,2.2204,-0.666814,0.15841,0.151092
4.39852,0.208314,-0.438676,0.587818,0.410762,2.2204,-0.666682,0.159276,0.151091
4.41173,0.208071,-0.438646,0.587927,0.409904,2.2204,-0.666557,0.160208,0.151089
4.42494,0.207788,-0.43862,0.588013,0.409073,2.2204,-0.666442,0.161192,0.151087
4.43815,0.207465,-0.438596,0.588079,0.408279,2.2204,-0.666338,0.162212,0.151086
4.45135,0.207104,-0.438575,0.588129,0.407529,2.2204,-0.666249,0.163251,0.151085
4.46456,0.206709,-0.438555,0.588164,0.406831,2.2204,-0.666173,0.164294,0.151085
4.47777,0.206284,-0.438538,0.58819,0.406189,2.2204,-0.66611,0.165323,0.151085
4.49098,0.205838,-0.438522,0.588207,0.40561,2.2204,-0.666061,0.166329,0.151085
4.50419,0.205379,-0.438509,0.588219,0.405096,2.2204,-0.666022,0.167304,0.151086
4.5174,0.204915,-0.438497,0.588228,0.404649,2.2204,-0.665993,0.16825,0.151087
4.53061,0.204455,-0.438487,0.588233,0.404268,2.2204,-0.665973,0.169174,0.151088
4.54382,0.204007,-0.438479,0.588237,0.40395,2.2204,-0.665958,0.170088,0.151089
4.55702,0.203577,-0.438471,0.58824,0.403691,2.2204,-0.665948,0.171012,0.15109
4.57023,0.203171,-0.438465,0.588243,0.403485,2.2204,-0.665942,0.171965,0.151091
4.58344,0.202792,-0.438459,0.588246,0.403325,2.2204,-0.665938,0.172968,0.151092
4.59665,0.202442,-0.438452,0.588249,0.403204,2.2204,-0.665936,0.174037,0.151092
4.60986,0.202121,-0.438445,0.588251,0.403116,2.2204,-0.665936,0.175186,0.151093
4.62307,0.20183,-0.438437,0.588254,0.403053,2.2204,-0.665935,0.176418,0.151093
4.63628,0.201567,-0.438428,0.588256,0.403011,2.2204,-0.665935,0.177733,0.151093
4.64949,0.201329,-0.438417,0.588259,0.402984,2.2204,-0.665936,0.179119,0.151093
4.66269,0.201113,-0.438405,0.588261,0.402968,2.2204,-0.665936,0.180561,0.151092
4.6759,0.200915,-0.438391,0.588264,0.40296,2.2204,-0.665937,0.182037,0.151091
4.68911,0.200732,-0.438375,0.588266,0.402959,2.2204,-0.665937,0.183523,0.15109
4.70232,0.200558,-0.438358,0.588267,0.402961,2.22041,-0.665936,0.184993,0.151089
4.71553,0.200388,-0.438339,0.588269,0.402966,2.22041,-0.665936,0.186424,0.151087
4.72874,0.200217,-0.438318,0.58827,0.402973,2.22041,-0.665935,0.187794,0.151085
4.74195,0.20004,-0.438295,0.588271,0.40298,2.22041,-0.665935,0.189087,0.151083
4.75516,0.199854,-0.438269,0.588271,0.402989,2.22041,-0.665934,0.19029,0.151081
4.76836,0.199654,-0.43824,0.588272,0.402997,2.22042,-0.665933,0.191392,0.151078
4.78157,0.199438,-0.438207,0.588272,0.403006,2.22042,-0.665933,0.192389,0.151075
4.79478,0.199204,-0.438168,0.588272,0.403014,2.22042,-0.665932,0.193279,0.151073
4.80799,0.198953,-0.438123,0.588271,0.403022,2.22042,-0.665932,0.194061,0.15107
4.8212,0.198684,-0.438068,0.588271,0.403028,2.22042,-0.665932,0.194739,0.151069
4.83441,0.1984,-0.438001,0.58827,0.403033,2.22042,-0.665932,0.195315,0.151067
4.84762,0.198101,-0.437919,0.588269,0.403037,2.22042,-0.665932,0.195798,0.151067
4.86083,0.197792,-0.437818,0.588268,0.403039,2.22042,-0.665933,0.196194,0.151066
4.87403,0.197473,-0.437692,0.588267,0.40304,2.22042,-0.665934,0.196513,0.151067
4.88724,0.197148,-0.437538,0.588266,0.40304,2.22042,-0.665935,0.196763,0.151068
4.90045,0.196821,-0.437351,0.588266,0.403039,2.22042,-0.665935,0.196956,0.151069
4.91366,0.196493,-0.437126,0.588265,0.403037,2.22042,-0.665936,0.1971,0.151069
4.92687,0.196168,-0.436859,0.588265,0.403036,2.22041,-0.665937,0.197206,0.15107
4.94008,0.195849,-0.436547,0.588265,0.403034,2.22041,-0.665938,0.197282,0.15107
4.95329,0.19554,-0.436188,0.588266,0.403033,2.22041,-0.665939,0.197335,0.15107
4.9665,0.195245,-0.435781,0.588267,0.403033,2.22041,-0.665939,0.197371,0.151069
4.9797,0.194966,-0.435325,0.588267,0.403034,2.22041,-0.66594,0.197395,0.151068
4.99291,0.194706,-0.434823,0.588268,0.403036,2.22041,-0.66594,0.197412,0.151066
5.00612,0.194469,-0.434276,0.588269,0.403039,2.22041,-0.66594,0.197422,0.151063
5.01933,0.194255,-0.433686,0.58827,0.403044,2.22041,-0.665939,0.197429,0.151059
5.03254,0.194066,-0.433056,0.588271,0.40305,2.22041,-0.665939,0.197434,0.151054
5.04575,0.193901,-0.43239,0.588273,0.403059,2.22041,-0.665939,0.197438,0.151049
5.05896,0.19376,-0.43169,0.588273,0.403068,2.2204,-0.665938,0.197441,0.151043
5.07217,0.193638,-0.430959,0.588274,0.40308,2.2204,-0.665938,0.197443,0.151037
5.08537,0.193534,-0.430202,0.588275,0.403093,2.2204,-0.665937,0.197446,0.15103
5.09858,0.193443,-0.429419,0.588276,0.403106,2.2204,-0.665937,0.197448,0.151023
5.11179,0.193364,-0.428614,0.588277,0.403121,2.2204,-0.665937,0.19745,0.151016
5.125,0.19329,-0.427788,0.588279,0.403136,2.2204,-0.665937,0.197452,0.151009
5.13821,0.193221,-0.426943,0.58828,0.403152,2.2204,-0.665938,0.197455,0.151003
5.15142,0.193153,-0.42608,0.588281,0.403167,2.2204,-0.665938,0.197457,0.150997
5.16463,0.193083,-0.4252,0.588282,0.403182,2.2204,-0.665938,0.197459,0.150992
5.17784,0.193011,-0.424305,0.588284,0.403196,2.22039,-0.665939,0.197461,0.150988
5.19104,0.192934,-0.423397,0.588285,0.403209,2.22039,-0.665939,0.197463,0.150984
5.20425,0.192853,-0.422478,0.588286,0.403221,2.22039,-0.665939,0.197465,0.15098
5.21746,0.192767,-0.421551,0.588287,0.403232,2.22039,-0.665939,0.197467,0.150977
5.23067,0.192677,-0.420618,0.588288,0.403242,2.22038,-0.66594,0.19747,0.150973
5.24388,0.192583,-0.419684,0.588289,0.403252,2.22038,-0.66594,0.197472,0.15097
5.25709,0.192487,-0.418751,0.588291,0.403261,2.22038,-0.66594,0.197476,0.150966
5.2703,0.192389,-0.417823,0.588292,0.40327,2.22037,-0.66594,0.19748,0.150961
5.28351,0.192293,-0.416905,0.588294,0.403278,2.22037,-0.66594,0.197485,0.150957
5.29672,0.1922,-0.415999,0.588295,0.403286,2.22037,-0.66594,0.197492,0.150951
5.30992,0.192113,-0.415109,0.588297,0.403294,2.22037,-0.665941,0.197501,0.150946
5.32313,0.192032,-0.414239,0.588298,0.403302,2.22036,-0.665941,0.197515,0.15094
5.33634,0.19196,-0.413392,0.5883,0.403309,2.22036,-0.665941,0.197534,0.150935
5.34955,0.191898,-0.412574,0.588301,0.403316,2.22036,-0.665941,0.197561,0.150928
5.36276,0.191845,-0.411786,0.588302,0.403322,2.22036,-0.665942,0.1976,0.150922
5.37597,0.191803,-0.411033,0.588303,0.403327,2.22036,-0.665942,0.197657,0.150916
5.38918,0.19177,-0.410318,0.588304,0.403331,2.22036,-0.665943,0.197737,0.15091
5.40239,0.191746,-0.409644,0.588304,0.403335,2.22036,-0.665944,0.197848,0.150903
5.41559,0.191729,-0.409011,0.588304,0.403338,2.22036,-0.665944,0.198001,0.150897
5.4288,0.191717,-0.408421,0.588304,0.40334,2.22036,-0.665946,0.198205,0.150891
5.44201,0.191709,-0.407875,0.588304,0.403342,2.22036,-0.665947,0.198471,0.150884
5.45522,0.191704,-0.407371,0.588303,0.403343,2.22036,-0.665948,0.198811,0.150878
5.46843,0.1917,-0.406909,0.588302,0.403344,2.22036,-0.66595,0.199235,0.150872
5.48164,0.191697,-0.406487,0.588301,0.403344,2.22036,-0.665951,0.19975,0.150867
5.49485,0.191694,-0.406104,0.5883,0.403345,2.22036,-0.665953,0.200362,0.150862
5.50806,0.191691,-0.405759,0.588299,0.403345,2.22036,-0.665955,0.201073,0.150857
5.52126,0.191686,-0.405448,0.588297,0.403345,2.22036,-0.665956,0.201883,0.150854
5.53447,0.191681,-0.405171,0.588296,0.403345,2.22035,-0.665957,0.202788,0.15085
5.54768,0.191674,-0.404925,0.588295,0.403347,2.22035,-0.665958,0.203783,0.150848
5.56089,0.191667,-0.404709,0.588294,0.403348,2.22034,-0.665959,0.204861,0.150846
5.5741,0.19166,-0.404521,0.588292,0.403351,2.22034,-0.665959,0.206015,0.150844
5.58731,0.191652,-0.404359,0.588291,0.403356,2.22033,-0.665958,0.207238,0.150842
5.60052,0.191643,-0.404222,0.588291,0.403363,2.22032,-0.665958,0.208526,0.15084
5.61373,0.191634,-0.404108,0.58829,0.403372,2.22032,-0.665957,0.209873,0.150837
5.62693,0.191624,-0.404014,0.588289,0.403385,2.22031,-0.665956,0.211275,0.150834
5.64014,0.191613,-0.403938,0.588288,0.403402,2.2203,-0.665955,0.212727,0.150829
5.65335,0.191601,-0.403879,0.588287,0.403424,2.22029,-0.665954,0.214223,0.150823
5.66656,0.191589,-0.403834,0.588286,0.403452,2.22028,-0.665952,0.215755,0.150815
5.67977,0.191575,-0.4038,0.588284,0.403489,2.22027,-0.665951,0.21731,0.150805
5.69298,0.19156,-0.403776,0.588282,0.403535,2.22025,-0.66595,0.218873,0.150794
5.70619,0.191544,-0.403758,0.58828,0.403594,2.22024,-0.665949,0.220426,0.150782
5.7194,0.191528,-0.403747,0.588277,0.403666,2.22022,-0.665947,0.221949,0.150768
5.7326,0.191511,-0.403739,0.588274,0.403754,2.2202,-0.665946,0.223423,0.150754
5.74581,0.191493,-0.403733,0.588271,0.403859,2.22017,-0.665945,0.224827,0.15074
5.75902,0.191476,-0.403729,0.588268,0.403983,2.22012,-0.665944,0.226146,0.150726
5.77223,0.19146,-0.403724,0.588265,0.404126,2.22007,-0.665943,0.227367,0.150712
5.78544,0.191444,-0.403719,0.588262,0.404288,2.22,-0.665942,0.228482,0.150699
5.79865,0.19143,-0.403714,0.588259,0.404466,2.21991,-0.665942,0.229488,0.150687
5.81186,0.191418,-0.403706,0.588257,0.40466,2.21978,-0.665941,0.230384,0.150677
5.82507,0.191407,-0.403697,0.588255,0.404864,2.21962,-0.665941,0.231175,0.150667
5.83827,0.191397,-0.403686,0.588253,0.405075,2.21941,-0.66594,0.231865,0.150659
5.85148,0.191389,-0.403671,0.588251,0.405288,2.21916,-0.66594,0.232461,0.150651
5.86469,0.191383,-0.403654,0.588249,0.405499,2.21883,-0.66594,0.232971,0.150644
5.8779,0.191377,-0.403632,0.588247,0.405703,2.21844,-0.66594,0.233401,0.150638
5.89111,0.191372,-0.403605,0.588245,0.405895,2.21797,-0.66594,0.233758,0.150632
5.90432,0.191367,-0.403573,0.588244,0.406074,2.21742,-0.66594,0.234051,0.150626
5.91753,0.191363,-0.403533,0.588242,0.406236,2.21677,-0.66594,0.234285,0.150619
5.93074,0.191358,-0.403485,0.588241,0.406379,2.21604,-0.665941,0.234469,0.150612
5.94394,0.191353,-0.403427,0.58824,0.406503,2.21522,-0.665941,0.234609,0.150604
5.95715,0.191347,-0.403356,0.588239,0.406609,2.21431,-0.665942,0.234713,0.150595
5.97036,0.191339,-0.403273,0.588239,0.406698,2.21332,-0.665943,0.234788,0.150585
5.98357,0.191329,-0.403173,0.588239,0.406771,2.21226,-0.665944,0.23484,0.150574
5.99678,0.191316,-0.403057,0.588239,0.406831,2.21113,-0.665944,0.234875,0.150562
6.00999,0.191299,-0.402921,0.588241,0.406879,2.20995,-0.665945,0.234896,0.150548
6.0232,0.191277,-0.402765,0.588242,0.40692,2.20873,-0.665946,0.234909,0.150534
6.03641,0.191249,-0.402587,0.588244,0.406953,2.20748,-0.665946,0.234915,0.150519
6.04961,0.191212,-0.402387,0.588247,0.406983,2.20621,-0.665947,0.234918,0.150504
6.06282,0.191167,-0.402163,0.58825,0.407009,2.20494,-0.665948,0.234918,0.150488
6.07603,0.191111,-0.401915,0.588253,0.407032,2.20367,-0.665948,0.234916,0.150471
6.08924,0.191043,-0.401642,0.588256,0.407054,2.2024,-0.665949,0.234914,0.150454
6.10245,0.190963,-0.401344,0.58826,0.407074,2.20116,-0.665949,0.234912,0.150435
6.11566,0.190871,-0.401022,0.588263,0.407093,2.19994,-0.66595,0.234909,0.150414
6.12887,0.190768,-0.400674,0.588266,0.40711,2.19874,-0.66595,0.234907,0.15039
6.14208,0.190654,-0.4003,0.588268,0.407125,2.19758,-0.66595,0.234905,0.150361
6.15528,0.190531,-0.399901,0.58827,0.407138,2.19645,-0.665951,0.234904,0.150325
6.16849,0.190403,-0.399478,0.588271,0.407149,2.19537,-0.665952,0.234903,0.150279
6.1817,0.190272,-0.39903,0.588273,0.407159,2.19433,-0.665952,0.234902,0.15022
6.19491,0.190142,-0.398562,0.588273,0.407167,2.19335,-0.665953,0.234902,0.150145
6.20812,0.190015,-0.398074,0.588273,0.407173,2.19243,-0.665954,0.234902,0.150049
6.22133,0.189896,-0.397571,0.588273,0.407179,2.19158,-0.665956,0.234903,0.149929
6.23454,0.189785,-0.397055,0.588273,0.407184,2.19081,-0.665957,0.234904,0.149781
6.24775,0.189685,-0.396531,0.588272,0.407189,2.19011,-0.665959,0.234905,0.149601
6.26095,0.189595,-0.396001,0.588272,0.407193,2.18949,-0.665961,0.234906,0.149388
6.27416,0.189517,-0.39547,0.588271,0.407197,2.18895,-0.665962,0.234907,0.149139
6.28737,0.189448,-0.394938,0.58827,0.4072,2.1885,-0.665964,0.234908,0.148854
6.30058,0.189387,-0.394409,0.58827,0.407204,2.18813,-0.665966,0.234908,0.148535
6.31379,0.189332,-0.393882,0.58827,0.407207,2.18782,-0.665967,0.234908,0.148183
6.327,0.189281,-0.393359,0.58827,0.407211,2.18758,-0.665969,0.234908,0.147802
6.34021,0.189232,-0.39284,0.588271,0.407214,2.1874,-0.66597,0.234907,0.147399
6.35342,0.189183,-0.392324,0.588272,0.407217,2.18726,-0.665972,0.234905,0.14698
6.36662,0.18913,-0.391812,0.588274,0.40722,2.18716,-0.665973,0.234904,0.146552
6.37983,0.189073,-0.391303,0.588276,0.407222,2.1871,-0.665975,0.234903,0.146125
6.39304,0.189009,-0.390797,0.588278,0.407223,2.18705,-0.665977,0.234901,0.145707
6.40625,0.188936,-0.390296,0.58828,0.407224,2.18702,-0.66598,0.234901,0.145307
6.41946,0.188853,-0.389799,0.588283,0.407224,2.187,-0.665982,0.234901,0.144931
6.43267,0.188759,-0.389309,0.588286,0.407224,2.187,-0.665985,0.234902,0.144586
6.44588,0.188653,-0.388826,0.588288,0.407224,2.18699,-0.665989,0.234903,0.144277
6.45909,0.188535,-0.388351,0.588291,0.407223,2.18699,-0.665992,0.234905,0.144006
6.4723,0.188406,-0.387887,0.588294,0.407222,2.18699,-0.665996,0.234908,0.143774
6.4855,0.188268,-0.387435,0.588297,0.407221,2.18699,-0.666,0.234912,0.143581
6.49871,0.18812,-0.386997,0.5883,0.40722,2.18699,-0.666004,0.234915,0.143423
6.51192,0.187967,-0.386575,0.588304,0.407219,2.18699,-0.666008,0.234919,0.143298
6.52513,0.187809,-0.38617,0.588308,0.407217,2.18699,-0.666012,0.234922,0.143202
6.53834,0.187649,-0.385783,0.588313,0.407216,2.18699,-0.666016,0.234925,0.14313
6.55155,0.187489,-0.385415,0.58832,0.407215,2.187,-0.66602,0.234928,0.143078
6.56476,0.18733,-0.385067,0.588329,0.407213,2.187,-0.666023,0.234931,0.143043
6.57797,0.187174,-0.384738,0.588343,0.407211,2.18701,-0.666026,0.234934,0.143019
6.59117,0.187021,-0.384429,0.588361,0.407209,2.18702,-0.666029,0.234937,0.143006
6.60438,0.186873,-0.384138,0.588386,0.407207,2.18702,-0.666032,0.23494,0.143
6.61759,0.18673,-0.383865,0.58842,0.407204,2.18703,-0.666035,0.234943,0.142999
6.6308,0.186594,-0.383608,0.588463,0.407201,2.18704,-0.666037,0.234947,0.143002
6.64401,0.186463,-0.383366,0.588519,0.407198,2.18705,-0.66604,0.234951,0.143009
6.65722,0.186341,-0.383141,0.588587,0.407195,2.18706,-0.666043,0.234956,0.143018
6.67043,0.186228,-0.382931,0.58867,0.407193,2.18707,-0.666046,0.234962,0.143029
6.68364,0.186125,-0.382738,0.588767,0.40719,2.18708,-0.66605,0.234968,0.143042
6.69684,0.186032,-0.382561,0.58888,0.407188,2.18709,-0.666055,0.234975,0.143056
6.71005,0.18595,-0.382403,0.589006,0.407186,2.1871,-0.666061,0.234984,0.143072
6.72326,0.18588,-0.382265,0.589146,0.407185,2.18711,-0.666068,0.234994,0.14309
6.73647,0.18582,-0.382146,0.589297,0.407184,2.18711,-0.666077,0.235008,0.143109
6.74968,0.18577,-0.382046,0.589457,0.407184,2.18712,-0.666087,0.235026,0.143129
6.76289,0.18573,-0.381965,0.589624,0.407183,2.18713,-0.6661,0.235051,0.143152
6.7761,0.185697,-0.381902,0.589797,0.407184,2.18713,-0.666114,0.235086,0.143178
6.78931,0.18567,-0.381853,0.589973,0.407184,2.18714,-0.666131,0.235135,0.143208
6.80251,0.185649,-0.381817,0.590151,0.407184,2.18714,-0.666149,0.235204,0.143243
6.81572,0.185631,-0.381792,0.59033,0.407185,2.18715,-0.666167,0.235299,0.143285
6.82893,0.185616,-0.381775,0.590508,0.407186,2.18715,-0.666187,0.235429,0.143335
6.84214,0.185603,-0.381763,0.590686,0.407187,2.18716,-0.666207,0.235603,0.143397
6.85535,0.18559,-0.381755,0.590863,0.407188,2.18716,-0.666228,0.235832,0.143471
6.86856,0.185577,-0.381751,0.591041,0.407189,2.18717,-0.666248,0.236125,0.14356
6.88177,0.185563,-0.381747,0.591219,0.407191,2.18717,-0.666267,0.236494,0.143664
6.89498,0.185548,-0.381746,0.591397,0.407193,2.18718,-0.666286,0.236945,0.143783
6.90818,0.18553,-0.381744,0.591578,0.407195,2.18719,-0.666305,0.237486,0.143917
6.92139,0.185509,-0.381744,0.59176,0.407197,2.1872,-0.666323,0.238119,0.144062
6.9346,0.185484,-0.381744,0.591944,0.407199,2.18721,-0.666341,0.238843,0.144216
6.94781,0.185454,-0.381744,0.59213,0.4072,2.18722,-0.666359,0.23965,0.144372
6.96102,0.185418,-0.381745,0.592319,0.407201,2.18723,-0.666377,0.24053,0.144526
6.97423,0.185375,-0.381746,0.59251,0.407202,2.18724,-0.666396,0.24147,0.144673
6.98744,0.185324,-0.381746,0.592703,0.407202,2.18725,-0.666416,0.242451,0.144809
7.00065,0.185265,-0.381747,0.592898,0.407203,2.18726,-0.666436,0.243454,0.14493
7.01385,0.185195,-0.381747,0.593094,0.407203,2.18727,-0.666457,0.244462,0.145035
7.02706,0.185113,-0.381746,0.593292,0.407203,2.18729,-0.666479,0.245459,0.145121
7.04027,0.185019,-0.381744,0.59349,0.407202,2.1873,-0.666501,0.24643,0.145191
7.05348,0.184911,-0.381742,0.593689,0.407202,2.18731,-0.666523,0.247366,0.145245
7.06669,0.18479,-0.381739,0.593889,0.407201,2.18732,-0.666545,0.248263,0.145286
7.0799,0.184654,-0.381736,0.594088,0.407201,2.18734,-0.666566,0.249119,0.145315
7.09311,0.184504,-0.381732,0.594286,0.407199,2.18735,-0.666587,0.249938,0.145336
7.10632,0.184341,-0.381729,0.594484,0.407198,2.18736,-0.666606,0.250724,0.14535
7.11952,0.184166,-0.381726,0.594681,0.407195,2.18737,-0.666624,0.251483,0.145359
7.13273,0.183983,-0.381723,0.594876,0.407192,2.18738,-0.666641,0.252221,0.145365
7.14594,0.183792,-0.381722,0.59507,0.407189,2.1874,-0.666656,0.252945,0.145369
7.15915,0.183598,-0.381721,0.595261,0.407185,2.18741,-0.666671,0.253657,0.14537
7.17236,0.183403,-0.381721,0.59545,0.407181,2.18742,-0.666684,0.254359,0.145371
7.18557,0.18321,-0.381721,0.595634,0.407177,2.18743,-0.666697,0.255053,0.14537
7.19878,0.183021,-0.381721,0.595814,0.407173,2.18744,-0.666709,0.255734,0.145369
7.21199,0.182838,-0.381722,0.595988,0.407168,2.18744,-0.666721,0.256402,0.145368
7.22519,0.182661,-0.381722,0.596154,0.407164,2.18745,-0.666732,0.25705,0.145367
7.2384,0.182493,-0.381721,0.596311,0.40716,2.18746,-0.666743,0.257675,0.145366
7.25161,0.182331,-0.38172,0.596458,0.407157,2.18747,-0.666753,0.25827,0.145364
7.26482,0.182178,-0.381719,0.596593,0.407154,2.18748,-0.666764,0.258829,0.145363
7.27803,0.182032,-0.381716,0.596715,0.407151,2.18749,-0.666774,0.259348,0.145362
7.29124,0.181893,-0.381713,0.596823,0.407148,2.18751,-0.666785,0.259821,0.145362
7.30445,0.181762,-0.38171,0.596917,0.407146,2.18752,-0.666795,0.260246,0.145361
7.31766,0.181639,-0.381706,0.596997,0.407144,2.18754,-0.666804,0.260621,0.145362
7.33086,0.181524,-0.381702,0.597064,0.407142,2.18756,-0.666814,0.260945,0.145362
7.34407,0.181418,-0.381699,0.597118,0.407141,2.18758,-0.666824,0.26122,0.145362
7.35728,0.181319,-0.381695,0.597162,0.40714,2.18762,-0.666833,0.261448,0.145363
7.37049,0.181229,-0.381692,0.597196,0.407139,2.18766,-0.666843,0.261633,0.145364
7.3837,0.181146,-0.381689,0.597223,0.407137,2.18771,-0.666853,0.261781,0.145364
7.39691,0.181069,-0.381686,0.597243,0.407136,2.18777,-0.666863,0.261896,0.145365
7.41012,0.180999,-0.381684,0.597258,0.407135,2.18786,-0.666873,0.261983,0.145365
7.42333,0.180934,-0.381682,0.597269,0.407134,2.18797,-0.666884,0.262048,0.145365
7.43654,0.180873,-0.38168,0.597276,0.407132,2.1881,-0.666896,0.262095,0.145364
7.44974,0.180816,-0.381678,0.597282,0.40713,2.18827,-0.66691,0.262128,0.145363
7.46295,0.180763,-0.381675,0.597286,0.407128,2.18849,-0.666924,0.262151,0.145362
7.47616,0.180713,-0.381671,0.597288,0.407125,2.18875,-0.666941,0.262166,0.145361
7.48937,0.180668,-0.381667,0.59729,0.407122,2.18906,-0.666959,0.262176,0.145359
7.50258,0.180627,-0.381661,0.597291,0.407118,2.18943,-0.666979,0.262182,0.145358
7.51579,0.18059,-0.381652,0.597291,0.407113,2.18986,-0.667001,0.262185,0.145357
7.529,0.180557,-0.381642,0.597291,0.407107,2.19034,-0.667026,0.262185,0.145356
7.54221,0.180529,-0.381629,0.59729,0.407101,2.19089,-0.667053,0.262185,0.145355
7.55541,0.180505,-0.381614,0.597289,0.407094,2.19149,-0.667084,0.262183,0.145355
7.56862,0.180486,-0.381596,0.597288,0.407085,2.19213,-0.667117,0.262179,0.145354
7.58183,0.18047,-0.381574,0.597287,0.407076,2.19281,-0.667156,0.262175,0.145354
7.59504,0.180458,-0.381549,0.597285,0.407064,2.19353,-0.667198,0.26217,0.145354
7.60825,0.180449,-0.38152,0.597283,0.407052,2.19427,-0.667246,0.262165,0.145354
7.62146,0.180441,-0.381485,0.597281,0.407039,2.19502,-0.667301,0.262158,0.145353
7.63467,0.180436,-0.381443,0.597279,0.407024,2.19578,-0.667364,0.262151,0.145353
7.64788,0.180432,-0.381391,0.597277,0.407007,2.19653,-0.667436,0.262144,0.145353
7.66108,0.180429,-0.381326,0.597276,0.40699,2.19727,-0.667517,0.262136,0.145352
7.67429,0.180426,-0.381246,0.597274,0.406972,2.19799,-0.667609,0.262127,0.145352
7.6875,0.180424,-0.381145,0.597274,0.406953,2.19869,-0.667711,0.262116,0.145351
7.70071,0.180421,-0.38102,0.597273,0.406933,2.19936,-0.667822,0.262105,0.145351
7.71392,0.180418,-0.380867,0.597273,0.406914,2.19998,-0.667942,0.262091,0.145351
7.72713,0.180414,-0.380682,0.597273,0.406894,2.20057,-0.668069,0.262076,0.145351
7.74034,0.180411,-0.380463,0.597274,0.406875,2.2011,-0.668199,0.262057,0.145351
7.75355,0.180407,-0.380209,0.597276,0.406857,2.20158,-0.66833,0.262036,0.145352
7.76675,0.180402,-0.379919,0.597277,0.406841,2.20201,-0.66846,0.262012,0.145352
7.77996,0.180398,-0.379595,0.597279,0.406825,2.20238,-0.668586,0.261984,0.145353
7.79317,0.180394,-0.379236,0.59728,0.406811,2.2027,-0.668706,0.261954,0.145353
7.80638,0.180391,-0.378848,0.597282,0.406799,2.20296,-0.668821,0.261922,0.145354
7.81959,0.180388,-0.378432,0.597283,0.406788,2.20317,-0.66893,0.261887,0.145354
7.8328,0.180385,-0.377994,0.597284,0.406778,2.20334,-0.669036,0.261851,0.145355
7.84601,0.180383,-0.377537,0.597285,0.406769,2.20348,-0.669142,0.261814,0.145355
7.85922,0.180381,-0.377065,0.597286,0.406761,2.20358,-0.669251,0.261776,0.145356
7.87242,0.18038,-0.376585,0.597286,0.406753,2.20365,-0.66937,0.261736,0.145356
7.88563,0.180379,-0.376099,0.597286,0.406745,2.20371,-0.669503,0.261694,0.145357
7.89884,0.180378,-0.375613,0.597286,0.406736,2.20375,-0.669656,0.261648,0.145358
7.91205,0.180377,-0.375132,0.597286,0.406728,2.20377,-0.669835,0.261596,0.145358
7.92526,0.180376,-0.374659,0.597286,0.406718,2.20379,-0.670045,0.261535,0.145359
7.93847,0.180374,-0.374199,0.597285,0.406706,2.2038,-0.67029,0.261461,0.145359
7.95168,0.180373,-0.373755,0.597285,0.406694,2.20381,-0.670574,0.26137,0.14536
7.96489,0.180371,-0.373331,0.597284,0.40668,2.20382,-0.670901,0.261258,0.14536
7.97809,0.180368,-0.372931,0.597283,0.406664,2.20382,-0.671272,0.261122,0.14536
7.9913,0.180366,-0.372558,0.597282,0.406646,2.20382,-0.671691,0.260958,0.145359
8.00451,0.180364,-0.372213,0.597281,0.406626,2.20382,-0.672159,0.260767,0.145359
8.01772,0.180362,-0.371899,0.59728,0.406603,2.20382,-0.672678,0.260547,0.145359
8.03093,0.180361,-0.371618,0.597278,0.406576,2.20381,-0.673249,0.260303,0.145359
8.04414,0.180359,-0.371369,0.597277,0.406545,2.20381,-0.673875,0.260039,0.145358
8.05735,0.180358,-0.371153,0.597277,0.406506,2.20381,-0.674557,0.259762,0.145358
8.07056,0.180357,-0.370969,0.597276,0.40646,2.2038,-0.675296,0.25948,0.145358
8.08376,0.180355,-0.370814,0.597276,0.406403,2.20379,-0.676093,0.259202,0.145357
8.09697,0.180354,-0.370688,0.597276,0.406332,2.20378,-0.676945,0.258937,0.145357
8.11018,0.180351,-0.370586,0.597276,0.406244,2.20377,-0.677852,0.258693,0.145357
8.12339,0.180348,-0.370505,0.597277,0.406135,2.20376,-0.678808,0.258474,0.145357
8.1366,0.180344,-0.370443,0.597277,0.406001,2.20374,-0.679809,0.258285,0.145358
8.14981,0.180338,-0.370397,0.597277,0.405841,2.20372,-0.680849,0.258127,0.145358
8.16302,0.18033,-0.370362,0.597278,0.405649,2.2037,-0.681918,0.258,0.145359
8.17623,0.180319,-0.370337,0.597278,0.405425,2.20366,-0.683009,0.2579,0.14536
8.18944,0.180305,-0.37032,0.597278,0.405166,2.20363,-0.684111,0.257824,0.145362
8.20264,0.180286,-0.370307,0.597277,0.404873,2.20358,-0.685217,0.257769,0.145363
8.21585,0.180262,-0.370299,0.597277,0.404546,2.20352,-0.686318,0.25773,0.145365
8.22906,0.180233,-0.370293,0.597275,0.404188,2.20346,-0.687406,0.257703,0.145367
8.24227,0.180197,-0.370289,0.597274,0.4038,2.20339,-0.688476,0.257685,0.145368
8.25548,0.180154,-0.370285,0.597273,0.403385,2.20331,-0.689522,0.257673,0.14537
8.26869,0.180104,-0.370283,0.597271,0.402946,2.20322,-0.690541,0.257666,0.145371
8.2819,0.180046,-0.37028,0.59727,0.402486,2.20314,-0.69153,0.257661,0.145372
8.2951,0.179981,-0.370278,0.597268,0.402007,2.20305,-0.69249,0.257658,0.145373
8.30831,0.17991,-0.370275,0.597267,0.401512,2.20297,-0.693417,0.257656,0.145373
8.32152,0.179832,-0.370273,0.597266,0.401001,2.20289,-0.694312,0.257654,0.145373
8.33473,0.179749,-0.370271,0.597264,0.400474,2.20282,-0.695173,0.257652,0.145373
8.34794,0.179662,-0.370269,0.597262,0.399931,2.20275,-0.696,0.257651,0.145373
8.36115,0.17957,-0.370268,0.597261,0.399372,2.2027,-0.696791,0.257649,0.145372
8.37436,0.179476,-0.370266,0.597259,0.398795,2.20266,-0.697542,0.257646,0.145371
8.38757,0.179377,-0.370265,0.597257,0.398198,2.20262,-0.698251,0.257643,0.14537
8.40077,0.179275,-0.370264,0.597255,0.397579,2.20259,-0.698913,0.257638,0.145369
8.41398,0.179169,-0.370264,0.597253,0.396937,2.20257,-0.699524,0.257631,0.145368
8.42719,0.179058,-0.370263,0.597251,0.396268,2.20255,-0.700081,0.257619,0.145367
8.4404,0.178942,-0.370262,0.597249,0.395574,2.20254,-0.700581,0.257602,0.145366
8.45361,0.178818,-0.370262,0.597247,0.394852,2.20253,-0.70102,0.257575,0.145365
8.46682,0.178685,-0.370261,0.597245,0.394103,2.20253,-0.7014,0.257535,0.145363
8.48003,0.178544,-0.37026,0.597242,0.393328,2.20252,-0.701722,0.257475,0.145362
8.49324,0.178391,-0.370259,0.59724,0.39253,2.20252,-0.701987,0.25739,0.145361
8.50645,0.178225,-0.370258,0.597238,0.391713,2.20251,-0.702202,0.257271,0.145359
8.51965,0.178045,-0.370257,0.597235,0.390882,2.20251,-0.702371,0.257109,0.145358
8.53286,0.177849,-0.370255,0.597232,0.390042,2.20251,-0.702501,0.256892,0.145356
8.54607,0.177635,-0.370253,0.59723,0.389201,2.20251,-0.702598,0.256611,0.145355
8.55928,0.177403,-0.37025,0.597228,0.388365,2.2025,-0.702668,0.256256,0.145353
8.57249,0.177151,-0.370247,0.597225,0.387543,2.2025,-0.702719,0.255816,0.145352
8.5857,0.176879,-0.370244,0.597224,0.386742,2.2025,-0.702753,0.255285,0.145351
8.59891,0.17659,-0.370241,0.597222,0.385968,2.2025,-0.702777,0.254656,0.145351
8.61212,0.176283,-0.370237,0.597221,0.385227,2.2025,-0.702792,0.253928,0.145351
8.62532,0.175963,-0.370232,0.59722,0.384523,2.20249,-0.702802,0.253098,0.145352
8.63853,0.175632,-0.370228,0.597219,0.383857,2.20249,-0.702808,0.252168,0.145353
8.65174,0.175295,-0.370224,0.597219,0.383231,2.20249,-0.702812,0.251141,0.145355
8.66495,0.174956,-0.370221,0.597219,0.382641,2.20248,-0.702814,0.250022,0.145357
8.67816,0.17462,-0.370218,0.597219,0.382085,2.20248,-0.702816,0.248818,0.145359
8.69137,0.174291,-0.370215,0.597218,0.381559,2.20248,-0.702818,0.247537,0.145361
8.70458,0.173973,-0.370213,0.597218,0.381055,2.20247,-0.702818,0.24619,0.145364
8.71779,0.17367,-0.370211,0.597218,0.38057,2.20247,-0.70282,0.244789,0.145366
8.73099,0.173385,-0.37021,0.597219,0.380095,2.20246,-0.702821,0.243352,0.145367
8.7442,0.17312,-0.370209,0.597219,0.379626,2.20246,-0.702821,0.241899,0.145369
8.75741,0.172879,-0.370209,0.597219,0.379158,2.20245,-0.702822,0.24045,0.145369
8.77062,0.17266,-0.370208,0.59722,0.378687,2.20245,-0.702823,0.23903,0.145369
8.78383,0.172466,-0.370207,0.597221,0.37821,2.20244,-0.702824,0.237662,0.145369
8.79704,0.172295,-0.370207,0.597222,0.377726,2.20244,-0.702825,0.236367,0.145367
8.81025,0.172147,-0.370206,0.597223,0.377234,2.20243,-0.702826,0.235165,0.145366
8.82346,0.172017,-0.370205,0.597224,0.376733,2.20243,-0.702827,0.234067,0.145364
8.83666,0.171903,-0.370204,0.597226,0.376224,2.20242,-0.702828,0.23308,0.145362
8.84987,0.171801,-0.370203,0.597228,0.37571,2.20242,-0.702829,0.232204,0.145359
8.86308,0.171705,-0.370202,0.59723,0.37519,2.20241,-0.70283,0.231433,0.145357
8.87629,0.17161,-0.3702,0.597232,0.374666,2.20241,-0.702831,0.230755,0.145355
8.8895,0.171511,-0.370197,0.597234,0.374142,2.2024,-0.702832,0.230155,0.145352
8.90271,0.171403,-0.370192,0.597237,0.373618,2.2024,-0.702833,0.229617,0.145349
8.91592,0.171282,-0.370186,0.59724,0.373097,2.2024,-0.702834,0.229122,0.145347
8.92913,0.171144,-0.370177,0.597243,0.372583,2.20239,-0.702835,0.228656,0.145344
8.94233,0.170986,-0.370166,0.597246,0.372078,2.20239,-0.702837,0.228202,0.145341
8.95554,0.170807,-0.370153,0.597249,0.371587,2.20239,-0.702839,0.227752,0.145338
8.96875,0.170608,-0.370137,0.597251,0.371113,2.20238,-0.702842,0.227297,0.145334
8.98196,0.170388,-0.370118,0.597254,0.370659,2.20238,-0.702845,0.226833,0.145331
8.99517,0.170149,-0.370097,0.597255,0.370229,2.20238,-0.702849,0.226358,0.145328
9.00838,0.169894,-0.370075,0.597257,0.369825,2.20238,-0.702855,0.225875,0.145324
9.02159,0.169626,-0.370051,0.597258,0.369449,2.20237,-0.702862,0.225386,0.145321
9.0348,0.169348,-0.370028,0.597258,0.369103,2.20237,-0.702872,0.224897,0.145318
9.04801,0.169065,-0.370005,0.597259,0.368789,2.20237,-0.702885,0.224415,0.145315
9.06121,0.168779,-0.369984,0.597259,0.368508,2.20237,-0.702901,0.223946,0.145312
9.07442,0.168496,-0.369965,0.597259,0.368259,2.20237,-0.702922,0.223498,0.145309
9.08763,0.16822,-0.369948,0.59726,0.368044,2.20236,-0.702948,0.223078,0.145306
9.10084,0.167954,-0.369933,0.59726,0.367861,2.20236,-0.70298,0.222691,0.145303
9.11405,0.167703,-0.36992,0.597262,0.367709,2.20236,-0.703018,0.222342,0.1453
9.12726,0.167469,-0.36991,0.597263,0.367585,2.20236,-0.703062,0.222035,0.145296
9.14047,0.167254,-0.369901,0.597265,0.367488,2.20235,-0.703112,0.221769,0.145292
9.15368,0.167059,-0.369894,0.597267,0.367413,2.20235,-0.703168,0.221546,0.145288
9.16688,0.166886,-0.369889,0.597269,0.367358,2.20235,-0.703228,0.221361,0.145283
9.18009,0.166733,-0.369884,0.597271,0.367318,2.20234,-0.703291,0.221214,0.145278
9.1933,0.166601,-0.36988,0.597273,0.36729,2.20234,-0.703354,0.221098,0.145273
9.20651,0.166488,-0.369876,0.597275,0.367272,2.20234,-0.703417,0.22101,0.145268
9.21972,0.166392,-0.369872,0.597276,0.367261,2.20233,-0.703476,0.220945,0.145262
9.23293,0.166313,-0.369868,0.597277,0.367255,2.20233,-0.703532,0.220898,0.145257
9.24614,0.166247,-0.369864,0.597277,0.367251,2.20232,-0.703582,0.220866,0.145251
9.25935,0.166194,-0.369861,0.597277,0.36725,2.20232,-0.703626,0.220844,0.145246
9.27255,0.166151,-0.369857,0.597277,0.367249,2.20232,-0.703663,0.220831,0.145241
9.28576,0.166118,-0.369853,0.597277,0.36725,2.20231,-0.703694,0.220822,0.145236
9.29897,0.166091,-0.369849,0.597277,0.36725,2.20231,-0.703719,0.220818,0.145231
9.31218,0.16607,-0.369845,0.597276,0.36725,2.2023,-0.703739,0.220817,0.145226
9.32539,0.166053,-0.369842,0.597276,0.367251,2.2023,-0.703755,0.220817,0.145222
9.3386,0.16604,-0.369838,0.597275,0.367251,2.20229,-0.703768,0.220819,0.145218
9.35181,0.166029,-0.369834,0.597275,0.367251,2.20229,-0.703778,0.220822,0.145214
9.36502,0.16602,-0.36983,0.597275,0.367251,2.20228,-0.703787,0.220826,0.14521
9.37822,0.166012,-0.369827,0.597275,0.36725,2.20228,-0.703795,0.22083,0.145206
9.39143,0.166005,-0.369824,0.597275,0.36725,2.20227,-0.703803,0.220834,0.145202
9.40464,0.165999,-0.369821,0.597275,0.367249,2.20227,-0.70381,0.220839,0.145198
9.41785,0.165993,-0.369818,0.597275,0.367249,2.20226,-0.703817,0.220844,0.145194
9.43106,0.165988,-0.369816,0.597276,0.367249,2.20226,-0.703824,0.220849,0.14519
9.44427,0.165984,-0.369814,0.597277,0.367248,2.20225,-0.703831,0.220855,0.145185
9.45748,0.16598,-0.369812,0.597278,0.367248,2.20225,-0.703837,0.220862,0.145181
9.47069,0.165977,-0.369811,0.597279,0.367248,2.20225,-0.703844,0.220869,0.145178
9.48389,0.165974,-0.36981,0.597279,0.367249,2.20225,-0.703851,0.220877,0.145174
9.4971,0.165972,-0.369809,0.59728,0.367249,2.20224,-0.703858,0.220886,0.145171
9.51031,0.16597,-0.369808,0.59728,0.36725,2.20224,-0.703866,0.220897,0.145169
9.52352,0.165969,-0.369807,0.59728,0.367251,2.20224,-0.703874,0.22091,0.145166
9.53673,0.165968,-0.369806,0.597281,0.367252,2.20224,-0.703882,0.220924,0.145165
9.54994,0.165968,-0.369805,0.597281,0.367253,2.20224,-0.703891,0.220941,0.145163
9.56315,0.165967,-0.369804,0.597281,0.367254,2.20224,-0.703901,0.220961,0.145162
9.57635,0.165967,-0.369804,0.597281,0.367255,2.20224,-0.703912,0.220985,0.145161
9.58956,0.165967,-0.369803,0.59728,0.367256,2.20224,-0.703924,0.221015,0.14516
9.60277,0.165967,-0.369801,0.59728,0.367257,2.20224,-0.703938,0.221051,0.145159
9.61598,0.165967,-0.3698,0.59728,0.367258,2.20224,-0.703954,0.221098,0.145158
9.62919,0.165967,-0.369799,0.59728,0.367259,2.20224,-0.703972,0.221159,0.145157
9.6424,0.165967,-0.369798,0.59728,0.367259,2.20224,-0.703993,0.221238,0.145155
9.65561,0.165966,-0.369797,0.59728,0.36726,2.20224,-0.704018,0.221342,0.145153
9.66882,0.165966,-0.369796,0.59728,0.36726,2.20224,-0.704047,0.221476,0.145151
9.68202,0.165966,-0.369794,0.59728,0.36726,2.20224,-0.704081,0.221649,0.145149
9.69523,0.165965,-0.369794,0.59728,0.36726,2.20224,-0.704122,0.221866,0.145148
9.70844,0.165965,-0.369793,0.59728,0.367259,2.20224,-0.70417,0.222134,0.145146
9.72165,0.165965,-0.369792,0.597281,0.367258,2.20224,-0.704227,0.222456,0.145144
9.73486,0.165965,-0.369791,0.597281,0.367258,2.20224,-0.704294,0.222835,0.145143
9.74807,0.165965,-0.36979,0.597281,0.367257,2.20224,-0.704375,0.22327,0.145141
9.76128,0.165965,-0.36979,0.597281,0.367256,2.20224,-0.704471,0.223757,0.145139
9.77449,0.165965,-0.369789,0.597281,0.367255,2.20224,-0.704585,0.22429,0.145138
9.7877,0.165965,-0.369788,0.597282,0.367254,2.20224,-0.70472,0.224861,0.145136
9.8009,0.165964,-0.369787,0.597282,0.367254,2.20224,-0.704878,0.225461,0.145134
9.81411,0.165964,-0.369786,0.597283,0.367254,2.20224,-0.705061,0.22608,0.145133
9.82732,0.165963,-0.369784,0.597283,0.367255,2.20224,-0.705272,0.226711,0.145131
9.84053,0.165962,-0.369782,0.597283,0.367256,2.20223,-0.705511,0.22735,0.145129
9.85374,0.165961,-0.36978,0.597284,0.367258,2.20223,-0.705779,0.227997,0.145127
9.86695,0.165959,-0.369777,0.597284,0.36726,2.20223,-0.706076,0.228653,0.145126
9.88016,0.165958,-0.369774,0.597284,0.367263,2.20223,-0.706399,0.229325,0.145125
9.89337,0.165955,-0.36977,0.597283,0.367266,2.20224,-0.706745,0.230022,0.145125
9.90658,0.165953,-0.369766,0.597282,0.367269,2.20224,-0.707111,0.230754,0.145124
9.91978,0.16595,-0.36976,0.597281,0.367272,2.20224,-0.707492,0.23153,0.145124
9.93299,0.165947,-0.369752,0.59728,0.367275,2.20224,-0.707883,0.232361,0.145125
9.9462,0.165944,-0.369742,0.597279,0.367278,2.20224,-0.70828,0.233251,0.145126
9.95941,0.16594,-0.369727,0.597277,0.367281,2.20224,-0.708677,0.234204,0.145126
9.97262,0.165936,-0.369708,0.597276,0.367284,2.20224,-0.709072,0.235218,0.145127
9.98583,0.165931,-0.369682,0.597274,0.367286,2.20224,-0.70946,0.236285,0.145128
9.99904,0.165926,-0.369647,0.597272,0.367289,2.20224,-0.70984,0.237396,0.145129
10.0122,0.165919,-0.369602,0.59727,0.367292,2.20224,-0.710211,0.238534,0.145129
10.0255,0.165911,-0.369543,0.597268,0.367294,2.20224,-0.710573,0.239682,0.14513
10.0387,0.165901,-0.369468,0.597266,0.367297,2.20224,-0.710925,0.240817,0.14513
10.0519,0.165887,-0.369376,0.597265,0.3673,2.20224,-0.71127,0.241918,0.14513
10.0651,0.165871,-0.369263,0.597263,0.367303,2.20224,-0.711608,0.242964,0.14513
10.0783,0.165851,-0.369128,0.597262,0.367307,2.20224,-0.711943,0.243935,0.145129
10.0915,0.165826,-0.36897,0.59726,0.367311,2.20224,-0.712274,0.244815,0.145129
10.1047,0.165797,-0.368786,0.597259,0.367315,2.20224,-0.712604,0.245594,0.145128
10.1179,0.165764,-0.368577,0.597259,0.36732,2.20224,-0.712935,0.246267,0.145128
10.1311,0.165725,-0.368342,0.597258,0.367325,2.20224,-0.713267,0.246832,0.145127
10.1443,0.165683,-0.368083,0.597257,0.36733,2.20223,-0.713603,0.247294,0.145125
10.1575,0.165638,-0.367799,0.597257,0.367335,2.20223,-0.713943,0.247663,0.145124
10.1707,0.16559,-0.367493,0.597256,0.367339,2.20223,-0.714288,0.247949,0.145122
10.184,0.165541,-0.367166,0.597256,0.367344,2.20223,-0.714639,0.248164,0.145121
10.1972,0.165492,-0.36682,0.597255,0.367348,2.20223,-0.714998,0.248323,0.145118
10.2104,0.165444,-0.366455,0.597255,0.367351,2.20223,-0.715366,0.248436,0.145116
10.2236,0.165398,-0.366075,0.597255,0.367354,2.20223,-0.715744,0.248515,0.145114
10.2368,0.165355,-0.365679,0.597254,0.367357,2.20223,-0.716133,0.248569,0.145112
10.25,0.165316,-0.36527,0.597254,0.36736,2.20223,-0.716533,0.248605,0.145111
10.2632,0.16528,-0.364848,0.597254,0.367362,2.20223,-0.716945,0.248629,0.14511
10.2764,0.165248,-0.364416,0.597254,0.367365,2.20223,-0.717367,0.248645,0.145109
10.2896,0.165219,-0.363975,0.597253,0.367368,2.20223,-0.717798,0.248656,0.14511
10.3028,0.165192,-0.363527,0.597253,0.367371,2.20223,-0.718237,0.248663,0.14511
10.316,0.165167,-0.363075,0.597253,0.367373,2.20223,-0.718679,0.248669,0.145112
10.3293,0.165144,-0.362621,0.597253,0.367376,2.20223,-0.719121,0.248673,0.145114
10.3425,0.16512,-0.362166,0.597253,0.367378,2.20222,-0.719559,0.248676,0.145116
10.3557,0.165095,-0.361715,0.597253,0.36738,2.20222,-0.719988,0.248679,0.145117
10.3689,0.165068,-0.361268,0.597253,0.367382,2.20222,-0.720405,0.248681,0.145119
10.3821,0.165038,-0.360829,0.597253,0.367383,2.20222,-0.720804,0.248684,0.145121
10.3953,0.165004,-0.360399,0.597253,0.367383,2.20222,-0.721181,0.248686,0.145122
10.4085,0.164965,-0.359981,0.597253,0.367383,2.20221,-0.721534,0.248689,0.145122
10.4217,0.164921,-0.359577,0.597253,0.367382,2.20221,-0.721858,0.248692,0.145123
10.4349,0.16487,-0.359188,0.597254,0.36738,2.20221,-0.722151,0.248695,0.145122
10.4481,0.164813,-0.358816,0.597254,0.367377,2.20221,-0.722411,0.248698,0.145122
10.4613,0.16475,-0.358462,0.597255,0.367375,2.20221,-0.722638,0.248701,0.145121
10.4746,0.164682,-0.358128,0.597255,0.367372,2.20221,-0.722833,0.248704,0.145121
10.4878,0.164609,-0.357813,0.597256,0.367369,2.20221,-0.722995,0.248707,0.145121
10.501,0.164533,-0.357519,0.597257,0.367366,2.20221,-0.723129,0.24871,0.14512
10.5142,0.164456,-0.357247,0.597258,0.367363,2.20221,-0.723236,0.248712,0.14512
10.5274,0.16438,-0.356996,0.597258,0.367361,2.2022,-0.723319,0.248713,0.14512
10.5406,0.164307,-0.356767,0.597259,0.367359,2.2022,-0.723383,0.248714,0.14512
10.5538,0.164238,-0.356562,0.597259,0.367357,2.2022,-0.723431,0.248715,0.14512
10.567,0.164176,-0.356381,0.59726,0.367356,2.2022,-0.723467,0.248715,0.14512
10.5802,0.164121,-0.356223,0.59726,0.367355,2.2022,-0.723492,0.248716,0.14512
10.5934,0.164073,-0.35609,0.597259,0.367354,2.2022,-0.723511,0.248717,0.145119
10.6066,0.164034,-0.355978,0.597258,0.367353,2.2022,-0.723524,0.248718,0.145118
10.6198,0.164002,-0.355888,0.597257,0.367352,2.2022,-0.723533,0.24872,0.145117
10.6331,0.163977,-0.355817,0.597256,0.367351,2.2022,-0.72354,0.248722,0.145115
