timestamp,ArmL1_Cla1,ArmL2_Sho1,ArmL3_Sho2,ArmL4_Sho3,ArmL5_Elb1,ArmL6_Elb2,ArmL7_Wri1,ArmL8_Wri2
0,-0.691149,-0.235996,0.833244,-0.417831,0.808806,0.867096,0.185808,0.264058
0.0120751,-0.691144,-0.235996,0.833713,-0.417834,0.808808,0.867096,0.183407,0.263934
0.0241501,-0.691137,-0.235995,0.834256,-0.417837,0.808809,0.867097,0.180675,0.263766
0.0362252,-0.691129,-0.235995,0.834869,-0.417841,0.808811,0.867098,0.177656,0.263543
0.0483002,-0.69112,-0.235995,0.835545,-0.417845,0.808813,0.867099,0.174416,0.263253
0.0603753,-0.691109,-0.235995,0.836274,-0.417849,0.808816,0.867099,0.17103,0.262882
0.0724503,-0.691099,-0.235997,0.837045,-0.417854,0.808819,0.867098,0.167581,0.262415
0.0845254,-0.691088,-0.235999,0.837847,-0.417859,0.808822,0.867097,0.164151,0.261838
0.0966004,-0.691077,-0.236003,0.838672,-0.417863,0.808827,0.867096,0.160818,0.261139
0.108675,-0.691067,-0.236008,0.83951,-0.417868,0.808833,0.867094,0.157649,0.260303
0.120751,-0.691058,-0.236013,0.840355,-0.417872,0.808841,0.867092,0.1547,0.259321
0.132826,-0.69105,-0.23602,0.841204,-0.417877,0.80885,0.867089,0.152013,0.258184
0.144901,-0.691044,-0.236027,0.842054,-0.417881,0.808862,0.867085,0.149619,0.256885
0.156976,-0.69104,-0.236035,0.842906,-0.417884,0.808876,0.867081,0.147538,0.255421
0.169051,-0.691037,-0.236043,0.843758,-0.417888,0.808892,0.867077,0.14578,0.253788
0.181126,-0.691035,-0.236052,0.844613,-0.417891,0.808912,0.867072,0.144347,0.251985
0.193201,-0.691035,-0.23606,0.845474,-0.417894,0.808934,0.867068,0.143236,0.250011
0.205276,-0.691035,-0.236068,0.846344,-0.417897,0.808959,0.867063,0.14244,0.247866
0.217351,-0.691037,-0.236075,0.847226,-0.4179,0.808986,0.867058,0.141953,0.245547
0.229426,-0.691039,-0.236082,0.848126,-0.417902,0.809017,0.867053,0.141768,0.243051
0.241501,-0.691042,-0.236089,0.849049,-0.417904,0.809051,0.867048,0.14188,0.240369
0.253576,-0.691046,-0.236096,0.850002,-0.417905,0.809088,0.867044,0.142289,0.237493
0.265651,-0.691051,-0.236104,0.850992,-0.417905,0.80913,0.86704,0.143,0.23441
0.277726,-0.691057,-0.236112,0.852026,-0.417905,0.809178,0.867037,0.144019,0.231105
0.289801,-0.691064,-0.236121,0.853112,-0.417905,0.809233,0.867034,0.145354,0.227566
0.301876,-0.691073,-0.236132,0.854254,-0.417903,0.809299,0.867031,0.147014,0.223782
0.313951,-0.691083,-0.236144,0.855457,-0.417901,0.80938,0.867028,0.149003,0.219752
0.326026,-0.691094,-0.236158,0.856719,-0.417897,0.80948,0.867025,0.151319,0.215483
0.338101,-0.691107,-0.236174,0.858038,-0.417893,0.809607,0.867023,0.153956,0.210993
0.350177,-0.691121,-0.236193,0.859407,-0.417888,0.809768,0.86702,0.156899,0.206309
0.362252,-0.691137,-0.236214,0.860819,-0.417883,0.809974,0.867017,0.160126,0.201471
0.374327,-0.691154,-0.236239,0.862263,-0.417877,0.810235,0.867013,0.163611,0.19652
0.386402,-0.691173,-0.236267,0.863729,-0.417871,0.810564,0.867008,0.167325,0.191503
0.398477,-0.691193,-0.236301,0.865208,-0.417865,0.810974,0.867002,0.171238,0.186468
0.410552,-0.691214,-0.236342,0.866692,-0.417859,0.81148,0.866994,0.175317,0.18146
0.422627,-0.691237,-0.236393,0.868173,-0.417853,0.812093,0.866983,0.17953,0.176523
0.434702,-0.691261,-0.236457,0.869646,-0.417849,0.812827,0.86697,0.183845,0.1717
0.446777,-0.691286,-0.236538,0.871106,-0.417845,0.813693,0.866952,0.188228,0.167033
0.458852,-0.691311,-0.236642,0.872548,-0.417842,0.814699,0.866929,0.192644,0.162562
0.470927,-0.691338,-0.236775,0.873968,-0.417841,0.815855,0.866897,0.197056,0.158328
0.483002,-0.691364,-0.236942,0.875362,-0.417842,0.817165,0.866854,0.201425,0.154369
0.495077,-0.69139,-0.237151,0.876727,-0.417846,0.818636,0.866793,0.205713,0.150719
0.507152,-0.691415,-0.237409,0.878062,-0.417853,0.820273,0.866709,0.209881,0.147407
0.519227,-0.691438,-0.237724,0.879367,-0.417864,0.822083,0.866593,0.213893,0.144454
0.531302,-0.691459,-0.238106,0.880645,-0.417881,0.824073,0.866433,0.217718,0.141869
0.543377,-0.691477,-0.238562,0.881902,-0.417904,0.826255,0.866215,0.221328,0.139652
0.555452,-0.691492,-0.239101,0.883148,-0.417936,0.828642,0.865923,0.224703,0.137791
0.567527,-0.691503,-0.239732,0.884395,-0.417979,0.831247,0.865537,0.22783,0.136263
0.579602,-0.691511,-0.240464,0.885656,-0.418036,0.834086,0.865036,0.2307,0.135035
0.591678,-0.691515,-0.241303,0.886947,-0.41811,0.837171,0.8644,0.233311,0.134072
0.603753,-0.691516,-0.242255,0.888282,-0.418204,0.840512,0.863606,0.235663,0.133333
0.615828,-0.691515,-0.243325,0.889674,-0.418322,0.844109,0.862635,0.237762,0.132777
0.627903,-0.691513,-0.244514,0.891135,-0.418466,0.847958,0.861467,0.239611,0.132365
0.639978,-0.69151,-0.245821,0.892672,-0.41864,0.852047,0.860087,0.241218,0.132062
0.652053,-0.691507,-0.247244,0.894289,-0.418847,0.856354,0.858482,0.242591,0.131837
0.664128,-0.691506,-0.248779,0.895989,-0.419087,0.860856,0.856642,0.24374,0.131663
0.676203,-0.691506,-0.250422,0.897772,-0.419364,0.865523,0.85456,0.244677,0.131518
0.688278,-0.69151,-0.252168,0.899635,-0.419677,0.870327,0.852233,0.245414,0.131383
0.700353,-0.691517,-0.254013,0.901573,-0.420027,0.875238,0.849656,0.245965,0.131242
0.712428,-0.691528,-0.255953,0.903585,-0.42041,0.88023,0.846832,0.246345,0.13108
0.724503,-0.691544,-0.257986,0.905666,-0.420825,0.885277,0.843761,0.246567,0.130881
0.736578,-0.691564,-0.260111,0.907812,-0.421266,0.890357,0.840449,0.246639,0.130631
0.748653,-0.69159,-0.262327,0.91002,-0.421728,0.895447,0.836901,0.246569,0.130311
0.760728,-0.691621,-0.264634,0.912286,-0.422204,0.900525,0.833124,0.246355,0.129902
0.772803,-0.691659,-0.267031,0.914609,-0.422686,0.905568,0.829127,0.245994,0.129383
0.784878,-0.691704,-0.269517,0.916986,-0.423167,0.910552,0.824921,0.245476,0.12873
0.796953,-0.691756,-0.272092,0.919418,-0.423638,0.915453,0.820514,0.244786,0.127916
0.809028,-0.691818,-0.274755,0.921905,-0.424094,0.920246,0.815916,0.243903,0.126912
0.821104,-0.69189,-0.277504,0.924452,-0.42453,0.924909,0.811133,0.242806,0.125685
0.833179,-0.691974,-0.280342,0.927066,-0.424942,0.929417,0.806169,0.241469,0.124204
0.845254,-0.692071,-0.28327,0.929755,-0.425329,0.933752,0.801019,0.239863,0.122435
0.857329,-0.692182,-0.286291,0.932533,-0.425691,0.937898,0.795679,0.237958,0.120343
0.869404,-0.69231,-0.289412,0.935416,-0.426032,0.94184,0.790137,0.235728,0.117898
0.881479,-0.692453,-0.292636,0.938419,-0.426354,0.945567,0.78438,0.233144,0.115074
0.893554,-0.692612,-0.295969,0.941559,-0.426661,0.949071,0.778399,0.230185,0.111849
0.905629,-0.692785,-0.299414,0.944849,-0.426958,0.952344,0.772185,0.226835,0.108211
0.917704,-0.692971,-0.302967,0.9483,-0.42725,0.955375,0.76574,0.223087,0.104159
0.929779,-0.693166,-0.306622,0.951918,-0.427538,0.958156,0.759072,0.218942,0.0997008
0.941854,-0.693367,-0.310369,0.955704,-0.427825,0.960676,0.752199,0.214412,0.0948535
0.953929,-0.693571,-0.314193,0.959657,-0.428113,0.962927,0.745146,0.209513,0.0896427
0.966004,-0.693774,-0.318077,0.96377,-0.428402,0.964904,0.737943,0.204271,0.0840993
0.978079,-0.693974,-0.322006,0.968041,-0.42869,0.966604,0.730618,0.198713,0.0782569
0.990154,-0.694168,-0.325964,0.972463,-0.428978,0.968035,0.723199,0.192866,0.07215
1.00223,-0.694355,-0.329939,0.977033,-0.429264,0.969209,0.71571,0.186761,0.0658112
1.0143,-0.694534,-0.333923,0.981751,-0.429546,0.970144,0.708168,0.180423,0.0592715
1.02638,-0.694703,-0.337908,0.986616,-0.429823,0.970867,0.700588,0.173879,0.0525598
1.03845,-0.694861,-0.341892,0.991626,-0.430095,0.971406,0.692981,0.167153,0.0457042
1.05053,-0.69501,-0.34587,0.99678,-0.43036,0.971791,0.685361,0.160272,0.0387332
1.0626,-0.695146,-0.349838,1.00207,-0.430617,0.972055,0.677742,0.153265,0.0316774
1.07468,-0.695269,-0.353792,1.00749,-0.430864,0.972223,0.670144,0.146164,0.02457
1.08675,-0.69538,-0.357724,1.01302,-0.431101,0.972321,0.662593,0.139004,0.0174468
1.09883,-0.695479,-0.361626,1.01864,-0.431326,0.972369,0.655117,0.131825,0.0103449
1.1109,-0.695564,-0.365491,1.02434,-0.431537,0.972385,0.647747,0.124662,0.0032998
1.12298,-0.695637,-0.369311,1.0301,-0.431733,0.972379,0.640511,0.117548,-0.00365812
1.13505,-0.695697,-0.373085,1.03591,-0.431914,0.97236,0.633432,0.110506,-0.0105079
1.14713,-0.695748,-0.376816,1.04176,-0.43208,0.972335,0.626521,0.103546,-0.0172412
1.1592,-0.695788,-0.380515,1.04768,-0.432232,0.972305,0.619777,0.0966646,-0.023864
1.17128,-0.69582,-0.384198,1.05367,-0.432372,0.972272,0.613188,0.089843,-0.0303956
1.18336,-0.695845,-0.387886,1.05976,-0.432504,0.972236,0.606732,0.0830528,-0.036865
1.19543,-0.695863,-0.391599,1.06599,-0.432631,0.972194,0.600384,0.0762615,-0.0433045
1.20751,-0.695877,-0.395355,1.07237,-0.432757,0.972145,0.594122,0.0694398,-0.0497421
1.21958,-0.695886,-0.399166,1.07892,-0.432887,0.972084,0.587932,0.0625697,-0.0561944
1.23166,-0.695893,-0.403033,1.08563,-0.433025,0.972008,0.581814,0.0556492,-0.0626612
1.24373,-0.695897,-0.406947,1.09248,-0.433174,0.971911,0.575784,0.0486955,-0.0691234
1.25581,-0.695898,-0.410891,1.09943,-0.433338,0.971786,0.569872,0.0417429,-0.0755449
1.26788,-0.695898,-0.41484,1.10643,-0.43352,0.971626,0.564117,0.0348393,-0.0818768
1.27996,-0.695895,-0.41877,1.11344,-0.433725,0.971421,0.558559,0.0280394,-0.088065
1.29203,-0.695891,-0.422654,1.12039,-0.433956,0.971161,0.553236,0.0213981,-0.0940562
1.30411,-0.695886,-0.426474,1.12726,-0.434219,0.970835,0.548177,0.0149654,-0.0998048
1.31618,-0.695878,-0.430218,1.13399,-0.43452,0.970433,0.543397,0.00878222,-0.105276
1.32826,-0.695869,-0.433879,1.14059,-0.434868,0.969941,0.538901,0.00288012,-0.110448
1.34033,-0.695858,-0.437458,1.14704,-0.43527,0.969349,0.534681,-0.00271843,-0.115311
1.35241,-0.695845,-0.440961,1.15335,-0.435737,0.968648,0.530719,-0.00799739,-0.119862
1.36448,-0.695831,-0.444395,1.15951,-0.436279,0.967829,0.526994,-0.0129446,-0.124107
1.37656,-0.695815,-0.447767,1.16555,-0.436907,0.966886,0.523482,-0.0175492,-0.128053
1.38863,-0.695797,-0.451084,1.17145,-0.43763,0.965813,0.52016,-0.0218005,-0.131709
1.40071,-0.695779,-0.454351,1.17723,-0.438458,0.964607,0.517006,-0.0256872,-0.135082
1.41278,-0.69576,-0.457571,1.18289,-0.439399,0.963264,0.514,-0.0291988,-0.138179
1.42486,-0.695741,-0.460747,1.18842,-0.440463,0.961777,0.511127,-0.0323264,-0.141004
1.43693,-0.695723,-0.463885,1.19383,-0.441656,0.960142,0.508368,-0.0350656,-0.143563
1.44901,-0.695705,-0.466989,1.19912,-0.442986,0.95835,0.505709,-0.0374176,-0.145861
1.46108,-0.695689,-0.470068,1.20429,-0.444461,0.956389,0.503133,-0.0393905,-0.147907
1.47316,-0.695674,-0.473133,1.20938,-0.446087,0.95425,0.500623,-0.0409996,-0.149709
1.48523,-0.695661,-0.476196,1.21438,-0.44787,0.95192,0.498162,-0.0422664,-0.151281
1.49731,-0.695648,-0.479268,1.21931,-0.449815,0.94939,0.495734,-0.0432164,-0.152636
1.50938,-0.695637,-0.482358,1.22419,-0.451924,0.946654,0.493327,-0.0438769,-0.153792
1.52146,-0.695626,-0.485472,1.22901,-0.454196,0.943711,0.490931,-0.0442741,-0.154767
1.53353,-0.695617,-0.488612,1.23379,-0.45663,0.940564,0.488541,-0.0444305,-0.155577
1.54561,-0.695607,-0.491775,1.23852,-0.459219,0.937218,0.486154,-0.0443634,-0.15624
1.55768,-0.695598,-0.494958,1.24318,-0.461957,0.933681,0.483771,-0.0440838,-0.156776
1.56976,-0.695588,-0.498153,1.24777,-0.464838,0.929963,0.481395,-0.0435964,-0.1572
1.58183,-0.695578,-0.501355,1.25227,-0.467854,0.926072,0.47903,-0.0429008,-0.157529
1.59391,-0.695567,-0.50456,1.25668,-0.471,0.922014,0.476679,-0.0419926,-0.157779
1.60598,-0.695554,-0.507764,1.261,-0.474271,0.917793,0.474344,-0.0408656,-0.157964
1.61806,-0.69554,-0.510966,1.26522,-0.477663,0.913414,0.472029,-0.0395134,-0.158098
1.63013,-0.695524,-0.514165,1.26935,-0.481173,0.908878,0.469736,-0.037931,-0.158192
1.64221,-0.695504,-0.517361,1.2734,-0.484795,0.90419,0.467469,-0.0361164,-0.158256
1.65428,-0.695483,-0.52055,1.27737,-0.488524,0.899354,0.465233,-0.0340713,-0.158299
1.66636,-0.695459,-0.523731,1.28126,-0.492354,0.894379,0.463035,-0.0318015,-0.158326
1.67843,-0.695432,-0.526898,1.28508,-0.496276,0.889274,0.460885,-0.0293166,-0.158343
1.69051,-0.695402,-0.530046,1.28884,-0.500279,0.884051,0.458793,-0.0266296,-0.158353
1.70258,-0.69537,-0.533169,1.29253,-0.504356,0.878722,0.456771,-0.0237553,-0.158359
1.71466,-0.695336,-0.536263,1.29615,-0.508498,0.873297,0.454832,-0.0207092,-0.158362
1.72673,-0.6953,-0.539323,1.29972,-0.512701,0.867782,0.45299,-0.0175058,-0.158362
1.73881,-0.695263,-0.542349,1.30324,-0.516964,0.862179,0.451256,-0.0141565,-0.15836
1.75088,-0.695226,-0.545343,1.30673,-0.521294,0.856478,0.449642,-0.0106692,-0.158355
1.76296,-0.695189,-0.548312,1.31019,-0.525703,0.850666,0.448156,-0.00704789,-0.158346
1.77503,-0.695152,-0.551264,1.31366,-0.530206,0.84472,0.446805,-0.00329337,-0.15833
1.78711,-0.695117,-0.554211,1.31716,-0.534824,0.838614,0.445591,0.000594327,-0.158305
1.79918,-0.695084,-0.557164,1.32071,-0.539574,0.832322,0.444514,0.00461309,-0.158267
1.81126,-0.695053,-0.560129,1.32432,-0.544471,0.825821,0.443574,0.00875533,-0.158214
1.82333,-0.695024,-0.563113,1.32803,-0.549522,0.819099,0.442766,0.013005,-0.158138
1.83541,-0.694999,-0.566114,1.33183,-0.554722,0.812156,0.442084,0.017336,-0.158035
1.84748,-0.694976,-0.569127,1.33574,-0.560058,0.805002,0.441523,0.0217115,-0.157898
1.85956,-0.694955,-0.572142,1.33974,-0.565508,0.79766,0.441075,0.0260858,-0.157718
1.87163,-0.694937,-0.575143,1.34383,-0.571042,0.790158,0.440734,0.0304074,-0.157487
1.88371,-0.69492,-0.578117,1.34799,-0.576631,0.78253,0.440497,0.0346224,-0.157196
1.89578,-0.694905,-0.581049,1.35223,-0.582244,0.774806,0.44036,0.0386782,-0.156837
1.90786,-0.694891,-0.583927,1.35653,-0.587855,0.767013,0.440323,0.0425272,-0.1564
1.91993,-0.694876,-0.586739,1.36089,-0.593442,0.759171,0.440387,0.0461288,-0.155878
1.93201,-0.694862,-0.58948,1.3653,-0.598989,0.751295,0.440557,0.0494506,-0.155265
1.94408,-0.694847,-0.592142,1.36977,-0.604483,0.743396,0.440843,0.0524695,-0.154556
1.95616,-0.69483,-0.594721,1.3743,-0.609915,0.735482,0.441255,0.055171,-0.153747
1.96823,-0.694812,-0.597213,1.37887,-0.615278,0.727561,0.441806,0.0575497,-0.152839
1.98031,-0.694792,-0.599614,1.3835,-0.620566,0.719641,0.442511,0.0596082,-0.151832
1.99238,-0.694769,-0.601919,1.38817,-0.625771,0.711731,0.443387,0.0613571,-0.150729
2.00446,-0.694741,-0.604124,1.39288,-0.63089,0.70384,0.444449,0.0628138,-0.149534
2.01653,-0.694707,-0.606226,1.39763,-0.63592,0.695974,0.445715,0.0640018,-0.14825
2.02861,-0.694665,-0.608221,1.4024,-0.640862,0.688135,0.447204,0.0649492,-0.146881
2.04068,-0.694612,-0.61011,1.4072,-0.645724,0.680316,0.448932,0.0656871,-0.145429
2.05276,-0.694543,-0.611894,1.41204,-0.650518,0.6725,0.450922,0.0662477,-0.143892
2.06483,-0.694455,-0.613577,1.41693,-0.655265,0.664662,0.453194,0.0666629,-0.142267
2.07691,-0.694342,-0.615167,1.42187,-0.659989,0.656766,0.45577,0.0669622,-0.14055
2.08898,-0.694198,-0.616672,1.42689,-0.664719,0.648775,0.458669,0.0671723,-0.138733
2.10106,-0.694019,-0.618101,1.43201,-0.669483,0.640652,0.461909,0.0673159,-0.13681
2.11313,-0.6938,-0.619463,1.43723,-0.674303,0.632372,0.465498,0.0674114,-0.134776
2.12521,-0.693535,-0.620766,1.44254,-0.679196,0.623922,0.469437,0.0674733,-0.132629
2.13728,-0.693223,-0.622015,1.44794,-0.684168,0.615308,0.473717,0.0675126,-0.13037
2.14936,-0.69286,-0.623213,1.45341,-0.689218,0.606553,0.478321,0.0675372,-0.128004
2.16143,-0.692446,-0.624363,1.45891,-0.694336,0.597693,0.483225,0.0675526,-0.125538
2.17351,-0.691979,-0.625465,1.46441,-0.69951,0.588771,0.488399,0.0675626,-0.122978
2.18558,-0.69146,-0.626519,1.46987,-0.704727,0.579832,0.493815,0.0675695,-0.120333
2.19766,-0.690888,-0.627528,1.47526,-0.709973,0.570916,0.499444,0.0675751,-0.117607
2.20973,-0.690263,-0.628493,1.48055,-0.715245,0.562054,0.505263,0.0675801,-0.114805
2.22181,-0.689584,-0.62942,1.48572,-0.720539,0.553266,0.511251,0.0675853,-0.111926
2.23388,-0.68885,-0.630313,1.49076,-0.725858,0.544564,0.517393,0.0675909,-0.108971
2.24596,-0.688061,-0.631179,1.49566,-0.731208,0.535953,0.523673,0.0675971,-0.105938
2.25803,-0.687214,-0.632025,1.50041,-0.736591,0.527435,0.530077,0.0676039,-0.102827
2.27011,-0.686309,-0.632857,1.50501,-0.742013,0.519014,0.536589,0.0676113,-0.0996399
2.28218,-0.685344,-0.633681,1.50946,-0.747471,0.510696,0.543191,0.0676196,-0.0963813
2.29426,-0.684319,-0.634502,1.51374,-0.752964,0.50249,0.549863,0.0676288,-0.0930585
2.30633,-0.683231,-0.635324,1.51785,-0.758487,0.494406,0.556586,0.0676397,-0.0896804
2.31841,-0.682079,-0.636152,1.52178,-0.764036,0.486452,0.563345,0.0676531,-0.0862554
2.33049,-0.680857,-0.63699,1.52552,-0.769615,0.478631,0.570133,0.0676708,-0.08279
2.34256,-0.679559,-0.637844,1.52908,-0.775231,0.470933,0.576952,0.0676952,-0.0792856
2.35464,-0.678174,-0.638719,1.53245,-0.780906,0.463338,0.583822,0.06773,-0.0757373
2.36671,-0.676691,-0.639624,1.53566,-0.786668,0.45581,0.590776,0.0677805,-0.0721336
2.37879,-0.675093,-0.640565,1.53871,-0.792555,0.448302,0.597858,0.0678537,-0.0684567
2.39086,-0.673365,-0.641548,1.54162,-0.79861,0.440763,0.605119,0.067959,-0.0646858
2.40294,-0.671493,-0.642581,1.54442,-0.804871,0.433143,0.612609,0.0681085,-0.0608005
2.41501,-0.669465,-0.643666,1.54712,-0.811369,0.4254,0.620367,0.068317,-0.0567853
2.42709,-0.667277,-0.644802,1.54974,-0.818115,0.417512,0.628416,0.0686022,-0.052633
2.43916,-0.664927,-0.645985,1.55227,-0.825105,0.409475,0.636758,0.0689846,-0.0483477
2.45124,-0.662423,-0.647207,1.55472,-0.832315,0.401311,0.645372,0.0694867,-0.0439445
2.46331,-0.659778,-0.648457,1.55708,-0.839703,0.393058,0.654216,0.0701331,-0.0394485
2.47539,-0.657006,-0.649724,1.55934,-0.847217,0.384765,0.66324,0.0709486,-0.0348913
2.48746,-0.654124,-0.650993,1.56147,-0.854801,0.376486,0.672385,0.0719579,-0.0303066
2.49954,-0.651148,-0.652254,1.56347,-0.862402,0.368272,0.681597,0.0731844,-0.0257269
2.51161,-0.648091,-0.653497,1.56533,-0.869973,0.360165,0.690831,0.0746488,-0.0211804
2.52369,-0.644962,-0.654714,1.56703,-0.877482,0.35219,0.700054,0.0763688,-0.016689
2.53576,-0.641768,-0.655901,1.56857,-0.884903,0.344364,0.709245,0.078358,-0.0122692
2.54784,-0.638511,-0.657054,1.56996,-0.892222,0.33669,0.718393,0.0806259,-0.00793255
2.55991,-0.635191,-0.658173,1.5712,-0.899434,0.329163,0.727498,0.0831776,-0.0036878
2.57199,-0.63181,-0.659255,1.57229,-0.906534,0.321773,0.736559,0.086014,0.000457402
2.58406,-0.628367,-0.660299,1.57325,-0.913523,0.314508,0.745583,0.0891325,0.00449506
2.59614,-0.624861,-0.661301,1.57408,-0.920401,0.307357,0.754572,0.0925282,0.00841616
2.60821,-0.621293,-0.662259,1.5748,-0.927166,0.300307,0.76353,0.0961943,0.0122107
2.62029,-0.617663,-0.663168,1.5754,-0.933819,0.293347,0.772461,0.100124,0.0158683
2.63236,-0.613973,-0.664024,1.57591,-0.94036,0.286467,0.78137,0.104309,0.0193792
2.64444,-0.610221,-0.66482,1.57632,-0.946791,0.279653,0.790263,0.108746,0.0227347
2.65651,-0.606407,-0.665551,1.57666,-0.953116,0.272894,0.799148,0.113429,0.0259287
2.66859,-0.602532,-0.666215,1.57692,-0.959338,0.266175,0.808034,0.118354,0.0289569
2.68066,-0.598594,-0.666809,1.57712,-0.965462,0.259483,0.816929,0.123516,0.0318174
2.69274,-0.594597,-0.66733,1.57726,-0.971493,0.252807,0.825839,0.128907,0.0345097
2.70481,-0.590543,-0.667779,1.57736,-0.977431,0.246139,0.834763,0.134519,0.0370346
2.71689,-0.586438,-0.668159,1.57742,-0.983273,0.239476,0.843695,0.140333,0.0393931
2.72896,-0.582293,-0.668473,1.57746,-0.989013,0.232819,0.852624,0.146331,0.0415865
2.74104,-0.578119,-0.668726,1.57746,-0.99464,0.226176,0.861527,0.152486,0.0436165
2.75311,-0.573928,-0.668924,1.57743,-1.00014,0.219557,0.870382,0.158771,0.0454855
2.76519,-0.569732,-0.669072,1.57738,-1.00551,0.212977,0.879164,0.165156,0.0471971
2.77726,-0.565541,-0.669177,1.57731,-1.01072,0.206448,0.887847,0.171612,0.048757
2.78934,-0.561363,-0.669246,1.57719,-1.01577,0.199986,0.896411,0.178112,0.0501728
2.80141,-0.5572,-0.669282,1.57703,-1.02064,0.193602,0.90484,0.184634,0.0514546
2.81349,-0.553056,-0.669292,1.57682,-1.02535,0.187311,0.913122,0.191157,0.0526142
2.82556,-0.548928,-0.669278,1.57655,-1.02987,0.181127,0.92125,0.197664,0.0536645
2.83764,-0.544813,-0.669244,1.5762,-1.03421,0.175065,0.929219,0.20414,0.0546188
2.84971,-0.540709,-0.669191,1.57575,-1.03837,0.169144,0.937024,0.210572,0.0554897
2.86179,-0.536614,-0.66912,1.5752,-1.04234,0.16339,0.944662,0.216945,0.0562884
2.87386,-0.532528,-0.669032,1.57452,-1.04613,0.15783,0.952126,0.223244,0.057024
2.88594,-0.528452,-0.668925,1.57371,-1.04973,0.152497,0.959406,0.229453,0.0577031
2.89801,-0.524389,-0.668797,1.57274,-1.05314,0.147426,0.966496,0.235557,0.0583299
2.91009,-0.520339,-0.668643,1.57161,-1.05636,0.142653,0.973387,0.241542,0.0589064
2.92216,-0.516302,-0.668456,1.57029,-1.05938,0.138214,0.980077,0.247398,0.0594329
2.93424,-0.512273,-0.668228,1.56878,-1.0622,0.134138,0.986569,0.253121,0.0599082
2.94631,-0.50824,-0.667948,1.56705,-1.06484,0.130453,0.992874,0.258717,0.0603312
2.95839,-0.504183,-0.667601,1.56507,-1.06728,0.127176,0.999018,0.264202,0.0607005
2.97046,-0.500075,-0.667172,1.56283,-1.06955,0.124317,1.00503,0.269601,0.0610162
2.98254,-0.495885,-0.666644,1.56029,-1.07165,0.121878,1.01096,0.274947,0.0612791
2.99461,-0.49158,-0.666001,1.55744,-1.0736,0.119853,1.01683,0.280275,0.0614918
3.00669,-0.48713,-0.665228,1.55425,-1.07541,0.118232,1.0227,0.285621,0.061658
3.01876,-0.482513,-0.664311,1.55072,-1.07709,0.116999,1.02858,0.291012,0.0617825
3.03084,-0.47772,-0.663242,1.54685,-1.07864,0.11614,1.0345,0.296462,0.0618708
3.04291,-0.472756,-0.662017,1.54265,-1.08008,0.115638,1.04043,0.301973,0.0619283
3.05499,-0.467637,-0.660632,1.53816,-1.08141,0.115483,1.04637,0.307534,0.06196
3.06706,-0.46239,-0.659089,1.53339,-1.08262,0.115664,1.05228,0.313125,0.0619701
3.07914,-0.457047,-0.657391,1.5284,-1.08372,0.116176,1.05812,0.318719,0.0619614
3.09121,-0.451641,-0.655542,1.5232,-1.08472,0.117015,1.06385,0.324294,0.0619357
3.10329,-0.446201,-0.653544,1.51784,-1.08561,0.118182,1.06946,0.32983,0.0618933
3.11536,-0.44075,-0.651401,1.51234,-1.08641,0.119676,1.0749,0.335315,0.0618331
3.12744,-0.435306,-0.649116,1.50671,-1.08714,0.121498,1.08018,0.340744,0.061753
3.13951,-0.429882,-0.646692,1.50098,-1.0878,0.123647,1.08529,0.346119,0.0616498
3.15159,-0.424488,-0.644133,1.49514,-1.08842,0.12612,1.09023,0.351445,0.0615195
3.16366,-0.419133,-0.641442,1.48922,-1.08899,0.128913,1.095,0.356728,0.0613574
3.17574,-0.413827,-0.638628,1.48323,-1.08955,0.132019,1.0996,0.361973,0.0611577
3.18781,-0.408582,-0.635698,1.47719,-1.0901,0.135428,1.10405,0.367182,0.0609136
3.19989,-0.403414,-0.63266,1.4711,-1.09064,0.139129,1.10833,0.372355,0.0606169
3.21196,-0.398337,-0.629525,1.465,-1.09118,0.143111,1.11245,0.377491,0.0602576
3.22404,-0.393368,-0.6263,1.4589,-1.09172,0.147363,1.11639,0.382589,0.0598228
3.23611,-0.388519,-0.622991,1.45281,-1.09227,0.15188,1.12015,0.387653,0.0592969
3.24819,-0.383798,-0.619597,1.44675,-1.09281,0.15666,1.12373,0.39269,0.0586602
3.26026,-0.379212,-0.616114,1.4407,-1.09335,0.16171,1.12713,0.397714,0.0578897
3.27234,-0.374758,-0.612534,1.43466,-1.09388,0.167043,1.13035,0.402746,0.056959
3.28441,-0.370435,-0.608841,1.42861,-1.09439,0.172674,1.13339,0.40781,0.0558388
3.29649,-0.366237,-0.605021,1.42253,-1.09489,0.178623,1.13627,0.412931,0.0544991
3.30856,-0.36216,-0.60106,1.4164,-1.09536,0.184901,1.13899,0.418133,0.0529103
3.32064,-0.358205,-0.596945,1.41022,-1.0958,0.191515,1.14155,0.423433,0.0510452
3.33271,-0.354377,-0.592674,1.40397,-1.09621,0.198457,1.14396,0.428836,0.0488813
3.34479,-0.350689,-0.588248,1.39768,-1.09658,0.205708,1.14622,0.434337,0.0464012
3.35686,-0.347155,-0.583678,1.39136,-1.09691,0.213232,1.14831,0.439919,0.0435943
3.36894,-0.343794,-0.578976,1.38504,-1.09721,0.220988,1.15023,0.445556,0.0404565
3.38101,-0.340621,-0.574161,1.37876,-1.09746,0.228924,1.15198,0.451214,0.0369903
3.39309,-0.337648,-0.56925,1.37256,-1.09767,0.236991,1.15354,0.456858,0.0332034
3.40516,-0.33488,-0.564257,1.36646,-1.09785,0.245138,1.15491,0.462449,0.0291083
3.41724,-0.332313,-0.559196,1.3605,-1.09799,0.253325,1.15609,0.467955,0.0247211
3.42931,-0.329937,-0.554071,1.35468,-1.0981,0.261514,1.1571,0.473345,0.0200604
3.44139,-0.327735,-0.548888,1.34903,-1.09818,0.269676,1.15794,0.47859,0.0151473
3.45346,-0.325686,-0.543647,1.34354,-1.09824,0.277787,1.15862,0.483667,0.010004
3.46554,-0.323769,-0.538346,1.33822,-1.09828,0.285828,1.15917,0.488552,0.00465362
3.47762,-0.321963,-0.532986,1.33305,-1.09831,0.293781,1.1596,0.493223,-0.000880101
3.48969,-0.32025,-0.527565,1.32804,-1.09833,0.301633,1.15993,0.497661,-0.00657392
3.50177,-0.318617,-0.522081,1.32318,-1.09834,0.30937,1.16018,0.501845,-0.012406
3.51384,-0.317055,-0.516533,1.31845,-1.09834,0.316985,1.16036,0.505757,-0.0183575
3.52592,-0.31556,-0.510914,1.31385,-1.09834,0.324474,1.16049,0.509383,-0.024414
3.53799,-0.314129,-0.505214,1.30936,-1.09833,0.331842,1.16058,0.512711,-0.0305673
3.55007,-0.312762,-0.499415,1.30496,-1.09833,0.3391,1.16065,0.515736,-0.0368161
3.56214,-0.311459,-0.493496,1.30064,-1.09832,0.346268,1.16069,0.518456,-0.0431658
3.57422,-0.310222,-0.487429,1.29637,-1.09831,0.353371,1.16072,0.520876,-0.0496266
3.58629,-0.309049,-0.481187,1.29212,-1.0983,0.360438,1.16074,0.523006,-0.0562106
3.59837,-0.307938,-0.474744,1.28787,-1.09829,0.367495,1.16076,0.524859,-0.0629272
3.61044,-0.306886,-0.468083,1.2836,-1.09828,0.374561,1.16078,0.526453,-0.069779
3.62252,-0.305888,-0.461198,1.2793,-1.09827,0.381646,1.16079,0.527807,-0.0767585
3.63459,-0.304937,-0.454094,1.27497,-1.09826,0.388745,1.16082,0.528943,-0.0838462
3.64667,-0.304026,-0.446791,1.27061,-1.09825,0.395843,1.16085,0.52988,-0.0910118
3.65874,-0.303145,-0.439317,1.26623,-1.09824,0.402914,1.16089,0.530641,-0.0982174
3.67082,-0.302285,-0.431704,1.26184,-1.09823,0.409928,1.16095,0.531247,-0.105422
3.68289,-0.301436,-0.423988,1.25747,-1.09822,0.416852,1.16104,0.531719,-0.112588
3.69497,-0.300583,-0.416197,1.25312,-1.09822,0.423662,1.16115,0.532076,-0.119682
3.70704,-0.299716,-0.408354,1.24879,-1.09821,0.430336,1.1613,0.532339,-0.126683
3.71912,-0.298821,-0.400474,1.24449,-1.0982,0.436865,1.1615,0.532524,-0.133578
3.73119,-0.297885,-0.392566,1.24022,-1.09819,0.443246,1.16176,0.532648,-0.140365
3.74327,-0.296899,-0.384634,1.23595,-1.09818,0.449482,1.16208,0.532726,-0.147047
3.75534,-0.295854,-0.376681,1.2317,-1.09817,0.455579,1.16248,0.532769,-0.153629
3.76742,-0.294744,-0.368713,1.22743,-1.09816,0.461546,1.16295,0.532787,-0.160117
3.77949,-0.293565,-0.360737,1.22315,-1.09814,0.467389,1.16351,0.532788,-0.166516
3.79157,-0.292319,-0.352764,1.21885,-1.09813,0.473115,1.16416,0.532777,-0.172828
3.80364,-0.291005,-0.344808,1.21453,-1.09812,0.478731,1.1649,0.532759,-0.179053
3.81572,-0.289626,-0.336881,1.21017,-1.0981,0.484242,1.16574,0.532737,-0.185193
3.82779,-0.288186,-0.328992,1.20578,-1.09809,0.489661,1.16668,0.532713,-0.191252
3.83987,-0.286685,-0.321144,1.20133,-1.09807,0.495002,1.16772,0.532689,-0.197237
3.85194,-0.285127,-0.31333,1.19683,-1.09806,0.500287,1.16885,0.532666,-0.203164
3.86402,-0.28351,-0.305537,1.19225,-1.09804,0.505542,1.17009,0.532644,-0.209053
3.87609,-0.281833,-0.297745,1.18757,-1.09803,0.510797,1.17144,0.532624,-0.214927
3.88817,-0.280098,-0.289934,1.18276,-1.09802,0.516083,1.17289,0.532606,-0.220812
3.90024,-0.278306,-0.282084,1.17781,-1.098,0.52143,1.17444,0.532591,-0.22673
3.91232,-0.276461,-0.274184,1.17269,-1.09798,0.526858,1.1761,0.532578,-0.232697
3.92439,-0.27457,-0.266236,1.16739,-1.09797,0.532381,1.17786,0.532567,-0.23872
3.93647,-0.272646,-0.258252,1.16191,-1.09795,0.538001,1.17971,0.532557,-0.244795
3.94854,-0.270703,-0.250258,1.15626,-1.09792,0.543713,1.18162,0.532548,-0.250908
3.96062,-0.268757,-0.242289,1.15044,-1.0979,0.549503,1.1836,0.532539,-0.257036
3.97269,-0.266825,-0.234379,1.14447,-1.09786,0.555356,1.18562,0.532528,-0.263154
3.98477,-0.26492,-0.226565,1.13835,-1.09782,0.561256,1.18766,0.532517,-0.269234
3.99684,-0.263052,-0.218874,1.13211,-1.09777,0.567188,1.1897,0.532503,-0.275249
4.00892,-0.261229,-0.211328,1.12575,-1.09771,0.573144,1.19174,0.532486,-0.281176
4.02099,-0.25945,-0.203938,1.11928,-1.09764,0.579119,1.19375,0.532466,-0.286994
4.03307,-0.257712,-0.196708,1.1127,-1.09756,0.58511,1.19573,0.532442,-0.292684
4.04514,-0.256009,-0.189639,1.10603,-1.09747,0.591115,1.19766,0.532412,-0.298227
4.05722,-0.254332,-0.182731,1.09926,-1.09736,0.597132,1.19953,0.532376,-0.303602
4.06929,-0.252671,-0.175984,1.09242,-1.09723,0.603155,1.20132,0.532331,-0.308786
4.08137,-0.251016,-0.169402,1.08553,-1.09709,0.609173,1.20302,0.532275,-0.313754
4.09344,-0.24936,-0.16299,1.0786,-1.09693,0.615174,1.20463,0.532204,-0.318477
4.10552,-0.247695,-0.156756,1.07167,-1.09677,0.621143,1.20613,0.532111,-0.322925
4.11759,-0.246017,-0.150709,1.06475,-1.09659,0.627067,1.20752,0.53199,-0.327072
4.12967,-0.244322,-0.144853,1.05788,-1.0964,0.632936,1.20878,0.53183,-0.330892
4.14174,-0.242604,-0.139187,1.05105,-1.09621,0.638748,1.20991,0.53162,-0.334365
4.15382,-0.240861,-0.133703,1.04426,-1.096,0.644509,1.2109,0.531344,-0.337481
4.16589,-0.239084,-0.128384,1.03751,-1.09579,0.650234,1.21177,0.530987,-0.340234
4.17797,-0.237267,-0.123206,1.03077,-1.09558,0.655949,1.21252,0.53053,-0.34263
4.19004,-0.235402,-0.118138,1.024,-1.09535,0.661682,1.21314,0.529955,-0.344683
4.20212,-0.23348,-0.113152,1.01718,-1.09512,0.667462,1.21366,0.529244,-0.346414
4.21419,-0.231496,-0.108222,1.01028,-1.09487,0.67331,1.21407,0.528381,-0.347848
4.22627,-0.229446,-0.103328,1.00328,-1.09462,0.679237,1.21441,0.527352,-0.349017
4.23834,-0.227329,-0.098463,0.99619,-1.09436,0.68524,1.21467,0.526149,-0.349953
4.25042,-0.225152,-0.0936321,0.989017,-1.09409,0.691297,1.21487,0.524763,-0.350687
4.26249,-0.222921,-0.0888491,0.981797,-1.09383,0.697374,1.21502,0.523191,-0.351249
4.27457,-0.220646,-0.0841346,0.97457,-1.09356,0.703427,1.21513,0.521432,-0.351665
4.28664,-0.218337,-0.0795121,0.967381,-1.09329,0.70941,1.21521,0.519484,-0.351958
4.29872,-0.216005,-0.0750031,0.960272,-1.09303,0.715275,1.21527,0.51735,-0.352147
4.31079,-0.213655,-0.0706244,0.953278,-1.09279,0.720983,1.21531,0.515031,-0.352247
4.32287,-0.211293,-0.0663866,0.946424,-1.09256,0.726502,1.21534,0.512528,-0.352269
4.33494,-0.208922,-0.0622937,0.939725,-1.09234,0.731809,1.21536,0.509846,-0.352218
4.34702,-0.206544,-0.0583446,0.933189,-1.09215,0.73689,1.21537,0.506988,-0.3521
4.35909,-0.204159,-0.0545348,0.926819,-1.09197,0.741736,1.21537,0.50396,-0.351914
4.37117,-0.20177,-0.0508587,0.920614,-1.09182,0.746343,1.21537,0.50077,-0.35166
4.38324,-0.199379,-0.0473105,0.914574,-1.09168,0.750709,1.21537,0.497428,-0.351336
4.39532,-0.196987,-0.0438859,0.908699,-1.09157,0.754833,1.21537,0.493946,-0.350937
4.40739,-0.194598,-0.0405819,0.902989,-1.09147,0.758715,1.21537,0.490338,-0.350459
4.41947,-0.192214,-0.0373957,0.897444,-1.09139,0.762357,1.21536,0.486616,-0.349898
4.43154,-0.189835,-0.0343245,0.892063,-1.09133,0.765761,1.21536,0.482794,-0.349248
4.44362,-0.187457,-0.0313635,0.886836,-1.09128,0.768932,1.21535,0.47888,-0.348503
4.45569,-0.185074,-0.0285056,0.881754,-1.09124,0.771881,1.21534,0.47488,-0.347654
4.46777,-0.182677,-0.0257404,0.876795,-1.0912,0.77462,1.21533,0.470797,-0.346692
4.47984,-0.180251,-0.0230545,0.871936,-1.09117,0.777165,1.21532,0.466628,-0.345605
4.49192,-0.177782,-0.0204331,0.867148,-1.09114,0.779534,1.21531,0.462375,-0.34438
4.50399,-0.175258,-0.0178613,0.862403,-1.09112,0.781747,1.21529,0.458037,-0.343003
4.51607,-0.172667,-0.0153261,0.857678,-1.09109,0.783824,1.21527,0.453625,-0.341462
4.52814,-0.170006,-0.0128187,0.852959,-1.09106,0.785781,1.21525,0.449157,-0.339746
4.54022,-0.167274,-0.010335,0.848237,-1.09102,0.787633,1.21523,0.44466,-0.337845
4.55229,-0.164479,-0.00787651,0.843516,-1.09098,0.789392,1.21521,0.440175,-0.335754
4.56437,-0.161633,-0.00544919,0.838808,-1.09092,0.791067,1.21519,0.435752,-0.333471
4.57644,-0.158751,-0.00306205,0.834131,-1.09086,0.792667,1.21516,0.431443,-0.330994
4.58852,-0.155849,-0.000725123,0.829501,-1.09079,0.794202,1.21514,0.427304,-0.328325
4.60059,-0.152939,0.00155248,0.824934,-1.0907,0.795682,1.21511,0.423386,-0.325464
4.61267,-0.150034,0.00376413,0.820439,-1.0906,0.797125,1.21509,0.419733,-0.322412
4.62474,-0.147137,0.00590661,0.816018,-1.09048,0.798547,1.21507,0.416381,-0.319169
4.63682,-0.144251,0.00798021,0.811667,-1.09035,0.799973,1.21505,0.413352,-0.315734
4.6489,-0.141373,0.00998822,0.807373,-1.09019,0.801427,1.21504,0.410661,-0.312107
4.66097,-0.138498,0.0119359,0.803123,-1.09002,0.802937,1.21502,0.408309,-0.308288
4.67305,-0.13562,0.0138293,0.798899,-1.08982,0.804529,1.215,0.40629,-0.304282
4.68512,-0.132736,0.0156744,0.794687,-1.08961,0.806229,1.21498,0.40459,-0.300094
4.6972,-0.129843,0.0174758,0.790472,-1.08938,0.808063,1.21497,0.403191,-0.295734
4.70927,-0.12694,0.0192368,0.786242,-1.08914,0.81005,1.21495,0.402066,-0.291215
4.72135,-0.124029,0.0209595,0.781985,-1.08889,0.812212,1.21492,0.401191,-0.286551
4.73342,-0.121113,0.0226448,0.777688,-1.08863,0.814569,1.2149,0.400537,-0.281755
4.7455,-0.118197,0.024293,0.773341,-1.08837,0.817138,1.21487,0.400078,-0.276842
4.75757,-0.115284,0.0259048,0.768925,-1.08812,0.81994,1.21484,0.39979,-0.271822
4.76965,-0.112377,0.027481,0.764424,-1.08787,0.822993,1.21481,0.399653,-0.266704
4.78172,-0.109478,0.0290227,0.759817,-1.08762,0.826313,1.21478,0.399652,-0.261496
4.7938,-0.106593,0.030531,0.755085,-1.08739,0.829914,1.21475,0.399779,-0.25621
4.80587,-0.103727,0.0320062,0.750213,-1.08718,0.833805,1.21472,0.400031,-0.25086
4.81795,-0.100886,0.033448,0.74519,-1.08698,0.837988,1.21469,0.400411,-0.245468
4.83002,-0.098082,0.0348544,0.74001,-1.08679,0.84246,1.21466,0.400929,-0.240062
4.8421,-0.0953277,0.0362227,0.734673,-1.08663,0.84721,1.21464,0.401597,-0.234678
4.85417,-0.0926374,0.0375489,0.729186,-1.08648,0.852224,1.21462,0.402432,-0.229357
4.86625,-0.0900249,0.0388292,0.723554,-1.08634,0.857484,1.2146,0.403452,-0.224144
4.87832,-0.0875026,0.0400602,0.717788,-1.08622,0.862972,1.21459,0.404673,-0.219082
4.8904,-0.0850797,0.0412395,0.711896,-1.08611,0.868671,1.21458,0.406112,-0.214211
4.90247,-0.0827621,0.0423662,0.705887,-1.08601,0.874562,1.21457,0.407779,-0.209567
4.91455,-0.0805523,0.0434406,0.699771,-1.08591,0.88063,1.21456,0.409683,-0.205181
4.92662,-0.0784496,0.0444642,0.693559,-1.08581,0.886855,1.21456,0.411827,-0.201078
4.9387,-0.0764514,0.0454397,0.687266,-1.08571,0.893217,1.21456,0.414208,-0.197278
4.95077,-0.0745535,0.0463703,0.680909,-1.08559,0.899694,1.21456,0.416818,-0.193797
4.96285,-0.0727508,0.0472594,0.674512,-1.08546,0.90626,1.21456,0.419646,-0.190646
4.97492,-0.0710376,0.0481115,0.6681,-1.08532,0.912888,1.21456,0.422676,-0.187832
4.987,-0.0694074,0.0489313,0.661698,-1.08515,0.919553,1.21456,0.425892,-0.185354
4.99907,-0.0678529,0.0497244,0.655332,-1.08497,0.926229,1.21456,0.429274,-0.183208
5.01115,-0.0663654,0.0504973,0.649024,-1.08476,0.932898,1.21456,0.432808,-0.181381
5.02322,-0.0649351,0.0512579,0.642789,-1.08452,0.939548,1.21456,0.43648,-0.179855
5.0353,-0.0635502,0.0520149,0.636635,-1.08425,0.946179,1.21456,0.440282,-0.17861
5.04737,-0.0621979,0.0527783,0.630556,-1.08396,0.952801,1.21457,0.444212,-0.177617
5.05945,-0.0608642,0.0535586,0.624541,-1.08363,0.959436,1.21457,0.448276,-0.176851
5.07152,-0.0595353,0.0543663,0.618568,-1.08327,0.966114,1.21457,0.452483,-0.176283
5.0836,-0.0581984,0.0552111,0.612611,-1.08286,0.97287,1.21457,0.456844,-0.175886
5.09567,-0.0568435,0.0561006,0.606644,-1.08241,0.979735,1.21457,0.461367,-0.175637
5.10775,-0.0554647,0.0570395,0.600648,-1.0819,0.986735,1.21457,0.466053,-0.175516
5.11982,-0.0540609,0.0580288,0.594616,-1.08133,0.993878,1.21458,0.470891,-0.175508
5.1319,-0.0526368,0.0590658,0.588553,-1.08071,1.00116,1.21458,0.475856,-0.175603
5.14397,-0.0512021,0.0601439,0.582479,-1.08003,1.00855,1.21459,0.480907,-0.175794
5.15605,-0.0497704,0.0612536,0.576426,-1.0793,1.01601,1.21459,0.485991,-0.176081
5.16812,-0.0483578,0.0623836,0.570431,-1.0785,1.02349,1.2146,0.491047,-0.176466
5.1802,-0.046981,0.0635226,0.564531,-1.07766,1.03094,1.2146,0.496009,-0.176954
5.19227,-0.0456553,0.0646597,0.558761,-1.07678,1.03832,1.21461,0.500814,-0.177552
5.20435,-0.0443934,0.0657863,0.553145,-1.07586,1.04558,1.21462,0.505406,-0.178267
5.21642,-0.0432048,0.0668961,0.547698,-1.07491,1.05271,1.21463,0.509737,-0.179107
5.2285,-0.0420956,0.067985,0.542424,-1.07395,1.05969,1.21464,0.51377,-0.180075
5.24057,-0.0410692,0.0690512,0.537323,-1.07299,1.06651,1.21465,0.517476,-0.181176
5.25265,-0.0401265,0.0700947,0.532389,-1.07203,1.07316,1.21466,0.520837,-0.182409
5.26472,-0.0392672,0.0711162,0.527617,-1.07108,1.07964,1.21467,0.523843,-0.183768
5.2768,-0.0384902,0.0721168,0.523004,-1.07017,1.08593,1.21469,0.526488,-0.185244
5.28887,-0.0377938,0.0730979,0.518549,-1.06928,1.09201,1.2147,0.528776,-0.186823
5.30095,-0.0371762,0.0740609,0.514255,-1.06844,1.09786,1.21472,0.530714,-0.188486
5.31302,-0.0366349,0.0750074,0.510125,-1.06764,1.10346,1.21474,0.532314,-0.190211
5.3251,-0.0361672,0.0759398,0.506159,-1.06688,1.10878,1.21476,0.533593,-0.191974
5.33717,-0.0357688,0.0768612,0.502357,-1.06616,1.1138,1.21479,0.534571,-0.19375
5.34925,-0.0354349,0.0777763,0.49871,-1.06547,1.11852,1.21482,0.535268,-0.195514
5.36132,-0.0351593,0.0786909,0.495203,-1.0648,1.12291,1.21485,0.535702,-0.197243
5.3734,-0.0349346,0.0796125,0.491816,-1.06413,1.127,1.2149,0.53589,-0.198919
5.38547,-0.0347527,0.0805493,0.488524,-1.06345,1.13078,1.21495,0.535844,-0.200523
5.39755,-0.0346049,0.0815095,0.485301,-1.06274,1.13427,1.21501,0.535572,-0.202042
5.40962,-0.0344821,0.0825006,0.482122,-1.06199,1.1375,1.21509,0.535076,-0.203467
5.4217,-0.0343753,0.0835282,0.478971,-1.06118,1.14046,1.21518,0.534357,-0.204787
5.43377,-0.0342762,0.0845956,0.475836,-1.0603,1.14319,1.21528,0.533413,-0.205995
5.44585,-0.034177,0.0857034,0.472717,-1.05936,1.14568,1.21541,0.53224,-0.207086
5.45792,-0.0340709,0.0868499,0.469621,-1.05834,1.14794,1.21556,0.530839,-0.208053
5.47,-0.0339525,0.0880316,0.466563,-1.05726,1.14997,1.21574,0.529208,-0.208895
5.48207,-0.0338176,0.089244,0.463559,-1.05613,1.15176,1.21596,0.527351,-0.209611
5.49415,-0.0336636,0.090483,0.460627,-1.05496,1.15332,1.21623,0.525272,-0.210205
5.50622,-0.0334892,0.0917451,0.457779,-1.05376,1.15465,1.21657,0.522976,-0.210682
5.5183,-0.0332945,0.0930282,0.455025,-1.05255,1.15576,1.21698,0.520472,-0.211053
5.53037,-0.0330807,0.094331,0.452367,-1.05134,1.15668,1.21749,0.517767,-0.21133
5.54245,-0.0328501,0.0956534,0.449804,-1.05016,1.15743,1.21811,0.514871,-0.211528
5.55452,-0.0326053,0.0969949,0.447332,-1.049,1.15803,1.21884,0.511795,-0.211661
5.5666,-0.0323497,0.0983546,0.444945,-1.04788,1.15852,1.21972,0.508551,-0.211741
5.57867,-0.0320864,0.0997307,0.442637,-1.0468,1.15892,1.22074,0.505153,-0.211782
5.59075,-0.0318185,0.10112,0.440405,-1.04576,1.15927,1.22192,0.501618,-0.211794
5.60282,-0.0315487,0.102517,0.438248,-1.04475,1.15958,1.22326,0.497963,-0.211783
5.6149,-0.0312788,0.103916,0.436166,-1.04378,1.15987,1.22477,0.494206,-0.211756
5.62697,-0.0310102,0.105313,0.434161,-1.04283,1.16018,1.22645,0.490363,-0.211717
5.63905,-0.030743,0.106702,0.432235,-1.0419,1.1605,1.2283,0.486448,-0.211669
5.65112,-0.030477,0.108079,0.430389,-1.04098,1.16085,1.23032,0.482471,-0.211613
5.6632,-0.0302109,0.109442,0.428622,-1.04006,1.16125,1.23253,0.478438,-0.21155
5.67527,-0.0299433,0.11079,0.426932,-1.03912,1.16169,1.23492,0.474352,-0.211482
5.68735,-0.0296728,0.112123,0.425314,-1.03817,1.1622,1.23751,0.470212,-0.211406
5.69942,-0.0293981,0.113442,0.423764,-1.0372,1.16278,1.24031,0.46602,-0.21132
5.7115,-0.0291186,0.114745,0.422274,-1.03621,1.16344,1.2433,0.461779,-0.211222
5.72357,-0.0288347,0.116029,0.420839,-1.0352,1.16417,1.2465,0.457499,-0.211106
5.73565,-0.0285475,0.117289,0.419455,-1.0342,1.16499,1.24989,0.453195,-0.210965
5.74773,-0.0282594,0.118517,0.418119,-1.0332,1.16591,1.25346,0.448888,-0.210791
5.7598,-0.0279728,0.119701,0.416831,-1.03224,1.16691,1.2572,0.444606,-0.210574
5.77187,-0.027691,0.120832,0.415589,-1.03131,1.168,1.26106,0.440376,-0.210302
5.78395,-0.0274166,0.121896,0.414396,-1.03044,1.16919,1.26505,0.436225,-0.209963
5.79602,-0.0271523,0.122884,0.413252,-1.02964,1.17046,1.26911,0.432175,-0.209544
5.8081,-0.0268998,0.123787,0.412157,-1.02892,1.17183,1.27324,0.428243,-0.209036
5.82018,-0.0266604,0.124598,0.411114,-1.02829,1.17328,1.27741,0.424437,-0.208428
5.83225,-0.0264348,0.125317,0.410121,-1.02773,1.17482,1.28158,0.420762,-0.207712
5.84433,-0.0262232,0.125941,0.40918,-1.02725,1.17645,1.28575,0.417214,-0.206884
5.8564,-0.0260259,0.126475,0.408291,-1.02685,1.17816,1.28988,0.413787,-0.20594
5.86848,-0.0258432,0.126923,0.407454,-1.02652,1.17995,1.29395,0.410472,-0.204881
5.88055,-0.0256753,0.127293,0.406671,-1.02625,1.1818,1.29793,0.407257,-0.203711
5.89263,-0.0255227,0.127592,0.405942,-1.02603,1.18373,1.3018,0.40413,-0.202433
5.9047,-0.0253859,0.127828,0.405268,-1.02585,1.18571,1.30553,0.401078,-0.201054
5.91678,-0.025265,0.128012,0.404649,-1.02572,1.18774,1.3091,0.398087,-0.199581
5.92885,-0.0251599,0.128151,0.404083,-1.02562,1.18981,1.31248,0.395138,-0.198022
5.94093,-0.0250701,0.128255,0.403568,-1.02554,1.19192,1.31565,0.392211,-0.196382
5.953,-0.0249947,0.12833,0.4031,-1.02548,1.19407,1.31861,0.389281,-0.194666
5.96508,-0.0249322,0.128383,0.402676,-1.02544,1.19627,1.32134,0.386319,-0.192879
5.97715,-0.0248811,0.128418,0.40229,-1.02542,1.1985,1.32383,0.383296,-0.191021
5.98923,-0.0248396,0.128441,0.401936,-1.0254,1.20079,1.32609,0.38018,-0.189095
6.0013,-0.0248061,0.128455,0.401608,-1.02539,1.20314,1.32812,0.376944,-0.187105
6.01338,-0.0247789,0.128462,0.401302,-1.02538,1.20554,1.32991,0.373564,-0.185057
6.02545,-0.0247567,0.128464,0.401011,-1.02537,1.20801,1.33149,0.370025,-0.182959
6.03753,-0.024738,0.128462,0.400734,-1.02537,1.21053,1.33286,0.366317,-0.180828
6.0496,-0.0247217,0.128458,0.400467,-1.02537,1.2131,1.33404,0.36244,-0.178681
6.06168,-0.0247064,0.128451,0.400209,-1.02537,1.21572,1.33502,0.358402,-0.176541
6.07375,-0.0246909,0.128444,0.399958,-1.02537,1.21836,1.33584,0.35421,-0.174431
6.08583,-0.0246736,0.128435,0.399716,-1.02537,1.22104,1.33649,0.349875,-0.172378
6.0979,-0.0246526,0.128426,0.399481,-1.02537,1.22373,1.33701,0.345405,-0.170401
6.10998,-0.024626,0.128416,0.399255,-1.02537,1.22645,1.3374,0.340805,-0.168522
6.12205,-0.0245913,0.128405,0.399037,-1.02537,1.2292,1.3377,0.336077,-0.166756
6.13413,-0.024546,0.128393,0.398828,-1.02537,1.23197,1.33791,0.33122,-0.165113
6.1462,-0.0244874,0.128381,0.398629,-1.02537,1.23478,1.33805,0.326233,-0.163602
6.15828,-0.0244129,0.128366,0.398439,-1.02537,1.23764,1.33815,0.321117,-0.162227
6.17035,-0.0243202,0.12835,0.398259,-1.02537,1.24054,1.3382,0.315874,-0.160991
6.18243,-0.0242076,0.128332,0.39809,-1.02537,1.24349,1.33823,0.310512,-0.159893
6.1945,-0.0240741,0.128313,0.397931,-1.02537,1.24649,1.33824,0.30504,-0.15893
6.20658,-0.0239193,0.128291,0.397783,-1.02537,1.24953,1.33823,0.299471,-0.158098
6.21865,-0.0237437,0.128268,0.397647,-1.02537,1.25261,1.3382,0.293817,-0.157392
6.23073,-0.0235486,0.128244,0.397522,-1.02536,1.25573,1.33816,0.288089,-0.156804
6.2428,-0.0233353,0.128219,0.39741,-1.02536,1.25889,1.33809,0.282292,-0.156322
6.25488,-0.0231057,0.128195,0.39731,-1.02536,1.26209,1.33801,0.276427,-0.155937
6.26695,-0.022861,0.12817,0.397223,-1.02536,1.26533,1.33789,0.27049,-0.155636
6.27903,-0.0226024,0.128147,0.39715,-1.02536,1.26862,1.33772,0.264472,-0.155407
6.2911,-0.0223299,0.128125,0.397089,-1.02536,1.27196,1.33751,0.258364,-0.155236
6.30318,-0.0220432,0.128105,0.39704,-1.02536,1.27536,1.33724,0.252155,-0.155112
6.31525,-0.021741,0.128086,0.397002,-1.02536,1.27882,1.3369,0.245843,-0.155025
6.32733,-0.0214211,0.128069,0.396974,-1.02537,1.28234,1.33648,0.239428,-0.154965
6.3394,-0.0210812,0.128054,0.396954,-1.02537,1.28591,1.33597,0.232917,-0.154926
6.35148,-0.0207185,0.128039,0.39694,-1.02537,1.28953,1.33536,0.226326,-0.1549
6.36355,-0.02033,0.128025,0.396931,-1.02538,1.29318,1.33464,0.219671,-0.154884
6.37563,-0.0199132,0.128011,0.396926,-1.02538,1.29686,1.3338,0.212973,-0.154873
6.3877,-0.0194658,0.127996,0.396922,-1.02538,1.30055,1.33283,0.20625,-0.154867
6.39978,-0.0189863,0.127979,0.396919,-1.02539,1.30424,1.33174,0.199517,-0.154863
6.41185,-0.0184743,0.12796,0.396917,-1.02539,1.30792,1.33052,0.192788,-0.154859
6.42393,-0.01793,0.127937,0.396915,-1.02539,1.31158,1.32916,0.186071,-0.154857
6.436,-0.0173554,0.12791,0.396913,-1.02539,1.31522,1.32766,0.179374,-0.154855
6.44808,-0.0167532,0.127877,0.396912,-1.02539,1.31883,1.32604,0.172703,-0.154854
6.46015,-0.0161274,0.127837,0.396909,-1.02539,1.3224,1.32428,0.166067,-0.154853
6.47223,-0.0154825,0.12779,0.396907,-1.02539,1.32592,1.3224,0.159478,-0.154853
6.4843,-0.0148238,0.127734,0.396905,-1.02539,1.32938,1.32041,0.15295,-0.154854
6.49638,-0.0141563,0.127667,0.396901,-1.02539,1.33277,1.31831,0.146503,-0.154856
6.50845,-0.0134846,0.127588,0.396898,-1.02539,1.33607,1.3161,0.140155,-0.154859
6.52053,-0.0128122,0.127496,0.396894,-1.02539,1.33929,1.3138,0.133926,-0.154864
6.5326,-0.0121413,0.127387,0.396889,-1.02539,1.3424,1.31142,0.12783,-0.154871
6.54468,-0.0114721,0.127257,0.396884,-1.02539,1.34542,1.30894,0.121877,-0.154881
6.55675,-0.010803,0.127104,0.396879,-1.02539,1.34833,1.30636,0.116068,-0.154894
6.56883,-0.0101304,0.126923,0.396874,-1.0254,1.35114,1.30368,0.110398,-0.154911
6.5809,-0.00944976,0.12671,0.396869,-1.0254,1.35387,1.30088,0.104859,-0.154933
6.59298,-0.00875562,0.126461,0.396865,-1.0254,1.35652,1.29795,0.09944,-0.154961
6.60505,-0.00804303,0.126174,0.396861,-1.02541,1.35909,1.29488,0.0941373,-0.154998
6.61713,-0.00730817,0.125847,0.396859,-1.02541,1.3616,1.29166,0.0889566,-0.155047
6.6292,-0.00654914,0.12548,0.396857,-1.02541,1.36405,1.2883,0.0839171,-0.155109
6.64128,-0.00576635,0.125075,0.396856,-1.02542,1.36641,1.28481,0.0790525,-0.155191
6.65335,-0.00496254,0.124633,0.396857,-1.02542,1.36869,1.28122,0.0744089,-0.155297
6.66543,-0.00414241,0.124159,0.396858,-1.02542,1.37085,1.27755,0.07004,-0.155433
6.6775,-0.00331206,0.123658,0.396859,-1.02542,1.37289,1.27385,0.0660003,-0.155609
6.68958,-0.0024782,0.123131,0.396862,-1.02542,1.37477,1.27016,0.0623378,-0.155833
6.70165,-0.00164751,0.122585,0.396866,-1.02542,1.37649,1.26651,0.0590882,-0.156114
6.71373,-0.000826053,0.12202,0.396871,-1.02542,1.37804,1.26295,0.0562706,-0.156463
6.7258,-1.90111e-05,0.12144,0.396876,-1.02541,1.3794,1.2595,0.0538862,-0.156889
6.73788,0.000769436,0.120847,0.396883,-1.02541,1.38059,1.2562,0.0519191,-0.1574
6.74995,0.00153602,0.120242,0.39689,-1.02541,1.3816,1.25307,0.0503397,-0.158003
6.76203,0.00227821,0.119628,0.396898,-1.02541,1.38245,1.25013,0.0491083,-0.158703
6.7741,0.00299403,0.119007,0.396906,-1.02541,1.38316,1.24741,0.0481807,-0.159501
6.78618,0.00368185,0.118381,0.396914,-1.0254,1.38373,1.24492,0.0475118,-0.160398
6.79825,0.00434036,0.117754,0.396923,-1.0254,1.38419,1.24266,0.0470596,-0.16139
6.81033,0.00496851,0.11713,0.396931,-1.0254,1.38454,1.24066,0.0467878,-0.162473
6.8224,0.00556558,0.116511,0.396941,-1.02539,1.38482,1.2389,0.0466679,-0.16364
6.83448,0.00613127,0.115901,0.396951,-1.02539,1.38502,1.2374,0.0466792,-0.164886
6.84655,0.00666582,0.115302,0.396962,-1.02539,1.38517,1.23614,0.0468095,-0.166203
6.85863,0.00717009,0.114715,0.396976,-1.02539,1.38527,1.2351,0.0470532,-0.167587
6.87071,0.00764551,0.11414,0.396992,-1.02538,1.38534,1.23428,0.0474107,-0.169031
6.88278,0.00809393,0.113577,0.397013,-1.02538,1.38539,1.23365,0.0478854,-0.17053
6.89485,0.00851744,0.113023,0.39704,-1.02538,1.38542,1.2332,0.0484822,-0.172076
6.90693,0.00891797,0.112476,0.397074,-1.02538,1.38543,1.23291,0.0492053,-0.17366
6.919,0.00929706,0.111935,0.397118,-1.02538,1.38544,1.23276,0.0500558,-0.175267
6.93108,0.00965554,0.111398,0.397174,-1.02537,1.38544,1.23272,0.0510311,-0.176878
6.94316,0.00999343,0.110865,0.397246,-1.02537,1.38543,1.2328,0.0521242,-0.178471
6.95523,0.01031,0.110336,0.397335,-1.02537,1.38541,1.23297,0.0533235,-0.180018
6.96731,0.0106038,0.109812,0.397445,-1.02537,1.38538,1.23324,0.0546142,-0.181492
6.97938,0.0108735,0.109296,0.397578,-1.02537,1.38535,1.2336,0.0559787,-0.182868
6.99146,0.0111174,0.10879,0.397738,-1.02537,1.3853,1.23404,0.0573986,-0.184123
7.00353,0.0113344,0.108296,0.397925,-1.02537,1.38524,1.23458,0.0588553,-0.185242
7.0156,0.0115241,0.107817,0.398142,-1.02537,1.38515,1.2352,0.0603308,-0.186215
7.02768,0.0116868,0.107352,0.39839,-1.02537,1.38505,1.23591,0.0618085,-0.187041
7.03976,0.0118234,0.106905,0.398668,-1.02537,1.38491,1.23672,0.0632733,-0.187724
7.05183,0.0119357,0.106474,0.398976,-1.02537,1.38474,1.23761,0.0647116,-0.188274
7.06391,0.0120258,0.106062,0.399312,-1.02537,1.38454,1.2386,0.0661118,-0.188705
7.07598,0.0120964,0.105668,0.399673,-1.02537,1.38429,1.23968,0.0674635,-0.189033
7.08806,0.0121502,0.105292,0.400056,-1.02538,1.38401,1.24086,0.0687586,-0.189274
7.10013,0.0121902,0.104933,0.400457,-1.02538,1.38368,1.24213,0.0699905,-0.189443
7.11221,0.0122189,0.104591,0.400873,-1.02538,1.38331,1.2435,0.0711547,-0.189557
7.12428,0.0122389,0.104264,0.401299,-1.02538,1.3829,1.24496,0.0722483,-0.189628
7.13636,0.0122525,0.103949,0.401731,-1.02538,1.38246,1.24653,0.0732704,-0.189665
7.14843,0.0122614,0.103645,0.402165,-1.02538,1.38198,1.2482,0.0742211,-0.189678
7.16051,0.0122673,0.103348,0.402597,-1.02538,1.38147,1.24998,0.0751022,-0.189672
7.17258,0.0122712,0.103056,0.403024,-1.02538,1.38093,1.25189,0.0759159,-0.189651
7.18466,0.0122741,0.102765,0.403444,-1.02538,1.38037,1.25394,0.0766647,-0.189617
7.19673,0.0122765,0.102474,0.403854,-1.02539,1.37979,1.25614,0.0773513,-0.189568
7.20881,0.0122789,0.10218,0.404249,-1.02539,1.37919,1.2585,0.0779776,-0.189502
7.22088,0.0122815,0.101883,0.404628,-1.02539,1.37859,1.26102,0.0785451,-0.189415
7.23296,0.0122844,0.101583,0.404987,-1.0254,1.37799,1.26369,0.0790543,-0.189301
7.24503,0.0122878,0.101282,0.405322,-1.0254,1.37739,1.2665,0.0795056,-0.189151
7.25711,0.0122917,0.100981,0.405628,-1.02541,1.37681,1.26944,0.0798992,-0.188956
7.26918,0.0122961,0.100685,0.405903,-1.02541,1.37625,1.27248,0.0802359,-0.188704
7.28126,0.0123009,0.100396,0.406144,-1.02542,1.37573,1.27559,0.0805175,-0.188385
7.29333,0.0123061,0.100116,0.406351,-1.02543,1.37524,1.27874,0.080747,-0.187984
7.30541,0.0123116,0.0998487,0.406522,-1.02543,1.3748,1.28191,0.0809292,-0.187489
7.31748,0.0123173,0.0995947,0.40666,-1.02544,1.3744,1.28507,0.0810694,-0.186889
7.32956,0.0123229,0.0993552,0.406769,-1.02546,1.37404,1.28819,0.0811742,-0.186173
7.34163,0.0123285,0.0991303,0.406851,-1.02547,1.37372,1.29126,0.0812503,-0.185335
7.35371,0.012334,0.0989195,0.406912,-1.02548,1.37342,1.29424,0.0813039,-0.184368
7.36578,0.0123395,0.0987221,0.406956,-1.0255,1.37316,1.29713,0.081341,-0.183272
7.37786,0.012345,0.0985367,0.406986,-1.02552,1.37291,1.29989,0.0813663,-0.182048
7.38993,0.0123509,0.0983617,0.407007,-1.02554,1.37268,1.30252,0.0813837,-0.180702
7.40201,0.0123575,0.0981948,0.407021,-1.02556,1.37246,1.30499,0.0813959,-0.179241
7.41408,0.0123653,0.0980334,0.40703,-1.02559,1.37223,1.30728,0.0814051,-0.177674
7.42616,0.012375,0.0978739,0.407036,-1.02562,1.37201,1.30939,0.0814125,-0.176012
7.43823,0.0123875,0.0977125,0.40704,-1.02566,1.37179,1.31129,0.0814191,-0.174267
7.45031,0.0124039,0.0975447,0.407042,-1.02571,1.37156,1.31299,0.0814252,-0.172449
7.46238,0.0124256,0.0973654,0.407043,-1.02576,1.37132,1.31447,0.0814312,-0.170568
7.47446,0.0124542,0.0971694,0.407043,-1.02583,1.37108,1.31576,0.081437,-0.168635
7.48653,0.012492,0.0969519,0.407044,-1.02592,1.37081,1.31684,0.0814428,-0.16666
7.49861,0.0125412,0.096708,0.407044,-1.02602,1.37053,1.31775,0.0814484,-0.164655
7.51068,0.0126044,0.0964337,0.407044,-1.02614,1.37023,1.31848,0.0814538,-0.162633
7.52276,0.0126845,0.0961257,0.407045,-1.02628,1.3699,1.31907,0.0814587,-0.160611
7.53483,0.0127841,0.0957814,0.407046,-1.02645,1.36956,1.31954,0.081463,-0.15861
7.54691,0.0129055,0.0953987,0.407048,-1.02664,1.3692,1.3199,0.0814665,-0.156649
7.55898,0.0130506,0.0949761,0.40705,-1.02687,1.36882,1.32017,0.0814693,-0.154754
7.57106,0.0132204,0.0945122,0.407053,-1.02712,1.36843,1.32036,0.081471,-0.152945
7.58313,0.013415,0.0940059,0.407056,-1.0274,1.36803,1.32051,0.0814717,-0.151244
7.59521,0.0136339,0.0934558,0.40706,-1.02771,1.36763,1.32061,0.0814714,-0.149669
7.60728,0.0138755,0.0928606,0.407065,-1.02804,1.36724,1.32068,0.0814699,-0.148231
7.61936,0.0141377,0.0922191,0.40707,-1.0284,1.36685,1.32072,0.0814675,-0.146938
7.63143,0.0144181,0.0915301,0.407078,-1.02878,1.36647,1.32075,0.0814641,-0.145795
7.64351,0.0147142,0.0907931,0.407087,-1.02917,1.36611,1.32077,0.08146,-0.144798
7.65558,0.0150237,0.0900084,0.407099,-1.02958,1.36576,1.32078,0.0814553,-0.143944
7.66766,0.0153446,0.0891772,0.407116,-1.03001,1.36544,1.32078,0.0814501,-0.143222
7.67973,0.0156754,0.0883019,0.407137,-1.03044,1.36514,1.32078,0.0814445,-0.142623
7.69181,0.0160152,0.0873859,0.407165,-1.03087,1.36486,1.32078,0.0814388,-0.142135
7.70388,0.0163634,0.0864337,0.407201,-1.0313,1.36461,1.32078,0.0814329,-0.141743
7.71596,0.0167199,0.0854503,0.407246,-1.03173,1.36439,1.32078,0.0814269,-0.141436
7.72803,0.0170852,0.0844411,0.407303,-1.03215,1.36419,1.32078,0.081421,-0.141199
7.74011,0.0174597,0.0834113,0.407373,-1.03255,1.36402,1.32078,0.0814151,-0.14102
7.75218,0.0178441,0.0823655,0.407458,-1.03293,1.36388,1.32078,0.0814091,-0.140888
7.76426,0.0182391,0.081308,0.407559,-1.03329,1.36376,1.32078,0.081403,-0.140793
7.77633,0.018645,0.0802423,0.407678,-1.03362,1.36366,1.32078,0.0813967,-0.140725
7.78841,0.0190614,0.079172,0.407815,-1.03393,1.36358,1.32078,0.0813899,-0.140679
7.80048,0.0194873,0.0781006,0.407972,-1.03421,1.36352,1.32078,0.0813822,-0.140646
7.81256,0.0199207,0.0770325,0.408146,-1.03445,1.36346,1.32077,0.0813734,-0.140624
7.82463,0.0203586,0.0759728,0.408336,-1.03466,1.36342,1.32077,0.081363,-0.140609
7.83671,0.0207975,0.0749276,0.408541,-1.03485,1.36338,1.32077,0.0813504,-0.140598
7.84878,0.0212332,0.0739036,0.408756,-1.035,1.36334,1.32077,0.0813352,-0.14059
7.86086,0.0216614,0.0729076,0.408979,-1.03512,1.3633,1.32077,0.0813171,-0.140583
7.87293,0.0220783,0.0719461,0.409205,-1.03523,1.36326,1.32077,0.0812956,-0.140578
7.88501,0.0224807,0.0710246,0.409431,-1.03531,1.36321,1.32077,0.0812706,-0.140573
7.89708,0.0228663,0.0701472,0.409651,-1.03537,1.36315,1.32077,0.0812418,-0.140569
7.90916,0.0232339,0.0693171,0.409863,-1.03541,1.36308,1.32077,0.0812095,-0.140565
7.92123,0.0235831,0.0685361,0.410063,-1.03544,1.36301,1.32077,0.0811735,-0.140562
7.93331,0.0239143,0.0678049,0.410248,-1.03547,1.36292,1.32077,0.0811338,-0.140559
7.94538,0.0242285,0.0671239,0.410418,-1.03548,1.36283,1.32077,0.0810904,-0.140556
7.95746,0.0245272,0.0664929,0.410571,-1.03549,1.36273,1.32077,0.0810426,-0.140553
7.96953,0.0248114,0.0659117,0.410707,-1.0355,1.36262,1.32077,0.0809897,-0.14055
7.98161,0.0250827,0.0653796,0.410826,-1.0355,1.36252,1.32077,0.0809303,-0.140547
7.99368,0.025342,0.0648959,0.41093,-1.03551,1.36241,1.32077,0.080862,-0.140545
8.00576,0.0255903,0.0644594,0.41102,-1.03551,1.36231,1.32077,0.080782,-0.140542
8.01783,0.0258282,0.0640684,0.411097,-1.03551,1.36222,1.32077,0.080686,-0.14054
8.02991,0.0260561,0.0637207,0.411165,-1.03551,1.36213,1.32077,0.0805687,-0.140538
8.04199,0.0262745,0.0634132,0.411223,-1.03551,1.36206,1.32077,0.0804228,-0.140535
8.05406,0.0264835,0.0631423,0.411273,-1.03551,1.36199,1.32077,0.08024,-0.140532
8.06613,0.0266832,0.0629043,0.411318,-1.03551,1.36194,1.32077,0.0800103,-0.140528
8.07821,0.0268735,0.0626949,0.411356,-1.03551,1.3619,1.32077,0.0797223,-0.140523
8.09029,0.0270543,0.0625101,0.41139,-1.03552,1.36186,1.32077,0.0793644,-0.140516
8.10236,0.0272253,0.0623463,0.41142,-1.03552,1.36184,1.32077,0.0789247,-0.140509
8.11444,0.0273862,0.0622004,0.411446,-1.03552,1.36181,1.32077,0.0783927,-0.140499
8.12651,0.027537,0.0620703,0.411469,-1.03552,1.3618,1.32077,0.0777592,-0.140488
8.13859,0.0276778,0.0619543,0.411488,-1.03552,1.36178,1.32077,0.0770177,-0.140476
8.15066,0.0278092,0.0618515,0.411506,-1.03553,1.36177,1.32077,0.0761643,-0.140462
8.16274,0.0279322,0.0617612,0.411522,-1.03553,1.36176,1.32077,0.0751978,-0.140447
8.17481,0.0280489,0.0616831,0.411536,-1.03553,1.36175,1.32077,0.0741194,-0.140431
8.18688,0.0281617,0.0616167,0.411549,-1.03553,1.36174,1.32077,0.0729316,-0.140415
8.19896,0.028274,0.0615612,0.411562,-1.03553,1.36173,1.32077,0.0716382,-0.1404
8.21104,0.0283894,0.0615156,0.411574,-1.03553,1.36173,1.32077,0.0702425,-0.140385
8.22311,0.0285117,0.0614785,0.411586,-1.03553,1.36172,1.32077,0.0687476,-0.140372
8.23519,0.0286445,0.0614485,0.411599,-1.03553,1.36172,1.32077,0.0671557,-0.140359
8.24726,0.0287909,0.0614239,0.411613,-1.03552,1.36172,1.32077,0.0654682,-0.140348
8.25934,0.028953,0.0614035,0.41163,-1.03552,1.36172,1.32077,0.0636867,-0.140338
8.27141,0.0291317,0.0613859,0.411649,-1.03551,1.36172,1.32077,0.0618133,-0.14033
8.28349,0.0293263,0.0613704,0.411671,-1.03551,1.36172,1.32077,0.0598515,-0.140323
8.29556,0.0295352,0.0613564,0.411698,-1.0355,1.36172,1.32077,0.0578076,-0.140317
8.30764,0.029755,0.0613437,0.411729,-1.0355,1.36173,1.32077,0.0556906,-0.140312
8.31971,0.0299818,0.0613322,0.411765,-1.0355,1.36173,1.32077,0.0535125,-0.140309
8.33179,0.0302107,0.061322,0.411806,-1.03549,1.36173,1.32077,0.0512876,-0.140306
8.34386,0.0304368,0.0613132,0.411853,-1.03549,1.36173,1.32077,0.0490314,-0.140305
8.35594,0.0306552,0.061306,0.411905,-1.03549,1.36174,1.32077,0.0467601,-0.140304
8.36801,0.0308618,0.0613003,0.411961,-1.03549,1.36174,1.32077,0.0444884,-0.140304
8.38009,0.0310529,0.0612962,0.412021,-1.03549,1.36174,1.32077,0.0422301,-0.140306
8.39216,0.0312261,0.0612935,0.412085,-1.03549,1.36174,1.32077,0.0399975,-0.140308
8.40424,0.0313799,0.0612921,0.412152,-1.03549,1.36174,1.32077,0.0378021,-0.14031
8.41631,0.0315137,0.0612918,0.41222,-1.03549,1.36174,1.32077,0.0356557,-0.140313
8.42839,0.0316277,0.0612925,0.412288,-1.03549,1.36175,1.32077,0.0335715,-0.140317
8.44046,0.031723,0.0612937,0.412356,-1.03549,1.36175,1.32077,0.0315649,-0.140321
8.45254,0.031801,0.0612954,0.412422,-1.03549,1.36175,1.32077,0.0296529,-0.140324
8.46461,0.0318634,0.0612974,0.412486,-1.03549,1.36175,1.32077,0.0278541,-0.140328
8.47669,0.0319122,0.0612993,0.412548,-1.03549,1.36176,1.32077,0.0261867,-0.140331
8.48876,0.0319492,0.0613012,0.412606,-1.03549,1.36176,1.32077,0.024667,-0.140334
8.50084,0.0319765,0.0613028,0.412662,-1.03549,1.36176,1.32077,0.0233076,-0.140336
8.51291,0.0319959,0.061304,0.412717,-1.03548,1.36177,1.32077,0.0221162,-0.140337
8.52499,0.0320089,0.0613049,0.412771,-1.03547,1.36177,1.32077,0.0210945,-0.140338
8.53706,0.0320171,0.0613052,0.412828,-1.03546,1.36177,1.32077,0.0202384,-0.140339
8.54914,0.0320217,0.0613051,0.41289,-1.03545,1.36178,1.32077,0.0195385,-0.140339
8.56121,0.0320237,0.0613046,0.412958,-1.03544,1.36178,1.32077,0.0189811,-0.140339
8.57329,0.0320239,0.0613035,0.413034,-1.03543,1.36178,1.32077,0.0185495,-0.14034
8.58536,0.032023,0.0613021,0.413122,-1.03542,1.36178,1.32077,0.0182255,-0.14034
8.59744,0.0320214,0.0613003,0.413223,-1.03541,1.36179,1.32076,0.0179906,-0.140341
8.60951,0.0320194,0.0612981,0.413339,-1.03539,1.36179,1.32076,0.0178275,-0.140341
8.62159,0.0320173,0.0612956,0.41347,-1.03537,1.36179,1.32076,0.0177202,-0.140343
8.63366,0.0320151,0.0612928,0.413618,-1.03536,1.36179,1.32076,0.0176554,-0.140344
8.64574,0.032013,0.0612898,0.413783,-1.03534,1.36179,1.32076,0.017622,-0.140346
8.65781,0.032011,0.0612865,0.413966,-1.03531,1.3618,1.32075,0.0176115,-0.140348
8.66989,0.032009,0.061283,0.414169,-1.03529,1.3618,1.32075,0.0176172,-0.14035
8.68196,0.0320072,0.0612793,0.414392,-1.03526,1.3618,1.32075,0.0176346,-0.140352
8.69404,0.0320055,0.0612755,0.414637,-1.03523,1.3618,1.32075,0.0176604,-0.140355
8.70611,0.0320039,0.0612714,0.414904,-1.0352,1.3618,1.32075,0.0176922,-0.140357
8.71819,0.0320026,0.0612672,0.415195,-1.03516,1.3618,1.32074,0.0177288,-0.140359
8.73026,0.0320015,0.0612627,0.415509,-1.03511,1.3618,1.32074,0.0177691,-0.140361
8.74234,0.0320008,0.061258,0.415845,-1.03507,1.3618,1.32074,0.0178126,-0.140363
8.75441,0.0320006,0.0612531,0.416203,-1.03502,1.3618,1.32074,0.0178592,-0.140364
8.76649,0.0320008,0.061248,0.416578,-1.03497,1.3618,1.32073,0.0179092,-0.140366
8.77856,0.0320015,0.0612428,0.416968,-1.03491,1.3618,1.32073,0.0179633,-0.140367
8.79064,0.0320027,0.0612377,0.41737,-1.03486,1.3618,1.32073,0.0180233,-0.140368
8.80271,0.0320044,0.0612327,0.417779,-1.0348,1.36179,1.32072,0.0180917,-0.140369
8.81479,0.0320065,0.0612281,0.418191,-1.03475,1.36179,1.32072,0.0181722,-0.14037
8.82686,0.032009,0.0612241,0.418604,-1.03469,1.36179,1.32071,0.0182698,-0.140371
8.83894,0.0320117,0.0612209,0.419013,-1.03464,1.36179,1.3207,0.0183907,-0.140372
8.85101,0.0320147,0.0612185,0.419417,-1.0346,1.36179,1.32069,0.0185424,-0.140373
8.86309,0.0320177,0.0612172,0.419812,-1.03456,1.36178,1.32068,0.0187329,-0.140374
8.87516,0.0320206,0.0612168,0.420198,-1.03452,1.36178,1.32067,0.018971,-0.140376
8.88724,0.0320236,0.0612174,0.420573,-1.03448,1.36178,1.32065,0.0192652,-0.140377
8.89931,0.0320263,0.0612189,0.420935,-1.03445,1.36178,1.32064,0.0196234,-0.140378
8.91139,0.0320289,0.061221,0.421283,-1.03443,1.36177,1.32062,0.0200525,-0.140378
8.92346,0.0320314,0.0612237,0.421616,-1.03441,1.36177,1.3206,0.0205584,-0.140379
8.93554,0.0320336,0.0612266,0.421933,-1.03439,1.36177,1.32058,0.0211459,-0.140379
8.94761,0.0320356,0.0612297,0.422231,-1.03437,1.36176,1.32055,0.0218188,-0.140378
8.95969,0.0320375,0.0612327,0.422511,-1.03436,1.36176,1.32052,0.0225805,-0.140377
8.97176,0.0320392,0.0612357,0.42277,-1.03434,1.36176,1.32049,0.0234334,-0.140376
8.98384,0.0320407,0.0612386,0.423009,-1.03433,1.36175,1.32046,0.0243797,-0.140375
8.99591,0.0320421,0.0612413,0.423227,-1.03432,1.36174,1.32041,0.0254199,-0.140374
9.00799,0.0320434,0.0612442,0.423424,-1.0343,1.36173,1.32034,0.0265532,-0.140373
9.02006,0.0320446,0.061247,0.4236,-1.03429,1.36172,1.32026,0.0277757,-0.140372
9.03214,0.0320457,0.0612502,0.423756,-1.03427,1.3617,1.32014,0.0290809,-0.140371
9.04421,0.0320468,0.0612536,0.423891,-1.03425,1.36168,1.31998,0.0304588,-0.14037
9.05629,0.032048,0.0612574,0.424007,-1.03423,1.36165,1.31978,0.0318966,-0.140369
9.06836,0.0320492,0.0612614,0.424104,-1.0342,1.3616,1.3195,0.033379,-0.140368
9.08044,0.0320506,0.0612657,0.424184,-1.03416,1.36154,1.31915,0.0348896,-0.140367
9.09251,0.0320521,0.0612702,0.424249,-1.03412,1.36145,1.31871,0.0364114,-0.140366
9.10459,0.0320538,0.0612745,0.4243,-1.03407,1.36134,1.31817,0.0379279,-0.140364
9.11666,0.0320556,0.0612786,0.424339,-1.03402,1.3612,1.31752,0.0394236,-0.140363
9.12874,0.0320577,0.0612823,0.424369,-1.03395,1.36102,1.31675,0.0408842,-0.140362
9.14081,0.0320599,0.0612855,0.424391,-1.03387,1.36079,1.31586,0.0422971,-0.140361
9.15289,0.0320623,0.061288,0.424408,-1.03378,1.36052,1.31484,0.0436511,-0.14036
9.16496,0.0320647,0.0612897,0.42442,-1.03368,1.3602,1.31371,0.0449365,-0.14036
9.17704,0.032067,0.0612907,0.42443,-1.03356,1.35981,1.31246,0.0461457,-0.14036
9.18911,0.0320692,0.061291,0.424437,-1.03343,1.35938,1.31111,0.0472727,-0.140361
9.20119,0.032071,0.0612907,0.424442,-1.03328,1.35888,1.30967,0.0483136,-0.140362
9.21327,0.0320723,0.0612897,0.424445,-1.03312,1.35834,1.30814,0.0492668,-0.140363
9.22534,0.0320729,0.061288,0.424448,-1.03295,1.35774,1.30654,0.0501328,-0.140365
9.23741,0.0320728,0.0612857,0.424449,-1.03277,1.3571,1.30488,0.0509141,-0.140367
9.24949,0.0320718,0.0612825,0.424451,-1.03258,1.35642,1.30318,0.051615,-0.140369
9.26157,0.0320699,0.0612785,0.424452,-1.03238,1.3557,1.30143,0.0522416,-0.140371
9.27364,0.032067,0.0612735,0.424454,-1.03218,1.35495,1.29966,0.0528007,-0.140373
9.28572,0.0320634,0.0612675,0.424458,-1.03198,1.35417,1.29785,0.0533001,-0.140375
9.29779,0.032059,0.0612605,0.424464,-1.03179,1.35336,1.29603,0.0537476,-0.140376
9.30986,0.0320541,0.0612526,0.424472,-1.03159,1.35253,1.2942,0.0541509,-0.140377
9.32194,0.0320489,0.0612442,0.424481,-1.03141,1.35168,1.29237,0.0545169,-0.140377
9.33402,0.0320435,0.0612357,0.424492,-1.03124,1.35082,1.29057,0.0548518,-0.140377
9.34609,0.0320383,0.0612274,0.424504,-1.03107,1.34996,1.28881,0.0551601,-0.140376
9.35816,0.0320335,0.0612201,0.424516,-1.03092,1.3491,1.28712,0.0554455,-0.140374
9.37024,0.0320293,0.0612142,0.424527,-1.03078,1.34826,1.28552,0.05571,-0.140371
9.38232,0.0320261,0.0612103,0.424538,-1.03065,1.34745,1.28404,0.0559547,-0.140368
9.39439,0.0320239,0.0612087,0.424546,-1.03054,1.34668,1.28268,0.0561795,-0.140364
9.40647,0.0320232,0.0612097,0.424554,-1.03044,1.34595,1.28147,0.0563839,-0.14036
9.41854,0.0320239,0.0612133,0.424561,-1.03035,1.34528,1.28041,0.0565671,-0.140354
9.43062,0.0320263,0.0612194,0.424567,-1.03027,1.34467,1.2795,0.0567284,-0.140349
9.44269,0.0320305,0.0612277,0.424574,-1.03019,1.34411,1.27873,0.0568673,-0.140342
9.45477,0.0320366,0.0612379,0.424582,-1.03012,1.34362,1.27811,0.0569843,-0.140335
9.46684,0.0320446,0.0612493,0.424592,-1.03005,1.3432,1.2776,0.0570801,-0.140326
9.47892,0.0320549,0.0612614,0.424606,-1.02999,1.34283,1.2772,0.0571564,-0.140317
9.49099,0.0320676,0.0612737,0.424623,-1.02993,1.34252,1.2769,0.0572152,-0.140306
9.50307,0.0320833,0.0612856,0.424646,-1.02987,1.34227,1.27667,0.0572589,-0.140293
9.51514,0.0321029,0.0612967,0.424673,-1.02981,1.34206,1.27651,0.05729,-0.140278
9.52722,0.0321276,0.0613066,0.424705,-1.02975,1.34189,1.27639,0.057311,-0.14026
9.53929,0.0321591,0.061315,0.424744,-1.0297,1.34177,1.27631,0.0573239,-0.140238
9.55137,0.0321998,0.0613217,0.424789,-1.02964,1.34167,1.27625,0.0573304,-0.140213
9.56344,0.0322523,0.0613264,0.424842,-1.02959,1.3416,1.27622,0.0573321,-0.140182
9.57552,0.0323201,0.0613292,0.424902,-1.02954,1.34155,1.27619,0.0573298,-0.140144
9.58759,0.0324065,0.0613299,0.424973,-1.02948,1.34152,1.27618,0.0573244,-0.140097
9.59967,0.0325148,0.0613286,0.425053,-1.02943,1.34149,1.27618,0.0573164,-0.140038
9.61174,0.0326482,0.0613253,0.425146,-1.02936,1.34148,1.27618,0.0573061,-0.139964
9.62382,0.0328087,0.0613204,0.425252,-1.02929,1.34147,1.27618,0.0572938,-0.139872
9.63589,0.0329974,0.061314,0.425373,-1.02921,1.34146,1.27619,0.0572794,-0.139756
9.64797,0.033214,0.0613065,0.425507,-1.02911,1.34146,1.27621,0.057263,-0.139612
9.66004,0.0334569,0.0612984,0.425656,-1.02899,1.34145,1.27623,0.0572447,-0.139437
9.67212,0.0337233,0.06129,0.425819,-1.02885,1.34145,1.27626,0.0572243,-0.139224
9.68419,0.0340096,0.0612817,0.425993,-1.02869,1.34145,1.2763,0.0572019,-0.138971
9.69627,0.0343114,0.0612739,0.426177,-1.02851,1.34145,1.27636,0.0571774,-0.138675
9.70834,0.0346244,0.0612669,0.426369,-1.0283,1.34145,1.27643,0.0571509,-0.138331
9.72042,0.0349444,0.0612609,0.426565,-1.02807,1.34144,1.27652,0.0571225,-0.13794
9.73249,0.0352675,0.061256,0.426762,-1.02783,1.34144,1.27663,0.0570925,-0.137501
9.74457,0.0355906,0.0612522,0.426959,-1.02756,1.34144,1.27678,0.0570613,-0.137015
9.75664,0.035911,0.0612494,0.427152,-1.02728,1.34144,1.27696,0.0570292,-0.136486
9.76872,0.036227,0.0612477,0.427338,-1.02699,1.34144,1.27719,0.0569968,-0.135918
9.78079,0.0365373,0.0612468,0.427516,-1.02668,1.34144,1.27746,0.0569643,-0.135315
9.79287,0.0368413,0.0612466,0.427683,-1.02637,1.34145,1.27779,0.0569321,-0.134684
9.80494,0.0371393,0.061247,0.427839,-1.02604,1.34145,1.27819,0.0569005,-0.134031
9.81702,0.0374323,0.0612479,0.427983,-1.0257,1.34146,1.27864,0.0568693,-0.133361
9.82909,0.0377221,0.061249,0.428113,-1.02535,1.34147,1.27917,0.0568384,-0.132681
9.84117,0.0380113,0.0612502,0.428231,-1.02499,1.34148,1.27978,0.0568076,-0.131996
9.85324,0.0383034,0.0612514,0.428335,-1.0246,1.3415,1.28046,0.0567762,-0.13131
9.86532,0.0386027,0.0612525,0.428428,-1.02419,1.34152,1.28124,0.0567437,-0.130625
9.87739,0.0389136,0.0612532,0.42851,-1.02375,1.34155,1.2821,0.0567095,-0.129946
9.88947,0.0392411,0.0612536,0.428582,-1.02327,1.34158,1.28305,0.0566726,-0.129274
9.90154,0.0395897,0.0612535,0.428646,-1.02275,1.34162,1.28409,0.0566323,-0.128612
9.91362,0.0399632,0.0612526,0.428702,-1.02217,1.34166,1.28523,0.0565875,-0.127962
9.92569,0.0403648,0.0612509,0.428753,-1.02153,1.34172,1.28644,0.0565372,-0.12733
9.93777,0.040796,0.0612483,0.428799,-1.02083,1.34177,1.28774,0.0564801,-0.12672
9.94984,0.0412575,0.0612444,0.428842,-1.02006,1.34184,1.2891,0.0564152,-0.126137
9.96192,0.0417483,0.0612394,0.428882,-1.01923,1.34191,1.29052,0.0563414,-0.125588
9.97399,0.0422663,0.061233,0.428921,-1.01834,1.34198,1.29197,0.0562576,-0.125079
9.98607,0.0428085,0.0612253,0.428958,-1.01739,1.34206,1.29346,0.0561635,-0.124616
9.99814,0.043371,0.0612162,0.428994,-1.01639,1.34213,1.29495,0.0560592,-0.124202
10.0102,0.0439496,0.0612058,0.429029,-1.01536,1.3422,1.29644,0.0559454,-0.12384
10.0223,0.0445396,0.0611939,0.429064,-1.0143,1.34226,1.29791,0.0558237,-0.123531
10.0344,0.0451364,0.0611804,0.429097,-1.01324,1.34231,1.29936,0.0556964,-0.123273
10.0464,0.0457355,0.0611647,0.429129,-1.01218,1.34236,1.30077,0.0555666,-0.123063
10.0585,0.0463323,0.0611464,0.429159,-1.01113,1.3424,1.30213,0.0554378,-0.122897
10.0706,0.0469227,0.0611246,0.429187,-1.01012,1.34243,1.30344,0.0553135,-0.12277
10.0827,0.0475029,0.061098,0.429213,-1.00914,1.34246,1.30468,0.055197,-0.122676
10.0947,0.0480694,0.0610655,0.429237,-1.00821,1.34248,1.30585,0.0550911,-0.122608
10.1068,0.0486194,0.0610254,0.42926,-1.00733,1.34249,1.30693,0.0549978,-0.122562
10.1189,0.049151,0.0609759,0.429283,-1.0065,1.3425,1.30792,0.0549182,-0.122532
10.131,0.0496634,0.0609152,0.429307,-1.00571,1.34251,1.30881,0.0548525,-0.122514
10.143,0.0501566,0.060841,0.429332,-1.00498,1.34252,1.3096,0.0547999,-0.122506
10.1551,0.0506324,0.0607512,0.42936,-1.00428,1.34252,1.31029,0.0547592,-0.122504
10.1672,0.0510932,0.0606432,0.429392,-1.00361,1.34252,1.31088,0.0547286,-0.122507
10.1793,0.0515428,0.0605147,0.429429,-1.00297,1.34253,1.31138,0.0547064,-0.122513
10.1913,0.0519854,0.060363,0.429474,-1.00234,1.34253,1.31178,0.0546906,-0.122523
10.2034,0.0524254,0.0601857,0.429526,-1.00171,1.34253,1.3121,0.0546796,-0.122535
10.2155,0.0528668,0.0599806,0.429587,-1.00109,1.34252,1.31235,0.0546722,-0.12255
10.2276,0.0533128,0.0597459,0.429657,-1.00046,1.34252,1.31254,0.0546672,-0.122567
10.2396,0.0537657,0.05948,0.429738,-0.999815,1.34252,1.31268,0.0546637,-0.122585
10.2517,0.0542262,0.0591815,0.429828,-0.999163,1.34252,1.31278,0.0546614,-0.122606
10.2638,0.0546943,0.0588496,0.429928,-0.998502,1.34252,1.31285,0.0546597,-0.122627
10.2759,0.0551684,0.0584833,0.430037,-0.997834,1.34252,1.3129,0.0546583,-0.122649
10.2879,0.0556468,0.0580822,0.430154,-0.997164,1.34251,1.31293,0.0546572,-0.122672
10.3,0.0561267,0.0576456,0.430277,-0.996497,1.34251,1.31295,0.0546561,-0.122696
10.3121,0.0566054,0.057173,0.430406,-0.995839,1.34251,1.31296,0.054655,-0.12272
10.3242,0.0570798,0.0566645,0.430537,-0.995197,1.34251,1.31296,0.0546538,-0.122746
10.3362,0.0575472,0.0561202,0.43067,-0.994576,1.34251,1.31296,0.0546526,-0.122772
10.3483,0.0580047,0.0555411,0.430802,-0.993985,1.34251,1.31296,0.0546513,-0.122801
10.3604,0.0584498,0.054929,0.43093,-0.993428,1.34251,1.31295,0.05465,-0.122833
10.3725,0.0588804,0.0542865,0.431054,-0.992913,1.34251,1.31294,0.0546488,-0.122869
10.3845,0.0592945,0.0536169,0.431171,-0.992443,1.34251,1.31293,0.0546477,-0.12291
10.3966,0.0596909,0.052924,0.43128,-0.992024,1.34251,1.31292,0.0546467,-0.122959
10.4087,0.0600693,0.0522118,0.431379,-0.991656,1.3425,1.31289,0.0546459,-0.123017
10.4208,0.0604303,0.051484,0.431468,-0.99134,1.3425,1.31286,0.0546453,-0.123087
10.4328,0.0607753,0.0507431,0.431548,-0.991075,1.34249,1.31282,0.0546448,-0.123171
10.4449,0.0611074,0.0499905,0.431617,-0.990858,1.34249,1.31277,0.0546442,-0.123272
10.457,0.0614303,0.049226,0.431678,-0.990685,1.34248,1.3127,0.0546436,-0.123394
10.4691,0.061749,0.0484477,0.431729,-0.99055,1.34248,1.3126,0.0546426,-0.12354
10.4811,0.0620686,0.047653,0.431773,-0.990447,1.34247,1.31247,0.0546411,-0.123713
10.4932,0.0623944,0.0468389,0.431812,-0.990371,1.34247,1.31231,0.0546387,-0.123915
10.5053,0.0627308,0.0460035,0.431844,-0.990316,1.34247,1.31211,0.0546349,-0.124146
10.5174,0.0630814,0.0451464,0.431872,-0.990276,1.34246,1.31186,0.0546291,-0.124406
10.5294,0.0634476,0.0442703,0.431895,-0.990248,1.34246,1.31156,0.0546204,-0.12469
10.5415,0.0638292,0.0433807,0.431916,-0.990228,1.34246,1.31121,0.0546077,-0.124995
10.5536,0.0642241,0.0424864,0.431934,-0.990212,1.34245,1.3108,0.0545891,-0.125313
10.5657,0.0646283,0.0415984,0.431949,-0.9902,1.34245,1.31033,0.0545622,-0.125636
10.5777,0.0650371,0.0407289,0.431962,-0.990189,1.34245,1.30982,0.0545237,-0.125956
10.5898,0.0654446,0.0398902,0.431973,-0.990179,1.34245,1.30927,0.0544691,-0.126263
10.6019,0.0658454,0.0390937,0.431983,-0.990169,1.34245,1.30868,0.0543928,-0.12655
10.614,0.0662342,0.0383485,0.431991,-0.99016,1.34245,1.30806,0.0542878,-0.126812
10.626,0.0666066,0.0376613,0.431999,-0.99015,1.34244,1.30744,0.0541458,-0.127046
10.6381,0.0669589,0.0370362,0.432005,-0.99014,1.34244,1.30681,0.0539576,-0.127248
10.6502,0.0672885,0.0364749,0.432011,-0.99013,1.34244,1.30619,0.0537133,-0.12742
10.6623,0.0675934,0.035977,0.432017,-0.990119,1.34244,1.30559,0.0534029,-0.127563
10.6743,0.0678722,0.0355408,0.432023,-0.99011,1.34244,1.30502,0.0530167,-0.12768
10.6864,0.0681242,0.0351632,0.432028,-0.9901,1.34243,1.30448,0.0525457,-0.127773
10.6985,0.068349,0.0348406,0.432033,-0.990092,1.34243,1.30399,0.0519821,-0.127847
10.7106,0.0685465,0.0345689,0.432039,-0.990083,1.34243,1.30355,0.0513186,-0.127904
10.7226,0.0687173,0.0343437,0.432044,-0.990076,1.34243,1.30316,0.0505476,-0.127947
10.7347,0.0688625,0.0341601,0.432048,-0.990069,1.34242,1.30282,0.049661,-0.12798
10.7468,0.0689834,0.0340134,0.432053,-0.990063,1.34242,1.30252,0.0486483,-0.128005
10.7589,0.0690823,0.0338986,0.432057,-0.990058,1.34242,1.30228,0.0474961,-0.128022
10.7709,0.0691614,0.0338109,0.43206,-0.990053,1.34242,1.30208,0.0461884,-0.128035
10.783,0.0692235,0.0337456,0.432064,-0.990049,1.34241,1.30192,0.0447068,-0.128045
10.7951,0.0692715,0.0336981,0.432067,-0.990046,1.34241,1.3018,0.043033,-0.128051
10.8072,0.069308,0.0336646,0.43207,-0.990043,1.34241,1.30171,0.0411513,-0.128056
10.8192,0.0693358,0.0336415,0.432074,-0.990041,1.34241,1.30163,0.0390516,-0.128059
10.8313,0.0693571,0.0336259,0.432077,-0.990039,1.34241,1.30158,0.0367325,-0.128062
10.8434,0.0693739,0.0336153,0.43208,-0.990038,1.34242,1.30155,0.0342027,-0.128065
10.8555,0.069388,0.0336081,0.432084,-0.990037,1.34242,1.30152,0.031482,-0.128067
10.8675,0.0694006,0.0336026,0.432088,-0.990036,1.34242,1.30151,0.0285999,-0.128071
10.8796,0.0694129,0.0335981,0.432092,-0.990036,1.34243,1.30149,0.0255934,-0.128075
10.8917,0.0694259,0.0335939,0.432097,-0.990037,1.34243,1.30149,0.0225047,-0.128081
10.9038,0.0694405,0.0335895,0.432102,-0.990039,1.34244,1.30148,0.0193774,-0.128088
10.9158,0.0694576,0.0335846,0.432108,-0.990041,1.34245,1.30148,0.016255,-0.128096
10.9279,0.0694781,0.0335789,0.432115,-0.990043,1.34246,1.30147,0.0131783,-0.128106
10.94,0.0695028,0.0335723,0.432124,-0.990045,1.34246,1.30147,0.0101855,-0.128118
10.9521,0.0695329,0.0335644,0.432133,-0.990047,1.34247,1.30147,0.00731105,-0.12813
10.9641,0.069569,0.0335547,0.432145,-0.990049,1.34248,1.30147,0.00458633,-0.128144
10.9762,0.069612,0.0335427,0.432158,-0.99005,1.34249,1.30147,0.00203919,-0.128158
10.9883,0.0696625,0.0335273,0.432174,-0.99005,1.3425,1.30147,-0.000306275,-0.128173
11.0004,0.0697209,0.0335077,0.432192,-0.99005,1.34251,1.30146,-0.00243045,-0.12819
11.0124,0.0697872,0.0334825,0.432214,-0.990048,1.34252,1.30146,-0.00431905,-0.128207
11.0245,0.0698611,0.0334501,0.43224,-0.990044,1.34254,1.30146,-0.00596408,-0.128225
11.0366,0.0699415,0.0334088,0.43227,-0.99004,1.34255,1.30146,-0.00736441,-0.128245
11.0487,0.0700272,0.0333565,0.432307,-0.990035,1.34257,1.30146,-0.00852594,-0.128266
11.0607,0.0701166,0.0332914,0.432352,-0.990028,1.34258,1.30146,-0.00946108,-0.128289
11.0728,0.0702075,0.0332113,0.432406,-0.99002,1.3426,1.30146,-0.0101878,-0.128313
11.0849,0.0702979,0.0331146,0.432472,-0.990012,1.34262,1.30146,-0.0107279,-0.128339
11.097,0.0703857,0.033,0.432552,-0.990002,1.34264,1.30146,-0.0111056,-0.128366
11.109,0.070469,0.0328666,0.432648,-0.989991,1.34266,1.30146,-0.0113454,-0.128394
11.1211,0.0705463,0.0327146,0.432764,-0.989979,1.34268,1.30146,-0.0114706,-0.128421
11.1332,0.0706163,0.0325445,0.432899,-0.989965,1.34269,1.30146,-0.0115017,-0.128447
11.1453,0.0706784,0.032358,0.433057,-0.989949,1.34271,1.30146,-0.0114558,-0.128471
11.1573,0.0707323,0.0321572,0.433237,-0.98993,1.34272,1.30146,-0.0113453,-0.128493
11.1694,0.0707783,0.0319445,0.43344,-0.989909,1.34273,1.30146,-0.0111778,-0.128513
11.1815,0.0708169,0.031723,0.433665,-0.989884,1.34274,1.30146,-0.0109561,-0.128529
11.1936,0.070849,0.0314953,0.433911,-0.989854,1.34274,1.30146,-0.0106781,-0.128543
11.2056,0.0708754,0.0312643,0.434176,-0.989819,1.34275,1.30146,-0.0103376,-0.128553
11.2177,0.0708971,0.0310325,0.434457,-0.989779,1.34274,1.30146,-0.00992507,-0.128561
11.2298,0.0709152,0.0308019,0.434752,-0.989732,1.34274,1.30146,-0.00942853,-0.128568
11.2419,0.0709305,0.0305744,0.435058,-0.989677,1.34274,1.30146,-0.00883498,-0.128572
11.2539,0.0709436,0.0303515,0.435372,-0.989614,1.34273,1.30146,-0.00813153,-0.128575
11.266,0.0709553,0.0301344,0.43569,-0.989542,1.34273,1.30146,-0.00730657,-0.128578
11.2781,0.0709658,0.0299242,0.43601,-0.989462,1.34272,1.30146,-0.00635073,-0.12858
11.2902,0.0709755,0.029722,0.436328,-0.989372,1.34271,1.30145,-0.00525749,-0.128581
11.3022,0.0709847,0.0295286,0.436642,-0.989275,1.3427,1.30145,-0.00402339,-0.128582
11.3143,0.0709933,0.0293451,0.436948,-0.989171,1.34269,1.30145,-0.00264788,-0.128583
11.3264,0.0710015,0.0291725,0.437245,-0.989061,1.34268,1.30145,-0.00113277,-0.128583
11.3385,0.0710091,0.0290118,0.437529,-0.988949,1.34266,1.30145,0.000518427,-0.128584
11.3505,0.071016,0.0288641,0.4378,-0.988835,1.34265,1.30145,0.00230116,-0.128584
11.3626,0.0710222,0.0287302,0.438055,-0.988724,1.34263,1.30145,0.00421027,-0.128584
11.3747,0.0710276,0.028611,0.438293,-0.988616,1.34261,1.30145,0.00624,-0.128584
11.3868,0.0710319,0.0285068,0.438514,-0.988513,1.34259,1.30145,0.00838354,-0.128583
11.3988,0.0710353,0.0284177,0.438716,-0.988417,1.34257,1.30145,0.0106321,-0.128582
11.4109,0.0710377,0.0283432,0.438901,-0.988328,1.34254,1.30145,0.0129739,-0.128581
11.423,0.0710392,0.0282826,0.439067,-0.988246,1.3425,1.30145,0.0153935,-0.128579
11.4351,0.0710401,0.0282346,0.439215,-0.988171,1.34246,1.30145,0.0178708,-0.128577
11.4471,0.0710405,0.0281978,0.439344,-0.988101,1.34241,1.30145,0.0203818,-0.128574
11.4592,0.0710406,0.0281705,0.439456,-0.988034,1.34236,1.30145,0.0228993,-0.128571
11.4713,0.0710408,0.0281509,0.43955,-0.987968,1.34229,1.30145,0.0253939,-0.128568
11.4834,0.071041,0.0281375,0.439628,-0.987901,1.34222,1.30145,0.0278361,-0.128564
11.4955,0.0710416,0.0281289,0.43969,-0.98783,1.34213,1.30145,0.0301974,-0.128561
11.5075,0.0710426,0.0281237,0.439739,-0.987753,1.34203,1.30145,0.0324517,-0.128557
11.5196,0.071044,0.028121,0.439776,-0.987666,1.34191,1.30145,0.0345766,-0.128554
11.5317,0.071046,0.0281199,0.439804,-0.987567,1.34178,1.30145,0.0365531,-0.128551
11.5437,0.0710485,0.0281199,0.439824,-0.987452,1.34162,1.30145,0.0383665,-0.128548
11.5558,0.0710515,0.0281206,0.439839,-0.98732,1.34143,1.30145,0.0400064,-0.128546
11.5679,0.0710552,0.0281217,0.439849,-0.987169,1.34122,1.30145,0.0414666,-0.128545
11.58,0.0710594,0.028123,0.439857,-0.986998,1.34097,1.30145,0.0427454,-0.128544
11.592,0.0710642,0.0281244,0.439862,-0.986806,1.3407,1.30145,0.0438454,-0.128543
11.6041,0.0710696,0.0281259,0.439866,-0.986592,1.34038,1.30145,0.0447735,-0.128543
11.6162,0.0710757,0.0281274,0.439869,-0.986358,1.34004,1.30145,0.0455406,-0.128544
11.6283,0.0710825,0.0281288,0.43987,-0.986102,1.33966,1.30145,0.0461609,-0.128545
11.6404,0.0710903,0.0281302,0.439871,-0.985827,1.33926,1.30145,0.0466509,-0.128546
11.6524,0.0710993,0.0281315,0.439871,-0.98553,1.33883,1.30145,0.0470288,-0.128547
11.6645,0.0711096,0.0281326,0.43987,-0.985212,1.33838,1.30145,0.0473129,-0.128548
11.6766,0.0711217,0.0281336,0.43987,-0.984868,1.33792,1.30145,0.0475211,-0.128549
11.6887,0.0711358,0.0281345,0.43987,-0.984498,1.33745,1.30145,0.0476697,-0.12855
11.7007,0.0711521,0.0281353,0.439871,-0.984096,1.33698,1.30145,0.047773,-0.128551
11.7128,0.0711708,0.0281359,0.439873,-0.983658,1.3365,1.30145,0.047843,-0.128552
11.7249,0.071192,0.0281366,0.439877,-0.983182,1.33603,1.30145,0.0478891,-0.128553
11.737,0.0712157,0.0281373,0.439882,-0.982666,1.33558,1.30145,0.0479186,-0.128555
11.749,0.0712418,0.0281381,0.439888,-0.982107,1.33514,1.30145,0.047937,-0.128556
11.7611,0.0712703,0.0281391,0.439896,-0.981506,1.33472,1.30145,0.0479482,-0.128557
11.7732,0.0713015,0.0281402,0.439905,-0.980865,1.33434,1.30145,0.0479547,-0.128558
11.7853,0.0713356,0.0281414,0.439914,-0.980188,1.334,1.30145,0.0479583,-0.128558
11.7973,0.0713733,0.0281427,0.439924,-0.97948,1.33369,1.30145,0.0479601,-0.128558
11.8094,0.0714155,0.0281438,0.439934,-0.978746,1.33343,1.30145,0.0479609,-0.128558
11.8215,0.0714635,0.0281446,0.439944,-0.977993,1.33321,1.30145,0.0479611,-0.128557
11.8336,0.071519,0.0281447,0.439953,-0.977229,1.33303,1.30145,0.0479609,-0.128556
11.8456,0.0715834,0.0281438,0.439962,-0.976462,1.3329,1.30145,0.0479605,-0.128554
11.8577,0.0716586,0.0281419,0.43997,-0.975701,1.33279,1.30145,0.0479598,-0.128552
11.8698,0.0717456,0.0281387,0.439977,-0.974953,1.33271,1.30145,0.0479588,-0.128549
11.8819,0.0718452,0.0281341,0.439984,-0.974228,1.33266,1.30145,0.0479575,-0.128546
11.8939,0.0719573,0.0281283,0.43999,-0.973534,1.33262,1.30145,0.0479558,-0.128543
11.906,0.0720808,0.0281215,0.439995,-0.972878,1.33259,1.30145,0.0479536,-0.128539
11.9181,0.0722137,0.0281139,0.44,-0.972265,1.33258,1.30144,0.0479508,-0.128535
11.9302,0.0723526,0.0281059,0.440004,-0.9717,1.33257,1.30144,0.0479472,-0.128532
11.9422,0.0724939,0.0280978,0.440008,-0.971188,1.33256,1.30144,0.0479423,-0.128528
11.9543,0.0726332,0.0280902,0.440013,-0.970728,1.33256,1.30144,0.0479359,-0.128523
11.9664,0.0727664,0.0280832,0.440017,-0.970321,1.33255,1.30144,0.0479272,-0.128519
11.9785,0.0728895,0.0280771,0.440022,-0.969967,1.33255,1.30144,0.0479155,-0.128514
11.9905,0.0729996,0.0280721,0.440027,-0.969663,1.33255,1.30144,0.0479003,-0.128508
12.0026,0.0730949,0.028068,0.440033,-0.969406,1.33255,1.30144,0.0478808,-0.128501
12.0147,0.0731745,0.028065,0.44004,-0.969191,1.33255,1.30144,0.0478565,-0.128494
12.0268,0.0732388,0.028063,0.440049,-0.969015,1.33255,1.30144,0.0478272,-0.128485
12.0388,0.073289,0.0280619,0.44006,-0.968873,1.33255,1.30144,0.047793,-0.128476
12.0509,0.0733271,0.0280616,0.440075,-0.96876,1.33255,1.30144,0.0477543,-0.128466
12.063,0.0733551,0.028062,0.440095,-0.968672,1.33255,1.30144,0.047712,-0.128456
12.0751,0.0733753,0.028063,0.44012,-0.968605,1.33255,1.30144,0.047667,-0.128446
12.0871,0.0733897,0.0280647,0.440152,-0.968554,1.33255,1.30145,0.0476207,-0.128436
12.0992,0.0733999,0.0280669,0.440191,-0.968516,1.33255,1.30145,0.0475742,-0.128427
12.1113,0.0734073,0.0280695,0.440241,-0.968489,1.33255,1.30145,0.0475288,-0.128418
12.1234,0.0734129,0.0280724,0.4403,-0.968469,1.33255,1.30145,0.0474855,-0.128409
12.1354,0.0734173,0.0280757,0.440371,-0.968455,1.33255,1.30145,0.0474451,-0.128401
12.1475,0.0734213,0.0280791,0.440455,-0.968445,1.33255,1.30145,0.0474079,-0.128393
12.1596,0.0734249,0.0280827,0.440553,-0.968438,1.33255,1.30145,0.0473742,-0.128385
12.1717,0.0734286,0.0280864,0.440666,-0.968433,1.33255,1.30144,0.0473438,-0.128377
12.1837,0.0734325,0.0280901,0.440795,-0.968429,1.33255,1.30144,0.0473165,-0.128369
12.1958,0.0734366,0.0280937,0.44094,-0.968427,1.33255,1.30144,0.0472916,-0.128361
12.2079,0.0734409,0.0280973,0.441102,-0.968426,1.33255,1.30144,0.0472688,-0.128352
12.22,0.0734453,0.0281006,0.44128,-0.968426,1.33255,1.30144,0.0472477,-0.12834
12.232,0.0734498,0.0281036,0.441475,-0.968427,1.33255,1.30144,0.0472278,-0.128327
12.2441,0.0734541,0.0281062,0.441685,-0.968428,1.33255,1.30144,0.047209,-0.128309
12.2562,0.0734581,0.0281083,0.44191,-0.96843,1.33255,1.30144,0.0471911,-0.128285
12.2683,0.0734618,0.0281097,0.44215,-0.968431,1.33255,1.30144,0.0471743,-0.128252
12.2803,0.073465,0.0281106,0.442403,-0.968433,1.33255,1.30144,0.0471584,-0.128206
12.2924,0.0734676,0.0281108,0.442668,-0.968435,1.33255,1.30144,0.0471437,-0.128144
12.3045,0.0734698,0.0281104,0.442942,-0.968436,1.33255,1.30144,0.0471301,-0.128061
12.3166,0.0734715,0.0281096,0.443223,-0.968437,1.33255,1.30144,0.0471174,-0.127951
12.3286,0.0734729,0.0281085,0.443507,-0.968438,1.33255,1.30144,0.0471053,-0.127808
12.3407,0.0734739,0.0281071,0.443791,-0.968439,1.33256,1.30144,0.0470935,-0.127626
12.3528,0.0734747,0.0281057,0.444068,-0.968439,1.33256,1.30144,0.0470813,-0.1274
12.3649,0.0734754,0.0281044,0.444334,-0.968439,1.33256,1.30144,0.0470681,-0.127126
12.3769,0.073476,0.0281033,0.444584,-0.968439,1.33256,1.30144,0.047053,-0.126798
12.389,0.0734767,0.0281026,0.444814,-0.968439,1.33257,1.30144,0.0470351,-0.126415
12.4011,0.0734776,0.0281023,0.445019,-0.968438,1.33257,1.30144,0.0470131,-0.125976
12.4132,0.0734787,0.0281027,0.445199,-0.968437,1.33257,1.30144,0.0469856,-0.125481
12.4252,0.07348,0.0281037,0.445353,-0.968436,1.33257,1.30144,0.0469504,-0.124935
12.4373,0.0734817,0.0281053,0.445481,-0.968435,1.33257,1.30144,0.0469046,-0.124341
12.4494,0.0734837,0.0281075,0.445584,-0.968435,1.33258,1.30144,0.0468443,-0.123705
12.4615,0.073486,0.02811,0.445667,-0.968434,1.33258,1.30144,0.0467643,-0.123036
12.4735,0.0734884,0.0281128,0.445731,-0.968434,1.33258,1.30144,0.0466585,-0.122342
12.4856,0.073491,0.0281157,0.445779,-0.968434,1.33258,1.30144,0.046519,-0.121633
12.4977,0.0734935,0.0281183,0.445814,-0.968434,1.33258,1.30143,0.0463373,-0.120919
12.5098,0.0734959,0.0281206,0.44584,-0.968435,1.33258,1.30143,0.0461035,-0.120211
12.5218,0.0734982,0.0281222,0.445859,-0.968436,1.33258,1.30143,0.0458076,-0.119519
12.5339,0.0735002,0.0281232,0.445872,-0.968438,1.33258,1.30143,0.0454393,-0.118855
12.546,0.0735021,0.0281235,0.445882,-0.96844,1.33259,1.30143,0.0449891,-0.118227
12.5581,0.0735038,0.028123,0.445889,-0.968442,1.33259,1.30143,0.0444484,-0.117645
12.5701,0.0735055,0.0281219,0.445894,-0.968444,1.3326,1.30143,0.0438109,-0.117115
12.5822,0.0735071,0.0281203,0.445898,-0.968446,1.3326,1.30143,0.043073,-0.116644
12.5943,0.0735089,0.0281184,0.4459,-0.968449,1.33261,1.30143,0.0422349,-0.116233
12.6064,0.0735109,0.0281162,0.445902,-0.968451,1.33261,1.30142,0.0413013,-0.115884
12.6184,0.073513,0.0281139,0.445904,-0.968453,1.33262,1.30142,0.0402821,-0.115595
12.6305,0.0735155,0.0281116,0.445905,-0.968455,1.33262,1.30142,0.0391925,-0.115363
12.6426,0.0735182,0.0281093,0.445905,-0.968457,1.33263,1.30142,0.0380523,-0.115183
12.6547,0.0735212,0.028107,0.445905,-0.968458,1.33263,1.30142,0.036885,-0.115049
12.6667,0.0735245,0.0281048,0.445905,-0.968459,1.33264,1.30142,0.0357161,-0.114957
12.6788,0.0735279,0.0281026,0.445905,-0.968459,1.33264,1.30142,0.0345707,-0.114899
12.6909,0.0735315,0.0281005,0.445905,-0.968459,1.33264,1.30142,0.033472,-0.114871
12.703,0.0735351,0.0280983,0.445906,-0.968459,1.33264,1.30142,0.0324396,-0.114869
12.715,0.0735388,0.0280961,0.445907,-0.968459,1.33265,1.30142,0.0314877,-0.114888
12.7271,0.0735425,0.0280939,0.445908,-0.968458,1.33265,1.30142,0.0306256,-0.114926
12.7392,0.0735461,0.0280915,0.44591,-0.968457,1.33265,1.30142,0.029857,-0.11498
12.7513,0.0735495,0.0280891,0.445912,-0.968455,1.33265,1.30142,0.0291812,-0.115048
12.7633,0.0735529,0.0280865,0.445914,-0.968453,1.33265,1.30142,0.0285938,-0.115128
12.7754,0.0735561,0.0280839,0.445916,-0.968451,1.33265,1.30142,0.0280882,-0.115217
12.7875,0.0735591,0.0280813,0.445918,-0.968449,1.33266,1.30142,0.027656,-0.115314
12.7996,0.073562,0.0280788,0.44592,-0.968446,1.33266,1.30142,0.0272887,-0.115415
12.8116,0.0735647,0.0280764,0.445922,-0.968444,1.33266,1.30142,0.0269779,-0.115517
12.8237,0.0735673,0.0280743,0.445924,-0.968441,1.33266,1.30142,0.0267161,-0.115618
12.8358,0.0735697,0.0280726,0.445926,-0.968438,1.33266,1.30142,0.0264966,-0.115716
12.8479,0.0735719,0.0280713,0.445928,-0.968436,1.33266,1.30142,0.0263139,-0.115807
12.8599,0.073574,0.0280706,0.445929,-0.968434,1.33266,1.30142,0.0261634,-0.11589
12.872,0.0735759,0.0280704,0.44593,-0.968432,1.33266,1.30142,0.0260409,-0.115963
12.8841,0.0735776,0.0280706,0.445931,-0.968431,1.33266,1.30142,0.0259428,-0.116026
12.8962,0.073579,0.0280712,0.445932,-0.968429,1.33266,1.30142,0.025866,-0.116079
12.9082,0.0735802,0.028072,0.445932,-0.968428,1.33266,1.30142,0.0258071,-0.116122
