0,-0.29336,1.09402,1.05052,0.7,-0.7,0,0
0.0041841,-0.29372699999999996,1.09374,1.0513299999999999,0.7,-0.7,0,0
0.0083682,-0.292987,1.0935,1.05236,0.7,-0.7,0,0
0.0125523,-0.292282,1.09322,1.05357,0.7,-0.7,0,0
0.0167364,-0.29161200000000004,1.09288,1.05498,0.7,-0.7,0,0
0.0209205,-0.290977,1.09249,1.05659,0.7,-0.7,0,0
0.0251046,-0.290375,1.09204,1.05838,0.7,-0.7,0,0
0.0292887,-0.289802,1.09155,1.0603399999999998,0.7,-0.7,0,0
0.0334728,-0.289253,1.0910199999999999,1.0624500000000001,0.7,-0.7,0,0
0.0376569,-0.288722,1.09046,1.0646900000000001,0.7,-0.7,0,0
0.041841,-0.288203,1.08987,1.06702,0.7,-0.7,0,0
0.0460251,-0.287691,1.08927,1.06944,0.7,-0.7,0,0
0.0502092,-0.287185,1.0886500000000001,1.0719400000000001,0.7,-0.7,0,0
0.0543933,-0.28668400000000005,1.08801,1.07452,0.7,-0.7,0,0
0.0585774,-0.286191,1.08734,1.07722,0.7,-0.7,0,0
0.0627615,-0.28570999999999996,1.0866500000000001,1.08005,0.7,-0.7,0,0
0.0669456,-0.28524299999999997,1.08592,1.08304,0.7,-0.7,0,0
0.0711297,-0.284796,1.08515,1.08622,0.7,-0.7,0,0
0.0753138,-0.284368,1.08433,1.08958,0.7,-0.7,0,0
0.0794979,-0.283959,1.08347,1.0931099999999998,0.7,-0.7,0,0
0.083682,-0.283566,1.08257,1.09679,0.7,-0.7,0,0
0.0878661,-0.283182,1.08165,1.10058,0.7,-0.7,0,0
0.0920502,-0.2828,1.08071,1.1044100000000001,0.7,-0.7,0,0
0.0962343,-0.282414,1.07978,1.10825,0.7,-0.7,0,0
0.100418,-0.282019,1.07884,1.11205,0.7,-0.7,0,0
0.104603,-0.28161200000000003,1.07792,1.11581,0.7,-0.7,0,0
0.108787,-0.281194,1.077,1.11952,0.7,-0.7,0,0
0.112971,-0.280767,1.07608,1.12321,0.7,-0.7,0,0
0.117155,-0.28033600000000003,1.07515,1.12691,0.7,-0.7,0,0
0.121339,-0.27990499999999996,1.0742,1.13066,0.7,-0.7,0,0
0.125523,-0.27948,1.07322,1.13449,0.7,-0.7,0,0
0.129707,-0.279061,1.07221,1.13842,0.7,-0.7,0,0
0.133891,-0.27864999999999995,1.0711600000000001,1.14245,0.7,-0.7,0,0
0.138075,-0.27824200000000004,1.07009,1.14656,0.7,-0.7,0,0
0.142259,-0.27783199999999997,1.069,1.1507,0.7,-0.7,0,0
0.146444,-0.277413,1.0679,1.1548399999999999,0.7,-0.7,0,0
0.150628,-0.276978,1.0668,1.1589200000000002,0.7,-0.7,0,0
0.154812,-0.276522,1.06572,1.1629200000000002,0.7,-0.7,0,0
0.158996,-0.276041,1.0646600000000002,1.16682,0.7,-0.7,0,0
0.16318,-0.275534,1.0635999999999999,1.17063,0.7,-0.7,0,0
0.167364,-0.275002,1.0625499999999999,1.1743800000000002,0.7,-0.7,0,0
0.171548,-0.27444999999999997,1.06149,1.1781,0.7,-0.7,0,0
0.175732,-0.27387900000000004,1.06041,1.1818199999999999,0.7,-0.7,0,0
0.179916,-0.273295,1.0593,1.18559,0.7,-0.7,0,0
0.1841,-0.272699,1.05816,1.1894200000000001,0.7,-0.7,0,0
0.188285,-0.272092,1.05698,1.19332,0.7,-0.7,0,0
0.192469,-0.271473,1.0557699999999999,1.19726,0.7,-0.7,0,0
0.196653,-0.270838,1.05454,1.20121,0.7,-0.7,0,0
0.200837,-0.270183,1.05331,1.20513,0.7,-0.7,0,0
0.205021,-0.269505,1.05209,1.20898,0.7,-0.7,0,0
0.209205,-0.268798,1.05089,1.21273,0.7,-0.7,0,0
0.213389,-0.26805900000000005,1.0497,1.21637,0.7,-0.7,0,0
0.217573,-0.267287,1.04853,1.21991,0.7,-0.7,0,0
0.221757,-0.26648,1.04737,1.22336,0.7,-0.7,0,0
0.225941,-0.265639,1.0462,1.22677,0.7,-0.7,0,0
0.230126,-0.26476299999999997,1.04501,1.23017,0.7,-0.7,0,0
0.23431,-0.263855,1.04379,1.23359,0.7,-0.7,0,0
0.238494,-0.262914,1.04254,1.23706,0.7,-0.7,0,0
0.242678,-0.261944,1.04125,1.2405599999999999,0.7,-0.7,0,0
0.246862,-0.260943,1.03994,1.24409,0.7,-0.7,0,0
0.251046,-0.259912,1.0386199999999999,1.2476099999999999,0.7,-0.7,0,0
0.25523,-0.258849,1.03731,1.25108,0.7,-0.7,0,0
0.259414,-0.257753,1.03602,1.25449,0.7,-0.7,0,0
0.263598,-0.25662,1.03476,1.25778,0.7,-0.7,0,0
0.267782,-0.255447,1.03353,1.26097,0.7,-0.7,0,0
0.271967,-0.254228,1.0323399999999998,1.26405,0.7,-0.7,0,0
0.276151,-0.252957,1.0311700000000001,1.26704,0.7,-0.7,0,0
0.280335,-0.25163,1.03001,1.26998,0.7,-0.7,0,0
0.284519,-0.25024199999999996,1.0288599999999999,1.2729000000000001,0.7,-0.7,0,0
0.288703,-0.24879099999999998,1.02769,1.27582,0.7,-0.7,0,0
0.292887,-0.247277,1.0265199999999999,1.27875,0.7,-0.7,0,0
0.297071,-0.245702,1.02532,1.2817,0.7,-0.7,0,0
0.301255,-0.244073,1.0241300000000002,1.2846600000000001,0.7,-0.7,0,0
0.305439,-0.242395,1.02294,1.28759,0.7,-0.7,0,0
0.309623,-0.240674,1.02177,1.29047,0.7,-0.7,0,0
0.313808,-0.238914,1.02063,1.29326,0.7,-0.7,0,0
0.317992,-0.23711500000000002,1.01955,1.29594,0.7,-0.7,0,0
0.322176,-0.235274,1.01851,1.2985,0.7,-0.7,0,0
0.32636,-0.233381,1.01753,1.30094,0.7,-0.7,0,0
0.330544,-0.231426,1.01659,1.30329,0.7,-0.7,0,0
0.334728,-0.229397,1.01569,1.30556,0.7,-0.7,0,0
0.338912,-0.22728299999999999,1.01481,1.30778,0.7,-0.7,0,0
0.343096,-0.225078,1.0139500000000001,1.30997,0.7,-0.7,0,0
0.34728,-0.222782,1.01309,1.31214,0.7,-0.7,0,0
0.351464,-0.220401,1.01225,1.3143,0.7,-0.7,0,0
0.355649,-0.217949,1.01142,1.31643,0.7,-0.7,0,0
0.359833,-0.21544300000000002,1.01061,1.31852,0.7,-0.7,0,0
0.364017,-0.212901,1.00983,1.32054,0.7,-0.7,0,0
0.368201,-0.210338,1.00909,1.32248,0.7,-0.7,0,0
0.372385,-0.207761,1.0084,1.32432,0.7,-0.7,0,0
0.376569,-0.205171,1.00775,1.32605,0.7,-0.7,0,0
0.380753,-0.202559,1.00715,1.3276700000000001,0.7,-0.7,0,0
0.384937,-0.199909,1.00659,1.32919,0.7,-0.7,0,0
0.389121,-0.19720400000000002,1.00608,1.33064,0.7,-0.7,0,0
0.393305,-0.194427,1.00559,1.33201,0.7,-0.7,0,0
0.39749,-0.19156600000000001,1.00513,1.33334,0.7,-0.7,0,0
0.401674,-0.18862,1.00469,1.33462,0.7,-0.7,0,0
0.405858,-0.185596,1.00427,1.33587,0.7,-0.7,0,0
0.410042,-0.182512,1.00388,1.3370799999999998,0.7,-0.7,0,0
0.414226,-0.179393,1.0035,1.33824,0.7,-0.7,0,0
0.41841,-0.176263,1.00316,1.33934,0.7,-0.7,0,0
0.422594,-0.173147,1.00285,1.34036,0.7,-0.7,0,0
0.426778,-0.17005699999999999,1.00258,1.34131,0.7,-0.7,0,0
0.430962,-0.166997,1.00235,1.34216,0.7,-0.7,0,0
0.435146,-0.163958,1.00216,1.34293,0.7,-0.7,0,0
0.439331,-0.160923,1.00201,1.3436199999999998,0.7,-0.7,0,0
0.443515,-0.157871,1.0019,1.34423,0.7,-0.7,0,0
0.447699,-0.154781,1.00183,1.34477,0.7,-0.7,0,0
0.451883,-0.15164,1.00179,1.34526,0.7,-0.7,0,0
0.456067,-0.14844200000000002,1.00178,1.34569,0.7,-0.7,0,0
0.460251,-0.145195,1.0018,1.3460699999999999,0.7,-0.7,0,0
0.464435,-0.14191700000000002,1.00184,1.3464,0.7,-0.7,0,0
0.468619,-0.138636,1.00191,1.3466900000000002,0.7,-0.7,0,0
0.472803,-0.135378,1.002,1.3469200000000001,0.7,-0.7,0,0
0.476987,-0.132169,1.00211,1.3471099999999998,0.7,-0.7,0,0
0.481172,-0.129025,1.00225,1.34724,0.7,-0.7,0,0
0.485356,-0.125952,1.00241,1.34731,0.7,-0.7,0,0
0.48954,-0.122943,1.0026,1.3473199999999999,0.7,-0.7,0,0
0.493724,-0.119984,1.00282,1.34726,0.7,-0.7,0,0
0.497908,-0.117054,1.0030700000000001,1.34714,0.7,-0.7,0,0
0.502092,-0.11413200000000001,1.00335,1.34696,0.7,-0.7,0,0
0.506276,-0.111205,1.00366,1.34671,0.7,-0.7,0,0
0.51046,-0.108266,1.004,1.3464,0.7,-0.7,0,0
0.514644,-0.105319,1.00437,1.34604,0.7,-0.7,0,0
0.518828,-0.102378,1.00476,1.3456199999999998,0.7,-0.7,0,0
0.523013,-0.09946590000000001,1.00517,1.3451600000000001,0.7,-0.7,0,0
0.527197,-0.09660429999999999,1.0056,1.3446500000000001,0.7,-0.7,0,0
0.531381,-0.0938151,1.00603,1.34411,0.7,-0.7,0,0
0.535565,-0.0911134,1.00648,1.34351,0.7,-0.7,0,0
0.539749,-0.088505,1.00694,1.3428699999999998,0.7,-0.7,0,0
0.543933,-0.0859866,1.00741,1.3421800000000002,0.7,-0.7,0,0
0.548117,-0.0835477,1.0079,1.34142,0.7,-0.7,0,0
0.552301,-0.081173,1.0084199999999999,1.3405799999999999,0.7,-0.7,0,0
0.556485,-0.078847,1.00896,1.3396700000000001,0.7,-0.7,0,0
0.560669,-0.0765568,1.00953,1.33867,0.7,-0.7,0,0
0.564854,-0.0742951,1.01013,1.3375899999999998,0.7,-0.7,0,0
0.569038,-0.0720616,1.01075,1.33643,0.7,-0.7,0,0
0.573222,-0.0698625,1.0114,1.33521,0.7,-0.7,0,0
0.577406,-0.0677102,1.01207,1.3339400000000001,0.7,-0.7,0,0
0.58159,-0.0656167,1.01274,1.3326300000000002,0.7,-0.7,0,0
0.585774,-0.0635947,1.01342,1.3312899999999999,0.7,-0.7,0,0
0.589958,-0.0616537,1.0141,1.32992,0.7,-0.7,0,0
0.594142,-0.0597982,1.0147899999999999,1.32851,0.7,-0.7,0,0
0.598326,-0.0580273,1.01549,1.32706,0.7,-0.7,0,0
0.60251,-0.0563357,1.0162,1.32554,0.7,-0.7,0,0
0.606695,-0.0547153,1.01694,1.32395,0.7,-0.7,0,0
0.610879,-0.0531569,1.0177,1.32227,0.7,-0.7,0,0
0.615063,-0.051651499999999996,1.0185,1.32048,0.7,-0.7,0,0
0.619247,-0.0501924,1.01932,1.3186,0.7,-0.7,0,0
0.623431,-0.0487749,1.0201799999999999,1.3166300000000002,0.7,-0.7,0,0
0.627615,-0.0473973,1.0210599999999999,1.3146,0.7,-0.7,0,0
0.631799,-0.0460611,1.0219500000000001,1.31251,0.7,-0.7,0,0
0.635983,-0.0447669,1.02285,1.3104,0.7,-0.7,0,0
0.640167,-0.0435173,1.02374,1.3082799999999999,0.7,-0.7,0,0
0.644351,-0.042314500000000005,1.0246300000000002,1.30616,0.7,-0.7,0,0
0.648536,-0.041159799999999996,1.02551,1.30402,0.7,-0.7,0,0
0.65272,-0.0400534,1.0263900000000001,1.3018699999999999,0.7,-0.7,0,0
0.656904,-0.0389942,1.02728,1.29967,0.7,-0.7,0,0
0.661088,-0.0379805,1.0281900000000002,1.2974100000000002,0.7,-0.7,0,0
0.665272,-0.0370094,1.0291199999999998,1.2950599999999999,0.7,-0.7,0,0
0.669456,-0.0360779,1.0300799999999999,1.2926,0.7,-0.7,0,0
0.67364,-0.0351824,1.03107,1.29005,0.7,-0.7,0,0
0.677824,-0.0343192,1.03209,1.2874100000000002,0.7,-0.7,0,0
0.682008,-0.033484900000000005,1.03313,1.2847,0.7,-0.7,0,0
0.686192,-0.0326773,1.03418,1.2819500000000001,0.7,-0.7,0,0
0.690377,-0.0318934,1.03523,1.27918,0.7,-0.7,0,0
0.694561,-0.031132200000000002,1.03626,1.27642,0.7,-0.7,0,0
0.698745,-0.030394200000000003,1.03729,1.2736800000000001,0.7,-0.7,0,0
0.702929,-0.0296809,1.0383099999999998,1.27094,0.7,-0.7,0,0
0.707113,-0.0289949,1.03932,1.2681900000000002,0.7,-0.7,0,0
0.711297,-0.028339200000000002,1.0403499999999999,1.2654,0.7,-0.7,0,0
0.715481,-0.0277168,1.0413800000000002,1.26254,0.7,-0.7,0,0
0.719665,-0.0271297,1.04245,1.25959,0.7,-0.7,0,0
0.723849,-0.0265788,1.04354,1.25653,0.7,-0.7,0,0
0.728033,-0.0260628,1.04467,1.25335,0.7,-0.7,0,0
0.732218,-0.025578700000000003,1.04582,1.2500799999999999,0.7,-0.7,0,0
0.736402,-0.0251223,1.04699,1.24674,0.7,-0.7,0,0
0.740586,-0.0246895,1.04816,1.2433599999999998,0.7,-0.7,0,0
0.74477,-0.0242759,1.0493299999999999,1.23998,0.7,-0.7,0,0
0.748954,-0.0238796,1.05049,1.2366300000000001,0.7,-0.7,0,0
0.753138,-0.0235011,1.05162,1.2333,0.7,-0.7,0,0
0.757322,-0.0231438,1.05274,1.23001,0.7,-0.7,0,0
0.761506,-0.0228133,1.05385,1.22671,0.7,-0.7,0,0
0.76569,-0.022516400000000002,1.0549600000000001,1.2233900000000002,0.7,-0.7,0,0
0.769874,-0.0222599,1.05608,1.22,0.7,-0.7,0,0
0.774059,-0.0220488,1.05722,1.21651,0.7,-0.7,0,0
0.778243,-0.0218848,1.0583900000000002,1.21292,0.7,-0.7,0,0
0.782427,-0.0217657,1.05958,1.20922,0.7,-0.7,0,0
0.786611,-0.021685,1.0608,1.20543,0.7,-0.7,0,0
0.790795,-0.021633199999999998,1.06203,1.2015799999999999,0.7,-0.7,0,0
0.794979,-0.021599900000000002,1.06327,1.19773,0.7,-0.7,0,0
0.799163,-0.0215747,1.06449,1.1939000000000002,0.7,-0.7,0,0
0.803347,-0.0215503,1.0657,1.1901400000000002,0.7,-0.7,0,0
0.807531,-0.021523900000000002,1.06688,1.18646,0.7,-0.7,0,0
0.811715,-0.0214976,1.0680399999999999,1.1828599999999998,0.7,-0.7,0,0
0.8159,-0.0214777,1.06919,1.1793099999999999,0.7,-0.7,0,0
0.820084,-0.0214734,1.0703399999999998,1.17578,0.7,-0.7,0,0
0.824268,-0.021494199999999998,1.0715,1.17224,0.7,-0.7,0,0
0.828452,-0.0215481,1.07268,1.1686500000000002,0.7,-0.7,0,0
0.832636,-0.0216393,1.0738800000000002,1.16499,0.7,-0.7,0,0
0.83682,-0.0217669,1.07511,1.16127,0.7,-0.7,0,0
0.841004,-0.0219249,1.07636,1.1575,0.7,-0.7,0,0
0.845188,-0.0221031,1.07761,1.15372,0.7,-0.7,0,0
0.849372,-0.02229,1.07887,1.14997,0.7,-0.7,0,0
0.853556,-0.0224741,1.0800999999999998,1.14629,0.7,-0.7,0,0
0.857741,-0.0226475,1.08131,1.14272,0.7,-0.7,0,0
0.861925,-0.022807300000000003,1.08249,1.13926,0.7,-0.7,0,0
0.866109,-0.0229564,1.0836400000000002,1.13593,0.7,-0.7,0,0
0.870293,-0.023102599999999997,1.08477,1.1327,0.7,-0.7,0,0
0.874477,-0.0232569,1.08589,1.12954,0.7,-0.7,0,0
0.878661,-0.0234308,1.087,1.12642,0.7,-0.7,0,0
0.882845,-0.0236337,1.08812,1.1233,0.7,-0.7,0,0
0.887029,-0.0238706,1.08926,1.12018,0.7,-0.7,0,0
0.891213,-0.024140799999999997,1.09041,1.11704,0.7,-0.7,0,0
0.895397,-0.0244375,1.0915599999999999,1.1139000000000001,0.7,-0.7,0,0
0.899582,-0.0247492,1.09271,1.1107799999999999,0.7,-0.7,0,0
0.903766,-0.025063099999999998,1.09385,1.10771,0.7,-0.7,0,0
0.90795,-0.025366299999999998,1.09496,1.10473,0.7,-0.7,0,0
0.912134,-0.02565,1.09603,1.1018599999999998,0.7,-0.7,0,0
0.916318,-0.025910799999999998,1.0970499999999999,1.0991199999999999,0.7,-0.7,0,0
0.920502,-0.026151800000000003,1.09804,1.09649,0.7,-0.7,0,0
0.924686,-0.0263812,1.09898,1.09397,0.7,-0.7,0,0
0.92887,-0.0266108,1.09989,1.09153,0.7,-0.7,0,0
0.933054,-0.026852900000000002,1.1007799999999999,1.08915,0.7,-0.7,0,0
0.937238,-0.0271175,1.10165,1.08679,0.7,-0.7,0,0
0.941423,-0.02741,1.10252,1.0844500000000001,0.7,-0.7,0,0
0.945607,-0.0277297,1.10338,1.08212,0.7,-0.7,0,0
0.949791,-0.0280696,1.10423,1.0797999999999999,0.7,-0.7,0,0
0.953975,-0.028418,1.10506,1.07752,0.7,-0.7,0,0
0.958159,-0.0287614,1.10587,1.0752899999999999,0.7,-0.7,0,0
0.962343,-0.0290869,1.1066500000000001,1.0731300000000001,0.7,-0.7,0,0
0.966527,-0.0293853,1.10739,1.07107,0.7,-0.7,0,0
0.970711,-0.0296533,1.10808,1.0691,0.7,-0.7,0,0
0.974895,-0.0298937,1.10873,1.06722,0.7,-0.7,0,0
0.979079,-0.030115,1.1093499999999998,1.06543,0.7,-0.7,0,0
0.983264,-0.0303287,1.10992,1.0637,0.7,-0.7,0,0
0.987448,-0.030547,1.11047,1.06202,0.7,-0.7,0,0
0.991632,-0.030779900000000002,1.11099,1.0603699999999998,0.7,-0.7,0,0
0.995816,-0.031032900000000002,1.1115,1.05874,0.7,-0.7,0,0
1,-0.0313057,1.11198,1.0571199999999998,0.7,-0.7,0,0
