0,-0.29004,1.06552,1.09901,0.7,-0.7,0,0
0.00371747,-0.289939,1.06478,1.1000999999999999,0.7,-0.7,0,0
0.00743494,-0.289264,1.06393,1.1013499999999998,0.7,-0.7,0,0
0.0111524,-0.28864,1.0629000000000002,1.1027799999999999,0.7,-0.7,0,0
0.0148699,-0.28807,1.0617,1.1044100000000001,0.7,-0.7,0,0
0.0185874,-0.287553,1.0603099999999999,1.10623,0.7,-0.7,0,0
0.0223048,-0.287087,1.05873,1.1082400000000001,0.7,-0.7,0,0
0.0260223,-0.28666800000000003,1.05699,1.11043,0.7,-0.7,0,0
0.0297398,-0.28628899999999996,1.0551,1.11277,0.7,-0.7,0,0
0.0334572,-0.285941,1.0530599999999999,1.11525,0.7,-0.7,0,0
0.0371747,-0.285618,1.05092,1.11784,0.7,-0.7,0,0
0.0408922,-0.28531,1.04867,1.12052,0.7,-0.7,0,0
0.0446097,-0.28501499999999996,1.04633,1.12329,0.7,-0.7,0,0
0.0483271,-0.284731,1.0438900000000002,1.1261400000000001,0.7,-0.7,0,0
0.0520446,-0.284459,1.0413299999999999,1.12909,0.7,-0.7,0,0
0.0557621,-0.284204,1.03864,1.13215,0.7,-0.7,0,0
0.0594796,-0.283972,1.03578,1.13537,0.7,-0.7,0,0
0.063197,-0.283767,1.03274,1.13875,0.7,-0.7,0,0
0.0669145,-0.28359500000000004,1.02948,1.14232,0.7,-0.7,0,0
0.070632,-0.28345600000000004,1.02602,1.1460899999999998,0.7,-0.7,0,0
0.0743494,-0.28334899999999996,1.02236,1.15002,0.7,-0.7,0,0
0.0780669,-0.283266,1.01854,1.15411,0.7,-0.7,0,0
0.0817844,-0.28319900000000003,1.01459,1.15829,0.7,-0.7,0,0
0.0855019,-0.283136,1.01056,1.16254,0.7,-0.7,0,0
0.0892193,-0.283066,1.0065,1.16679,0.7,-0.7,0,0
0.0929368,-0.282978,1.00244,1.171,0.7,-0.7,0,0
0.0966543,-0.28286700000000004,0.998423,1.1751500000000001,0.7,-0.7,0,0
0.100372,-0.28273000000000004,0.994435,1.17924,0.7,-0.7,0,0
0.104089,-0.282568,0.990465,1.18327,0.7,-0.7,0,0
0.107807,-0.282386,0.986484,1.18727,0.7,-0.7,0,0
0.111524,-0.28219,0.9824539999999999,1.19127,0.7,-0.7,0,0
0.115242,-0.281986,0.97834,1.1953099999999999,0.7,-0.7,0,0
0.118959,-0.281779,0.974116,1.19941,0.7,-0.7,0,0
0.122677,-0.28157,0.969773,1.20359,0.7,-0.7,0,0
0.126394,-0.281358,0.9653200000000001,1.20783,0.7,-0.7,0,0
0.130112,-0.28113499999999997,0.9607870000000001,1.2121300000000002,0.7,-0.7,0,0
0.133829,-0.28089400000000003,0.956219,1.2164300000000001,0.7,-0.7,0,0
0.137546,-0.28062099999999995,0.951668,1.22071,0.7,-0.7,0,0
0.141264,-0.280305,0.9471849999999999,1.22492,0.7,-0.7,0,0
0.144981,-0.27993599999999996,0.9428110000000001,1.22902,0.7,-0.7,0,0
0.148699,-0.27950400000000003,0.938569,1.233,0.7,-0.7,0,0
0.152416,-0.279005,0.934461,1.23685,0.7,-0.7,0,0
0.156134,-0.278434,0.930474,1.2406,0.7,-0.7,0,0
0.159851,-0.277792,0.9265760000000001,1.24427,0.7,-0.7,0,0
0.163569,-0.27708,0.922731,1.24788,0.7,-0.7,0,0
0.167286,-0.27630099999999996,0.918903,1.25148,0.7,-0.7,0,0
0.171004,-0.27545800000000004,0.915067,1.2550899999999998,0.7,-0.7,0,0
0.174721,-0.27455399999999996,0.911208,1.25871,0.7,-0.7,0,0
0.178439,-0.27359100000000003,0.907334,1.2623499999999999,0.7,-0.7,0,0
0.182156,-0.27257,0.903466,1.26599,0.7,-0.7,0,0
0.185874,-0.27149,0.899639,1.2695999999999998,0.7,-0.7,0,0
0.189591,-0.27034800000000003,0.895895,1.27315,0.7,-0.7,0,0
0.193309,-0.26914,0.8922709999999999,1.2766,0.7,-0.7,0,0
0.197026,-0.26786200000000004,0.8887970000000001,1.2799500000000001,0.7,-0.7,0,0
0.200743,-0.266505,0.88549,1.28316,0.7,-0.7,0,0
0.204461,-0.265063,0.88235,1.28626,0.7,-0.7,0,0
0.208178,-0.26352600000000004,0.879363,1.28924,0.7,-0.7,0,0
0.211896,-0.261887,0.876505,1.29214,0.7,-0.7,0,0
0.215613,-0.260139,0.873745,1.29498,0.7,-0.7,0,0
0.219331,-0.258279,0.871056,1.29779,0.7,-0.7,0,0
0.223048,-0.256309,0.868417,1.3005799999999998,0.7,-0.7,0,0
0.226766,-0.254234,0.865816,1.3033599999999999,0.7,-0.7,0,0
0.230483,-0.252064,0.863255,1.30613,0.7,-0.7,0,0
0.234201,-0.24981299999999998,0.8607440000000001,1.30887,0.7,-0.7,0,0
0.237918,-0.247494,0.858307,1.3115599999999998,0.7,-0.7,0,0
0.241636,-0.24512299999999998,0.8559640000000001,1.3141800000000001,0.7,-0.7,0,0
0.245353,-0.24271,0.8537380000000001,1.3167,0.7,-0.7,0,0
0.249071,-0.24025899999999997,0.8516459999999999,1.31911,0.7,-0.7,0,0
0.252788,-0.237769,0.849694,1.3214000000000001,0.7,-0.7,0,0
0.256506,-0.235231,0.8478819999999999,1.32357,0.7,-0.7,0,0
0.260223,-0.232631,0.8462000000000001,1.3256400000000002,0.7,-0.7,0,0
0.263941,-0.22995500000000002,0.84463,1.32761,0.7,-0.7,0,0
0.267658,-0.227189,0.8431559999999999,1.3295,0.7,-0.7,0,0
0.271375,-0.224322,0.841759,1.33134,0.7,-0.7,0,0
0.275093,-0.221351,0.840426,1.33314,0.7,-0.7,0,0
0.27881,-0.21828299999999998,0.83915,1.3348900000000001,0.7,-0.7,0,0
0.282528,-0.21513300000000002,0.8379289999999999,1.3366099999999999,0.7,-0.7,0,0
0.286245,-0.21192,0.8367680000000001,1.33828,0.7,-0.7,0,0
0.289963,-0.20867,0.835677,1.33989,0.7,-0.7,0,0
0.29368,-0.205404,0.834667,1.34142,0.7,-0.7,0,0
0.297398,-0.202142,0.833746,1.3428699999999998,0.7,-0.7,0,0
0.301115,-0.19889099999999998,0.8329249999999999,1.34422,0.7,-0.7,0,0
0.304833,-0.195652,0.832206,1.34547,0.7,-0.7,0,0
0.30855,-0.19241399999999997,0.831591,1.34662,0.7,-0.7,0,0
0.312268,-0.189159,0.831074,1.34768,0.7,-0.7,0,0
0.315985,-0.185866,0.83065,1.3486500000000001,0.7,-0.7,0,0
0.319703,-0.18251699999999998,0.830312,1.34955,0.7,-0.7,0,0
0.32342,-0.179098,0.83005,1.3503800000000001,0.7,-0.7,0,0
0.327138,-0.175604,0.829857,1.35115,0.7,-0.7,0,0
0.330855,-0.172041,0.829727,1.3518599999999998,0.7,-0.7,0,0
0.334572,-0.168429,0.829656,1.35253,0.7,-0.7,0,0
0.33829,-0.16479,0.829641,1.35315,0.7,-0.7,0,0
0.342007,-0.161155,0.8296849999999999,1.35371,0.7,-0.7,0,0
0.345725,-0.157548,0.829785,1.35422,0.7,-0.7,0,0
0.349442,-0.153992,0.829944,1.35467,0.7,-0.7,0,0
0.35316,-0.15049600000000002,0.830167,1.35507,0.7,-0.7,0,0
0.356877,-0.14706,0.830455,1.35539,0.7,-0.7,0,0
0.360595,-0.143673,0.830812,1.35566,0.7,-0.7,0,0
0.364312,-0.140315,0.8312430000000001,1.3558599999999998,0.7,-0.7,0,0
0.36803,-0.136967,0.8317469999999999,1.356,0.7,-0.7,0,0
0.371747,-0.133607,0.832326,1.3560699999999999,0.7,-0.7,0,0
0.375465,-0.130223,0.832979,1.35609,0.7,-0.7,0,0
0.379182,-0.12681,0.833701,1.35605,0.7,-0.7,0,0
0.3829,-0.123375,0.834488,1.35595,0.7,-0.7,0,0
0.386617,-0.119934,0.83533,1.35581,0.7,-0.7,0,0
0.390335,-0.116512,0.836221,1.3556300000000001,0.7,-0.7,0,0
0.394052,-0.113135,0.837154,1.3554000000000002,0.7,-0.7,0,0
0.39777,-0.109827,0.838121,1.3551300000000002,0.7,-0.7,0,0
0.401487,-0.106607,0.8391219999999999,1.35482,0.7,-0.7,0,0
0.405204,-0.103485,0.840158,1.35446,0.7,-0.7,0,0
0.408922,-0.10046,0.841234,1.35405,0.7,-0.7,0,0
0.412639,-0.0975241,0.8423590000000001,1.3535899999999998,0.7,-0.7,0,0
0.416357,-0.0946617,0.843542,1.35306,0.7,-0.7,0,0
0.420074,-0.091855,0.844792,1.35246,0.7,-0.7,0,0
0.423792,-0.0890873,0.846116,1.35178,0.7,-0.7,0,0
0.427509,-0.0863463,0.8475170000000001,1.3510199999999999,0.7,-0.7,0,0
0.431227,-0.0836264,0.848994,1.35019,0.7,-0.7,0,0
0.434944,-0.0809294,0.8505389999999999,1.3492899999999999,0.7,-0.7,0,0
0.438662,-0.0782641,0.8521409999999999,1.34833,0.7,-0.7,0,0
0.442379,-0.0756452,0.8537899999999999,1.34731,0.7,-0.7,0,0
0.446097,-0.07308629999999999,0.855471,1.34625,0.7,-0.7,0,0
0.449814,-0.07060179999999999,0.857177,1.34514,0.7,-0.7,0,0
0.453532,-0.0682019,0.858906,1.344,0.7,-0.7,0,0
0.457249,-0.0658914,0.86066,1.3428,0.7,-0.7,0,0
0.460967,-0.0636689,0.8624489999999999,1.34155,0.7,-0.7,0,0
0.464684,-0.061528,0.86429,1.34022,0.7,-0.7,0,0
0.468401,-0.059459000000000005,0.866197,1.3388,0.7,-0.7,0,0
0.472119,-0.057450600000000004,0.868186,1.3372899999999999,0.7,-0.7,0,0
0.475836,-0.0554928,0.870268,1.33565,0.7,-0.7,0,0
0.479554,-0.0535777,0.872446,1.3339100000000002,0.7,-0.7,0,0
0.483271,-0.0517016,0.874717,1.33206,0.7,-0.7,0,0
0.486989,-0.0498647,0.877066,1.33011,0.7,-0.7,0,0
0.490706,-0.0480711,0.879476,1.32808,0.7,-0.7,0,0
0.494424,-0.0463287,0.881925,1.32599,0.7,-0.7,0,0
0.498141,-0.0446443,0.8843920000000001,1.3238699999999999,0.7,-0.7,0,0
0.501859,-0.0430255,0.886865,1.32172,0.7,-0.7,0,0
0.505576,-0.041478900000000006,0.889337,1.31955,0.7,-0.7,0,0
0.509294,-0.0400082,0.891813,1.31734,0.7,-0.7,0,0
0.513011,-0.0386149,0.894307,1.3150899999999999,0.7,-0.7,0,0
0.516729,-0.0372978,0.8968379999999999,1.31278,0.7,-0.7,0,0
0.520446,-0.0360542,0.89943,1.3103699999999998,0.7,-0.7,0,0
0.524164,-0.0348798,0.902102,1.30785,0.7,-0.7,0,0
0.527881,-0.0337695,0.904869,1.3052000000000001,0.7,-0.7,0,0
0.531599,-0.0327181,0.907734,1.30243,0.7,-0.7,0,0
0.535316,-0.0317203,0.91069,1.29954,0.7,-0.7,0,0
0.539033,-0.0307714,0.9137179999999999,1.2965499999999999,0.7,-0.7,0,0
0.542751,-0.0298672,0.916794,1.2935,0.7,-0.7,0,0
0.546468,-0.029006,0.919891,1.2904200000000001,0.7,-0.7,0,0
0.550186,-0.028185199999999997,0.922983,1.28732,0.7,-0.7,0,0
0.553903,-0.0274045,0.926053,1.28425,0.7,-0.7,0,0
0.557621,-0.0266655,0.929096,1.28119,0.7,-0.7,0,0
0.561338,-0.0259707,0.932121,1.27814,0.7,-0.7,0,0
0.565056,-0.0253234,0.9351430000000001,1.2750899999999998,0.7,-0.7,0,0
0.568773,-0.0247273,0.9381900000000001,1.272,0.7,-0.7,0,0
0.572491,-0.024185099999999998,0.941287,1.26884,0.7,-0.7,0,0
0.576208,-0.0236985,0.9444589999999999,1.26559,0.7,-0.7,0,0
0.579926,-0.0232667,0.94772,1.26223,0.7,-0.7,0,0
0.583643,-0.022886399999999998,0.951074,1.25877,0.7,-0.7,0,0
0.587361,-0.022551500000000002,0.954508,1.25521,0.7,-0.7,0,0
0.591078,-0.0222535,0.958001,1.25158,0.7,-0.7,0,0
0.594796,-0.021983799999999998,0.9615220000000001,1.2479200000000001,0.7,-0.7,0,0
0.598513,-0.021732500000000002,0.96504,1.24427,0.7,-0.7,0,0
0.60223,-0.021492,0.968529,1.24066,0.7,-0.7,0,0
0.605948,-0.0212576,0.971971,1.23712,0.7,-0.7,0,0
0.609665,-0.021028400000000003,0.975362,1.2336500000000001,0.7,-0.7,0,0
0.613383,-0.020806599999999998,0.978712,1.23023,0.7,-0.7,0,0
0.6171,-0.0205976,0.982045,1.2268599999999998,0.7,-0.7,0,0
0.620818,-0.020408100000000002,0.9853869999999999,1.22349,0.7,-0.7,0,0
0.624535,-0.0202453,0.988768,1.2201,0.7,-0.7,0,0
0.628253,-0.0201144,0.9922110000000001,1.21666,0.7,-0.7,0,0
0.63197,-0.0200184,0.99573,1.2131500000000002,0.7,-0.7,0,0
0.635688,-0.019955999999999998,0.999324,1.2095799999999999,0.7,-0.7,0,0
0.639405,-0.019922699999999998,1.00298,1.2059600000000001,0.7,-0.7,0,0
0.643123,-0.019910399999999998,1.0066599999999999,1.20233,0.7,-0.7,0,0
0.64684,-0.019910499999999998,1.01034,1.19872,0.7,-0.7,0,0
0.650558,-0.0199135,1.01398,1.19517,0.7,-0.7,0,0
0.654275,-0.0199124,1.01755,1.1917200000000001,0.7,-0.7,0,0
0.657993,-0.0199035,1.02104,1.1884000000000001,0.7,-0.7,0,0
0.66171,-0.0198876,1.02444,1.1852,0.7,-0.7,0,0
0.665428,-0.0198694,1.02775,1.1821300000000001,0.7,-0.7,0,0
0.669145,-0.0198567,1.03101,1.1791500000000001,0.7,-0.7,0,0
0.672862,-0.0198588,1.03424,1.17625,0.7,-0.7,0,0
0.67658,-0.0198845,1.0374700000000001,1.1733900000000002,0.7,-0.7,0,0
0.680297,-0.0199405,1.04071,1.17055,0.7,-0.7,0,0
0.684015,-0.020029599999999998,1.04398,1.16773,0.7,-0.7,0,0
0.687732,-0.020150099999999997,1.04729,1.1649,0.7,-0.7,0,0
0.69145,-0.0202958,1.0506099999999998,1.1621,0.7,-0.7,0,0
0.695167,-0.020457,1.0539100000000001,1.15933,0.7,-0.7,0,0
0.698885,-0.0206235,1.05718,1.15663,0.7,-0.7,0,0
0.702602,-0.0207847,1.0603699999999998,1.15402,0.7,-0.7,0,0
0.70632,-0.0209331,1.0634700000000001,1.1515199999999999,0.7,-0.7,0,0
0.710037,-0.0210655,1.06646,1.1491600000000002,0.7,-0.7,0,0
0.713755,-0.021183599999999997,1.06933,1.14693,0.7,-0.7,0,0
0.717472,-0.021293299999999998,1.0720999999999998,1.14483,0.7,-0.7,0,0
0.72119,-0.021404,1.07479,1.1428399999999999,0.7,-0.7,0,0
0.724907,-0.0215262,1.07742,1.14094,0.7,-0.7,0,0
0.728625,-0.0216692,1.08001,1.1391,0.7,-0.7,0,0
0.732342,-0.0218398,1.0825799999999999,1.1373199999999999,0.7,-0.7,0,0
0.736059,-0.0220401,1.08514,1.13557,0.7,-0.7,0,0
0.739777,-0.022267099999999998,1.08769,1.1338599999999999,0.7,-0.7,0,0
0.743494,-0.0225131,1.0902100000000001,1.13218,0.7,-0.7,0,0
0.747212,-0.022767199999999998,1.0927,1.13056,0.7,-0.7,0,0
0.750929,-0.0230178,1.0951300000000002,1.12899,0.7,-0.7,0,0
0.754647,-0.023254,1.09747,1.1275,0.7,-0.7,0,0
0.758364,-0.0234683,1.09972,1.12608,0.7,-0.7,0,0
0.762082,-0.023658000000000002,1.1018599999999998,1.12475,0.7,-0.7,0,0
0.765799,-0.023825700000000002,1.10389,1.12351,0.7,-0.7,0,0
0.769517,-0.0239785,1.1058299999999999,1.12234,0.7,-0.7,0,0
0.773234,-0.0241262,1.10768,1.12124,0.7,-0.7,0,0
0.776952,-0.0242796,1.1094600000000001,1.12018,0.7,-0.7,0,0
0.780669,-0.0244483,1.1111900000000001,1.11917,0.7,-0.7,0,0
0.784387,-0.024638300000000002,1.1128699999999998,1.11819,0.7,-0.7,0,0
0.788104,-0.024851199999999997,1.11452,1.11722,0.7,-0.7,0,0
0.791822,-0.025083300000000003,1.1161400000000001,1.11628,0.7,-0.7,0,0
0.795539,-0.0253265,1.11771,1.11537,0.7,-0.7,0,0
0.799257,-0.02557,1.11924,1.11449,0.7,-0.7,0,0
0.802974,-0.0258025,1.12069,1.1136400000000002,0.7,-0.7,0,0
0.806691,-0.0260144,1.12207,1.11285,0.7,-0.7,0,0
0.810409,-0.0261994,1.12337,1.1120999999999999,0.7,-0.7,0,0
0.814126,-0.026356400000000002,1.1245699999999998,1.11141,0.7,-0.7,0,0
0.817844,-0.0264891,1.12568,1.11077,0.7,-0.7,0,0
0.821561,-0.0266052,1.1267,1.1101800000000002,0.7,-0.7,0,0
0.825279,-0.0267151,1.1276300000000001,1.1096300000000001,0.7,-0.7,0,0
0.828996,-0.0268291,1.1285,1.1091199999999999,0.7,-0.7,0,0
0.832714,-0.026956,1.12929,1.10863,0.7,-0.7,0,0
0.836431,-0.027101,1.1300299999999999,1.10816,0.7,-0.7,0,0
0.840149,-0.027264800000000002,1.13072,1.10771,0.7,-0.7,0,0
0.843866,-0.0274432,1.13136,1.10728,0.7,-0.7,0,0
0.847584,-0.0276281,1.13196,1.1068699999999998,0.7,-0.7,0,0
0.851301,-0.0278094,1.1325,1.10649,0.7,-0.7,0,0
0.855019,-0.0279773,1.133,1.1061400000000001,0.7,-0.7,0,0
0.858736,-0.0281238,1.13345,1.10582,0.7,-0.7,0,0
0.862454,-0.028244599999999998,1.13384,1.10554,0.7,-0.7,0,0
0.866171,-0.0283403,1.13418,1.1053,0.7,-0.7,0,0
0.869888,-0.0284161,1.13446,1.1051,0.7,-0.7,0,0
0.873606,-0.0284804,1.13469,1.10493,0.7,-0.7,0,0
0.877323,-0.028543299999999997,1.13486,1.1048,0.7,-0.7,0,0
0.881041,-0.0286149,1.13498,1.1047,0.7,-0.7,0,0
0.884758,-0.0287027,1.13504,1.10463,0.7,-0.7,0,0
0.888476,-0.028810600000000002,1.13506,1.10458,0.7,-0.7,0,0
0.892193,-0.028938199999999997,1.13504,1.10455,0.7,-0.7,0,0
0.895911,-0.0290802,1.13498,1.1045399999999999,0.7,-0.7,0,0
0.899628,-0.029228300000000002,1.1348900000000002,1.1045399999999999,0.7,-0.7,0,0
0.903346,-0.0293733,1.13478,1.1045699999999998,0.7,-0.7,0,0
0.907063,-0.0295059,1.13464,1.1046099999999999,0.7,-0.7,0,0
0.910781,-0.0296198,1.13449,1.10467,0.7,-0.7,0,0
0.914498,-0.0297127,1.1343299999999998,1.10475,0.7,-0.7,0,0
0.918216,-0.0297867,1.13415,1.1048499999999999,0.7,-0.7,0,0
0.921933,-0.029848299999999998,1.13395,1.10497,0.7,-0.7,0,0
0.925651,-0.0299067,1.1337300000000001,1.1051,0.7,-0.7,0,0
0.929368,-0.029971900000000003,1.13348,1.10525,0.7,-0.7,0,0
0.933086,-0.030053,1.13321,1.10542,0.7,-0.7,0,0
0.936803,-0.0301563,1.13291,1.1056,0.7,-0.7,0,0
0.94052,-0.0302836,1.13258,1.1058,0.7,-0.7,0,0
0.944238,-0.030432200000000003,1.13223,1.10601,0.7,-0.7,0,0
0.947955,-0.0305946,1.1318499999999998,1.1062400000000001,0.7,-0.7,0,0
0.951673,-0.0307606,1.13147,1.10647,0.7,-0.7,0,0
0.95539,-0.030919699999999998,1.13107,1.10672,0.7,-0.7,0,0
0.959108,-0.0310619,1.1306800000000001,1.10697,0.7,-0.7,0,0
0.962825,-0.031180700000000002,1.13029,1.10724,0.7,-0.7,0,0
0.966543,-0.0312739,1.12989,1.10751,0.7,-0.7,0,0
0.97026,-0.0313442,1.1295,1.1078,0.7,-0.7,0,0
0.973978,-0.0313983,1.1291099999999998,1.10809,0.7,-0.7,0,0
0.977695,-0.0314453,1.12871,1.1084,0.7,-0.7,0,0
0.981413,-0.0314951,1.12829,1.10872,0.7,-0.7,0,0
0.98513,-0.0315562,1.12785,1.10906,0.7,-0.7,0,0
0.988848,-0.0316339,1.1274000000000002,1.10942,0.7,-0.7,0,0
0.992565,-0.0317293,1.1269200000000001,1.10979,0.7,-0.7,0,0
0.996283,-0.0318388,1.12642,1.11017,0.7,-0.7,0,0
1,-0.0319548,1.12592,1.1105699999999998,0.7,-0.7,0,0
