0,-0.29004,1.06552,1.09901,0.7,-0.7,0,0
0.00371747,-0.289939,1.06478,1.1000999999999999,0.7,-0.7,0,0
0.00743494,-0.289269,1.06401,1.1013,0.7,-0.7,0,0
0.0111524,-0.28864999999999996,1.0630899999999999,1.10269,0.7,-0.7,0,0
0.0148699,-0.288084,1.062,1.10426,0.7,-0.7,0,0
0.0185874,-0.287572,1.06074,1.10603,0.7,-0.7,0,0
0.0223048,-0.28711200000000003,1.05931,1.1079700000000001,0.7,-0.7,0,0
0.0260223,-0.286697,1.05773,1.11009,0.7,-0.7,0,0
0.0297398,-0.286322,1.056,1.1123699999999999,0.7,-0.7,0,0
0.0334572,-0.285979,1.05416,1.11477,0.7,-0.7,0,0
0.0371747,-0.285658,1.0522,1.11728,0.7,-0.7,0,0
0.0408922,-0.285353,1.05016,1.11989,0.7,-0.7,0,0
0.0446097,-0.285059,1.04803,1.12258,0.7,-0.7,0,0
0.0483271,-0.284775,1.04581,1.12536,0.7,-0.7,0,0
0.0520446,-0.284501,1.04349,1.12823,0.7,-0.7,0,0
0.0557621,-0.28424299999999997,1.04104,1.13123,0.7,-0.7,0,0
0.0594796,-0.284005,1.03844,1.1343800000000002,0.7,-0.7,0,0
0.063197,-0.283793,1.0356800000000002,1.1377000000000002,0.7,-0.7,0,0
0.0669145,-0.28361200000000003,1.03272,1.1412,0.7,-0.7,0,0
0.070632,-0.283463,1.02958,1.1449,0.7,-0.7,0,0
0.0743494,-0.283343,1.02625,1.14877,0.7,-0.7,0,0
0.0780669,-0.283248,1.02278,1.15279,0.7,-0.7,0,0
0.0817844,-0.283166,1.01919,1.15691,0.7,-0.7,0,0
0.0855019,-0.283089,1.01553,1.1610999999999998,0.7,-0.7,0,0
0.0892193,-0.28300400000000003,1.01184,1.16529,0.7,-0.7,0,0
0.0929368,-0.282903,1.00817,1.16945,0.7,-0.7,0,0
0.0966543,-0.28277800000000003,1.00452,1.17356,0.7,-0.7,0,0
0.100372,-0.282629,1.0009,1.1776099999999998,0.7,-0.7,0,0
0.104089,-0.28245600000000004,0.997305,1.1816099999999998,0.7,-0.7,0,0
0.107807,-0.282264,0.993699,1.1855799999999999,0.7,-0.7,0,0
0.111524,-0.282059,0.99005,1.18956,0.7,-0.7,0,0
0.115242,-0.28184699999999996,0.986326,1.19359,0.7,-0.7,0,0
0.118959,-0.28163299999999997,0.982505,1.19768,0.7,-0.7,0,0
0.122677,-0.281419,0.978576,1.20186,0.7,-0.7,0,0
0.126394,-0.281202,0.974549,1.2061099999999998,0.7,-0.7,0,0
0.130112,-0.280976,0.97045,1.21041,0.7,-0.7,0,0
0.133829,-0.280734,0.966321,1.21473,0.7,-0.7,0,0
0.137546,-0.280462,0.962209,1.21903,0.7,-0.7,0,0
0.141264,-0.28014999999999995,0.9581609999999999,1.22325,0.7,-0.7,0,0
0.144981,-0.27978800000000004,0.954212,1.2273800000000001,0.7,-0.7,0,0
0.148699,-0.27936700000000003,0.950386,1.2313900000000002,0.7,-0.7,0,0
0.152416,-0.278883,0.946684,1.23528,0.7,-0.7,0,0
0.156134,-0.278331,0.943093,1.23907,0.7,-0.7,0,0
0.159851,-0.27771300000000004,0.939586,1.24278,0.7,-0.7,0,0
0.163569,-0.277031,0.93613,1.24644,0.7,-0.7,0,0
0.167286,-0.276286,0.932693,1.25009,0.7,-0.7,0,0
0.171004,-0.275483,0.929249,1.25376,0.7,-0.7,0,0
0.174721,-0.27462400000000003,0.925789,1.25745,0.7,-0.7,0,0
0.178439,-0.273709,0.922317,1.26116,0.7,-0.7,0,0
0.182156,-0.27274,0.9188529999999999,1.26488,0.7,-0.7,0,0
0.185874,-0.271715,0.9154289999999999,1.26856,0.7,-0.7,0,0
0.189591,-0.270629,0.912082,1.2721900000000002,0.7,-0.7,0,0
0.193309,-0.26948,0.908846,1.27573,0.7,-0.7,0,0
0.197026,-0.26826,0.905748,1.27915,0.7,-0.7,0,0
0.200743,-0.266963,0.9028039999999999,1.28245,0.7,-0.7,0,0
0.204461,-0.26558,0.900014,1.28563,0.7,-0.7,0,0
0.208178,-0.26410300000000003,0.897366,1.2887,0.7,-0.7,0,0
0.211896,-0.26252499999999995,0.8948379999999999,1.2916800000000002,0.7,-0.7,0,0
0.215613,-0.26083999999999996,0.8924030000000001,1.2946099999999998,0.7,-0.7,0,0
0.219331,-0.259046,0.8900370000000001,1.29751,0.7,-0.7,0,0
0.223048,-0.25714299999999995,0.8877200000000001,1.3004,0.7,-0.7,0,0
0.226766,-0.255137,0.885441,1.30328,0.7,-0.7,0,0
0.230483,-0.253037,0.8832000000000001,1.3061500000000001,0.7,-0.7,0,0
0.234201,-0.250858,0.881009,1.309,0.7,-0.7,0,0
0.237918,-0.248611,0.878885,1.3117999999999999,0.7,-0.7,0,0
0.241636,-0.24631,0.876848,1.31452,0.7,-0.7,0,0
0.245353,-0.24396600000000002,0.874916,1.31716,0.7,-0.7,0,0
0.249071,-0.241582,0.873103,1.3196700000000001,0.7,-0.7,0,0
0.252788,-0.239155,0.871418,1.3220699999999999,0.7,-0.7,0,0
0.256506,-0.236677,0.8698579999999999,1.32435,0.7,-0.7,0,0
0.260223,-0.23413599999999998,0.868414,1.32653,0.7,-0.7,0,0
0.263941,-0.231516,0.867072,1.3286099999999998,0.7,-0.7,0,0
0.267658,-0.228804,0.865816,1.3306300000000002,0.7,-0.7,0,0
0.271375,-0.225989,0.8646309999999999,1.33259,0.7,-0.7,0,0
0.275093,-0.223071,0.863504,1.33452,0.7,-0.7,0,0
0.27881,-0.220054,0.862429,1.33641,0.7,-0.7,0,0
0.282528,-0.216953,0.861403,1.33826,0.7,-0.7,0,0
0.286245,-0.21378899999999998,0.8604310000000001,1.3400699999999999,0.7,-0.7,0,0
0.289963,-0.210584,0.859522,1.3418299999999999,0.7,-0.7,0,0
0.29368,-0.207361,0.8586820000000001,1.34351,0.7,-0.7,0,0
0.297398,-0.20413900000000001,0.857921,1.3451,0.7,-0.7,0,0
0.301115,-0.200926,0.857245,1.34659,0.7,-0.7,0,0
0.304833,-0.19772,0.856657,1.34799,0.7,-0.7,0,0
0.30855,-0.19451,0.856159,1.3492899999999999,0.7,-0.7,0,0
0.312268,-0.19128,0.855745,1.35049,0.7,-0.7,0,0
0.315985,-0.18800899999999998,0.8554120000000001,1.35161,0.7,-0.7,0,0
0.319703,-0.18467699999999998,0.855151,1.35266,0.7,-0.7,0,0
0.32342,-0.181272,0.854957,1.35365,0.7,-0.7,0,0
0.327138,-0.17779,0.854821,1.35459,0.7,-0.7,0,0
0.330855,-0.174236,0.85474,1.35547,0.7,-0.7,0,0
0.334572,-0.170629,0.8547100000000001,1.35631,0.7,-0.7,0,0
0.33829,-0.166995,0.8547279999999999,1.3571099999999998,0.7,-0.7,0,0
0.342007,-0.16336,0.854796,1.35785,0.7,-0.7,0,0
0.345725,-0.159752,0.854914,1.35853,0.7,-0.7,0,0
0.349442,-0.156192,0.8550829999999999,1.3591600000000001,0.7,-0.7,0,0
0.35316,-0.152689,0.855307,1.35972,0.7,-0.7,0,0
0.356877,-0.149243,0.855588,1.3602100000000001,0.7,-0.7,0,0
0.360595,-0.145843,0.8559289999999999,1.36063,0.7,-0.7,0,0
0.364312,-0.14246899999999998,0.8563339999999999,1.36099,0.7,-0.7,0,0
0.36803,-0.139101,0.856803,1.36128,0.7,-0.7,0,0
0.371747,-0.13571799999999998,0.8573379999999999,1.36151,0.7,-0.7,0,0
0.375465,-0.132306,0.857938,1.36168,0.7,-0.7,0,0
0.379182,-0.128863,0.858598,1.3618,0.7,-0.7,0,0
0.3829,-0.125395,0.8593139999999999,1.3618599999999998,0.7,-0.7,0,0
0.386617,-0.12191800000000001,0.8600789999999999,1.3618800000000002,0.7,-0.7,0,0
0.390335,-0.11845900000000001,0.860888,1.36185,0.7,-0.7,0,0
0.394052,-0.115043,0.861733,1.36178,0.7,-0.7,0,0
0.39777,-0.11169499999999999,0.8626090000000001,1.36166,0.7,-0.7,0,0
0.401487,-0.108435,0.863515,1.3615,0.7,-0.7,0,0
0.405204,-0.105272,0.864452,1.36128,0.7,-0.7,0,0
0.408922,-0.10220699999999999,0.865425,1.36101,0.7,-0.7,0,0
0.412639,-0.0992294,0.866442,1.36067,0.7,-0.7,0,0
0.416357,-0.0963242,0.86751,1.36027,0.7,-0.7,0,0
0.420074,-0.0934731,0.868639,1.35979,0.7,-0.7,0,0
0.423792,-0.0906592,0.869834,1.35923,0.7,-0.7,0,0
0.427509,-0.0878699,0.8710979999999999,1.35859,0.7,-0.7,0,0
0.431227,-0.0850996,0.872429,1.3578800000000002,0.7,-0.7,0,0
0.434944,-0.08235039999999999,0.873822,1.3571,0.7,-0.7,0,0
0.438662,-0.07963150000000001,0.875266,1.35625,0.7,-0.7,0,0
0.442379,-0.076958,0.876752,1.3553499999999998,0.7,-0.7,0,0
0.446097,-0.0743441,0.878269,1.3543900000000002,0.7,-0.7,0,0
0.449814,-0.07180450000000001,0.87981,1.3534000000000002,0.7,-0.7,0,0
0.453532,-0.0693498,0.8813719999999999,1.35235,0.7,-0.7,0,0
0.457249,-0.0669845,0.8829589999999999,1.35125,0.7,-0.7,0,0
0.460967,-0.06470699999999999,0.8845810000000001,1.35009,0.7,-0.7,0,0
0.464684,-0.0625104,0.88625,1.3488499999999999,0.7,-0.7,0,0
0.468401,-0.0603844,0.887981,1.34752,0.7,-0.7,0,0
0.472119,-0.0583174,0.8897889999999999,1.34608,0.7,-0.7,0,0
0.475836,-0.0562986,0.8916810000000001,1.34454,0.7,-0.7,0,0
0.479554,-0.0543204,0.893663,1.3428699999999998,0.7,-0.7,0,0
0.483271,-0.0523789,0.895729,1.3411,0.7,-0.7,0,0
0.486989,-0.050474899999999996,0.897868,1.33923,0.7,-0.7,0,0
0.490706,-0.0486132,0.900062,1.33728,0.7,-0.7,0,0
0.494424,-0.0468024,0.9022939999999999,1.33527,0.7,-0.7,0,0
0.498141,-0.04505,0.904544,1.33321,0.7,-0.7,0,0
0.501859,-0.0433643,0.906799,1.3311300000000001,0.7,-0.7,0,0
0.505576,-0.0417521,0.9090560000000001,1.32902,0.7,-0.7,0,0
0.509294,-0.0402172,0.911318,1.32688,0.7,-0.7,0,0
0.513011,-0.038760800000000005,0.913599,1.32468,0.7,-0.7,0,0
0.516729,-0.037381300000000006,0.9159149999999999,1.3224200000000002,0.7,-0.7,0,0
0.520446,-0.0360752,0.918288,1.32006,0.7,-0.7,0,0
0.524164,-0.0348376,0.920736,1.31758,0.7,-0.7,0,0
0.527881,-0.033663200000000004,0.923271,1.31498,0.7,-0.7,0,0
0.531599,-0.0325465,0.9258970000000001,1.31224,0.7,-0.7,0,0
0.535316,-0.0314822,0.928606,1.30939,0.7,-0.7,0,0
0.539033,-0.030466,0.9313830000000001,1.30643,0.7,-0.7,0,0
0.542751,-0.0294944,0.934203,1.3034100000000002,0.7,-0.7,0,0
0.546468,-0.028566400000000002,0.937044,1.30036,0.7,-0.7,0,0
0.550186,-0.0276798,0.93988,1.29729,0.7,-0.7,0,0
0.553903,-0.0268351,0.942697,1.29423,0.7,-0.7,0,0
0.557621,-0.0260338,0.94549,1.29119,0.7,-0.7,0,0
0.561338,-0.025278400000000003,0.9482659999999999,1.28816,0.7,-0.7,0,0
0.565056,-0.024572,0.951042,1.28511,0.7,-0.7,0,0
0.568773,-0.0239176,0.9538390000000001,1.28202,0.7,-0.7,0,0
0.572491,-0.023317599999999997,0.956683,1.2788599999999999,0.7,-0.7,0,0
0.576208,-0.022772999999999998,0.959596,1.27561,0.7,-0.7,0,0
0.579926,-0.0222829,0.9625900000000001,1.27224,0.7,-0.7,0,0
0.583643,-0.0218438,0.965668,1.2687599999999999,0.7,-0.7,0,0
0.587361,-0.0214499,0.968821,1.26518,0.7,-0.7,0,0
0.591078,-0.021093399999999998,0.9720270000000001,1.26153,0.7,-0.7,0,0
0.594796,-0.0207664,0.97526,1.25785,0.7,-0.7,0,0
0.598513,-0.0204597,0.978491,1.25417,0.7,-0.7,0,0
0.60223,-0.0201667,0.9816950000000001,1.25053,0.7,-0.7,0,0
0.605948,-0.0198832,0.984857,1.24695,0.7,-0.7,0,0
0.609665,-0.0196086,0.987974,1.24344,0.7,-0.7,0,0
0.613383,-0.0193455,0.9910549999999999,1.23998,0.7,-0.7,0,0
0.6171,-0.0190991,0.99412,1.2365599999999999,0.7,-0.7,0,0
0.620818,-0.0188758,0.997195,1.2331400000000001,0.7,-0.7,0,0
0.624535,-0.018682400000000002,1.00031,1.22969,0.7,-0.7,0,0
0.628253,-0.018523900000000003,1.00348,1.2261900000000001,0.7,-0.7,0,0
0.63197,-0.0184027,1.00672,1.22261,0.7,-0.7,0,0
0.635688,-0.0183175,1.01002,1.21897,0.7,-0.7,0,0
0.639405,-0.018263500000000002,1.01339,1.21527,0.7,-0.7,0,0
0.643123,-0.0182326,1.01678,1.21156,0.7,-0.7,0,0
0.64684,-0.0182163,1.02017,1.20786,0.7,-0.7,0,0
0.650558,-0.0182053,1.02352,1.20423,0.7,-0.7,0,0
0.654275,-0.0181926,1.0268199999999998,1.2007,0.7,-0.7,0,0
0.657993,-0.0181748,1.03003,1.19728,0.7,-0.7,0,0
0.66171,-0.0181527,1.03316,1.194,0.7,-0.7,0,0
0.665428,-0.0181312,1.03622,1.1908299999999998,0.7,-0.7,0,0
0.669145,-0.018118099999999998,1.03923,1.18776,0.7,-0.7,0,0
0.672862,-0.0181225,1.04221,1.18476,0.7,-0.7,0,0
0.67658,-0.0181534,1.04518,1.18181,0.7,-0.7,0,0
0.680297,-0.0182171,1.0481800000000001,1.1788699999999999,0.7,-0.7,0,0
0.684015,-0.0183164,1.0512000000000001,1.1759300000000001,0.7,-0.7,0,0
0.687732,-0.018449200000000002,1.05425,1.173,0.7,-0.7,0,0
0.69145,-0.018609300000000002,1.05731,1.17008,0.7,-0.7,0,0
0.695167,-0.0187868,1.0603699999999998,1.1672,0.7,-0.7,0,0
0.698885,-0.018971000000000002,1.0633800000000002,1.1643800000000002,0.7,-0.7,0,0
0.702602,-0.0191514,1.06633,1.1616600000000001,0.7,-0.7,0,0
0.70632,-0.0193202,1.06919,1.15906,0.7,-0.7,0,0
0.710037,-0.0194744,1.07195,1.15659,0.7,-0.7,0,0
0.713755,-0.0196155,1.0746,1.15426,0.7,-0.7,0,0
0.717472,-0.01975,1.0771600000000001,1.1520599999999999,0.7,-0.7,0,0
0.72119,-0.0198871,1.07965,1.14997,0.7,-0.7,0,0
0.724907,-0.0200374,1.0820699999999999,1.14797,0.7,-0.7,0,0
0.728625,-0.0202106,1.08447,1.14604,0.7,-0.7,0,0
0.732342,-0.0204132,1.08684,1.1441700000000001,0.7,-0.7,0,0
0.736059,-0.020647099999999998,1.0892,1.1423299999999998,0.7,-0.7,0,0
0.739777,-0.020909,1.0915599999999999,1.14053,0.7,-0.7,0,0
0.743494,-0.0211907,1.09389,1.13876,0.7,-0.7,0,0
0.747212,-0.0214804,1.09619,1.13704,0.7,-0.7,0,0
0.750929,-0.021765999999999997,1.09843,1.1353900000000001,0.7,-0.7,0,0
0.754647,-0.0220359,1.10059,1.1338,0.7,-0.7,0,0
0.758364,-0.022282,1.10267,1.13231,0.7,-0.7,0,0
0.762082,-0.022501200000000002,1.1046500000000001,1.1309,0.7,-0.7,0,0
0.765799,-0.0226958,1.10652,1.12957,0.7,-0.7,0,0
0.769517,-0.022872800000000002,1.10831,1.1283299999999998,0.7,-0.7,0,0
0.773234,-0.023042100000000003,1.11002,1.12715,0.7,-0.7,0,0
0.776952,-0.0232148,1.1116700000000002,1.12602,0.7,-0.7,0,0
0.780669,-0.0234007,1.11327,1.12493,0.7,-0.7,0,0
0.784387,-0.023606000000000002,1.11483,1.12387,0.7,-0.7,0,0
0.788104,-0.0238327,1.11635,1.12283,0.7,-0.7,0,0
0.791822,-0.0240775,1.11785,1.12182,0.7,-0.7,0,0
0.795539,-0.0243325,1.1193,1.12082,0.7,-0.7,0,0
0.799257,-0.0245872,1.12071,1.1198599999999999,0.7,-0.7,0,0
0.802974,-0.0248308,1.1220599999999998,1.11893,0.7,-0.7,0,0
0.806691,-0.025053799999999998,1.12333,1.11805,0.7,-0.7,0,0
0.810409,-0.0252502,1.12453,1.11723,0.7,-0.7,0,0
0.814126,-0.0254192,1.1256400000000002,1.11645,0.7,-0.7,0,0
0.817844,-0.025564800000000002,1.12666,1.11573,0.7,-0.7,0,0
0.821561,-0.0256949,1.1276,1.11504,0.7,-0.7,0,0
0.825279,-0.02582,1.12846,1.1144,0.7,-0.7,0,0
0.828996,-0.0259508,1.12925,1.11379,0.7,-0.7,0,0
0.832714,-0.026096,1.12998,1.1131900000000001,0.7,-0.7,0,0
0.836431,-0.026261,1.1306500000000002,1.11262,0.7,-0.7,0,0
0.840149,-0.026446300000000002,1.13128,1.11206,0.7,-0.7,0,0
0.843866,-0.0266476,1.1318599999999999,1.11151,0.7,-0.7,0,0
0.847584,-0.0268566,1.13239,1.11098,0.7,-0.7,0,0
0.851301,-0.027063300000000002,1.13288,1.11048,0.7,-0.7,0,0
0.855019,-0.0272577,1.13333,1.11,0.7,-0.7,0,0
0.858736,-0.0274315,1.13372,1.10957,0.7,-0.7,0,0
0.862454,-0.0275806,1.13407,1.10917,0.7,-0.7,0,0
0.866171,-0.0277059,1.1343699999999999,1.1088099999999999,0.7,-0.7,0,0
0.869888,-0.0278124,1.13461,1.1085,0.7,-0.7,0,0
0.873606,-0.0279091,1.1348,1.10822,0.7,-0.7,0,0
0.877323,-0.0280062,1.13494,1.10798,0.7,-0.7,0,0
0.881041,-0.0281139,1.13503,1.10777,0.7,-0.7,0,0
0.884758,-0.0282398,1.13506,1.10758,0.7,-0.7,0,0
0.888476,-0.0283876,1.13506,1.10742,0.7,-0.7,0,0
0.892193,-0.0285563,1.13501,1.10727,0.7,-0.7,0,0
0.895911,-0.0287403,1.13493,1.10715,0.7,-0.7,0,0
0.899628,-0.0289304,1.13482,1.10704,0.7,-0.7,0,0
0.903346,-0.0291165,1.13469,1.10695,0.7,-0.7,0,0
0.907063,-0.029288599999999998,1.13453,1.10688,0.7,-0.7,0,0
0.910781,-0.0294396,1.1343699999999999,1.1068399999999998,0.7,-0.7,0,0
0.914498,-0.0295667,1.13419,1.1068099999999998,0.7,-0.7,0,0
0.918216,-0.029671600000000003,1.134,1.1068099999999998,0.7,-0.7,0,0
0.921933,-0.0297607,1.1337899999999999,1.10683,0.7,-0.7,0,0
0.925651,-0.0298432,1.13357,1.10688,0.7,-0.7,0,0
0.929368,-0.029929200000000003,1.1333199999999999,1.10694,0.7,-0.7,0,0
0.933086,-0.0300281,1.13305,1.10702,0.7,-0.7,0,0
0.936803,-0.0301465,1.13275,1.1071199999999999,0.7,-0.7,0,0
0.94052,-0.0302864,1.13242,1.10724,0.7,-0.7,0,0
0.944238,-0.0304454,1.13207,1.10737,0.7,-0.7,0,0
0.947955,-0.030616499999999998,1.13171,1.10751,0.7,-0.7,0,0
0.951673,-0.0307894,1.13133,1.10766,0.7,-0.7,0,0
0.95539,-0.030954000000000002,1.13094,1.1078299999999999,0.7,-0.7,0,0
0.959108,-0.0311005,1.13056,1.108,0.7,-0.7,0,0
0.962825,-0.0312223,1.1301700000000001,1.10819,0.7,-0.7,0,0
0.966543,-0.0313174,1.12979,1.1083800000000001,0.7,-0.7,0,0
0.97026,-0.0313885,1.12941,1.10859,0.7,-0.7,0,0
0.973978,-0.0314423,1.12903,1.1088,0.7,-0.7,0,0
0.977695,-0.031488,1.12864,1.10903,0.7,-0.7,0,0
0.981413,-0.0315355,1.12823,1.10928,0.7,-0.7,0,0
0.98513,-0.0315931,1.12781,1.10953,0.7,-0.7,0,0
0.988848,-0.0316664,1.12737,1.1098,0.7,-0.7,0,0
0.992565,-0.0317564,1.12691,1.11009,0.7,-0.7,0,0
0.996283,-0.0318596,1.12643,1.1103800000000001,0.7,-0.7,0,0
1,-0.0319688,1.1259400000000002,1.1106800000000001,0.7,-0.7,0,0
