timestamp,x,y,z,qw,qx,qy,qz
0,611.556,-60.5497,437.691,-0.21126,0.718614,-0.662488,0.00854432
0.0128339,611.556,-60.5497,437.691,-0.21126,0.718614,-0.662488,0.00854432
0.0256679,611.068,-55.0112,436.039,-0.211194,0.718793,-0.66234,0.00636686
0.0385018,610.887,-51.9892,435.144,-0.211139,0.718942,-0.662204,0.00526426
0.0513357,610.745,-48.5745,434.088,-0.211023,0.719089,-0.66209,0.00418102
0.0641697,610.683,-45.419,433.096,-0.210914,0.719217,-0.66199,0.00332577
0.0770036,610.603,-42.4371,432.034,-0.210633,0.719388,-0.661897,0.00264874
0.0898376,610.571,-37.2427,429.701,-0.209398,0.719731,-0.661918,0.00208337
0.102671,610.565,-34.3282,428.459,-0.208765,0.719977,-0.661851,0.00177474
0.115505,610.565,-34.3282,428.459,-0.208765,0.719977,-0.661851,0.00177474
0.128339,610.888,-26.5345,425.305,-0.207443,0.720508,-0.661691,0.00110138
0.141173,611.227,-22.7971,423.989,-0.207079,0.720765,-0.661525,0.000788251
0.154007,611.655,-19.3654,422.825,-0.206766,0.720962,-0.661409,0.000569436
0.166841,612.113,-15.7145,421.632,-0.20647,0.721175,-0.66127,0.000327509
0.179675,612.743,-12.1434,420.427,-0.206112,0.721331,-0.661211,0.000293424
0.192509,614.07,-4.47093,418.029,-0.205392,0.721728,-0.661001,0.000152051
0.205343,614.926,0.168503,416.737,-0.205196,0.721957,-0.660812,9.25701e-06
0.218177,615.858,3.43884,415.657,-0.204739,0.722222,-0.660665,0.000248269
0.231011,616.682,7.89162,414.56,-0.204667,0.722462,-0.660424,-1.22928e-05
0.243845,617.5,12.4341,413.43,-0.204528,0.722691,-0.660217,-0.000219211
0.256679,619.472,21.4137,411.184,-0.203952,0.723287,-0.659742,-5.7047e-05
0.269513,620.531,26.0036,410.102,-0.203697,0.723594,-0.659484,0.000107188
0.282347,621.689,30.7257,409.146,-0.2037,0.723906,-0.659141,0.000118998
0.295181,622.745,35.7016,408.217,-0.203733,0.724163,-0.658848,-5.20909e-05
0.308014,624.089,40.5652,407.283,-0.203712,0.724445,-0.658545,0.000103411
0.320848,626.09,51.3217,405.638,-0.204048,0.724959,-0.657875,-0.000514499
0.333682,627.067,56.9919,404.853,-0.204256,0.72522,-0.657522,-0.000836955
0.346516,628.071,62.6813,404.147,-0.204507,0.72545,-0.657189,-0.00122513
0.35935,629.19,68.8663,403.572,-0.205014,0.725671,-0.656785,-0.00176932
0.372184,630.245,75.0455,403.059,-0.205612,0.725901,-0.656342,-0.00248308
0.385018,632.544,88.7259,402.361,-0.207343,0.726282,-0.655366,-0.00423215
0.397852,633.75,94.4957,402.042,-0.20778,0.72646,-0.655028,-0.00474315
0.410686,634.716,101.882,401.831,-0.208653,0.726572,-0.654617,-0.00593078
0.42352,635.554,109.277,401.642,-0.209368,0.726745,-0.654183,-0.00714542
0.436354,635.554,109.277,401.642,-0.209368,0.726745,-0.654183,-0.00714542
0.449188,638.223,134.378,401.674,-0.211963,0.727307,-0.652654,-0.0118439
0.462022,639.368,141.92,401.827,-0.212707,0.727435,-0.652246,-0.013014
0.474856,640.18,150.155,402.17,-0.213887,0.727466,-0.651792,-0.0146323
0.48769,640.939,158.313,402.589,-0.215001,0.727501,-0.651347,-0.0162607
0.500524,641.602,166.718,403.073,-0.216062,0.72756,-0.650884,-0.0180114
0.513357,642.799,183.46,404.24,-0.217856,0.72763,-0.650098,-0.0215835
0.526191,643.341,191.671,404.906,-0.218621,0.727626,-0.649781,-0.023453
0.539025,643.695,200.262,405.709,-0.219459,0.727636,-0.649406,-0.0255977
0.551859,644.042,209.115,406.702,-0.22057,0.727584,-0.648994,-0.0278798
0.564693,644.55,216.684,407.607,-0.221437,0.727461,-0.648755,-0.0297309
0.577527,644.782,233.191,409.969,-0.224041,0.727271,-0.64784,-0.0344383
0.590361,645.04,241.474,411.253,-0.224997,0.727189,-0.647468,-0.0368512
0.603195,644.984,250.909,412.821,-0.226278,0.727068,-0.646982,-0.0398085
0.616029,644.688,270.429,416.387,-0.229171,0.726654,-0.64603,-0.0458273
0.628863,644.428,280.513,418.436,-0.23089,0.726313,-0.645571,-0.0489643
0.641697,644.065,290.452,420.549,-0.23248,0.726009,-0.64509,-0.0521758
0.654531,642.971,311.37,425.433,-0.236008,0.725375,-0.643891,-0.059461
0.667365,642.452,321.643,428.034,-0.237719,0.725046,-0.64329,-0.0630557
0.680199,642.201,331.072,430.589,-0.239402,0.72471,-0.642727,-0.0662159
0.693033,641.781,341.492,433.56,-0.241593,0.724197,-0.642109,-0.0697674
0.705867,641.193,352.278,436.776,-0.243918,0.723641,-0.641427,-0.0736144
0.7187,639.736,373.766,443.544,-0.248345,0.722532,-0.640017,-0.0815461
0.731534,638.759,386.33,447.807,-0.251143,0.721757,-0.639159,-0.0864298
0.744368,638.759,386.33,447.807,-0.251143,0.721757,-0.639159,-0.0864298
0.757202,637.306,412.771,457.65,-0.257798,0.719616,-0.63751,-0.0963045
0.770036,636.558,424.609,462.396,-0.261108,0.718568,-0.636639,-0.100864
0.78287,634.581,448.919,472.708,-0.268113,0.716289,-0.634666,-0.110655
0.795704,633.468,461.135,478.217,-0.271815,0.715052,-0.633574,-0.115762
0.808538,632.314,473.638,484.074,-0.275655,0.713667,-0.632486,-0.121062
0.821372,631.528,484.741,489.547,-0.279234,0.712313,-0.631518,-0.12579
0.834206,630.554,497.541,496.066,-0.283653,0.7107,-0.630272,-0.131164
0.84704,629.127,522.912,509.955,-0.29325,0.70725,-0.627457,-0.141773
0.859874,628.621,535.908,517.613,-0.29873,0.705324,-0.625758,-0.147329
0.872708,628.232,549.087,525.748,-0.304704,0.70322,-0.623885,-0.152982
0.885542,627.748,563.787,535.227,-0.31156,0.700688,-0.621701,-0.159549
0.898376,627.339,589.694,553.249,-0.32461,0.695751,-0.617326,-0.17166
0.911209,627.188,603.284,563.318,-0.331825,0.692996,-0.614737,-0.178176
0.924043,626.905,631.476,585.752,-0.348206,0.686602,-0.608519,-0.192444
0.936877,626.49,645.67,597.738,-0.356736,0.683104,-0.605088,-0.199944
0.949711,626.066,659.825,610.319,-0.365622,0.6793,-0.601399,-0.207823
0.962545,625.049,688.623,637.675,-0.384223,0.670884,-0.593246,-0.22438
0.975379,624.438,703.023,652.437,-0.394062,0.666287,-0.588557,-0.233192
0.988213,624.188,716.055,666.742,-0.403568,0.661551,-0.584038,-0.241627
1.00105,623.331,731.693,684.476,-0.414709,0.655679,-0.57844,-0.25201
1.01388,621.673,759.481,718.79,-0.435544,0.643566,-0.567672,-0.271794
1.02671,620.982,772.699,736.673,-0.446057,0.636864,-0.56213,-0.281864
1.03955,620.23,785.629,754.959,-0.456158,0.629789,-0.55687,-0.291859
1.05238,618.988,810.091,792.91,-0.476436,0.613899,-0.546501,-0.312207
1.06522,619.075,820.904,811.656,-0.486156,0.605359,-0.541836,-0.321881
1.07805,619.201,831.758,831.262,-0.495768,0.596174,-0.537416,-0.331625
1.09088,619.555,851.91,871.054,-0.513789,0.57665,-0.529286,-0.351215
1.10372,620.056,860.834,890.375,-0.521658,0.566363,-0.526283,-0.360738
1.11655,620.441,869.374,909.66,-0.528927,0.556044,-0.523435,-0.370226
1.12939,621.108,884.42,946.511,-0.540722,0.535196,-0.519347,-0.389185
1.14222,621.257,891.098,963.982,-0.545269,0.524829,-0.517999,-0.39864
1.15505,621.916,896.642,979.745,-0.548819,0.514791,-0.517516,-0.407389
1.16789,622.597,908.036,1013.39,-0.554375,0.492872,-0.517109,-0.427018
1.18072,622.692,912.714,1028.21,-0.555684,0.48272,-0.517343,-0.436524
1.19356,622.497,917.121,1042.56,-0.556143,0.472792,-0.517758,-0.446205
1.20639,622.079,921.163,1056.13,-0.555791,0.463125,-0.518415,-0.455915
1.21922,621.25,928.352,1081.08,-0.553018,0.44445,-0.520776,-0.474792
1.23206,621.019,931.215,1091.68,-0.550465,0.435726,-0.522639,-0.483715
1.24489,620.37,934.275,1102.44,-0.547308,0.427226,-0.524511,-0.492768
1.25773,618.768,939.826,1121.41,-0.539689,0.411951,-0.528839,-0.509276
1.27056,617.552,942.735,1130.56,-0.5347,0.404562,-0.531539,-0.517582
1.28339,616.179,945.256,1138.45,-0.53,0.398415,-0.533664,-0.524946
1.29623,614.536,947.751,1145.26,-0.524664,0.393462,-0.536085,-0.531534
1.30906,611.517,952.207,1155.81,-0.513809,0.3859,-0.54149,-0.542098
1.3219,609.744,954.468,1160.52,-0.508361,0.383492,-0.543982,-0.546431
1.33473,609.744,954.468,1160.52,-0.508361,0.383492,-0.543982,-0.546431
1.34756,605.405,959.355,1168.44,-0.496191,0.381111,-0.549781,-0.553435
1.3604,601.992,962.985,1173.33,-0.486535,0.380718,-0.554618,-0.557438
1.37323,600.117,965,1175.29,-0.480956,0.381332,-0.557745,-0.558737
1.38607,598.386,966.702,1176.78,-0.476124,0.382143,-0.560424,-0.55964
1.3989,595.427,969.637,1178.8,-0.467427,0.384027,-0.565634,-0.56044
1.41173,593.889,970.996,1179.56,-0.46335,0.385265,-0.568013,-0.560571
1.42457,592.313,972.265,1180.13,-0.459479,0.386594,-0.570246,-0.560575
1.4374,590.951,973.428,1180.6,-0.455859,0.38792,-0.572428,-0.56039
1.45023,588.643,975.373,1181.19,-0.449686,0.390285,-0.576404,-0.55966
1.46307,587.655,976.21,1181.06,-0.446735,0.391649,-0.57849,-0.558918
1.4759,586.437,977.192,1180.68,-0.443139,0.393504,-0.581114,-0.557753
1.48874,585.697,977.786,1180.16,-0.440669,0.394885,-0.583045,-0.556719
1.50157,584.544,978.804,1179.23,-0.436475,0.397047,-0.586676,-0.554666
1.5144,584.081,979.185,1178.51,-0.434542,0.398124,-0.58843,-0.553552
1.52724,583.676,979.521,1177.77,-0.43277,0.399161,-0.590075,-0.552443
1.54007,583.33,979.804,1176.98,-0.431057,0.40016,-0.591724,-0.551294
1.55291,582.95,980.195,1175.52,-0.428413,0.401623,-0.594638,-0.549151
1.56574,582.787,980.349,1174.73,-0.42718,0.402339,-0.596038,-0.548069
1.57857,582.722,980.45,1173.94,-0.426046,0.402997,-0.59739,-0.546996
1.59141,582.562,980.59,1172.78,-0.424261,0.403957,-0.5995,-0.545363
1.60424,582.403,980.65,1172.22,-0.423349,0.404548,-0.600439,-0.544601
1.61708,582.272,980.713,1171.67,-0.42243,0.405149,-0.601393,-0.543815
1.62991,582.099,980.786,1171.06,-0.421492,0.405752,-0.602344,-0.543039
1.64274,581.95,980.859,1170.52,-0.420495,0.406322,-0.603437,-0.542171
